﻿Product Code,Drug Code,Greenrain Code,Insurance Plan,Package Name,Generic Code,Generic Name,Strength,Dosage Form,Package Size,Dispense Mode,Package Price to Public,Package Price to Pharmacy,Unit Price to Public,Unit Price to Pharmacy,Status,Delete Effective Date,Last Change Date,Agent Name,Manufacturer Name,OTG Product,Detailded Image
HD-1,D98-2596-00001-01,2077-5530-001,NA,IRICAR,00001,(Homeopathy),Combination,Cream,50g,,48,36,48,36,Active,,8-Jun-16,HomeDevo Online Store,"Deutsche Homoopathie Union, GERMANY",N,image_1.jpg
HD-2,C59-4936-00002-01,2089-6659-001,NA,SPASCUPREEL S,00002,(Homeopathy),Combination,Rectal Suppositories,12 Suppositories,,40,30,3.33,2.5,Active,,8-Aug-12,HomeDevo Online Store,"Biologische Helmitterl Heel GmbH, GERMANY",N,image_1.jpg
HD-3,G32-4388-00003-01,2411-6841-001,NA,PULMO HEVERT,00003,(Homeopathy),Combination,Tablets,40 Tablets,,35,26.25,0.88,0.66,Active,,13-Mar-13,HomeDevo Online Store,"Hevert-Arzneimittel GmbH & Co. KG, GERMANY",N,image_1.jpg
HD-4,C59-2264-00003-01,2089-6655-001,NA,GRIPP-HEEL,00003,(Homeopathy),Combination,Tablets,50 Tablets Plastic Bottle,,42,33,0.84,0.66,Active,,8-Aug-12,HomeDevo Online Store,"Biologische Helmitterl Heel GmbH, GERMANY",N,image_2.jpg
HD-5,C59-5494-00003-01,2089-5568-001,NA,VERTIGOHEEL,00003,(Homeopathy),Combination,Tablets,50's,,33,25,0.66,0.5,Active,,11-Jun-09,HomeDevo Online Store,"Biologische Helmitterl Heel GmbH, GERMANY",N,image_2.jpg
HD-6,D98-2162-00003-01,2077-6815-001,NA,GINKGO-BILOBA - DHU,00003,(Homeopathy),Combination,Tablets,80 Tablets,,45,33.75,0.56,0.42,Active,,13-Mar-13,HomeDevo Online Store,"Deutsche Homoopathie Union, GERMANY",N,image_2.jpg
HD-7,D98-0956-00003-01,2077-6412-001,NA,CINNABSIN,00003,(Homeopathy),Combination,Tablets,100's (20's Blister x5),,40,30,0.4,0.3,Active,,10-Nov-11,HomeDevo Online Store,"Deutsche Homoopathie Union, GERMANY",N,image_3.jpg
HD-8,C89-4757-00003-01,2076-5401-001,NA,SEDATIF PC,00003,(Homeopathy),Combination,Tablets,40s (20s Blister x 2 ),,49,37,1.23,0.93,Active,,25-May-17,HomeDevo Online Store,"Boiron Laboratories, CANADA",N,image_3.jpg
HD-9,G32-0766-00004-01,2411-6798-001,NA,CALMVALERA HEVERT,00004,(Homeopathy) (CALMVALERA HEVERT),Combination,Oral Solution,50ml,,72,54,72,54,Active,,27-Nov-18,HomeDevo Online Store,"Hevert-Arzneimittel GmbH & Co. KG, GERMANY",N,image_3.jpg
,,,,,,,,,,,,,,,,,,,,,
,,,,,,,,,,,,,,,,,,,,,
,,,,,,,,,,,,,,,,,,,,,
,,,,,,,,,,,,,,,,,,,,,
,,,,,,,,,,,,,,,,,,,,,
,,,,,,,,,,,,,,,,,,,,,
,,,,,,,,,,,,,,,,,,,,,
,,,,,,,,,,,,,,,,,,,,,
,,,,,,,,,,,,,,,,,,,,,
,,,,,,,,,,,,,,,,,,,,,
,,,,,,,,,,,,,,,,,,,,,
