Product Code,Package Name,Description,Price,Stock,Brands,Manufacturer,Net Volume,Gender,OTC,Category,Product Image,Vendor
FIL-501-702-RGA,Filorga NCTF Reverse Mat Fluid 50ML,"<div> <div> <h4>Short description:</h4> <ul> <li>Supreme regenerating fluid</li> <li>For wrinkles, firming and radiance</li> <li>With New Cellular Treatment Factor</li> <li>Contains amino acids, minerals, coenzymes and antioxidant</li> </ul> </div> </div> <div> <h4>Description:</h4> <p>Filorga NCTF Reverse Mat Supreme Regenerating Fluid is a supreme regenerating skin formula ultra-concentrated in New Cellular Treatment Factor for a renewed skin quality and boosted anti-aging action. The formula contains New Cellular Treatment Factor a unique polyrevitalizing complex derived from aesthetic medicine which is equivalent to that used in injectable anti-aging treatments.</p> </div> <div> <h4>Benefits:</h4> <ul> <li>It smoothens wrinkles, even out skin tone and enhance radiance</li> <li>Lightweight texture with anti-shine and anti-pores complex</li> <li>It gives firmness and radiance to the skin</li> </ul> </div> <div> <h4>How to use:</h4> <ul> <li>Please read instructions before prior to use.</li> </ul> </div>",519.75,2,"

Filorga",Filorga,50 ML,Unisex,Y,Beauty Care///Face Care///Anti-Aging,Filorga NCTF Reverse Mat Fluid 50ML.jpg///Filorga NCTF Reverse Mat Fluid 50ML1.jpg,Common Vendor
SKI-502-703-ALS,Skinceuticals Blemish + Age Toner 200ML,"<div> <div> <h4>Short description:</h4> <ul> <li>Purifying solution</li> <li>With lipo hydroxy acid</li> <li>Exfoliates and refines texture</li> </ul> </div> </div> <div> <h4>Description:</h4> <p>Skinceuticals Blemish + Age Toner is decongesting toner which removes surface dead skin cells impurities.</p> </div> <div> <h4>Benefits:</h4> <ul> <li>It helps to improve the appearance of ageing while decongesting pores</li> <li>It helps to rejuvenate skin from getting rid of dead skin cells</li> </ul> </div> <div> <h4>How to use:</h4> <ul> <li>Twice daily, apply to cotton ball and smooth over face</li> <li>Keep bottle upright</li> <li>Avoid direct contact with the eyes</li> </ul> </div>",210,2,Skinceuticals,Loreal,200 ML,Unisex,Y,Beauty Care///Face Care///Anti-Aging,Skinceuticals Blemish + Age Toner 200ML.jpg///Skinceuticals Blemish + Age Toner 200ML1.jpg,Common Vendor
ISD-503-704-DIN,Isdin Ceutics AGE Reverse 50ML,"<div> <div> <h4>Short description:</h4> <ul> <li>Triple action</li> <li>Face remodeling treatment</li> <li>Dealys foramtion of Advanced glycation endproducts (A.G.E)</li> </ul> </div> </div> <div> <h4>Description:</h4> <p>Isdin Isdinceutics Advanced Glycation Endproducts Reverse is a facial treatment with triple anti-aging action, anti-pollution, remodeling and anti-glycation. Exclusively formulated facial cream with Exo-P, that forms a protective shield on the skin's surface protecting it from pollution with Carmosine, that delays the formation of advanced glycation endproducts.</p> </div> <div> <h4>Benefits:</h4> <ul> <li>It helps to redefine and remodel the facial oval</li> <li>With triple anti-aging action</li> <li>It protects from pollution and other irritants in the environment</li> </ul> </div> <div> <h4>How to use:</h4> <ul> <li>Apply daily to clean, dry skin on the face and neck, spreading it until it is completely absorbed.</li> </ul> </div>",294,2,Isdin,Isdin,50 ML,Unisex,Y,Beauty Care///Face Care///Anti-Aging,Isdin Ceutics AGE Reverse 50ML.jpg///Isdin Ceutics AGE Reverse 50ML1.jpg,Common Vendor
ANN-504-705-IND,Annemarie Borlind Pura Soft Q10 Anti-Wrinkle Cream 50 mL,"<div> <div> <h4>Short description:</h4> <ul> <li>Dermatologically Tested for Efficacy and Skin Compatibility</li> <li>Cruelty Free, without Animal Extracts</li> <li>With Organic Botanical Extracts</li> <li>Prevents premature wrinkle formation</li> </ul> </div> </div> <div> <h4>Description:</h4> <p>Pura Soft Q10 Anti-Wrinkle Cream cares for your skin 24 hours a day, giving it moisture, gentle care and intensive protection. Coenzyme Q10 combined with Vitamin E helps to prevent premature skin aging in a natural manner.</p> </div> <div> <h4>Benefits:</h4> <ul> <li>Keeps the skin delicate, soft and smooth</li> <li>Ideal as a base for makeup</li> <li>Provides firmness and prevents premature wrinkle formation</li> </ul> </div> <div> <h4>How to use:</h4> <ul> <li>Apply daily, in the morning and evening, to the cleansed face, neck and decollete.</li> </ul> </div>",124,2,Annemarie Borlind,Annemarie Borlind,50 ML,Unisex,Y,Beauty Care///Face Care///Anti-Aging,Annemarie Borlind Pura Soft Q10 Anti-Wrinkle Cream 50 mL.jpg///Annemarie Borlind Pura Soft Q10 Anti-Wrinkle Cream 50 mL1.jpg,Common Vendor
ANN-505-706-IND,Annemarie Borlind LL Regeneration Night Cream 50 mL,"<div> <div> <h4>Short description:</h4> <ul> <li>With valuable herbal extracts and LL Biocomplex</li> <li>Supports natural cell renewal</li> <li>Oil restoring and moisturizing effect on dry, poorly moisturized skin</li> <li>Provide freshness and elasticity to skin</li> </ul> </div> </div> <div> <h4>Description:</h4> <p>The years around 30 ? when the skin begins to show the first signs of age are the most crucial. The challenge of this age triggered the greatest technological and biological breakthrough the LL Regeneration range with the LL Biocomplex. With proprietary bioactive complex balances restorative and preventive extracts harvested from nature's most effective compounds. Regular use helps skin regain and maintain its peak performance.</p> </div> <div> <h4>Benefits:</h4> <ul> <li>Support natural cell renewal and have an oil-restoring and moisturizing effect on dry, poorly moisturized skin</li> <li>The skin regains its freshness and elasticity</li> </ul> </div> <div> <h4>How to use:</h4> <ul> <li>Use in the evening. Apply to face and throat after cleansing and toning.</li> </ul> </div>",168.8,2,Annemarie Borlind,Annemarie Borlind,50 ML,Unisex,Y,Beauty Care///Face Care///Anti-Aging,Annemarie Borlind LL Regeneration Night Cream 50 mL.jpg///Annemarie Borlind LL Regeneration Night Cream 50 mL1.jpg,Common Vendor
ANN-506-707-IND,Annemarie Borlind LL Regeneration Day Cream 50 mL,"<div> <div> <h4>Short description:</h4> <ul> <li>Dermatologically tested for Efficacy and Skin Compatibility</li> <li>Cruelty Free, without Animal Extracts</li> <li>With Organic Botanical Extracts</li> <li>Intensive day protection with the highly effective LL Bio-Complex</li> <li>Natural regeneration of dry, poorly moisturized skin</li> </ul> </div> </div> <div> <h4>Description:</h4> <p>An effective Intensive day protection with the LL Bio-Complex. Proven to support the natural regeneration of dry, poorly moisturized skin. Ideal as a base for makeup.</p> </div> <div> <h4>Benefits:</h4> <ul> <li>Normalizes the skin and offers intensive protection</li> <li>Restores the dry and poorly moisturized skin</li> <li>Ideal as a make-up base</li> </ul> </div> <div> <h4>How to use:</h4> <ul> <li>Use in the morning. Apply to face and neck after cleansing and toning.</li> </ul> </div>",154.4,2,Annemarie Borlind,Annemarie Borlind,50 ML,Unisex,Y,Beauty Care///Face Care///Anti-Aging,Annemarie Borlind LL Regeneration Day Cream 50 mL.jpg///Annemarie Borlind LL Regeneration Day Cream 50 mL1.jpg,Common Vendor
FIL-507-708-INA,Fillerina Day Treatment Grade 1 Cream 50 mL,"<div> <div> <h4>Short description:</h4> <ul> <li>Day cream</li> <li>Moisturizing and protective</li> <li>Filler action all over the face</li> <li>Grade 1</li> </ul> </div> </div> <div> <h4>Description:</h4> <p>The formulation of Fillerina Gel associates 6 different types of conveyed hyaluronic acids with different molecular weights and structures, with a diversified action in the various cutaneous layers, to facilitate the filling in and plumping up of tissues. The active component Matrifull acts over time on the skin matrix, promoting the reconstruction of the natural filling substances such as collagen I and III and fibronectin, for a visible plumping effect.</p> </div> <div> <h4>Benefits:</h4> <ul> <li>Promotes Initial relaxation and helps reduce sagging of the tissues</li> <li>Filling of initial wrinkles and enhancement of cheekbones and lip volume</li> <li>Lift facial features</li> </ul> </div> <div> <h4>How to use:</h4> <ul> <li>Apply a small amount every morning a cleansed face and neck. Full instruction leaflet included.</li> </ul> </div>",314,2,Fillerina,Labo,50 ML,Unisex,Y,Beauty Care///Face Care///Anti-Aging,Fillerina Day Treatment Grade 1 Cream 50 mL.jpg,Common Vendor
FIL-508-709-INA,Fillerina Filler Treatment Grade 3 30 mL 2's,"<div> <div> <h4>Short description:</h4> <ul> <li>Dermo-cosmetic filler treatment for at home use</li> <li>For skin depression (age wrinkles and expression lines)</li> <li>For the volume of cheekbones and lips</li> <li>With 2 precision applicator</li> <li>Grade 3</li> </ul> </div> </div> <div> <h4>Description:</h4> <p>The formulation of Fillerina Gel associates 6 different types of conveyed hyaluronic acids with different molecular weights and structures, with a diversified action in the various cutaneous layers, to facilitate the filling in and plumping up of tissues. The active component Matrifull acts over time on the skin matrix, promoting the reconstruction of the natural filling substances such as collagen I and III and fibronectin, for a visible plumping effect.</p> </div> <div> <h4>Benefits:</h4> <ul> <li>Promotes visible relaxation and helps reduce sagging of the tissues</li> <li>Filling of moderate wrinkles and enhancement of cheekbones and lip volume</li> <li>Lift facial features</li> </ul> </div> <div> <h4>How to use:</h4> <ul> <li>Use every day for 14 days, in the morning or evening, applying 2 ml of Gel Filler (Fillerina 1) to the wrinkles, the most marked micro-relief and the areas that require particular plumping up (cheekbones, lips). Leave the gel filler (Fillerina 1) to work for 10 minutes in order to allow the active ingredients to fill in the application areas. Follow the gel filler with the nourishing film (Fillerina 2).</li> </ul> </div>",629,2,Fillerina,Labo,30 ML,Unisex,Y,Beauty Care///Face Care///Anti-Aging,Fillerina Filler Treatment Grade 3 30 mL 2's.jpg,Common Vendor
FIL-509-710-INA,Fillerina Night Treatment Grade 2 Cream 50 mL,"<div> <div> <h4>Short description:</h4> <ul> <li>Night cream</li> <li>Nourishing</li> <li>Filler the action all over the face</li> <li>Grade 2</li> </ul> </div> </div> <div> <h4>Description:</h4> <p>The formulation of Fillerina Gel associates 6 different types of conveyed hyaluronic acids with different molecular weights and structures, with a diversified action in the various cutaneous layers, to facilitate the filling in and plumping up of tissues. The active component Matrifull acts over time on the skin matrix, promoting the reconstruction of the natural filling substances such as collagen I and III and fibronectin, for a visible plumping effect.</p> </div> <div> <h4>Benefits:</h4> <ul> <li>Promotes Initial relaxation and helps reduce sagging of the tissues</li> <li>Filling of fine wrinkles and enhancement of cheekbones and lip volume</li> <li>Lift facial features</li> </ul> </div> <div> <h4>How to use:</h4> <ul> <li>Apply a small amount every Evening on a cleansed face and neck. Full instruction leaflet included.</li> </ul> </div>",366.5,2,Fillerina,Labo,50 ML,Unisex,Y,Beauty Care///Face Care///Anti-Aging,Fillerina Night Treatment Grade 2 Cream 50 mL.jpg,Common Vendor
FIL-510-711-INA,Fillerina Filler Treatment Grade 2 30 mL 2's,"<div> <div> <h4>Short description:</h4> <ul> <li>Dermo-cosmetic filler treatment for at home use</li> <li>For skin depression (age wrinkles and expression lines)</li> <li>For the volume of cheekbones and lips</li> <li>With 2 precision applicator</li> <li>Grade 2</li> </ul> </div> </div> <div> <h4>Description:</h4> <p>The formulation of Fillerina Gel associates 6 different types of conveyed hyaluronic acids with different molecular weights and structures, with a diversified action in the various cutaneous layers, to facilitate the filling in and plumping up of tissues. The active component Matrifull acts over time on the skin matrix, promoting the reconstruction of the natural filling substances such as collagen I and III and fibronectin, for a visible plumping effect.</p> </div> <div> <h4>Benefits:</h4> <ul> <li>Promotes slight relaxation and helps reduce sagging of the tissues</li> <li>Filling of fine wrinkles and enhancement of cheekbones and lip volume</li> <li>Lift facial features</li> </ul> </div> <div> <h4>How to use:</h4> <ul> <li>Use every day for 14 days, in the morning or evening, applying 2 ml of Gel Filler (Fillerina 1) to the wrinkles, the most marked micro-relief and the areas that require particular plumping up (cheekbones, lips). Leave the gel filler (Fillerina 1) to work for 10 minutes in order to allow the active ingredients to fill in the application areas. Follow the gel filler with the nourishing film (Fillerina 2).</li> </ul> </div>",576.5,2,Fillerina,Labo,30 ML,Unisex,Y,Beauty Care///Face Care///Anti-Aging,Fillerina Filler Treatment Grade 2 30 mL 2's.jpg,Common Vendor
FIL-511-712-INA,Fillerina Night Treatment Grade 3 Cream 50 mL,"<div> <div> <h4>Short description:</h4> <ul> <li>Night cream</li> <li>Nourishing</li> <li>Filler the action all over the face</li> <li>Grade 3</li> </ul> </div> </div> <div> <h4>Description:</h4> <p>The formulation of Fillerina Gel associates 6 different types of conveyed hyaluronic acids with different molecular weights and structures, with a diversified action in the various cutaneous layers, to facilitate the filling in and plumping up of tissues. The active component Matrifull acts over time on the skin matrix, promoting the reconstruction of the natural filling substances such as collagen I and III and fibronectin, for a visible plumping effect.</p> </div> <div> <h4>Benefits:</h4> <ul> <li>Promotes visible relaxation and helps reduce sagging of the tissues</li> <li>Filling of moderate wrinkles and enhancement of cheekbones and lip volume</li> <li>Lift facial features</li> </ul> </div> <div> <h4>How to use:</h4> <ul> <li>Apply a small amount every Evening on a cleansed face and neck. Full instruction leaflet included.</li> </ul> </div>",419,2,Fillerina,Labo,50 ML,Unisex,Y,Beauty Care///Face Care///Anti-Aging,Fillerina Night Treatment Grade 3 Cream 50 mL.jpg,Common Vendor
DAD-512-713-ENS,Dadosens Regeneration Firming Eye Cream 15 mL,"<div> <div> <h4>Short description:</h4> <ul> <li>Ophthalmologically tested</li> <li>Minimizes wrinkle, shadow and swelling under eyes</li> <li>Makes skin look firmer and younger</li> </ul> </div> </div> <div> <h4>Description:</h4> <p>It minimizes wrinkles, shadows and swelling under the eyes. Intensively moisturizes. Ophtalmologically tested. With Ectoin anti-aging complex, esculin from horse chestnut, anti-oxidative vitamins.</p> </div> <div> <h4>Benefits:</h4> <ul> <li>Provides intensive moisturizing care for dry, sensitive skin</li> <li>Minimizes appearance of lines, dark circles and puffiness</li> <li>Soothes skin irritation due to severe dryness and makes skin look firmer and younger</li> </ul> </div> <div> <h4>How to use:</h4> <ul> <li>Spread gently around the eyes daily before using day or night cream.</li> </ul> </div>",148.8,2,Dadosens,Dado-Cosmed,15 ML,Unisex,Y,Beauty Care///Face Care///Anti-Aging,Dadosens Regeneration Firming Eye Cream 15 mL.jpg///Dadosens Regeneration Firming Eye Cream 15 mL1.jpg,Common Vendor
DAD-513-714-ENS,Dadosens Ectoin Anti-Aging Fluid 50 mL,"<div> <div> <h4>Short description:</h4> <ul> <li>Minimizes wrinkles and Strengthens the skin's own immune system</li> <li>Intensively moisturizes</li> <li>Tested for skin compatibility</li> <li>Stimulates the natural vitality of the skin cells</li> </ul> </div> </div> <div> <h4>Description:</h4> <p>Dadosens Ectoin Anti-Aging Fluid is Ideal for sensitive skin and skin in need of regeneration for people with allergies, atopic dermatitis, psoriasis, rosacea or late-onset acne.Richly formulated with ectoin, ceramides and isoflavones.</p> </div> <div> <h4>Benefits:</h4> <ul> <li>Smoothes and firms the skin</li> <li>Minimizes wrinkles and strengthens the skin's own immune system</li> <li>Stimulates the natural vitality of the skin cells. Intensively moisturizes</li> </ul> </div> <div> <h4>How to use:</h4> <ul> <li>Smoothes and firms the skin</li> <li>Developed for allergy sufferers  Tested for skin compatibility</li> <li>100% free from fragrance, colorant, preservatives, paraffin, silicone, PEG, animal extract</li> </ul> </div> ",202.4,2,Dadosens,Dado-Cosmed,50 ML,Unisex,Y,Beauty Care///Face Care///Anti-Aging,Dadosens Ectoin Anti-Aging Fluid 50 mL.jpg///Dadosens Ectoin Anti-Aging Fluid 50 mL1.jpg,Common Vendor
FIL-514-715-RGA,Filorga Hydra Filler Pro Youth Boosting Moisturizer 50 mL,"<div> <div> <h4>Short description:</h4> <ul> <li>Pro-youth boosting moisturizer</li> <li>Diminishes the dehydration lines</li> <li>Enriched with Hyaluronic acid</li> <li>Ideal makeup foundation.</li> </ul> </div> </div> <div> <h4>Description:</h4> <p>This product is enriched with two effective hyaluronic acids (high molecular weight + micro-fragmented) for a micro-filler effect and visible hydration to the skin. Hyaluronic acid acts as a true moisturizing perfusion and can hold up to 1000 times its weight in water. In addition, it re-boosts the collagen production to limit wrinkles and cracks in the dermis.</p> </div> <div> <h4>Benefits:</h4> <ul> <li>Intensely moisturize the skin</li> <li>Re-boosts the collagen production</li> <li>Helps to reduce the wrinkles &amp; cracks in the dermis</li> </ul> </div> <div> <h4>How to use:</h4> <ul> <li>Apply generously, morning and/or evening to a clean face, neck and decollete.</li> </ul> </div>",315,2,Filorga,Filorga,50 ML,Unisex,Y,Beauty Care///Face Care///Anti-Aging,Filorga Hydra Filler Pro Youth Boosting Moisturizer 50 mL.jpg,Common Vendor
FIL-515-716-RGA,Filorga Time Filler 50 mL,"<div> <div> <h4>Short description:</h4> <ul> <li>Anti-wrinkle cream</li> <li>Corrects all types of wrinkles</li> <li>Smoothes the skin</li> </ul> </div> </div> <div> <h4>Description:</h4> <p>This is an anti-wrinkle cream enriched with a powerful peptide combined with NCTF which stimulates the synthesis of collagen and hyaluronic acid and helps to corrects all types of wrinkles. In addition, a peel-like active ingredient which smooths the skin.</p> </div> <div> <h4>Benefits:</h4> <ul> <li>Helps to relaxes the skin</li> <li>Helps to corrects all types of wrinkles</li> <li>Stimulates the synthesis of collagen and hyaluronic acid</li> </ul> </div> <div> <h4>How to use:</h4> <ul> <li>Apply morning and/or evening to the face, neck and decollete, after first washing thoroughly.</li> </ul> </div>",414.75,2,Filorga,Filorga,50 ML,Unisex,Y,Beauty Care///Face Care///Anti-Aging,Filorga Time Filler 50 mL.jpg///Filorga Time Filler 50 mL1.jpg,Common Vendor
FIL-516-717-RGA,Filorga UV-Defence SPF 50+ 40 mL,"<div> <div> <h4>Short description:</h4> <ul> <li>Anti-ageing action</li> <li>Very high UV protection</li> <li>Anti-dark spot action</li> </ul> </div> </div> <div> <h4>Description:</h4> <p>This product is enriched with powerful sun filters associated with antioxidant vitamin E which protects the skin against UV light and free radicals. The Hop extract regulates the melanin synthesis to visibly reduce the appearance of photo-induced dark spots.</p> </div> <div> <h4>Benefits:</h4> <ul> <li>Effectively combats ageing</li> <li>Helps to reduce the appearance of photo-induced hyperpigmentation</li> <li>Helps to rehydrate the skin deeply</li> <li>Non oily texture</li> </ul> </div> <div> <h4>How to use:</h4> <ul> <li>Can be used daily, when skin is exposed to the sun or after non-surgical procedures</li> <li>Before exposure, apply a sufficient dose to carefully cover the exposed area</li> </ul> </div>",252,2,Filorga,Filorga,40 ML,Unisex,Y,Beauty Care///Face Care///Anti-Aging,Filorga UV-Defence SPF 50+ 40 mL.jpg///Filorga UV-Defence SPF 50+ 40 mL1.jpg,Common Vendor
LOU-517-718-MER,Louis Widmer Eye Contour Cream 30 mL,"<div> <div> <h4>Short description:</h4> <ul> <li>Intensive anti-ageing cream</li> <li>Care for crow's feet</li> <li>Regenerate and moisturize skin</li> </ul> </div> </div> <div> <h4>Description:</h4> <p>Eye Contour Cream regenerates the cutaneous tissue, enables the active ingredients to penetrate to the germinative layer and the connective tissue. Contains the proven and tested active ingredients in a higher dose, specially formulated to avoid eye irritation and swelling. It contains natural humectants which can also penetrate to the deeper skin layers; Biostimulants moisturize the skin, making it soft, smooth and supple. Panthenol enhances moisture retention and soothes irritated skin. Vitamin A promotes circulation and normalizes cells affected by hardening; Vitamin E neutralizes harmful free radicals.</p> </div> <div> <h4>Benefits:</h4> <ul> <li>Highly concentrated doses of active agents</li> <li>Regenerates the skin tissue and reduces wrinkles</li> <li>Moisturizes, cares and protects skin</li> <li>For highly sensitive and stressed skin patches</li> <li>Also suitable for the care of scar tissue</li> </ul> </div> <div> <h4>How to use:</h4> <ul> <li>In the morning and evening, dab the cream for the eye area on the cleansed skin around the eyes and pat dry</li> <li>Can be used for skin over 30 but for every type of skin showing the first signs of fatigue and dehydration</li> <li>Eye Contour Cream may be used as a mask with surprising effectiveness: after thorough cleansing apply Eye Contour Cream to the face and neck and rub in gently</li> <li>Then apply another thin layer, cover with a warm, moist cloth, and allow to take effect for 20 minutes, avoid contact with mucosa</li> </ul> </div>",162.75,2,Louis Widmer,Louis Widmer,30 ML,Unisex,Y,Beauty Care///Face Care///Anti-Aging,Louis Widmer Eye Contour Cream 30 mL.jpg///Louis Widmer Eye Contour Cream 30 mL1.jpg,Common Vendor
LOU-518-719-MER,Louis Widmer Eye Contour Gel 15 mL,"<div> <div> <h4>Short description:</h4> <ul> <li>Refreshing and moisturizing eye gel</li> <li>Smoothens the skin</li> <li>Prevents premature ageing of the skin</li> </ul> </div> </div> <div> <h4>Description:</h4> <p>The liposomal Eye Contour Gel alleviates fine wrinkles. It moisturizes, soothes, firms and refreshes the sensitive skin around the eyes. Contains Biostimulants for regenerating and moisturizing effect, Vitamin A normalizes keratinisation, Vitamin E blocks free radicals, protecting the skin tissue and preventing premature ageing. Hyaluronic acid moisturizes the skin, Panthenol soothe irritated skin. They are evenly distributed on the skin, penetrating deeply and evenly into the epidermis and releasing their effect there. It has been tested under dermatological and ophthalmological supervision.</p> </div> <div> <h4>Benefits:</h4> <ul> <li>Specially for sensitive eye area and reduces wrinkles</li> <li>Ideal for use in the morning and underneath eye make-up</li> <li>Refreshes, moisturizes and cares for the skin</li> <li>Liposomal encapsulated vitamins prevent early ageing of the skin</li> <li>Can be used on the whole lid as the gel does not flow into the eyes</li> </ul> </div> <div> <h4>How to use:</h4> <ul> <li>Eye Contour Gel is suitable for all skin types, apply mornings and/or evenings around the eyes and pat lightly into the skin</li> <li>The refreshing, non-oily gel is absorbed immediately and can be applied under make-up</li> </ul> </div>",131.25,2,Louis Widmer,Louis Widmer,15 ML,Unisex,Y,Beauty Care///Face Care///Anti-Aging,Louis Widmer Eye Contour Gel 15 mL.jpg///Louis Widmer Eye Contour Gel 15 mL1.jpg,Common Vendor
LEV-519-720-IAN,Levian Collagen Cream 50 mL,"<div> <div> <h4>Short description:</h4> <ul> <li>Nourishes the skin and keep it moisturized</li> <li>Retains skin elasticity and decrease wrinkle volume</li> <li>Decrease wrinkle density and plump out the visible wrinkles</li> </ul> </div> </div> <div> <h4>Description:</h4> <p>Levian Collagen Cream is enriched with 9 active ingredients as vegetable collagen, natural oils as avocado oil, jojoba oil, aloe vera oil, multi vitamin and wheat protein, which nourishes the skin and keep it moisturized. It restores health intensity of tired face and neck. It retains skin elasticity and decrease wrinkle volume, decrease wrinkle density and plump out the visible wrinkles. It has UV sun filters included in this specific formula SPF 15 to protect the skin from harmful rays.</p> </div> <div> <h4>Benefits:</h4> <ul> <li>Restores health intensity of tired face and neck</li> <li>Has UV sun filters with SPF 15</li> </ul> </div> <div> <h4>How to use:</h4> <ul> <li>After cleansing apply cream with a light prolonged massage until completely absorbed</li> <li>Use twice daily</li> </ul> </div>",157.5,2,Levian,Levian Laboratories,50 ML,Unisex,Y,Beauty Care///Face Care///Anti-Aging,Levian Collagen Cream 50 mL.jpg,Common Vendor
LIE-520-721-RAC,Lierac Deridium Nourishing Cream 50 mL,"<div> <div> <h4>Short description:</h4> <ul> <li>Anti-aging and nourishing cream</li> <li>For dry and very dry skin</li> <li>8% retexturizing complex</li> <li>Constitutes Corn oil, Vitamin E with beneficial properties to skin</li> </ul> </div> </div> <div> <h4>Description:</h4> <p>Containing 8% retexturizing botanical synergy, this cream is enriched with corn oil and vitamin E to provide generous nourishment and hydration for dry and very dry skin. The skin feels smooth and comfortable. The appearance of wrinkles is diminished.</p> </div> <div> <h4>Benefits:</h4> <ul> <li>Helps reactivate synthesis of connective tissue support fibers</li> <li>Helps restore the skin barrier</li> <li>Retexturizing complex restore skin elasticity and prevent and correct the appearance of visible signs of aging</li> <li>Corn and copra oils: these oils were selected for their moisturizing and nourishing properties</li> <li>Vitamin E helps protect cell membranes and all elements necessary for cellular life</li> </ul> </div> <div> <h4>How to use:</h4> <ul> <li>Apply morning and/or night to perfectly cleansed skin.</li> </ul> </div>",236.25,2,Lierac,Laboratories Lierac,50 ML,Unisex,Y,Beauty Care///Face Care///Anti-Aging,Lierac Deridium Nourishing Cream 50 mL.jpg///Lierac Deridium Nourishing Cream 50 mL1.jpg,Common Vendor
LOU-521-722-MER,Louis Widmer Remederm Face Cream 50 mL,"<div> <div> <h4>Short description:</h4> <ul> <li>For very dry skin</li> <li>Day and night care</li> <li>Anti-ageing</li> <li>With vitamin complex and urea</li> </ul> </div> </div> <div> <h4>Description:</h4> <p>Remederm Face Cream is formulated especially for extremely dry skin. It is also ideally suited for chapped and irritated skin. It protects and moisturises the skin day and night. Vitamin A normalises keratinisation. Panthenol soothes irritated skin. Vitamin E neutralises the damage of free radicals. Carbamide keeps the skin moisturised. Biostimulators stimulate the deeper layers of the skin and increase the skin's ability to bind water.</p> </div> <div> <h4>Benefits:</h4> <ul> <li>Protects, cares and moisturises</li> <li>Penetrates the deep skin layers</li> <li>Supplies the skin with valuable agents</li> <li>Increases circulation and normalises callus formation</li> </ul> </div> <div> <h4>How to use:</h4> <ul> <li>Apply Remederm Face Cream in the morning and evening to cleansed skin.</li> </ul> </div>",124,2,Louis Widmer,Louis Widmer,50 ML,Unisex,Y,Beauty Care///Face Care///Anti-Aging,Louis Widmer Remederm Face Cream 50 mL.jpg///Louis Widmer Remederm Face Cream 50 mL1.jpg,Common Vendor
MAX-522-723-XON,Max-On Colladerm Cream 50 mL,"<div> <div> <h4>Short description:</h4> <ul> <li>With goodness of passion flora and retinol</li> <li>Age defense complex</li> <li>Collagen amino acid, Oligopeptide, Vitamin A and E</li> </ul> </div> </div> <div> <h4>Description:</h4> <p>Max-On Colladerm Cream is a rich, creamy formula, designed to diminish and prevent visible signs of skin aging. It is formulated with a unique combination of collagen amino Acids, oligopeptides with Vitamin A, E and zinc, it gently soothes the skin's texture for a healthy-looking complexion. This soft, comforting formula helps to soften the appearance of fine lines and wrinkles and thereby softening the skin, promoting radiance and creating a younger appearance.</p> </div> <div> <h4>Benefits:</h4> <ul> <li>Minimizes wrinkles and firms skin</li> <li>Passion flora oil moisturizes the skin</li> <li>Nourishes your skin and boost radiance</li> </ul> </div> <div> <h4>How to use:</h4> <ul> <li>Apply evenly every morning and evening after cleansing.</li> <li>Use with Max-On Max100 daily for extra protection.</li> </ul> </div>",231,2,MaxOn,MaxOn,50 ML,Unisex,Y,Beauty Care///Face Care///Anti-Aging,Max-On Colladerm Cream 50 mL.jpg,Common Vendor
MAX-523-724-XON,Max-On Colladerm Eye Contour Cream 20 mL,"<div> <div> <h4>Short description:</h4> <ul> <li>Total eye contour care</li> <li>Smoothing and conditioning effect</li> <li>Scent free</li> </ul> </div> </div> <div> <h4>Description:</h4> <p>Colladerm Eye Contour Cream uses a rich blend of potent ingredients to improve the overall appearance of the eye area. Multi-peptides and tightening agents work together to reduce dark under eye circles, puffiness and sagging skin, resulting in a brighter, more youthful appearance and leaving the eye area feeling smooth and conditioned.</p> </div> <div> <h4>Benefits:</h4> <ul> <li>Improves the overall appearance of the eye area</li> <li>Removes dark circles, puffiness and sagging skin around the eyes</li> <li>Smoothing and conditioning makeover</li> </ul> </div> <div> <h4>How to use:</h4> <ul> <li>Apply a small amount to a thoroughly cleansed skin using light patting movements with your fingertips twice daily</li> </ul> </div>",184,2,MaxOn,MaxOn,20 ML,Unisex,Y,Beauty Care///Face Care///Anti-Aging,Max-On Colladerm Eye Contour Cream 20 mL.jpg,Common Vendor
NEO-524-725-ATA,Neostrata Resurface Face Cream Plus 40 g,"<div> <div> <h4>Short description:</h4> <ul> <li>Enhance skin clarity &amp; texture</li> <li>For normal to dry photodamaged skin</li> <li>Ideal for experienced (AHA) users</li> <li>Targets the visible signs of aging</li> </ul> </div> </div> <div> <h4>Description:</h4> <p>This powerful cream for normal to dry photodamaged skin is ideal for experienced (AHA) users who want to step up to a more potent moisturizer. Formulated with 15% Glycolic Acid.</p> </div> <div> <h4>Benefits:</h4> <ul> <li>Targets the visible signs of aging</li> <li>Normalizes the surface texture of rough, dry skin</li> <li>Recommended for those not sensitive to Glycolic Acid</li> <li>Dye-Free &amp; Paba-Free</li> </ul> </div> <div> <h4>How to use:</h4> <ul> <li>Apply to face and neck once daily for two weeks and twice daily thereafter, following cleansing, as tolerated</li> <li>Daily use of a sunscreen with this product is recommended</li> </ul> </div>",241,2,Neostrata,Neostrata,40 G,Unisex,Y,Beauty Care///Face Care///Anti-Aging,Neostrata Resurface Face Cream Plus 40 g.jpg///Neostrata Resurface Face Cream Plus 40 g1.jpg///Neostrata Resurface Face Cream Plus 40 g2.jpg,Common Vendor
NEO-525-726-ATA,Neostrata Resurface Ultra Smoothing Cream 40 g,"<div> <div> <h4>Short description:</h4> <ul> <li>Moisturizes and restores skin</li> <li>Ideally suited for first time AHA users</li> <li>Targets photoaging skin</li> <li>Improves skin smoothness and rejuvenation</li> </ul> </div> </div> <div> <h4>Description:</h4> <p>Ideal for new users of glycolic acid, this antioxidant exfoliating cream moisturizes and restores a visibly smoother appearance to skin. Clinically proven to significantly improve firmness, mottled pigmentation and overall clarity when used with Neostrata Ultra Daytime Smoothing Cream. Formulated with 8% glycolic acid and 2% citric acid.</p> </div> <div> <h4>Benefits:</h4> <ul> <li>Ultra-rich, anti-aging facial cream that targets signs of aging</li> <li>Ideal for first time Alpha Hydroxy Acid (AHA) users with non-sensitive skin</li> <li>Improve firmness, mottled pigmentation and overall clarity</li> <li>Dye-Free</li> </ul> </div> <div> <h4>How to use:</h4> <ul> <li>Apply to the face and neck daily for two weeks and twice daily thereafter after cleansing, as tolerated</li> <li>Daily use of a sunscreen with this product is recommended</li> </ul> </div>",225.75,2,Neostrata,Neostrata,40 G,Unisex,Y,Beauty Care///Face Care///Anti-Aging,Neostrata Resurface Ultra Smoothing Cream 40 g.jpg///Neostrata Resurface Ultra Smoothing Cream 40 g1.jpg,Common Vendor
