Product Code,Package Name,Description,Price,Stock,Brand,Volume,Gender,OTC,Category,Product Image,Vendor
CET-901-101-HIL,Cetaphil Moisturizing Cream 100 g,"<p><strong>Description</strong></p> <ul> <li>Intense and lasting moisture to replenish sensitive, dry skin great for very dry skin</li> <li>Clinically proven to provide immediate, long-lasting hydration that soothes dry, sensitive skin</li> <li>Unique formula attracts water to the skin and helps prevent moisture loss</li> <li>Quick absorbing, rich, non-greasy</li> <li>Fragrance-free, mild, non-irritating</li> </ul>",98.00,2,Cetaphil,100 G,Unisex,Y,Personal Care///body care///Bath & Shower,Cetaphil Moisturizing Cream 100 g.jpg,Common Vendor
CET-902-102-HIL,Cetaphil Antibacterial Bar 127 g,"<p><strong>Description</strong></p> <p>This Non-Soap Daily Cleansing Bar is Specially Formulated For Dry, Sensitive Skin. Ideal For Face And Full Body Cleansing In The Bath Or Shower. Moisturizes Skin As It Cleans. As Mild As The Mildest Bar Cleanser. </p>",44.00,2,Cetaphil,127 G,Unisex,Y,Personal Care///body care///Bath & Shower,Cetaphil Antibacterial Bar 127 g.jpg///Cetaphil Antibacterial Bar 127 g1.jpg,Common Vendor
CET-903-103-HIL,Cetaphil Restoraderm Lotion  295 ml,"<p><strong>Description</strong></p> <ul> <li>Soothes very dry and sensitive skin. </li> <li>Unique combination of patented ceramide and Filaggrin technology¢ to lock in moisture for soft, smooth skin. </li> <li>Helps restore skin's appearance. </li> <li>Gentle hypoallergenic formula. </li> <li>Safe even for babies as young as three months. </li> <li>Suitable for use with Cetaphil PRO Gentle Body Wash.</li> </ul>",129.00,2,Cetaphil,295 ML,Unisex,Y,Personal Care///body care///Bath & Shower,Cetaphil Restoraderm Lotion  295 ml.jpg,Common Vendor
CET-904-104-HIL,Cetaphil Restoraderm Wash 295ml,"<p><strong>Description</strong></p> <p>The Cetaphil Restoraderm Skin Restoring Body Wash is a soap-free foam body wash that can be used daily to cleanse and moisturise to soothe eczema-prone (very dry and itchy) skin.</p> <ul> <li>With a superior system of extra-strength emollients and humectants that binds water to your skin which helps to prevent moisture loss, it also provides long-lasting hydration, keeping your skin soft and supple</li> <li>Clinically proven to provide non-irritating and moisture-enhancing cleansing, while soothing the dry, itchy, skin symptoms associated with eczema-prone skin</li> <li>Patented cleansing technology offers rich suds that preserve skin hydration, leaving skin soft and smooth</li> </ul>",117.00,2,Cetaphil,295 ML,Unisex,Y,Personal Care///body care///Bath & Shower,Cetaphil Restoraderm Wash 295ml.jpg,Common Vendor
CET-905-105-HIL,Cetaphil Moisturising Lotion 500 ml With Pump,"<p><strong>Description</strong></p> <p>Cetaphil Moisturizing Lotion is specifically formulated to soothe your dry skin. Once applied, your skin feels soft and smooth. It is non-greasy, nonirritating and noncomedogenic (won't clog pores), leaving you feeling more comfortable in your own skin.</p>",167.00,2,Cetaphil,500 ML,Unisex,Y,Personal Care///body care///Bath & Shower,Cetaphil Moisturising Lotion 500 ml With Pump.jpg,Common Vendor
TEA-906-106-APY,Tea Tree Therapy Vegetable Base Bar soap 3.5 oz,"<p><strong>Description</strong></p> <p>Tea Tree Therapy Vegetable Base Soap with Tea Tree Oil is the ideal face and body care bar to use on a daily basis. Tea tree oil provides antiseptic properties to naturally reduce bacteria that may aggravate skin conditions. Its gentle cleansing action can be used all over the body to leave skin clean and refreshed.</p> <p><strong>Ingredients:</strong></p> <p>Vegetable base (sodium palmate and sodium cocoate), purified water, vegetable glycerin, natural fragrance, titanium dioxide, sodium chloride, tea tree oil (oil of melaleuca alternifolia 2%), iron oxide, tetra sodium etidronate, and tetra sodium EDTA.</p>",8.00,2,Tea Tree Therapy,3.5 oz,Unisex,Y,Personal Care///body care///Bath & Shower,Tea Tree Therapy Vegetable Base Bar soap 3.5 oz.jpg///Tea Tree Therapy Vegetable Base Bar soap 3.5 oz1.jpg///Tea Tree Therapy Vegetable Base Bar soap 3.5 oz2.jpg,Common Vendor
TEA-907-107-APY,Tea Tree Therapy Shampoo 16 oz,"<p><strong>With Tea Tree Oil and Herbal Extracts</strong></p> <p>Gentle Cleaning. Removes Build-Up. For All Hair Types. Tea Tree Therapy¢ Shampoo, with Tea Tree Oil and Natural Herbal Extracts, gently and completely removes build-up from hair and adds moisture to dry flaking scalps. Continued use will leave hair and scalp in natural condition.</p> <div><strong>Directions:</strong></div> <div>Apply a small amount of Tea Tree Therapy Shampoo to wet hair and gently massage into hair and scalp. Rinse thoroughly with warm water. Repeat if needed.</div> <div> </div> <div><strong>Ingredients: </strong></div> <div>Deionized water, decyl polyglucoside, disodium cocoamphodiacetate, cocamidopropyl betaine, lauramide dea, aloe vera gel, tea tree oil (oil of melaleuca alternifolia), extracts of; arnica, rosemary, stinging nettle and sage, hydrolyzed wheat protein, panthenol, glycerin, hydroxyethylcellulose, citric acid, methylparaben, diazolidinyl urea, and natural fragrance.</div>",15.50,2,Tea Tree Therapy,16 oz,Unisex,Y,Personal Care///body care///Bath & Shower,Tea Tree Therapy Shampoo 16 oz.jpg///Tea Tree Therapy Shampoo 16 oz1.jpg,Common Vendor
TEA-908-108-APY,Tea Tree Therapy Eucalyptus Soap 3.5 oz,"<p><strong>Description</strong></p> <p>The Banalasta Oil Plantation is located in New South Wales, Australia. It is the worlds largest Eucalyptus radiata plantation and uses organic farming practices. Eucalyptus radiata is a softer more pleasant antiseptic and anti-microbial eucalyptus. Eucalyptus radiata is the species of choice for aromatherapists as the medicinal eucalyptus most suitable for use on the skin. </p> <p>Tea Tree Therapy Natural Eucalyptus Soap is vegetable-based and is infused with Eucalyptus radiata Oil, Lavender Oil and Tea Tree Oil to give it anti-microbial action with aromatic deep cleansing freshness and softness. Crushed Eucalyptus leaf gently exfoliates the skin and macadamia nut oil soothes and moisturizes the skin. It is an all-over body bar suitable for daily use on all skin types.</p> <p><strong>Ingredients: </strong></p> <p>Sodium palmate, sodium palm kernelate, purified water, eucalyptus radiate oil, macadamia nut oil, glycerin (vegetable source), palm kernel acid, lavender oil, tea tree oil, crushed eucalyptus leaves, and sodium chloride.</p>",8.00,2,Tea Tree Therapy,3.5 oz,Unisex,Y,Personal Care///body care///Bath & Shower,Tea Tree Therapy Eucalyptus Soap 3.5 oz.jpg///Tea Tree Therapy Eucalyptus Soap 3.5 oz1.jpg,Common Vendor
CET-909-109-HIL,Cetaphil Gentle Cleanser 500ml With Pump,"<p><strong>Description</strong></p> <ul> <li>Originally developed by dermatologists especially for sensitive skin, Cetaphil® Gentle Skin Cleanser is a soap substitute that preserves your skins natural protective oils.</li> <li>Cetaphil Gentle Skin Cleanser softens your skin as it gently cleanses. </li> <li>Independent clinical tests using Cetaphil® Gentle Skin Cleanser undiluted has shown it to be one of the gentlest1 non-soap cleansers.</li> <li>Its special formulation wont sting your eyes and can remove light make-up without clogging pores.</li> <li>Developed to be used with or without water, Cetaphil® Gentle Skin Cleanser is pH balanced and lanolin and fragrance-free.</li> </ul>",160.00,2,Cetaphil,500 ML,Unisex,Y,Personal Care///body care///Bath & Shower,Cetaphil Gentle Cleanser 500ml With Pump.jpg,Common Vendor
TEA-910-110-APY,Tea Tree Therapy Liquid Soap 8 Oz,"<p><strong>Description</strong></p> <p>Tea Tree Therapy Liquid Soap antiseptically cleans hands and face with antibacterial and anti-fungal action. Working gently without drying the skin, it leaves hands and face noticeably clean and feeling good.</p> <div><strong>Directions:</strong></div> <div>Wet hands and apply a small amount of soap. Work into a rich lather and gently cleanse hands and face.</div> <div> </div> <div><strong>Ingredients: </strong></div> <div>Deionized water, disodium cocoamphodiacetate, sodium hydroxypropylfulfonate/LG, coco glucoside, sodium cocoyl isethionate, allantoin, aloe vera leaf extract, extracts of: chamomile, calendula and elder flower, tea tree oil (oil of melaleuca alternifolia), citric acid, phenoxyethanol, lemongrass oil.</div> <div> </div> <div> <div><strong>Warnings:</strong></div> <div>Avoid contact with the eyes.</div> </div>",11.00,2,Tea Tree Therapy,8 oz,Unisex,Y,Personal Care///body care///Bath & Shower,Tea Tree Therapy Liquid Soap 8 Oz.jpg///Tea Tree Therapy Liquid Soap 8 Oz1.jpg,Common Vendor
WES-911-111-LAB,Westlab 100% Pure Reviving Epsom Salt 1 Kg,"<p>Ideal for sports recovery and muscle relaxation, Westlab Epsom Salt is the perfect product for sports and fitness enthusiasts or anyone with aching muscles. The tried and tested mineral compound of magnesium sulfate helps detoxify and relax the muscles.</p> <p><strong>Ingredient:</strong></p> <p>Magnesium sulphate</p> <p><strong>Instructions For Use:</strong></p> <p>Dissolve salts in a warm bath of 37-39°C. Relax and soak for 20 minutes. For general skin health and wellbeing add a 1/2-1 cup (approx 100g-250g) to your bath. To help relax tired and aching muscles use 2-4 cups (500g-1Kg).</p>",35.00,2,Westlab,1 kg,Unisex,Y,Personal Care///body care///Bath & Shower,Westlab 100% Pure Reviving Epsom Salt 1 Kg.jpg,Common Vendor
CET-912-112-HIL,Cetaphil Oily Skin Cleanser 236 ml With Pump,"<p><strong>Description</strong></p> <p>Cetaphil Oily Skin Cleanser is developed for adults or teenagers with oily, spot prone or combination skin types. Cetaphil Oily Skin Cleanser removes excess oil by up to 60% without drying the skin or producing any significant irritation. It has a lightly foaming action and leaves the skin with a clean feeling, without any residue. The gentle, soap free, rinse-off formulation is designed to remove surface oils, dirt, and makeup without leaving the skin feeling tight or overly dry. It is a non-comedogenic product (does not clog pores). There is a light fragrance which washes off after rinsing. The soap-free formulation doesnt strip the skin of too much of its natural moisturizing oils, which are an important part of skins normal barrier function. It is important to be gentle when cleansing even oily skins: because oil production is increased by irritation, harsh cleansing may make the skin produce more oil. Washing with hot water washes away oil faster and can have a drying or irritating effect. Therefore it is better to use warm water for a more gentle approach to facial cleansing. Patting your skin dry after rinsing is more gentle - rubbing the skin too much can also cause irritation and more oil production. Use for twice daily cleansing as part of a healthy skin care routine.</p>",107.00,2,Cetaphil,236 ML,Unisex,Y,Personal Care///body care///Bath & Shower,Westlab 100% Pure Reviving Epsom Salt 1 Kg.jpg,Common Vendor
NAT-913-113-LIS,Naturalis Body Milk Aloe Vera 500 ml,"<p><strong>DESCRIPTION</strong></p> <p>Emollient Body Lotion containing marigold extract promotes protect the skin from drying. Brings a refreshing feeling. Used for everyday use. It is suitable for all skin types. It contains aloe vera extract, which helps hydrate the skin, regenerates and protects the skin. Because aloe vera extract penetrates the skin well, it helps to restore the metabolism in the skin, removing irritation.</p>",20.00,2,Naturalis,500 ML,Unisex,Y,Personal Care///body care///Bath & Shower,Naturalis Body Milk Aloe Vera 500 ml.jpg,Common Vendor
BEA-914-114-LAS,Beauty Formulas Dry Shampoo 150 ml,"<p><strong>DESCRIPTION</strong></p> <p>BEAUTY FORMULAS Dry aerosol shampoo is a product that perfectly refreshes and nourishes greasy hair without the need to wash them. Adds hairstyle volume. It works, for example, during travel.</p> <p><strong>Directions of Use:</strong></p> <p>Apply topically. Before spraying, it is recommended to shake the packaging. Spray the hair evenly from a distance of about 30 centimeters. After spraying leave for a short time and let it start.</p> <p><strong>Ingredients:</strong></p> <p>Butane, Isobutane, Propane, Dimethylimidazolidinyl Rice Starch, Alcohol Denat., Distearyldimonium Chloride, Parfum.</p>",16.00,2,BEAUTY FORMULAS,150 ML,Unisex,Y,Personal Care///body care///Bath & Shower,Beauty Formulas Dry Shampoo 150 ml.jpg,Common Vendor
SEB-915-115-MED,Sebamed Adult Anti Dandruff Shampoo 200 ml,"<p><strong>Description</strong></p> <p>100% soap and alkali free, Sebamed Anti-Dandruff Shampoo gently cleanses hair and scalp, removing visible signs of dandruff irritation. Its moisturising and conditioning ingredients revitalise the hair and regulate the barrier function of the scalp with the pH value of 5.5. Suitable for normal to oily hair and scalp. The effectiveness was confirmed in a dermatological test: 50% less dandruff within 14 days!</p>",21.00,2,Sebamed,200 ML,Unisex,Y,Personal Care///body care///Bath & Shower,Sebamed Adult Anti Dandruff Shampoo 200 ml.jpg,Common Vendor
CET-916-116-HIL,Cetaphil Non Irritating Cleanser 200ml,"<p><strong>Description</strong></p> <p>Get fresh, squeaky clean feeling skin without tightness or over-drying. Cetaphil Non Irritating Cleanser rinses easily with no irritating or pore-clogging residue</p>",91.00,2,Cetaphil,200 ML,Unisex,Y,Personal Care///body care///Bath & Shower,Cetaphil Non Irritating Cleanser 200ml.jpg,Common Vendor
NAT-917-117-LIS,Naturalis Body Milk Olive Oil 500 ml,"<p><strong>Description</strong></p> <p>Body Lotion with olive oil soothes, softens and moisturizes the skin. Leaves skin silky soft and pleasantly scented. Regular use effectively prevents skin aging process. It absorbs quickly and leaves no greasy feeling. It is suitable for dry and sensitive skin. Contains olive oil, which is well absorbed. Olive oil has a disinfecting effect, protects the skin from the negative effects of the environment and also promotes rapid regeneration of skin cells.</p>",20.00,2,Naturalis,500 ML,Unisex,Y,Personal Care///body care///Bath & Shower,Naturalis Body Milk Olive Oil 500 ml.jpg,Common Vendor
NAT-918-118-LIS,Naturalis Essences Shampoo Lavender 500ml,<p><strong>Description</strong></p> <p>Shampoo with fragrance Lavender for naturally moisturized hair. Gives your hair necessary hydration throughout the day. Revitalizes hair and brings them brilliant shine and healthy look. Suitable for everyday use. Lavender extract has an antiseptic effect and has a beneficial effect on the hair.</p>,20.00,2,Naturalis,500 ML,Unisex,Y,Personal Care///body care///Bath & Shower,Naturalis Essences Shampoo Lavender 500ml.jpg///Naturalis Essences Shampoo Lavender 500ml1.jpg,Common Vendor
ISO-919-119-ERM,Isoderm Cleansing Bar Ph 5.5 100gm,"<p><strong>Description</strong></p> <p>Isoderm Cleansing Bar is a non-alkaline and soap-free skin cleanser with pH 5.5. It is made from selected ingredients to provide relief to dry skin. It is gentle on the skin and offers protection for softer, supple and healthy-looking skin.</p>",16.50,2,Isoderm,100 gm,Unisex,Y,Personal Care///body care///Bath & Shower,Isoderm Cleansing Bar Ph 5.5 100gm.jpg,Common Vendor
TEA-920-120-APY,Tea Tree Therapy Conditioner 16 Oz,"<p><strong>Description</strong></p> <p>Tea Tree Therapy Conditioner, with Tea Tree Oil and Herbal Extracts, conditions the hair and scalp by helping to capture natural oils and moisture leaving the hair silky smooth and tangle-free.</p> <p><strong>Directions of Use:</strong></p> <p>Cleanse hair with Tea Tree Therapy Shampoo for best results. Gently squeeze out excess water. Massage Tea Tree Therapy Conditioner into hair and scalp and work through ends. Leave on for 1-2 minutes. Rinse thoroughly. Towel dry.</p> <p><strong>Ingredients:</strong></p> <p>Deionized water, stearalkonium chloride, stearyl alcohol, ceteareth-20, aloe vera gel, tea tree oil (oil of melaleuca alternifolia), Extracts of; arnica, rosemary, stinging nettle and sage, hydrolyzed wheat protein, glycerin, methylparaben, diazolidinyl urea, hydroxyethylcellulose, natural fragrance.</p>",15.50,2,Tea Tree Therapy,16 oz,Unisex,Y,Personal Care///body care///Bath & Shower,Tea Tree Therapy Conditioner 16 Oz.jpg///Tea Tree Therapy Conditioner 16 Oz1.jpg,Common Vendor
SEB-921-121-MED,Sebamed Extreme Dry Urea Repair Lotion 200ml,"<p><strong>Description</strong></p> <p>The Repair Lotion also includes lecithin, sweet almond oil and triglycerides essential natural lipids that help restore your balance of moisture. Contains natural, skin-related ingredients for effective penetration Functions as a humectant to prevent excessive moisture loss The keratolytic effect caused by urea promotes the healthy peeling away of dry and dead skin.</p>",15.50,2,Sebamed,200 ML,Unisex,Y,Personal Care///body care///Bath & Shower,Sebamed Extreme Dry Urea Repair Lotion 200ml.jpg,Common Vendor
NAT-922-122-LIS,Naturalis Essences Shampoo Corn Flower 500 ml,<p><strong>Description</strong></p> <p>Naturalis Essences Herbal Corn Flower Shampoo is recommended for thin and damaged hair. Contains natural extracts that renew the damaged hair structure and protect thin wires.</p>,20.00,2,Naturalis,500 ML,Unisex,Y,Personal Care///body care///Bath & Shower,Naturalis Essences Shampoo Corn Flower 500 ml.jpg,Common Vendor
SEB-923-123-MED,Sebamed Liquid Face & Body Wash 1000 ml,"<p><strong>Description</strong></p> <p>The dermatologist-developed, Sebamed 1 Liter Liquid Face and Body Wash's ultra-mild formulation is compatible with the most sensitive of skins. It works to deep-clean pores without causing dryness or irritation as regular soap can. Fortified with a natural moisturizing complex of vitamins and soothing allantoin, it rinses away completely for naturally healthier, smoother skin.</p>",50.00,2,Sebamed,1000 ML,Unisex,Y,Personal Care///body care///Bath & Shower,Sebamed Liquid Face & Body Wash 1000 ml.jpg,Common Vendor
NAT-924-124-LIS,Naturalis Body Lotion Coconut 500 ml,"<p><strong>Description</strong></p> <p>Moisturising body lotion with coconut oil rejuvenates the skin and protects it from drying out. It is suitable for daily use. It contains coconut oil rich in vitamins and biologically active substances, which have a beneficial effect on the skin and helping to restore it. Furthermore, coconut oil, helps to protects skin from harmful effects of environment.</p>",20.00,2,Naturalis,500 ML,Unisex,Y,Personal Care///body care///Bath & Shower,Naturalis Body Lotion Coconut 500 ml.jpg,Common Vendor
SEB-925-125-MED,Sebamed Cleansing Bar 150gm,"<p><strong>Description</strong></p> <p>Sebamed Cleansing Bar 150g patented formula with gentle cleansing basis allows daily cleansing hygiene of the sensitive skins of the whole family. It removes all the impurities of the skin while limiting the risk of dehydration and irritation.</p> <p>Its actives with pH close to the skin pH (polyfructosan, inulin, amino acids, vitamins, lecithin), moisturize the skin and strengthen their natural barrier. Wheat starch, beeswax, and panthenol form a unique complex to nourish, protect and soothe.</p> <p>Soap-free, paraben-freen. Dermatologically test.</p>",12.50,2,Sebamed,150 gm,Unisex,Y,Personal Care///body care///Bath & Shower,Sebamed Cleansing Bar 150gm.jpg,Common Vendor
EGO-926-126-EGO,Ego Moov Head Lice Shampoo 200ml,<p><strong>Description</strong></p> <p>Ego Moov Head Lice Shampoo is clinically proven to kill head lice. Theres no need to shampoo hair after treatment with this head lice treatment shampoo.</p> <ul> <li>Easy to use head lice treatment.</li> <li>Gentle foaming action leaving the hair soft and smooth.</li> <li>Clinically proven to kill head lice.</li> </ul>,79.00,2,Ego,200 ML,Unisex,Y,Personal Care///body care///Bath & Shower,Ego Moov Head Lice Shampoo 200ml.jpg,Common Vendor
SEB-927-127-MED,Sebamed Moisturizing Body Lotion 200ml,"<p><strong>Description</strong></p> <p>The Sebamed body lotion is recommended for normal as well as problematic skin conditions, such as eczema and psoriasis. You can use it after bathing or showering to effectively lock in moisture and hydration. Dermatologist-developed and recommended this nourishing, non-irritating formula is suitable for the most sensitive of skins, making our product a great alternative to most sensitive skin body lotions. Rapidly absorbed and non-greasy, it helps restore your skin's moisture balance. The Sebamed Moisturizing Lotion is readily absorbed without greasy residue and is enriched with chamomile extract and allantoin. It's pH 5.5 formulation helps support your skin's natural hydrolipid barrier (the acid mantle).</p>",11.00,2,Sebamed,200 ML,Unisex,Y,Personal Care///body care///Bath & Shower,Sebamed Moisturizing Body Lotion 200ml.jpg,Common Vendor
WES-928-128-LAB,Westlab Relaxing Magnesium Flakes 1Kg,"<p><strong>Description</strong></p> <ul> <li>Relaxing</li> <li>Helps calm and de-stress mind and body.</li> <li>Supports healthy sleeping patterns.</li> <li>Westlab source the highest quality Zechstein Inside Magnesium flakes.</li> <li>An excellent choice for transdermal mineral bathing.</li> </ul> <p><strong>Ingredients:</strong></p> <div> <div> <div> <div> <p>Magnesium Chloride (as Magnesium Chloride Hexahydrate)</p> </div> </div> </div> </div> <div> <div> <div> <h4><strong>Instructions for use :</strong></h4> <div> <div> <div> <div> <p>Dissolve 1-4 cups (approximately 250g-1Kg) of flakes in a warm bath of around 37°C. Relax and soak for 20 minutes. In Pregnancy: Use 1-2 cups (250-500g) and ensure the bathing water is around 36°C and never higher than normal body temperature.</p> </div> </div> </div> </div> <div> <div> <div> <h4><strong>Precautions:</strong></h4> <div>Seek the advice of a healthcare professional before use if you are suffering from a medical condition, are taking medical treatment or have very sensitive skin. Do not use on broken skin. Avoid contact with eyes. If irritation occurs rinse with water. If it persists, seek medical attention. Keep out of reach of children.</div> </div> </div> </div> </div> </div> </div>",65.00,2,Westlab,1 Kg,Unisex,Y,Personal Care///body care///Bath & Shower,Westlab Relaxing Magnesium Flakes 1Kg.jpg,Common Vendor
BEA-929-129-LAS,Beauty Formulas Tea Tree Shampoo 200 ml,"<p><strong>Description</strong></p> <p>Beauty Formulas Tea Tree Oil originates from Australia. It is a natural anti-bacterial agent believe to have a number of beneficial effects and antiseptic properties. This deep cleansing shampoo thoroughly cleanses the hair and scalp with the invigoration and beneficial effects of tea Tree Oil. Leaves hair clean and refreshed and helps to keep it shiny, strong and healthy. Use daily if required. All Hair types.</p>",15.50,2,BEAUTY FORMULAS,200 ML,Unisex,Y,Personal Care///body care///Bath & Shower,Beauty Formulas Tea Tree Shampoo 200 ml.jpg,Common Vendor
SEB-930-130-MED,Sebamed Cleansing Bar 100gm,"<p><strong>Description</strong></p> <p>Created with the same pH 5.5 value as healthy skin, it supports and protects the natural barrier function of the skins acid mantle.Mild pore-deep cleansing removes excess sebum.</p> <p>Combats oily skin, pimples, blackheads and whiteheads.</p> <p>Care complex with Amino acids and vitamins helps to prevent dryness.</p> <p>The natural moisturizing factors lecithin, vitamins and amino acids help rebalance the stressed skin.</p> <p>The pH 5.5 promotes the natural barrier function of the skin's acid mantle which combats the proliferation of acne-causing bacteria.</p>",8.50,2,Sebamed,100 gm,Unisex,Y,Personal Care///body care///Bath & Shower,Sebamed Cleansing Bar 100gm.jpg,Common Vendor
LIL-931-131-IEN,Lilien Exclusive Liquid Soap Honey Propolis 500 ml,"<p><strong>Description</strong></p> <p>Gentle creamy liquid soap Honey &amp; Propolis for perfect care of your hands and skin. Leaves skin beautifully soft and smooth. The composition of cream soap includes glycerin, the main task of which is to accumulate moisture in a given area of the body to make the skin soft and moist. In addition, the soap contains propolis extract, thanks to which the skin becomes soft, velvety, supple. Propolis also has antiseptic, regenerating and anesthetic properties.</p>",15.00,2,Lilien,500 ML,Unisex,Y,Personal Care///body care///Bath & Shower,Lilien Exclusive Liquid Soap Honey Propolis 500 ml.jpg,Common Vendor
SEB-932-132-MED,Sebamed Anti Hair Loss Shampoo 200ml,"<p><strong>Description</strong></p> <ul> <li>The efficacy of Anti-Hairloss Shampoo is based on the NHE formula plus caffeine and Gingko Biloba for a medicinal activation of the scalp. Thanks to this stimulation of the blood circulation, there is an increase in the supply of nutrients and oxygen to the papilla and follicle.</li> <li>Provides optimal growth conditions for strong and healthy hair .</li> <li>Continuous application over several months will lead to visible results: reduced hair loss and healthier hair.</li> </ul>",21.00,2,Sebamed,200 ML,Unisex,Y,Personal Care///body care///Bath & Shower,Sebamed Anti Hair Loss Shampoo 200ml.jpg,Common Vendor
NAT-933-133-LIS,Naturalis Essences Shampoo Sun Flower 500 ml,"<p><strong>Description</strong></p> <p>Hair Shampoo with Sunflower fragrance contains natural extracts that give hair fullness and increase their volume from root to tip. Protects hair from the adverse effects. It is suitable for everyday use. It contains sunflower extract, which has a moisturizing and regenerating effect.</p>",20.00,2,Naturalis,500 ML,Unisex,Y,Personal Care///body care///Bath & Shower,Naturalis Essences Shampoo Sun Flower 500 ml.jpg,Common Vendor
LIL-934-134-IEN,Lillien Cream Soap Sea Minerals 500ml,"<p><strong>Description</strong></p> <p>Gentle creamy liquid soap with the scent of the ocean and sea minerals for perfect care of your hands and skin. Leaves skin beautifully soft and smooth. The composition of cream soap includes glycerin, the main task of which is to accumulate moisture in a given area of the body to make the skin soft and moist. In addition, thanks to sea salt, which is also contained in the soap, you can achieve a smooth skin. And, as is known, sea salt is the center of useful microelements, for example, iodine, potassium, iron.</p>",15.00,2,Lilien,500 ML,Unisex,Y,Personal Care///body care///Bath & Shower,Lillien Cream Soap Sea Minerals 500ml.jpg,Common Vendor
NAT-935-135-LIS,Naturalis Essences Shampoo Mango Papaya 500 ml,"<p><strong>Description</strong></p> <p>Hair shampoo with the scent of Mango and Papaya revitalizes and refreshes dry and frayed hair. It contains fruit extracts that reduce brittleness and fringe ends. Restores and smoothes the hair surface disturbed. Suitable for everyday use. The shampoo contains mango extract, which is rich in vitamins A, C and beta-carotene.Hair shampoo with the scent of Mango and Papaya revitalizes and refreshes dry and frayed hair. It contains fruit extracts that reduce brittleness and fringe ends. Restores and smoothes the hair surface disturbed. Suitable for everyday use.</p>",20.00,2,Naturalis,500 ML,Unisex,Y,Personal Care///body care///Bath & Shower,Naturalis Essences Shampoo Mango Papaya 500 ml.jpg,Common Vendor
BEA-936-136-LAS,Beauty Formula Vitamin E Hand & Nail Cream 100Ml,"<p><strong>Description</strong></p> <p>Beauty formulas hand and nail conditioning lotion has been specially formulated for the care and protection of your hands. It is non greasy and absorbs quickly. Smooth into your hands, around nails and cuticles for smooth, softer skin and stronger nails.</p>",18.00,2,BEAUTY FORMULAS,100 ML,Unisex,Y,Personal Care///body care///Bath & Shower,Beauty Formula Vitamin E Hand & Nail Cream 100Ml.jpg,Common Vendor
WES-937-137-LAB,Westlab 100% Pure Soothing Dead Sea Salt 1Kg,"<p><strong>Description</strong></p> <ul> <li>Softens and Soothes Dry, Itchy Skin</li> <li>Supports Natural Skin Healing.</li> <li>Suitable for use on skin prone to Eczema, Acne &amp; Psoriasis.</li> <li>Westlab only source the highest quality genuine Dead Sea Salt.</li> <li>Naturally rich in Magnesium, Calcium and Potassium.</li> </ul> <div> <div> <div> <div> <p>Soothing Dead Sea Salt. Nourishes dry, irritated skin. Suitable for use on skin prone to Eczema and Psoriasis</p> </div> </div> </div> </div> <div> <div> <div> <h4>Ingredients</h4> <div> <div> <div> <div> <div> <p>Maris Sal (Dead Sea Salt). Chemical Composition: Magnesium Chloride, Potassium Chloride, Sodium Chloride, Calcium Chloride, Bromide, Sulphates, Insolubles, Water of Crystallization. There is a variation in colour and texture as a result of natural formation of the product.</p> <p><strong>Instructions for use </strong></p> </div> </div> </div> </div> <div> <div> <div> <div> <div> <div> <div> <div> <p>Dissolve salts in a warm bath of 37-39°C. Relax and soak for 20 minutes. For general skin health and wellbeing add 1/2-1 cup (approx 100g-250g) to your bath. To help soften and soothe dry, itchy skin use 2-4 cups (500g-1Kg).</p> <p><strong>Precautions</strong></p> </div> </div> </div> </div> <div> <div> <div> <div>For External Use Only. Seek advice of a healthcare professional before use if you are suffering from a medical condition, are on medical treatment, pregnant, breastfeeding or have very sensitive skin. Do not use on broken skin. Avoid contact with face and eyes. If irritation occurs rinse with water. If it persists, seek medical attention. Keep out of reach of children.</div> </div> </div> </div> </div> </div> </div> </div> </div> </div> </div> </div>",35.00,2,Westlab,1 Kg,Unisex,Y,Personal Care///body care///Bath & Shower,Westlab 100% Pure Soothing Dead Sea Salt 1Kg.jpg,Common Vendor
LIL-938-138-IEN,Lillien Cream Soap Wild Orchid 500ml,"<p><strong>Description</strong></p> <p>Gentle creamy liquid soap Wild Orchid for perfect care of your hands and skin. Leaves skin beautifully soft and smooth. The composition of cream soap includes glycerin, the main task of which is to accumulate moisture in a given area of the body to make the skin soft and moist.</p> <div> </div>",15.00,2,Lilien,500 ML,Unisex,Y,Personal Care///body care///Bath & Shower,Lillien Cream Soap Wild Orchid 500ml.jpg,Common Vendor
PET-939-139-URE,Petal Fresh Pure Lavender Hand And Body Lotion 12 oz,"<p>Relax and unwind with Petal Fresh® Pure Lavender Hand &amp; Body Lotion (Soothing). Calming Certified Organic Lavender soothes senses and diminishes stress to deliver an incredibly calming experience.</p> <p><strong>Suggested Use:</strong></p> <div> <div> <div> <p>Apply liberally to clean, towel-dried skin after showering, bathing, or wherever skin needs a boost of moisture. For best results, use with Petal Fresh Pure Lavender Bath &amp; Shower Gel.</p> <p><strong>Ingredients:</strong></p> </div> </div> </div> <div> <div> <div> <p>Aqua (water), caprylic/capric triglyceride (derived from coconut oil), glycerin (derived from vegetable oil), cetyl alcohol (derived from coconut oil), glyceryl stearate (derived from coconut oil), glyceryl stearate SE (derived from vegetable oil), *olea europaea (olive) fruit oil, orbignya oleifera (babassu) seed oil, *butyrospermum parkii (shea) butter extract, carthamus tinctorius (safflower) seed oil, *lavandula angustifolia (lavender) flower/leaf/stem extract, tocopheryl acetate (vitamin E), *tussilago farfara (coltsfoot) flower extract, *achillea millefolium (yarrow) extract, *equisetum arvense (horsetail) extract, *rosmarinus officinalis (rosemary) leaf extract, *althaea officinalis (marshmallow) root extract, *chamomilla recutita (chamomile) flower extract, *melissa officinalis (lemon balm) leaf extract, *thymus vulgaris (thyme) extract, xanthan gum (derived from corn), polysorbate 60 (derived from coconut oil), citric acid (derived from citrus fruit), dehydroacetic acid (derived from cane sugar), ethylhexylglycerin (derived from vegetable oil), sodium chloride (derived from salt). **Fragrance.</p> <p>*Certified organic ingredients</p> <p>**Natural fragrance with essential oils.</p> <p><strong>Warnings:</strong></p> </div> </div> </div> <div> <div> <div> <p>For external use only. Avoid contact with eyes. If skin irritation develops, discontinue use. Keep out of reach of children.</p> </div> </div> </div>",35.00,2,Petal Fresh Pure,12 oz,Unisex,Y,Personal Care///body care///Bath & Shower,Petal Fresh Pure Lavender Hand And Body Lotion 12 oz.jpg///Petal Fresh Pure Lavender Hand And Body Lotion 12 oz1.jpg,Common Vendor
NAT-940-140-LIS,Naturalis Body Lotion Sea Buckthorn 500 ml,"<p><strong>DESCRIPTION</strong></p> <p>Moisturizing Body Lotion with extract of Sea-buckthorn protects the skin against drying out. It promotes a refreshing feeling. Used for everyday use. It is suitable for all skin types. It contains sea-buckthorn extract, which is a strong antioxidan. Due vitamins A and E, which are contained in sea buckthorn, the skin becomes supple and acquires a healthy appearance.</p>",20.00,2,Naturalis,500 ML,Unisex,Y,Personal Care///body care///Bath & Shower,Naturalis Body Lotion Sea Buckthorn 500 ml.jpg,Common Vendor
ESI-941-141-ESI,Esi Pid Block Shampoo 200ml,"<p><strong>DESCRIPTION</strong></p> <p>This shampoo was made with plant extracts and essential oils and is ideal to use in conjunction with anti-lice products. Creates an unfavorable environment for lice and facilitates the removal of nits and dead lice. To be used after the Pid Block Oil Spray. This special hair cleaner was specially made for frequent use, even on children: Deeply cleans the scalp without causing irritation. It also moisturizes and soothes, makes your hair soft, shiny and easy to comb because it contains Panthenol, a precursor of pantothenic acid (vitamin B5). It also contains Lemon and Peppermint extract making it pleasant to use.</p>",65.00,2,ESI,200 ML,Unisex,Y,Personal Care///body care///Bath & Shower,Esi Pid Block Shampoo 200ml.jpg,Common Vendor
SEB-942-142-MED,Sebamed Moisturizing Cream Jar 75 ml,"<p><strong>Description</strong></p> <p>Developed by dermatologists, the Sebamed Moisturizing Cream is a rich, nourishing moisturizer that is suitable for the most sensitive of skins. Non-greasy and quickly absorbed, it deeply hydrates for noticeably softer, healthier skin. Fortified with soothing vitamin E to naturally guard against free radicals which can cause premature aging. Every sebamed product is meticulously formulated to a pH balance of exactly 5.5 - precisely the pH of healthy skin. This is essential in maintaining your skin's natural hydrolipid barrier against environmental stress. Any other pH level, such as found in soap may leave your skin open to break-down and deterioration.</p>",28.00,2,Sebamed,75 ML,Unisex,Y,Personal Care///body care///Bath & Shower,Sebamed Moisturizing Cream Jar 75 ml.jpg,Common Vendor
PET-943-143-URE,Petal Fresh Pure Rose And Honeysuckle Hand And Body Lotion 12 Oz,"<p><strong>Rose &amp; Honeysuckle Hand &amp; Body Lotion</strong></p> <p>Achieve an ultra-soft and smooth skin with Petal Fresh Pure Rose &amp; Honeysuckle. Hand &amp; Body Lotion. Certified Organic Rose and Honeysuckle are naturally luxurious botanical moisturizers that leave skin irresistibly fragrant and silky-soft to touch.</p> <p>The Rose has been revered throughout history for its variety of beauty benefits. It is known worldwide as a symbol of love and beauty. Combined with Honeysuckle, this amazing flower leaves skin silky soft and smelling irresistible.</p> <p><strong>Directions of Use:</strong></p> <div> <div> <div> <p>Apply liberally to clean, towel-dried skin after showering, bathing or whenever skin needs a boost of moisture. For best results, use with Petal Fresh Pure Rose &amp; Honeysuckle Bath &amp; Shower Gel.</p> <div> <div> <div> <p><strong>Warnings:</strong></p> </div> </div> </div> <div> <div> <div> <p><strong>Caution: </strong>For external use only. Avoid contact with eyes. If skin irritation develops, discontinue use. Keep out of reach of children.</p> </div> </div> </div> <p> </p> </div> </div> </div>",35.00,2,Petal Fresh Pure,12  oz,Unisex,Y,Personal Care///body care///Bath & Shower,Petal Fresh Pure Rose And Honeysuckle Hand And Body Lotion 12 Oz.jpg///Petal Fresh Pure Rose And Honeysuckle Hand And Body Lotion 12 Oz2.jpg///Petal Fresh Pure Rose And Honeysuckle Hand And Body Lotion 12 Oz1.jpg,Common Vendor
SEB-944-144-MED,Sebamed Adult Olive Cleansing Bar 150gm,"<p><strong>Description</strong></p> <p>It perfectly cleanses and strengthens the natural defenses of the skin with its high tolerance soap-free and alkaline agents free basis, with neutral ph of 5,5.</p> <p>Efficient thanks to its active complex (olive oil, silk proteins, panthenol, phytosterols) nourishing, smoothing and repairing, it also contains aloe barbadensis that durably restores the hydric balance.</p>",11.50,2,Sebamed,150 gm,Unisex,Y,Personal Care///body care///Bath & Shower,Sebamed Adult Olive Cleansing Bar 150gm.jpg,Common Vendor
LIL-945-145-IEN,Lilien Shower Gel For Men Extreme 400 ml,"<p><strong>Description</strong></p> <p>New shower &amp; shampoo for men with aromas of exotic Guarana for relaxation of your mind after a busy day full of movement and stress. It stimulates tired muscles and contains stimulating ingredients that contribute to the overall body relaxation and recovery. Gently cleanses, softens and leaves a lasting feeling of freshness. Perfectly cleanses your skin and hair.</p>",20.00,2,Lilien,400 ML,Men,Y,Personal Care///body care///Bath & Shower,Lilien Shower Gel For Men Extreme 400 ml.jpg,Common Vendor
LIL-946-146-IEN,Lilien Tea Tree Oil Liquid Soap 500ml,"<p><strong>Description</strong></p> <p>Mild, liquid antibacterial soap with added TEA TREE OIL. Prevents the spread of infection and regenerates skin very well. Restores its natural balance after each use and leaves a pleasant feeling of freshness. The composition of cream soap includes glycerin, the main task of which is to accumulate moisture in a given area of the body to make the skin soft and moist. Soap also contains tea tree oil, which is a strong natural antiseptic, with antibacterial and antiviral properties.</p> <p><strong>Directions of Use:</strong></p> <p>Apply soap on moistened skin by hand, froth and rinse with water.</p>",15.00,2,Lilien,500 ML,Unisex,Y,Personal Care///body care///Bath & Shower,Lilien Tea Tree Oil Liquid Soap 500ml.jpg,Common Vendor
LIL-947-147-IEN,Lilien Shower Gel For Men All Out 400ml,"<p><strong>Description</strong></p> <p>Shower shampoo for men with double effect. It contains stimulating ingredients that stimulate tired muscles and revive the whole body. Gently cleanses, softens and leaves a long-lasting feeling of freshness. Perfectly cleanses your hair and skin.</p>",20.00,2,Lilien,400 ML,Men,Y,Personal Care///body care///Bath & Shower,Lilien Shower Gel For Men All Out 400ml.jpg,Common Vendor
BEA-948-148-LAS,Beauty Formula Hand Mask 1 Pair,"<p><strong>Description</strong></p> <p>The soothing and nourishing Hand Mask is a rich emollient treatment for dry rough, chapped hands. Enriched with Peach Extract and Shea Butter, Honey and other natural anti-oxidants to nourish and improve skin tone and texture. Usage Instructions: Wash hands and dry. Open pouch, remove gloves and use immediately to prevent drying out. Leave the gloves on for about 20-30 minutes and then remove.</p> <p><strong>Directions Of Use:</strong></p> <ul> <li>Wash hands and dry. Open pouch, remove gloves and use immediately to prevent drying out. </li> <li>Leave the gloves on for about 20-30 minutes and then remove. </li> <li>Ideal for - Get Beauty Formulas soothing and nourishing Hand Mask to manage beautiful and healthy hands at home. </li> <li>Now save hundreds from those expensive salon appointments.</li> </ul>",12.00,2,BEAUTY FORMULAS,N/A,Unisex,Y,Personal Care///body care///Bath & Shower,Beauty Formula Hand Mask 1 Pair.jpg,Common Vendor
NAT-949-149-LIS,Naturalis Essences Shampoo Yellow Melon 500 ml,"<p><strong>Description</strong></p> <p>Shampoo with fruit extracts and aromas of yellow melon helps to achieve a natural balance of the skin and restores damaged hair structure. Long-lasting freshness and brilliance of your hair color. Suitable for everyday use. The melon extract helps moisturize the head skin, strengthening the hair and restore its structure.</p>",20.00,2,Naturalis,500 ML,Unisex,Y,Personal Care///body care///Bath & Shower,Naturalis Essences Shampoo Yellow Melon 500 ml.jpg,Common Vendor
VIT-950-150-TRY,Vitry Dry Shampoo 200 ml,<p><strong>Description</strong></p> <p>A fresh breeze and an innovative formula to enhance volume and leaving the hair with a natural look.</p> <p>Hair is refreshed and shiny in a single gesture; the rice starch enriched formula absorbs and refrains any sebum excess.</p> <p><strong>Directions Of Use:</strong></p> <p>Shake well before use.</p> <p>Spary the Dry Shampoo 30 cm from your hair roots.</p> <p>Leave in for 2 minutes.</p> <p>Comb the hair head down to increase both volume and shine.</p>,49.00,2,Vitry,200 ML,Unisex,Y,Personal Care///body care///Bath & Shower,Vitry Dry Shampoo 200 ml.jpg,Common Vendor
LIL-951-151-IEN,Lilien Fruity Shower Cream Papaya & Mango 400 ml,"<p><strong>Description</strong></p> <p>Rich foam with active cleaning ingredient gently removes impurities from the whole body and provides a sensation of freshness and purity. Unique formula prevents the skin from drying out. It provides a pleasant and long-lasting fragrance and remoisturizes the skin throughout the day.</p> <p><strong><big>Directions of Use:</big></strong></p> <p><br/>Apply the gel to moist skin, massage gently and rinse with warm water.</p>",20.00,2,Lilien,400 ML,Unisex,Y,Personal Care///body care///Bath & Shower,Lilien Fruity Shower Cream Papaya & Mango 400 ml.jpg,Common Vendor
WES-952-152-LAB,Westlab Sleep Bath Salt With Epsom & Dead Sea Salts 1Kg,"<div> <div> <div> <div> <h4><strong>Description</strong></h4> <p>A bathing ritual before bed can help encourage a deep, restorative nights sleep. Westlab's SLEEP salts create a fragrant, mineral-infused bath that prepares the mind for a peaceful night ahead. A 100% natural blend of mineral-rich Epsom and Dead Sea Salts to relax the body. Infused with Jasmine and Lavender essentials oils to calm and soothe the senses, and Valerian to promote deep, peaceful sleep.</p> </div> </div> </div> </div> <div> <div> <div> <div> <div> <h4><strong>Instructions for use </strong></h4> <div> <div> <div> <div> <div> <p>Add 2-3 handfuls of salt to warm water to create a fragrant, mineral-infused bath. Emerge feeling ready for a deep, restorative nights sleep.</p> </div> </div> </div> </div> <div> <div> <div> <h4><strong>Precautions</strong></h4> <div>FOR EXTERNAL USE ONLY. Do not use if pregnant or breastfeeding. Do not use on broken skin. Avoid contact with eyes. If irritation occurs, stop bathing and rinse with water. If it persists, seek medical advice. Keep out of reach of children.</div> </div> </div> </div> </div> </div> </div> </div> </div> </div>",58.00,2,Westlab,1 Kg,Unisex,Y,Personal Care///body care///Bath & Shower,Westlab Sleep Bath Salt With Epsom & Dead Sea Salts 1Kg.jpg,Common Vendor
WES-953-153-LAB,Westlab 100% Pure Cleansing Himalayan Salt 1Kg,"<h4><strong>Description</strong></h4> <p>WESTLAB harvest the highest quality Himalayan salt crystals, known for their detoxifying properties. The pretty pink crystals have been around for millions of years and contain an impressive 84 minerals including magnesium, calcium, iron, and potassium.</p> <p><strong>Ingredients:</strong></p> <p>Sodium Chloride</p> <p><strong>Directions:</strong></p> <p>Dissolve salts in a warm bath of 37-39°C. Relax and soak for 20 minutes. For general skin health and wellbeing add 1/2-1 cup (approx 100g-250g) to your bath. To help cleanse and purify use 2-4 cups (500g-1Kg).</p> <p><strong>Precaution:</strong></p> <p>Seek the advice of a healthcare professional before use if you are suffering from a medical condition, are on medical treatment, pregnant, breastfeeding or have very sensitive skin. Do not use on broken skin. Avoid contact with eyes. If irritation occurs rinse with water. If it persists, seek medical attention. Keep out of reach of children. This is a naturally pink rock salt that dissolves slowly and can leave some insoluble grains which you may wish to remove before bathing. Take care when using on delicate surfaces and clean bath well after use.</p>",35.00,2,Westlab,1 Kg,Unisex,Y,Personal Care///body care///Bath & Shower,Westlab 100% Pure Cleansing Himalayan Salt 1Kg.jpg,Common Vendor
WES-954-154-LAB,Westlab Cleansing Shower Wash With Himalayan Salt 400 ml,"<h4><strong>Description</strong></h4> <div> <div> <p>Cleansing Shower Wash with Himalayan Salt Minerals. Naturally rich in essential minerals, to leave skin feeling cleansed and healthy. This cleansing shower wash has been developed without the use of SLS, SLES, Soap or Colourants to gently care for your skin. Dermatologically tested.</p> </div> </div> <div> <div> <div> <div> <div> <h4> </h4> <div> <div> </div> <div> <div> <div> <h4>Instructions for use</h4> <div> <div> <div> <div> <div> <p>In a warm shower, massage a small amount of shower wash over wet skin. Rinse thoroughly and enjoy some mineral wellbeing.</p> </div> </div> </div> </div> <div> <div> <div> <h4>Precautions</h4> <div>For extenal use only. Do not use if sensitive to any of the ingredients. If irritation occurs or persists, discontinue use. Avoid contact with eyes. If contact occurs rinse well with clean water.</div> </div> </div> </div> </div> </div> </div> </div> </div> </div> </div> </div> </div> </div>",24.00,2,Westlab,400 ML,Unisex,Y,Personal Care///body care///Bath & Shower,Westlab Cleansing Shower Wash With Himalayan Salt 400 ml.jpg,Common Vendor
BEA-955-155-LAS,Beauty Formulas Tea Tree Conditioner 200 ml,<h4><strong>Description</strong></h4> <div> <p>Beauty Formulas Tea Tree Deep Nourishing Conditioner 200ml A moisturizing treatment to nourish and stimulate the scalp. Restores luster and shine for naturally healthy hair</p> </div>,15.50,2,BEAUTY FORMULAS,200 ML,Unisex,Y,Personal Care///body care///Bath & Shower,Beauty Formulas Tea Tree Conditioner 200 ml.jpg,Common Vendor
SEB-956-156-MED,Sebamed Everyday Shampoo 200ml,"<h4><strong>Description</strong></h4> <div> <ul> <li>It helps your scalp to lock in moisture, Everyday Shampoo fights dandruff and itchiness caused by conditions that include plaque psoriasis and dandruff.</li> <li>The ultra-mild ingredients also add shine and volume to your hair, keeping it looking and feeling healthy.</li> </ul> </div>",20.00,2,Sebamed,200 ML,Unisex,Y,Personal Care///body care///Bath & Shower,Sebamed Everyday Shampoo 200ml.jpg,Common Vendor
LIL-957-157-IEN,Lilien Shower Cream Aloe Vera & Carambola 750 ml,"<h4><strong>Description</strong></h4> <h4>Creamy shower gel Aloe Vera and Carambola is a combination of cleaning gel and moisturizers. Rich foam detergent active ingredient gently removes impurities from the body and gives a feeling of freshness and purity.</h4> <div> <ul> <li> <p><strong>Directions of Use:</strong></p> <p>Apply the gel on moist skin, massage gently and rinse with warm water.</p> </li> </ul> </div>",30.00,2,Lilien,750 ML,Unisex,Y,Personal Care///body care///Bath & Shower,Lilien Shower Cream Aloe Vera & Carambola 750 ml.jpg,Common Vendor
MOS-958-158-TNO,Mosquitno Body Lotion 100ml,"<h4><strong>Description</strong></h4> <p>MosquitNo Insect Repellent Body Moisturizer moisturizes the skin and repels insects. Body Moisturizer protection for up to 8 hours.<br/><br/>With AloÃ« Vera &amp; Saltidin, Saltidin® is recommended by the World Health Organization as the best alternative for DEET and it protects you against all mosquitoes and a lot of other dangerous insects! Like: Aedes aegypti, malaria mosquito - anopheles gambiae, aedes aedes, sand flies, black flies, deer flies, stable flies, Aedes albopictus, Culex quinquefasciatus.</p>",89.00,2,Mosquitno,100 ML,Unisex,Y,Personal Care///body care///Bath & Shower,Mosquitno Body Lotion 100ml.jpg,Common Vendor
LIL-959-159-IEN,Lilien Shower Cream Hibiscus & Sesame Milk 750 ml,<h4><strong>Description</strong></h4> <p>Creamy shower gel with sesame milk is a combination of cleaning gel and moisturizers. Rich foam with active ingredient gently removes impurities from the body and gives a feeling of freshness and purity.</p> <p> </p>,30.00,2,Lilien,750 ML,Unisex,Y,Personal Care///body care///Bath & Shower,Lilien Shower Cream Hibiscus & Sesame Milk 750 ml.jpg,Common Vendor
FLE-960-160-TOL,Flexitol Hand Balm 56gm,"<h4><strong>Description</strong></h4> <p>Flexitol Hand Balm is medically proven to provide effective, long-lasting moisturization and rapid hydration to alleviate the symptoms of mild dermatitis, eczema and psoriasis present on the hands. (Symptoms such as very dry, cracked, red or itchy skin). This highly effective formulation contains Urea in a blend of emollients and is designed to be nongreasy and easily absorbed to improve skin hydration, so you can feel it working from day one.</p>",31.00,2,Flexitol,56 gm,Unisex,Y,Personal Care///body care///Bath & Shower,Flexitol Hand Balm 56gm.jpg,Common Vendor
NAT-961-161-LIS,Naturalis Bath Salt Lavender 1000 gm,"<h4><strong>Description</strong></h4> <p>Relaxing bath salt with lavender scent perfectly softens, regenerates the skin and relaxes the mind. Counteracts stress, stimulates muscles, soothe aches and pains. Helps to soften corns and coarsened skin. Also, salt helps to peel the skin and rid it of dryness.</p>",30.00,2,Naturalis,1000 gm,Unisex,Y,Personal Care///body care///Bath & Shower,Naturalis Bath Salt Lavender 1000 gm.jpg,Common Vendor
LIL-962-162-LIS,Lilien Cream Shower Gel Moisturizing 750 ml,<h4><strong>Description</strong></h4> <p>The moisturizing cream shower gel is a combination of washing gel and moisturizers. Rich foam detergent active ingredient gently removes impurities from the body and gives a feeling of freshness and purity.</p>,30.00,2,Naturalis,750 ML,Unisex,Y,Personal Care///body care///Bath & Shower,Lilien Cream Shower Gel Moisturizing 750 ml.jpg,Common Vendor
PET-963-163-URE,Petal Fresh Pure Grapeseed And Olive Oil Hand And Body Lotion 12 Oz,"<div> <div> <div> <p><strong>Grape Seed &amp; Olive Oil Hand &amp; Body Lotion</strong></p> <p>Drench your skin in intense hydration with Petal Fresh Pure Grape Seed &amp; Olive Oil Hand &amp; Body Lotion. This unique moisture-rich blend combines replenishing Certified Organic Olive Oil and Grape Seed to help lock in moisture, resulting in softer, smoother skin.</p> <p>While Olive Oil is known as a culinary staple, this ingredient can also act as an intense moisturizing treatment for the skin. Combined with Grape Seed this antioxidant-rich blend deeply hydrates, protects and locks in skin's moisture.</p> <p><strong>Suggested Use:</strong></p> </div> </div> </div> <div> <div> <div> <p>Apply liberally to clean, towel-dried skin after showering, bathing or whenever skin needs a boost of moisture. For best results, use with Petal Fresh Pure Grape Seed &amp; Olive Oil Bath &amp; Shower Gel.</p> <div> <div> <div> <p><strong>Warnings:</strong></p> </div> </div> </div> <div> <div> <div> <p>For external use only. Avoid contact with eyes. If skin irritation develops, discontinue use. Keep out of reach of children.</p> </div> </div> </div> </div> </div> </div>",35.00,2,Petal Fresh Pure,12 oz,Unisex,Y,Personal Care///body care///Bath & Shower,Petal Fresh Pure Grapeseed And Olive Oil Hand And Body Lotion 12 Oz.jpg///Petal Fresh Pure Grapeseed And Olive Oil Hand And Body Lotion 12 Oz2.jpg///Petal Fresh Pure Grapeseed And Olive Oil Hand And Body Lotion 12 Oz1.jpg///Petal Fresh Pure Grapeseed And Olive Oil Hand And Body Lotion 12 Oz3.jpg,Common Vendor
LIL-964-164-IEN,Lilien Fruity Shower Cream Lychee & Guava 400 ml,"<p><strong>Description</strong></p> <p>Rich foam with active cleaning ingredient gently removes impurities from the whole body and provides a sensation of freshness and purity. Unique formula prevents the skin from drying out. It provides a pleasant and long-lasting fragrance and remoisturizes the skin throughout the day.</p> <p><strong>Directions of Use:</strong></p> <p>Apply the gel on moist skin, massage gently and rinse with warm water.</p>",20.00,2,Lilien,400 ML,Unisex,Y,Personal Care///body care///Bath & Shower,Lilien Fruity Shower Cream Lychee & Guava 400 ml.jpg,Common Vendor
LIL-965-165-IEN,Lilien Exclusive Liquid Soap Cashmare 500 ml,<p><strong>Description</strong></p> <p>Soft Cream Soap for the perfect care of your hands and skin.</p> <p>It leaves your skin perfectly soft and smooth.</p>,15.00,2,Lilien,500 ML,Unisex,Y,Personal Care///body care///Bath & Shower,Lilien Exclusive Liquid Soap Cashmare 500 ml.jpg,Common Vendor
PAR-966-166-NIX,Paranix Spray 100 ml,"<p><strong>Description</strong></p> <p>Looking for a radical solution that helps you to get rid of head lice in no time? With Paranix Spray, one 15 minutes treatment is all that is required to kill 100% of head lice and eggs. Paranix Spray is odourless and sprays on easily, with no mess or fuss. Also available as a lotion.</p>",47.50,2,Paranix,100 ML,Unisex,Y,Personal Care///body care///Bath & Shower,Paranix Spray 100 ml.jpg,Common Vendor
LIL-967-167-IEN,Lilien Shower Cream Orange& Orange Blossom 750ml,"<p><strong>Description</strong></p> <p>The body shampoo contains 750 ml of lemon cream containing orange and orange juice. It is important to know that oranges and spring orange are rich in Vitamin C with a clarifying, toning and softening effect. Creamy Lilymin Cream Shampoo Contains Orange &amp; Spring Orange extract, in addition to moisturizing, softening and softening the skin, it cleanses the skin and gives you a feeling of vitality and vitality with its effective and lasting fragrance. </p>",30.00,2,Lilien,750 ML,Unisex,Y,Personal Care///body care///Bath & Shower,Lilien Shower Cream Orange& Orange Blossom 750ml.jpg,Common Vendor
NAT-968-168-LIS,Naturalis Essences Shampoo Red Grape Fruit 500 ml,"<p><strong>Description</strong></p> <p>Shampoo for hair with a scent of red grapefruit. Contains fruit extracts that help shape and give a natural rippling shape to curly hair. It maintains the volume of hairstyles.</p> <ul> <li>Naturalis Hair Shampoo With Plant Extracts</li> <li>Contains Bergamot, Lemon Grass &amp; Red Grapefruit</li> <li>For Wavy / Curly Hair</li> <li>For Everyday Use</li> <li>Dermatologically Tested</li> </ul>",20.00,2,Naturalis,500 ML,Unisex,Y,Personal Care///body care///Bath & Shower,Naturalis Essences Shampoo Red Grape Fruit 500 ml.jpg,Common Vendor
LIL-969-169-IEN,Lilien Fruity Shower Cream Avocado & Sesame 400 ml,"<p><strong>Description</strong></p> <p>Rich foam with active cleaning ingredient gently removes impurities from the whole body and provides a sensation of freshness and purity. Unique formula prevents the skin from drying out. It provides a pleasant and long-lasting fragrance and re-moisturizes the skin throughout the day.</p> <p><strong>Directions of Use:</strong></p> <p>Apply the gel on moist skin, massage gently and rinse with warm water.</p>",20.00,2,Lilien,400 ML,Unisex,Y,Personal Care///body care///Bath & Shower,Lilien Fruity Shower Cream Avocado & Sesame 400 ml.jpg,Common Vendor
REN-970-170-URE,Renpure Biotin & Collagen Shampoo 16 oz,"<h3><strong>Description</strong></h3> <p>Renpure's custom blend of Biotin and Collagen infuses hair with weightless nutrients that add volume and strength, making your hair look and feel fuller.</p> <h3><strong>Directions</strong></h3> <div> <p>Apply to wet hair, lather and rinse.</p> </div>",38.00,2,Renpure,16 oz,Unisex,Y,Personal Care///body care///Bath & Shower,Renpure Biotin & Collagen Shampoo 16 oz.jpg,Common Vendor
WES-971-171-LAB,Westlab Reviving Shower Wash With Epsom Salt 400 ml,"<h3><strong>Description</strong></h3> <p>Reviving Shower Wash + Epsom Salt Minerals. pH balanced to support naturally healthy skin. Naturally derived ingredients, 0% SLS/SLES, No colorants or soap, Dermatologically tested.</p> <h4><strong>Precautions</strong></h4> <div> <div> <div> <div> <div> <div> <div> <div> <div> <div> <div> <div> <p>For external use only. Do not use if sensitive to any of the ingredients. If irritation occurs or persists, discontinue use. Avoid contact with eyes. If contact occurs rinse well with clean water.</p> </div> </div> </div> </div> </div> </div> </div> </div> </div> </div> </div> </div>",24.00,2,Westlab,400 ML,Unisex,Y,Personal Care///body care///Bath & Shower,Westlab Reviving Shower Wash With Epsom Salt 400 ml.jpg,Common Vendor
PUR-972-172-IEL,Puressentiel Organic Eucalyptus Radiata Essential Oil 10 ml,"<p><strong>Description</strong></p> <p>The Puressentiel Eucalyptus Radiata essential oil is extracted by steam distillation of leaves with a yield of approximately 2% (two kilograms per hundred kilograms of the plant).</p> <p>AROMATIC MOLECULES: The active ingredients of Eucalyptus radiata essential oil are mainly oxides (1,8-cineol: 72%-75%-80%) and monoterpenes (alpha-terpineol).</p> <p><strong>Directions of Use:</strong></p> <div>To be applied to the skin: Yes (neat over a small area, diluted in vegetable oil in case of repeated applications, on a larger surface or if the skin is sensitive).<br/>To be swallowed: Yes <br/>To be inhaled: Yes <br/><br/>Precaution for use: Like all essential oils, narrow-leaved peppermint oil is forbidden during the first 3 months of pregnancy. It should not be used during breastfeeding either.<br/>On the other hand, it is remarkably well tolerated by children, including babies.</div> <div>Indication: All respiratory diseases, whether they are viral (cold, flu) or bacterial (bronchitis, sinusitis, otitis¦) Productive coughs</div>",42.00,2,Puressentiel,10 ML,Unisex,Y,Personal Care///body care///Bath & Shower,Puressentiel Organic Eucalyptus Radiata Essential Oil 10 ml.jpg///Puressentiel Organic Eucalyptus Radiata Essential Oil 10 ml1.jpg,Common Vendor
WES-973-173-LAB,Westlab Soothing Shower Wash With Dead Sea Salt 400 ml,"<p><strong>Directions:</strong></p> <div> <div> <div> <div> <p>In a warm shower, massage a small amount of shower wash over wet skin. Rinse thoroughly and enjoy some mineral wellbeing.</p> </div> </div> </div> </div> <div> <div> <div> <h4><strong>Precautions:</strong></h4> <p>For extenal use only. Do not use if sensitive to any of the ingredients. If irritation occurs or persists, discontinue use. Avoid contact with eyes. If contact occurs rinse well with clean water.</p> </div> </div> </div> <p> </p>",24.00,2,Westlab,400 ML,Unisex,Y,Personal Care///body care///Bath & Shower,Westlab Soothing Shower Wash With Dead Sea Salt 400 ml.jpg,Common Vendor
BEA-974-174-LAS,Beauty Formulas Hand & Nail Lotion 100 ml,"<p><strong>Directions:</strong></p> <p>Beauty Formulas Hand &amp; Nail Conditioning Lotion absorbs instantly with Vitamin E to protect, moisturizer, soften and strengthens the skin.</p> <div> </div>",12.00,2,BEAUTY FORMULAS,100 ML,Unisex,Y,Personal Care///body care///Bath & Shower,Beauty Formulas Hand & Nail Lotion 100 ml.jpg,Common Vendor
SEB-975-175-MED,Sebamed Hair Repair Shampoo 200ml,"<p><strong>Description</strong></p> <p>Our hair is vulnerable to damage not only through the stress of noxious environmental influences, but the structural changes caused by colouring permanents and blow-drying. The selected mild tenside composition gently cleanses and nourishes the hair. Biopolymers encapsulate the hair shaft with a micro-fine film giving additional protection and smoothing its structure. Plant protein and the effective moisturizing complex PCA regenerate and stabilize the hydro-balance of both hair and scalp. A visible difference after the first application. The pH value of 5.5 supports and stabilizes the acid mantle of the scalp for naturally beautiful hair.</p>",17.00,2,Sebamed,200 ML,Unisex,Y,Personal Care///body care///Bath & Shower,Sebamed Hair Repair Shampoo 200ml.jpg,Common Vendor
ISO-976-176-ERM,Isoderm Soap Free Cleanser 250ml,"<p><strong>Description</strong></p> <p>Cares and regulates the acidic barrier of the skin and prevents skin irritation Isoderm Liquid Cleanser cares and regulates the acidic protective barrier of the skin. By this, the skin is guarded to an optimum against environmental factors and bacterial infections. Good for every skin type and washes gently and pore-deep Has a pH of 5.5 and is free from the substance of animal origin.</p>",30.00,2,Isoderm,250 ML,Unisex,Y,Personal Care///body care///Bath & Shower,Isoderm Soap Free Cleanser 250ml.jpg,Common Vendor
JAS-977-177-SON,Jason Calming Lavender Handsoap 16oz,"<p><strong>Description</strong></p> <div> <div> <div> <p>Nourish your skin with nutrient-rich Vitamin E and Pro-Vitamin B5 for a gentle, healthful cleanse. Calming Lavender and Aloe Vera give your skin a smoother, petal-soft touch.</p> <p>Jason brand believes in the power of nature's ingredients to improve everyday wellness. We were pioneers of safer, wholesome personal care, and we continue to harness the earth's bounty of botanicals and essentials for blends that refresh and restore. Wellness is our second nature, and it has been since 1959.</p> <p><strong>Suggested Use:</strong></p> </div> </div> </div> <div> <p>Pump soap into hands. Wash hands as usual. Rinse thoroughly.</p> </div> <div> <div> <div> <p><strong>Warnings:</strong></p> </div> </div> </div> <div> <div> <div> <p>For external use only. Keep out of reach of children. Avoid direct contact with eyes. If rash or irritation occurs, stop use and consult a physician.</p> </div> </div> </div>",42.00,2,Jason,16 oz,Unisex,Y,Personal Care///body care///Bath & Shower,Jason Calming Lavender Handsoap 16oz.jpg///Jason Calming Lavender Handsoap 16oz1.jpg,Common Vendor
SEB-978-178-MED,Sebamed Liquid Face & Body Wash 500ml,"<p><strong>Description</strong></p> <div> <p>It gently deep-cleans pores without causing dryness or irritation as regular soap can. Fortified with a natural moisturizing complex of vitamins and soothing allantoin, it rinses away completely for naturally healthier, smoother skin. Every Sebamed product is meticulously formulated to a pH balance of exactly 5.5 Unique after washing feeling - skin feels clean, soft and supple Economical in use - one drop sufficient to wash face and hands Good skin tolerance.</p> </div>",31.50,2,Sebamed,500 ML,Unisex,Y,Personal Care///body care///Bath & Shower,Sebamed Liquid Face & Body Wash 500ml.jpg,Common Vendor
PUR-979-179-IEL,Puressentiel Muscle Relax Organic Massage Oil-Arnica / Wintergreen 100 ml,"<p>The<strong> Puressentiel Muscle Relaxing Organic Massag</strong>e Oil is ideal for the amateur or professional sportsperson: Exercise preparation and recovery, Muscle tension, Sensitive joints.</p> <p><strong>Directions of Use:</strong></p> <p><strong>Before exercise:</strong> Rub vigorously before training to ""warm-up"" and prepare the areas being worked that are prone to tension.</p> <p><strong>After exercise:</strong> use a deeper massage action to relax, increase suppleness and prevent tension. Do not use on children under 7 years old, pregnant or breastfeeding women.</p> <p> </p> <p><strong>Essential Oils:</strong></p> <p>Wintergreen, Rosemary camphor, Lavander, Peppermint, Lemon Eucalyptus, Juniper.</p> <p><strong>Warnings:</strong></p> <p>Do not use on children under 7 years old, pregnant or breastfeeding women.</p> <p>External use only</p>",85.00,2,Puressentiel,100 ML,Unisex,Y,Personal Care///body care///Bath & Shower,Puressentiel Muscle Relax Organic Massage Oil-Arnica  Wintergreen 100 ml.jpg,Common Vendor
WES-980-180-LAB,Westlab Mindful Bath Salt With Epsom & Himalayan Salts 1Kg,"<div> <div> <div> <div> <p><strong>Description</strong></p> <p>A 100% natural, Vegan blend of magnesium-rich Epsom and Himalayan Salts to relax the body. Infused with fragrant Frankincense and Bergamot essential oils and CBD (cannabidiol) to promote tranquillity.</p> </div> </div> </div> </div> <div> <div> <div> <h4> </h4> <div> <div> <div> <div> <div> <div> <div> <div> <div> <p>Add 2-3 handfuls of salt to warm water to create a fragrant, mineral-infused bath. Emerge feeling calm, centered and relaxed.</p> </div> </div> </div> </div> <div> <div> <div> <h4><strong>Precautions</strong></h4> <div>FOR EXTERNAL USE ONLY. Do not use if pregnant or breastfeeding. Do not use on broken skin. Avoid contact with eyes. If irritation occurs, stop bathing and rinse with water. If it persists, seek medical advice. Keep out of reach of children.</div> </div> </div> </div> </div> </div> </div> </div> </div> </div> </div> </div>",58.00,2,Westlab,1 Kg,Unisex,Y,Personal Care///body care///Bath & Shower,Westlab Mindful Bath Salt With Epsom & Himalayan Salts 1Kg.jpg,Common Vendor
JAS-981-181-SON,Jason Men's Ocean Sport Body Wash 30oz,"<p><strong>Men's Ocean Sport Body Wash</strong></p> <p>Feel the deepest clean from your head to your toe. the all-in-one wash packs a botanically-powerful punch to completely clean your face, hair, and body. The Aloe Vera moisturizes, while Algae Extract, Citrus Oil and scents of Patchouli and Vanilla leave you feeling exhilarated and smelling ocean-air fresh.</p> <p>JASON brand believes in the power of nature's ingredients to improve everyday wellness. We were pioneers of safer, wholesome personal care, and we continue to harness the earth's bounty of botanicals and essentials for blends that refresh and restore. Wellness is our second nature, and it has been since 1959.</p> <p><strong>Directions:</strong></p> <div> <div>Apply to damp skin and wet hair in the bath or shower. </div> <div> </div> <div> <div> </div> <div> <div><strong>Warnings:</strong></div> <p>For external use only. Avoid direct contact with eyes. If rash or irritation occurs, stop use and consult a physician.</p> </div> </div> </div>",58.00,2,Jason,30 oz,Men,Y,Personal Care///body care///Bath & Shower,Jason Men's Ocean Sport Body Wash 30oz.jpg,Common Vendor
AVA-982-182-LON,Avalon Anti Dandruff Itch & Flake Relief Shampoo 14 Oz,"<p><strong>Directions Of Use:</strong></p> <div> <div> <p>For best results, use at least three times each week. Wet hair, lather, massage onto scalp. Rinse and repeat if desired.</p> </div> </div>",59.00,2,Avalon,14 oz,Unisex,Y,Personal Care///body care///Bath & Shower,Avalon Anti Dandruff Itch & Flake Relief Shampoo 14 Oz.jpg///Avalon Anti Dandruff Itch & Flake Relief Shampoo 14 Oz2.jpg///Avalon Anti Dandruff Itch & Flake Relief Shampoo 14 Oz1.jpg,Common Vendor
BEL-983-183-ELL,Bell White Petrolium Jelly 225g,"<p><strong>Directions Of Use:</strong></p> <div> <p>Bell's White Petroleum Jelly BP (White Soft Paraffin BP) is applied to the skin to soothe, soften and provide protection.</p> </div>",14.50,2,Bell,225 g,Unisex,Y,Personal Care///body care///Bath & Shower,Bell White Petrolium Jelly 225g.jpg,Common Vendor
WES-984-184-LAB,Westlab Kids Dead Sea Bath Salt 500 g,"<div> <div> <div> <div> <p><strong>Description</strong></p> <p>Natural Dead Sea Bath Salt. Softens and soothes dry, itchy skin. Westlab source the highest quality salts. Naturally cleaned without the use of harsh chemicals. Rich in minerals essential for skin health. Calcium, Potassium, and Magnesium. Parents Tip! For areas that cannot be submerged underwater, we drape a muslin cloth which has been soaked in the bathwater around the area of concern, refreshing it regularly during bathtime to keep warm.</p> </div> </div> </div> </div> <div> <div> <div> <h4> </h4> <div> <div> </div> <div> <div> <div> <h4><strong>Instructions for use</strong></h4> <div> <div> <div> <div> <div> <p>For infants over 3 months old, use a heaped teaspoon in a baby bath. For older children, initially, use approximately 100g-250g per 15cm adult bath. This can be increased to a maximum of 50g for under 10s. Allow the salt to dissolve in warm water (approx 37°C) and let your child enjoy a salt bath for 20 minutes up to 3 times per week.</p> </div> </div> </div> </div> <div> <div> <div> <h4><strong>Precautions</strong></h4> <div>Seek medical advice before using if the child is under 3 months old or suffering from a medical condition. Do not use on broken skin. Avoid contact with eyes. If irritation occurs, rinse with water. If persists, seek medical attention. Keep out of reach of children. For external use only.</div> </div> </div> </div> </div> </div> </div> </div> </div> </div> </div> </div>",22.00,2,Westlab,500 G,Unisex,Y,Personal Care///body care///Bath & Shower,Westlab Kids Dead Sea Bath Salt 500 g.jpg,Common Vendor
WES-985-185-LAB,Westlab Recover Bath Salt With Epsom Salt 1Kg,"<div> <p><strong>Description</strong></p> <p>100% Pure Epsom Salts with White Willow, Arnica and Eucalyptus. Soothes tired, aching,overworked muscles.</p> </div> <div> </div>",58.00,2,Westlab,1 Kg,Unisex,Y,Personal Care///body care///Bath & Shower,Westlab Recover Bath Salt With Epsom Salt 1Kg.jpg,Common Vendor
LIL-986-186-IEN,Lilien Fruity Shower Cream Cucumber & Aloe Vera 400 ml,"<div> <p><strong>Description</strong></p> <p>Rich foam with active ingredients, gently removes dirt from the whole body, and thus adds a feeling of freshness and cleanliness. Special composition effectively protects the skin from drying. It is distinguished by its pleasant and long aroma. Perfect moisturizing</p> </div> <div> </div>",20.00,2,Lilien,400 ML,Unisex,Y,Personal Care///body care///Bath & Shower,Lilien Fruity Shower Cream Cucumber & Aloe Vera 400 ml.jpg,Common Vendor
WES-987-187-LAB,Westlab Relaxing Bath Fizzer With Dead Sea Salt 150 g,"<h4>Descriptions</h4> <div> <div> <div> <div> <p>What is Dead Sea Salt? The Dead Sea has been renowned since ancient times when Cleopatra is said to have bathed in the mineral-rich waters to soften and smooth her skin. A natural abundance of minerals such as Magnesium and Potassium is thought to be the Dead Sea's secret to helping maintain soft and healthy looking skin. Bring a luxury mineral spa experience to your home bath with a Westlab Dead Sea Salt Bath Fizzer.</p> </div> </div> </div> </div> <div> <div> <div> <h4> </h4> <div> <div> </div> <div> <div> <div> <h4>Instructions for use </h4> <div> <div> <div> <div> <div> <p>Drop under warm, running water. Relax and enjoy a fragrant, mineral-enriched bath.</p> </div> </div> </div> </div> <div> <div> <div> <h4>Precautions</h4> <div>FOR EXTERNAL USE ONLY. Do not use if sensitive to any of the ingredients. Do not use on broken skin. Avoid contact with eyes. If irritation occurs, stop bathing and rinse with warm water. If it persists, seek medical attention. Keep out of reach of children.</div> </div> </div> </div> </div> </div> </div> </div> </div> </div> </div> </div>",24.00,2,Westlab,150 gm,Unisex,Y,Personal Care///body care///Bath & Shower,Westlab Relaxing Bath Fizzer With Dead Sea Salt 150 g.jpg,Common Vendor
SEB-988-188-MED,Sebamed Olive Face And Body Wash 400ml,"<h4>Descriptions</h4> <div> <p>Aside from harsh environmental substances that can irritate and cause the skin to dry, frequent showering may also decrease or deplete the body's natural oils. Sebamed's Olive Face and Body Wash is the ideal solution to maintaining and preserving the moisture balance of the skin. Despite its mild ingredients, it still provides deep and gentle cleansing of the pores. Natural moisturizers, Allantoin, and Pentavitin leave skin soft and smooth while Panthenol regenerates the skin. After washing and cleansing, it leaves the skin feeling soft, smooth and supple.</p> </div>",30.50,2,Sebamed,400 ML,Unisex,Y,Personal Care///body care///Bath & Shower,Sebamed Olive Face And Body Wash 400ml.jpg,Common Vendor
NAT-989-189-LUS,Natures Plus Oatmeal Cleansing Bar 3.5 oz Bar,"<p><strong>Description</strong></p> <p>Nature's Plus energizing Oatmeal Cleansing Bar is an exfoliating formula designed to gently revitalize the skin and invigorate the senses with a powerful array of aromatherapeutic essential oils. Experience the gentle scrubbing and freshening properties of natural rolled oats and the energizing effects of eleven essential oils, including bay, rosemary, citrus and palmarosa. The bountiful herbal blend of Nature's Plus Oatmeal Cleansing Bar will restore natural vitality to all skin types.</p>",35.00,2,NATURES PLUS,3.5 oz,Unisex,Y,Personal Care///body care///Bath & Shower,Natures Plus Oatmeal Cleansing Bar 3.5 oz Bar.jpg,Common Vendor
SEB-990-190-MED,Sebamed Extra Soft Cream 50ml,"<p><strong>Description</strong></p> <p>For intensive protection of baby's delicate skin, this rich water-in-oil emulsion with 42% lipids forms a moisturizing film without interfering with the skin's "" breathing"" and metabolic processes. Natural allantoin and the moisturizing agent sodium lactate protect the delicate baby skin from drying, making it soft and smooth. The herbal extract chamomile soothes irritated skin particularly in the usual areas of contact chaffing (elbows, knees). Well suited for the prevention of nappy rash dermatitis, the active ingredient panthenol stimulates healing processes. Sebamed Baby Cream Extra Soft, with a pH value of 5.5, promotes the development of the skin's protective acid mantle. Furthermore, vitamin E safeguards against harmful environmental influences. The lipid concentration of the cream protects baby's face and hands during cold weather. Baby Cream is easy to apply and readily absorbed. Also recommended for extremely sensitive or dry skin e.g. atopic eczema, senile xerosis or psoriasis.</p>",8.50,2,Sebamed,50 ML,Unisex,Y,Personal Care///body care///Bath & Shower,Sebamed Extra Soft Cream 50ml.jpg,Common Vendor
SEB-991-191-MED,Sebamed Liquid Face & Body Wash 200ml,"<p><strong>Description</strong></p> <p>Suitable for face and body cleansing, its pH 5.5 value of healthy skin supports and protects the natural barrier function of the skins acid mantle. It is well suited as the therapy supportive skin care for skin infections, acne, atopic eczema, psoriasis, contact dermatitis, and skin mycosis.</p> <ul> <li>For sensitive and problematic skin.</li> <li>Panthenol regenerates the skin.</li> <li>Good skin tolerance.</li> <li>Very mild wash active ingredients provide pore deep yet gentle cleansing.</li> <li>Ph 5.5 promotes the natural barrier function of the skins acid mantle.</li> <li>Active moisturizing complex with Pentavitin®, Vitamins and Allantoin protects the skin from dehydration.</li> <li>It helps to protect against dryness as well as external irritants, allergens, and harmful micro-organisms.</li> </ul>",17.00,2,Sebamed,200 ML,Unisex,Y,Personal Care///body care///Bath & Shower,Sebamed Liquid Face & Body Wash 200ml.jpg,Common Vendor
PUR-992-192-IEL,Puressentiel Organic Peppermint Essential Oil 10 ml,"<p><strong>Description</strong></p> <ul> <li>The perfume of Peppermint Puressentiel essential oil refreshes and reassures. It just makes short work with daily digestive troubles and eliminates headaches and travel sickness without any difficulty. Invaluable and simple of use!</li> <li>Main properties : Facilitate digestion. Anti-pain. Anti-nausea.<br/>Anti-itching.<br/>Mental action : Improve concentration and relaxation.</li> <li>Organic Essential Oil, Certified AB (Organic farming) and resulting from European agriculture (EU Agriculture).</li> </ul> <p><strong>Directions of Use:</strong></p> <div>Cutaneous application: Yes (pure on a small surface, diluted in vegetable oil in case of repeated applications or on a great surface or if the skin is sensitive).<br/>Dispersion/inhalation: Yes <br/>Oral way: Yes <br/><br/>Precaution for use: The essential Peppermint oil is formally contraindicated during pregnancy, breastfeeding, to children under 6, to epileptic people. Old people should use it with care.<br/>Never use it pure in the bath.</div> <div>Indication: Digestive disorders: Slow digestion, indigestion, increase acid, gas, nausea, vomiting, travel sickness, bad breath. Pains of all kinds: Tendinitis, sciatic nerve, rheumatisms, headaches, neuralgias.</div>",26.00,2,Puressentiel,10 ML,Unisex,Y,Personal Care///body care///Bath & Shower,Puressentiel Organic Peppermint Essential Oil 10 ml.jpg///Puressentiel Organic Peppermint Essential Oil 10 ml1.jpg,Common Vendor
NAT-993-193-LUS,Natures Plus Cucumber Cleansing Bar 3.5 Oz,"<p><strong>Description</strong></p> <p>Nature's Plus energizing Cucumber Cleansing Bar is a nourishing formula designed to replenish the skin's delicate moisture balance and invigorate the senses with a powerful array of aromatherapeutic essential oils. Experience the gentle cleansing and emollient-rich properties of natural cucumber extract and the stimulating and rejuvenating effects of carrot seed oil, fennel oil, and anise oil. The bountiful herbal blend of Nature's Plus Cucumber Cleansing Bar will restore natural vitality to all skin types.</p> <ul> <li>100% Pure</li> <li>With Aromatherapeutic Essential Oils</li> <li>100% Biodegradable</li> <li>Cruelty-Free</li> <li>No Animal Ingredients</li> </ul>",35.00,2,NATURES PLUS,3.5 oz,Unisex,Y,Personal Care///body care///Bath & Shower,Natures Plus Cucumber Cleansing Bar 3.5 Oz.jpg///Natures Plus Cucumber Cleansing Bar 3.5 Oz1.jpg,Common Vendor
BEA-994-194-LAS,Beauty Formulas Body & Face Cooling Mist 150 ml,"<p><strong>Description</strong></p> <p>Cools and refreshes the skin, perfect for all hot weather conditions. Beauty formulas body and face mist quickly cools and refreshes you in all hot weather conditions. Instantly stimulates and revives the skin. Use regularly and as often as required. Ideal for use on hot days, humid nights, sunbathing, during and after sports.</p>",19.00,2,BEAUTY FORMULAS,150 ML,Unisex,Y,Personal Care///body care///Bath & Shower,Beauty Formulas Body & Face Cooling Mist 150 ml.jpg,Common Vendor
HEL-995-195-URE,Hello Nature Argan Oil Body Oil 130 ml,<p><strong>Description</strong></p> <p><strong>ARGAN OIL SMOOTHNESS &amp; BEAUTY </strong><strong>body oil.</strong></p> <p>Intensely moisturizes your skin and restores its smoothness and softness.</p> <p>97 % of the ingredients are of natural origin.</p> <p><strong>Directions for use</strong><strong>: </strong></p> <p>Pour a few drops of the oil into your palms and rub all over the body. Relax and enjoy the mysterious and seductive scent lingering on your skin!</p>,42.00,2,Hello Nature,130 ML,Unisex,Y,Personal Care///body care///Bath & Shower,Hello Nature Argan Oil Body Oil 130 ml.jpg,Common Vendor
EVE-996-196-INE,Eveline Slim Extreme 4D Prof Presothrapy Serum 250 ml,"<p><strong>Description</strong></p> <p>Inspired pressure therapy treatment technology 3-PHASE LIPO-COMPRESSION TM based on the revolutionary PRO-complex SVELTYL® and triple concentrated caffeine, combats persistent orange peel through the mechanism of 3-phase compression. 3-PHASE LIPO-COMPRESS TM: PHASE 1 stimulates lipolysis - the process of disintegration and elimination of fat cells, thus reducing cellulite and fat. PHASE 2 works draining - removes excess water and toxins from the cells, eliminates swelling and prevents stagnation of fluids, effectively fighting cellulite water. PHASE 3 binds and removes toxins and reduces permeation of the deep layers of the skin. Strongly firms and prevents the formation of follicular changes. Advanced active ingredients: PRO-SVELTYL - slimming complex reduce the size of fat cells and reducing its volume. Triple conccentrated caffeine speeds up the metabolism of fat and corrects the visible signs of cellulite. Collagen and elastin visibly improving firmness, tone and elasticity. Extract form algues and minerals from thermal waters inhibit the aging process, deeply moisturize, nourish and soften the skin.</p>",50.00,2,Eveline,250 ML,Unisex,Y,Personal Care///body care///Bath & Shower,Eveline Slim Extreme 4D Prof Presothrapy Serum 250 ml.jpg,Common Vendor
SEB-997-197-MED,Sebamed Olive Face And Body Wash 200ml,"<p><strong>Description</strong></p> <p>Aside from harsh environmental substances that can irritate and cause the skin to dry, frequent showering may also decrease or deplete the body's natural oils. Sebamed's Olive Face and Body Wash is the ideal solution to maintaining and preserving the moisture balance of the skin. Despite its mild ingredients, it still provides deep and gentle cleansing of the pores. Natural moisturizers, Allantoin, and Pentavitin leave skin soft and smooth while Panthenol regenerates the skin. After washing and cleansing, it leaves the skin feeling soft, smooth and supple.</p>",17.50,2,Sebamed,200 ML,Unisex,Y,Personal Care///body care///Bath & Shower,Sebamed Olive Face And Body Wash 200ml.jpg,Common Vendor
NAT-998-198-LUS,Natures Plus Vitamin E Soap 3 Oz Bars,<p><strong>Description</strong></p> <p>Nature's Plus Vitamin E Soap is 100% Natural.</p> <p>Nature's Plus Vitamin E Soap is the highest quality Glycerin soap available on the market. It contains 100% natural ingredients. Vitamin E Soap is biodegradable and contains no detergents. Nature's Plus is committed to offering the best supplements available anywhere.</p>,28.00,2,NATURES PLUS,3 oz,Unisex,Y,Personal Care///body care///Bath & Shower,Natures Plus Vitamin E Soap 3 Oz Bars.jpg///Natures Plus Vitamin E Soap 3 Oz Bars2.jpg///Natures Plus Vitamin E Soap 3 Oz Bars1.jpg,Common Vendor
OIL-999-199-LAN,Oillan Nourishing Soap 100G,"<p><strong>Description</strong></p> <p>The soap is recommended to wash the face and body. It effectively cleanses irritated, dry and flaky skin of infants, children, and adults, restoring softness and smoothness to the skin. Protective formula thoroughly nourishes and moisturizes the skin and reduces the feeling of dryness.</p> <ul> <li>For babies from 1st day of life.</li> <li>Dermatologically and allergologically tested on people with skin allergies.</li> </ul> <p><strong>Recommendation:</strong></p> <p>For best results, after washing, follow with Oillan face and/or body care product.</p> <p><strong>Weight:</strong></p> <p>100g</p>",25.00,2,Oillan,100 G,Unisex,Y,Personal Care///body care///Bath & Shower,Oillan Nourishing Soap 100G.jpg,Common Vendor
JAS-1000-200-SON,Jason Men's Mountain Spice Body Wash 30oz,"<p><strong>Description</strong></p> <p>Feel the deepest clean from your head to your toe. Our all-in-one wash packs a botanically-powerful punch to completely clean your face, hair, and body. The Aloe Vera moisturizes, while Orange Peel, Bergamot and Clove Oils leave you feeling refreshed and invigorated. Super clean? Super easy.<br/> <br/><strong><em>An earth-friendly, biodegradable formula.</em></strong></p> <p>JASON brand believes in the power of nature's ingredients to improve everyday wellness. We were pioneers of safer, wholesome personal care, and we continue to harness the earth's bounty of botanicals and essentials for blends that refresh and restore. Wellness is our second nature, and it has been since 1959.</p> <p><strong>Directions:</strong></p> <div> <div> <p>Use on damp skin and wet hair in the bath or shower. Massage into a soft soothing lather, then rinse with warm water.</p> </div> </div>",58.00,2,Jason,30 oz,Unisex,Y,Personal Care///body care///Bath & Shower,Jason Men's Mountain Spice Body Wash 30oz.jpg///Jason Men's Mountain Spice Body Wash 30oz1.jpg,Common Vendor
