Product Code,Package Name,Description,Price Stock,Brand,Manufacturer,OTC,Category,Product Image,Vendor
BEU-RER-609-705,Beurer BC08 Blood Pressure Monitor,"<div> <div> <h4>Short description:</h4> <ul> <li>Fully automatic blood pressure and pulse measurement on the wrist</li> <li>Arrhythmia detection function</li> <li>Average of all saved measured values and morning and evening blood pressure for the last 7 days</li> <li>Automatic switch-off function</li> <li>2x50 memory spaces</li> </ul> </div> </div> <div> <h4>Description:</h4> <p>The wrist blood pressure monitor is used for non-invasive measurement and monitoring of adults' arterial blood pressure. It is reliable with easy to use. It has two channels, each with 50 memories. It shows time, date, error warning and battery charge indication. Also has two year of warranty. Battery is powered with 2x1.5V alkaline batteries AAA</p> </div> <div> <h4>Benefits:</h4> <ul> <li>This instrument can identify possible heart rhythm disturbance during measurement and if necessary indicates the measurement.</li> <li>Use it to measure your blood pressure quickly and easily</li> <li>Storing the results and displaying the progression of readings together with the average.</li> <li>Suitable for wrist circumference from 13.5 22cm</li> <li>Dimensions of 80x70x27mm with weight of 140g</li> </ul> </div> <div> <h4>How to use:</h4> <ul> <li>Positioning cuff</li> <li>Bare your left wrist, making sure that the circulation in the arm is not restricted by any clothes etc. that are too tight. Position the cuff on the inside of your wrist</li> <li>Fasten the cuff with the Velcro fastening so that the upper edge of the monitor is positioned approx. 1 cm below the ball of your thumb</li> <li>The cuff has to be fitted tightly around the wrist but should not constrict itMeasuring blood pressure</li> <li>Put on the cuff as described previously and assume the position in which you want to carry out the measurement</li> <li>Press the User-Switching key to select a memory zone, and press the key 2x to start measurement in the chosen memory zone. After checking the display with all digits lighting up, the monitor will automatically inflate. Following the self-test, during which all display elements briefly appear, the measurement begins. During inflation the device already determines measured values used to estimate the required inflation pressure. If this pressure is insufficient, the device automatically inflates by another 40 mmHg</li> <li>Then the pressure in the cuff is slowly released and the pulse is measured</li> <li>When the measurement has been completed, the remaining air pressure is released very quickly. The pulse, the systolic and the diastolic blood pressure are displayed</li> <li>The device requires approx. 5 seconds to store the determined measured value</li> <li>You can interrupt measurement at any time by pressing the ON/OFF button</li> <li>To switch off and release the pressure, press the ON/OFF button again. If you forget to switch off the device, it switches off automatically after approx. 1 minute</li> <li>Wait at least 5 minutes before taking another measurement. For detailed instruction, kindly read the manual carefully before use</li> </ul> </div> <p>This document was composed with the free HTML beautifier which can be accessed <a href=""https://html-cleaner.com/"">here</a>. Use it every time for document editing.</p>",230,Beurer,Beurer,Y,Medical Equipment's///Health Monitors///Blood Pressure Monitors,Beurer BC08 Blood Pressure Monitor.jpg///Beurer BC08 Blood Pressure Monitor1.jpg///Beurer BC08 Blood Pressure Monitor2.jpg,Common Vendor
BEU-RER-610-706,Beurer BC16 Blood Pressure Monitor,"<div> <div> <h4>Short description:</h4> <ul> <li>Elegant design with storage box</li> <li>Fully automatic blood pressure and pulse measurement on the wrist</li> <li>Arrhythmia detection function</li> <li>Large, easy to read LCD display</li> <li>Automatic switch-off function</li> </ul> </div> </div> <div> <h4>Description:</h4> <p>The wrist blood pressure monitor is used for non-invasive measurement and monitoring of adults' arterial blood pressure. It has simple operations two channels, each with 50 memories. It shows time, date, error warning and battery charge indication. Battery is powered with 2x1.5V AAA batteries.</p> </div> <div> <h4>Benefits:</h4> <ul> <li>This instrument can identify possible heart rhythm disturbance during measurement and if necessary indicates the measurement.</li> <li>Use it to measure your blood pressure quickly and easily</li> <li>Storing the results and displaying the progression of readings together with the average.</li> <li>Suitable for wrist circumference from 13.5 22cm</li> <li>Classification of values in colored scale</li> </ul> </div> <div> <h4>How to use:</h4> <ul> <li>Positioning cuff</li> <li>Bare your left wrist, making sure that the circulation in the arm is not restricted by any clothes etc. that are too tight. Position the cuff on the inside of your wrist</li> <li>Fasten the cuff with the Velcro fastening so that the upper edge of the monitor is positioned approx. 1 cm below the ball of your thumb</li> <li>The cuff has to be fitted tightly around the wrist but should not constrict itMeasuring blood pressure</li> <li>Put on the cuff as described previously and assume the position in which you want to carry out the measurement</li> <li>Press the User-Switching key to select a memory zone, and press the key 2x to start measurement in the chosen memory zone. After checking the display with all digits lighting up, the monitor will automatically inflate. Following the self-test, during which all display elements briefly appear, the measurement begins. During inflation the device already determines measured values used to estimate the required inflation pressure. If this pressure is insufficient, the device automatically inflates by another 40 mmHg</li> <li>Then the pressure in the cuff is slowly released and the pulse is measured</li> <li>When the measurement has been completed, the remaining air pressure is released very quickly. The pulse, the systolic and the diastolic blood pressure are displayed</li> <li>The device requires approx. 5 seconds to store the determined measured value</li> <li>You can interrupt measurement at any time by pressing the ON/OFF button</li> <li>To switch off and release the pressure, press the ON/OFF button again. If you forget to switch off the device, it switches off automatically after approx. 1 minute</li> <li>Wait at least 5 minutes before taking another measurement. For detailed instruction, kindly read the manual carefully before use</li> </ul> </div>",240,Beurer,Beurer,Y,Medical Equipment's///Health Monitors///Blood Pressure Monitors,Beurer BC16 Blood Pressure Monitor.jpg///Beurer BC16 Blood Pressure Monitor2.jpg///Beurer BC16 Blood Pressure Monitor1.jpg,Common Vendor
BEU-RER-611-707,Beurer BC19 Speaking Wrist Blood Pressure Monitor,"<div> <div> <h4>Short description:</h4> <ul> <li>Speaking blood pressure monitor</li> <li>Having arrhythmia detection function</li> <li>Fully automatic blood pressure and pulse measurement on the wrist</li> <li>Large and easy-to-read LCD display</li> <li>Average of last 3 measurements can be taken</li> </ul> </div> </div> <div> <h4>Description:</h4> <p>The wrist blood pressure monitor is used for non-invasive measurement and monitoring of adults' arterial blood pressure. It shows time, date, signal for application error and indicator for low battery. It has 2 memory channels with 60 memories on each channel. Battery is powered with 2x1.5V AAA battery.</p> </div> <div> <h4>Benefits:</h4> <ul> <li>This instrument can identify possible heart rhythm disturbance during measurement and if necessary indicates the measurement.</li> <li>Volume adjustable and voice output in German, English, French, Spanish and Russian</li> <li>Classification of values with colored scale</li> <li>Suitable for wrist circumference from 14-19.5 cm</li> </ul> </div> <div> <h4>How to use:</h4> <ul> <li>Position the cuff onto your left wrist as described in the user manual to carry out the measurement.</li> <li>Start the measurement process by pressing START/STOP button. After checking the display with all digits lighting up, the monitor will automatically inflate. Following the self-test, during which all display elements briefly appear, the measurement begins. During inflation the device already determines measured values used to estimate the required inflation pressure. If this pressure is insufficient, the device automatically inflates by another 40 mmHg (Real Fuzzy Logic).</li> <li>Then the pressure in the cuff is slowly released and the pulse is measured.</li> <li>When the measurement has been completed, the remaining air pressure is released very quickly. The pulse, the systolic and the diastolic blood pressure are displayed.</li> <li>You can adjust the volume during the announcement by pressing + and -.</li> <li>You can interrupt measurement at any time by pressing the START/STOP button.</li> <li>Error message appears if it has not been possible to perform the measurement properly. Observe the section in these instructions on error messages/troubleshooting and repeat the measurement.</li> <li>The test result is saved automatically.</li> <li>For detailed instruction, kindly read the manual carefully before use.</li> </ul> </div>",265,Beurer,Beurer,Y,Medical Equipment's///Health Monitors///Blood Pressure Monitors,Beurer BC19 Speaking Wrist Blood Pressure Monitor.jpg///Beurer BC19 Speaking Wrist Blood Pressure Monitor2.jpg///Beurer BC19 Speaking Wrist Blood Pressure Monitor1.jpg,Common Vendor
BEU-RER-612-708,Beurer BC20 Wrist Blood Pressure Monitor,"<div> <div> <h4>Short description:</h4> <ul> <li>Large and easy-to-read LCD display</li> <li>Automatic switch-off function</li> <li>Wrist cuff size: 12.5 - 20.5 cm</li> <li>60 memory</li> </ul> </div> </div> <div> <h4>Description:</h4> <p>The wrist blood pressure monitor is used for noninvasive measurement and monitoring of adults' arterial blood pressure. You can use it to measure your blood pressure quickly and easily, storing the results and displaying the progression of readings together with the average.</p> </div> <div> <h4>Benefits:</h4> <ul> <li>The automatic switch-off function switches off the blood pressure monitor in order to preserve the batteries, if no button is pressed within one minute.</li> <li>The computer automatically saves the blood pressure readings of the last 60 measurements.</li> </ul> </div> <div> <h4>How to use:</h4> <ul> <li>Apply the blood pressure computer to the inside of the left wrist.</li> <li>Sit in a relaxed position. Ensure that your arm is supported and bend it so that it is at the level of your heart.</li> <li>Allow an adequate relaxation time of 3  5 minutes. Now press the Start /Stop button to start the measurement.</li> <li>Following the display check, during which all numbers light up, the cuff automatically pumps up to 180 mmHg. Your blood pressure readings and pulse rate will then appear in the display.</li> <li>To switch off and release the pressure, press the Start /Stop button again. If you forget to switch off the computer, it will switch off automatically after 3 minutes.</li> </ul> </div>",235,Beurer,Beurer,Y,Medical Equipment's///Health Monitors///Blood Pressure Monitors,Beurer BC20 Wrist Blood Pressure Monitor.jpg///Beurer BC20 Wrist Blood Pressure Monitor3.jpg///Beurer BC20 Wrist Blood Pressure Monitor2.jpg///Beurer BC20 Wrist Blood Pressure Monitor1.jpg,Common Vendor
BEU-RER-613-709,Beurer BM19 Blood Pressure Monitor,"<div> <div> <h4>Short description:</h4> <ul> <li>Speaking upper arm blood pressure monitor</li> <li>Having arrhythmia detection function</li> <li>Large, easy-to-read LCD display</li> <li>Automatic switch-off function</li> </ul> </div> </div> <div> <h4>Description:</h4> <p>The upper arm blood pressure monitor is used for non¬invasive measurement and monitoring of adults' arterial blood pressure.</p> </div> <div> <h4>Benefits:</h4> <ul> <li>This instrument can identify possible heart rhythm disturbance during measurement and if necessary indicates the measurement</li> <li>Use it to measure your blood pressure quickly and easily</li> <li>Stores the results and displays the progression of readings together with the average</li> <li>Suitable for upper arm circumferences 22-30 cm</li> <li>The device also has an acoustic voice output</li> </ul> </div> <div> <h4>How to use:</h4> <ul> <li>Positioning cuff</li> <li>Fit the cuff round your bare left upper arm. Blood circulation in the arm should not be restricted by tight clothing or other objects</li> <li>The cuff should be placed on the upper arm so that the lower edge is 2 to 3 cm above the bend of the elbow and above the artery. The tube should be in line with the centre of the palm. Now place the free end of the cuff snugly, but not too tightly, around the arm, and fix it with the Velcro fastener. The cuff should be fitted tight enough to allow just two fingers to fit beneath the cuff. Insert the cuff tubing into the socket for the cuff attachment</li> <li>Rest for approx. 5 minutes before each measurement. Other-wise there may be divergences</li> <li>You can perform the measurement either sitting or lying down. Always make sure that the cuff is on a level with your heart</li> <li>In order not to distort the result, it is important to keep still during the measurement and not talkMeasuring blood pressure</li> <li>Put on the cuff as described previously and assume the position in which you want to carry out the measurement</li> <li>Start the measurement process by pressing ON/OFF button. After checking the display with all digits lighting up, the monitor will automatically inflate. Following the self-test, during which all display elements briefly appear, the measurement begins. During inflation the device already determines measured values used to estimate the required inflation pressure. If this pressure is insufficient, the device automatically inflates by another 40 mmHg</li> <li>Then the pressure in the cuff is slowly released and the pulse is measured</li> <li>When the measurement has been completed, the remaining air pressure is released very quickly. The pulse, the systolic and the diastolic blood pressure are displayed</li> <li>You can adjust the volume during the announcement by pressing + and </li> <li>You can interrupt measurement at any time by pressing the ON/OFF button</li> <li>The icon appears if it has not been possible to perform the measurement properly. Observe the section in these instructions on error messages/troubleshooting and repeat the measurement</li> <li>The device switches off automatically after 1 minute. Wait at least 5 minutes before taking another measurement</li> <li>For detailed instruction, kindly read the manual carefully before use</li> </ul> </div> <p>You can find the best <a href=""https://html-css-js.com/"">online HTML, CSS and JavaScript tools</a> in one place. Online editors, code optimizers and more.</p>",295,Beurer,Beurer,Y,Medical Equipment's///Health Monitors///Blood Pressure Monitors,Beurer BM19 Blood Pressure Monitor.jpg///Beurer BM19 Blood Pressure Monitor3.jpg///Beurer BM19 Blood Pressure Monitor2.jpg///Beurer BM19 Blood Pressure Monitor1.jpg,Common Vendor
BEU-RER-614-710,Beurer BM20 Blood Pressure Monitor,"<div> <div> <h4>Short description:</h4> <ul> <li>Large, easy-to-read LCD display</li> <li>Automatic switch-off function</li> <li>2 x 30 memory spaces</li> <li>Calculation of average value</li> </ul> </div> </div> <div> <h4>Description:</h4> <p>The Beurer BM 20 Upper Arm Blood Pressure Monitor is the perfect device for in-home use. The automatic monitor allows you to simply apply the cuff to your arm, press a button, and receive a reading. The cuff will inflate itself and the machine will take the reading for you. The upper arm blood pressure monitor is used for non­invasive measurement and monitoring of adult arterial blood pressure.</p> </div> <div> <h4>Benefits:</h4> <ul> <li>Fully-automatic measurement upper arm Simple operation Stores the results and displays the progression of readings together with the average Suitable for upper arm circumferences 22-32 cm</li> </ul> </div> <div> <h4>How to use:</h4> <ul> <li>To begin, place the cuff on your bare upper arm one inch above the bend of your elbow. Pull the end of the cuff so that it's evenly tight around your arm. You should place it tight enough so that you can only slip two fingertips under the top edge of the cuff. Make sure your skin doesn't pinch when the cuff inflates. For detailed instruction, kindly read the manual carefully before use.</li> </ul> </div>",245,Beurer,Beurer,Y,Medical Equipment's///Health Monitors///Blood Pressure Monitors,Beurer BM20 Blood Pressure Monitor.jpg///Beurer BM20 Blood Pressure Monitor1.jpg,Common Vendor
BEU-RER-615-711,Beurer BM58 Blood Pressure Monitor,"<div> <div> <h4>Short description:</h4> <ul> <li>Upper arm blood pressure monitor</li> <li>Having arrhythmia detection function</li> <li>Large, easy-to-read LCD display</li> <li>Automatic switch-off function</li> <li>2x60 memory space</li> </ul> </div> </div> <div> <h4>Description:</h4> <p>The upper arm blood pressure monitor is used for non¬invasive measurement and monitoring of adults' arterial blood pressure.</p> </div> <div> <h4>Benefits:</h4> <ul> <li>This instrument can identify possible heart rhythm disturbance during measurement and if necessary indicates the measurement</li> <li>Use it to measure your blood pressure quickly and easily</li> <li>Stores the results and displays the progression of readings together with the average</li> <li>Suitable for upper arm circumferences 22-30cm</li> <li>Touch screen display</li> <li>Shows average of all saved measured values and morning and evening blood pressure for the last 7 days</li> </ul> </div> <div> <h4>How to use:</h4> <ul> <li>Positioning cuff</li> <li>Fit the cuff round your bare left upper arm. Blood circulation in the arm should not be restricted by tight clothing or other objects</li> <li>The cuff should be placed on the upper arm so that the lower edge is 2 to 3 cm above the bend of the elbow and above the artery. The tube should be in line with the centre of the palm. Now tighten the free end of the cuff, but make sure that it is not too tight around the arm and close the hook-and-loop fastener. The cuff should be fastened so that two fingers can fit under the cuff. Now insert the cuff line into the connection for the cuff connector.</li> <li>Rest for approx. 5 minutes before each measurement. Otherwise there may be divergences</li> <li>You can perform the measurement either sitting or lying down. Always make sure that the cuff is on a level with your heart</li> <li>To carry out a blood pressure measurement, make sure you are sitting comfortably with your arms and back leaning on something. Do not cross your legs. Place your feet flat on the ground</li> <li>In order not to distort the result, it is important to keep still during the measurement and not talkMeasuring blood pressure</li> <li>Move the touch screen activation switch to the ON position</li> <li>Put on the cuff as described previously and assume the position in which you want to carry out the measurement</li> <li>Switch on the blood pressure monitor with the START/ STOP button . After the full-screen display, the most recently used user memory appears. To change the user memory, press the MEM button and confirm your selection with the START/STOP button. If no button is pressed, the most recently used user memory is automatically used after 5 seconds</li> <li>Before the measurement, the last saved test result is briefly displayed. If there is no measurement in the memory, the instrument always displays the value</li> <li>The cuff automatically inflates. Cuff air pressure is released slowly. If a tendency towards high blood pressure is already detectable, the cuff is pumped up again and cuff pressure increased further. As soon as a heart rate is detected, the heart rate symbol is displayed</li> <li>Heart rate, systolic and diastolic blood pressure are displayed</li> <li>You can cancel the measurement at any time by pressing the START/STOP button or by pushing the touch screen activation button to OFF</li> <li>Er_ appears if it has not been possible to perform the measurement properly. Observe the section in these instructions on error messages/troubleshooting and repeat the measurement</li> <li>The test result is saved automatically</li> <li>To switch off the device, press the START/STOP button or push the touch screen activation switch to OFF. If you forget to switch off the device, it switches off automatically after approx. 1 minute. Wait at least 5 minutes before taking another measurement</li> <li>For detailed instruction, kindly read the manual carefully before use</li> </ul> </div>",310,Beurer,Beurer,Y,Medical Equipment's///Health Monitors///Blood Pressure Monitors,Beurer BM58 Blood Pressure Monitor.jpg///Beurer BM58 Blood Pressure Monitor1.jpg///Beurer BM58 Blood Pressure Monitor2.jpg///Beurer BM58 Blood Pressure Monitor3.jpg,Common Vendor
AND-PAN-616-712,AND UA-651 BP Monitor,"<div> <div> <h4>Short description:</h4> <ul> <li>Simple one-touch measurement</li> <li>30 Memory Recall</li> <li>View readings on the easy to read LCD</li> <li>Slim-fit Cuff System</li> <li>Clinically Validated</li> </ul> </div> </div> <div> <h4>Description:</h4> <p>All the essential functions for blood pressure monitoring are in a smart compact unit. The UA-651 was designed with A&amp;D's original concept of blood pressure monitors for easy and accurate monitoring in mind. With a 3-line display, one-touch operation and 30-memory, it retains our fundamental principle of designing easy-to-use monitors.</p> </div> <div> <h4>Benefits:</h4> <ul> <li>Latex-free and Metal-free Slim-fit cuff</li> <li>Comfortable measurement to sensitive skin</li> <li>Clinically Validated</li> <li>30 Memory Recall</li> <li>IP21 Level protection against water drops</li> </ul> </div> <div> <h4>How to use:</h4> <ul> <li>Place the cuff on the arm at heart level (preferably the left arm), sit quietly</li> <li>Press the START button, zero is displayed blinking briefly</li> <li>Display changes, as the measurement begins</li> <li>The cuff starts to inflate to feel very tight</li> <li>A pressure bar indicator is displayed during inflation</li> <li>If you wish to stop inflation at any time, press the START button again</li> <li>When inflation is complete, deflation starts automatically and the (heart mark) blinks, indicating that the measurement is in progress</li> <li>Once the pulse is detected, the mark blinks with each pulse beat</li> <li>If an appropriate pressure is not obtained, the device starts to inflate again automatically</li> <li>When the measurement is complete, the systolic and diastolic pressure readings and pulse rate are displayed</li> <li>The cuff exhausts the remaining air and deflates completely</li> <li>Model UA-651 is provided with an automatic power -off function</li> <li>Allow at least 3 minutes between measurements on the same person</li> </ul> </div>",99,A&D Medical,AND Japan,Y,Medical Equipment's///Health Monitors///Blood Pressure Monitors,AND UA-651 BP Monitor.jpg///AND UA-651 BP Monitor1.jpg,Common Vendor
HAR-ANN-617-713,Hartmann Tensoval Comfort Blood Pressure Monitor,"<div> <div> <h4>Short description:</h4> <ul> <li>New for reliable upper arm blood pressure</li> <li>Measurements based on oscillometric method</li> <li>Memory function stores 60 readings</li> <li>With date and time for two user</li> </ul> </div> </div> <div> <h4>Description:</h4> <p>Hartmann Tensoval Comfort Blood Pressure Monitor is a fully automatic blood pressure monitor for measurements on the upper arm based on the oscillometric method. For blood pressure measurement on the upper arm; reliable measurement results can only be obtained by selecting the suitable cuff size depending on the upper arm circumference. The device is available with two sizes of cuffs: Tensoval Comfort with moulded or easy-care cuff for an upper arm circumference 22-32 cm and Tensoval Comfort Large with draw-clamp cuff for an upper arm circumference 32-42 cm.</p> </div> <div> <h4>Benefits:</h4> <ul> <li>Extra large digital display Automatic switch-off function With connecting socket for mains adapter Replaceable long-life batteries</li> </ul> </div> <div> <h4>How to use:</h4> <ul> <li>Please refer to the instructions manual for proper usage. It is recommended that blood pressure measurements are carried out in sitting position. Place your arm with the palm upwards on a support and make sure the cuff is at the level of the heart. Do not turn the device on until the cuff has been applied, otherwise the cuff can become damaged through the resulting excess pressure. Press the START/STOP button. The appearance of all display segments followed by a flashing arrow pointing downwards, shows that the device is checking itself automatically and is ready for use. Subsequently, automatic inflation begins at approximately 190 mmHg. If the pump pressure is insufficient or if the measurement is interrupted, the device continues to pump at a rate of 30 mmHg until a high enough pressure is reached. If you require a higher inflation pressure, you can avoid having to repeat pumping by pressing the START/STOP button again shortly after inflation starts until the desired cuff pressure is reached. This should be approximately 30 mm Hg over the systolic value. As pressure in the cuff decreases, the heart symbol and the falling cuff pressure are displayed. A beep indicates the end of measurement. The systolic and diastolic readings appear simultaneously on the display, with the pulse rate beneath them.</li> </ul> </div>",400,Hartmann,Hartmann,Y,Medical Equipment's///Health Monitors///Blood Pressure Monitors,Hartmann Tensoval Comfort Blood Pressure Monitor.jpg///Hartmann Tensoval Comfort Blood Pressure Monitor1.jpg,Common Vendor
HAR-ANN-618-714,Hartmann Tensoval Mobil Blood Pressure Monitors,"<div> <div> <h4>Short description:</h4> <ul> <li>Preformed cuff for wrist</li> <li>Full automatic cuff inflation and deflation</li> <li>Stores 30 measurements and average value</li> <li>Easy to use due to its clear 2-button control</li> <li>In a hard-wearing comfort case</li> </ul> </div> </div> <div> <h4>Description:</h4> <p>Fully automatic blood pressure monitor for measurements based on the oscillometric method with innovative inflation technology - Comfort Air Technology, provide with accurate results and is simple to use:</p> </div> <div> <h4>Benefits:</h4> <ul> <li>Allows reading the measurement easily thanks to the large digital display</li> <li>Gives accurate measurement</li> <li>Fast measuring with individual pulse synchronization</li> </ul> </div> <div> <h4>How to use:</h4> <ul> <li>Please refer to the instructions for use manual.</li> </ul> </div>",385,Hartmann,Hartmann,Y,Medical Equipment's///Health Monitors///Blood Pressure Monitors,Hartmann Tensoval Mobil Blood Pressure Monitors.jpg,Common Vendor
OMR-RON-619-715,Omron AC Adapter,<div> <div> <h4>Short description:</h4> <ul> <li>AC adapter</li> <li>For omron blood pressure monitors</li> <li>Sold as individual</li> </ul> </div> </div> <div> <h4>Description:</h4> <p>Omron AC Adapter is an optional accessory that allows you use your home's electricity to power Omron's blood pressure monitors instead of batteries.</p> </div> <div> <h4>Benefits:</h4> <ul> <li>Optional AC Adapter for use with the Omron blood pressure monitors</li> <li>No need of changing batteries in your blood pressure monitor</li> </ul> </div> <div> <h4>How to use:</h4> <ul> <li>Use with the Omron blood pressure monitors.</li> </ul> </div>,45,Omron,Omron,Y,Medical Equipment's///Health Monitors///Blood Pressure Monitors,Omron AC Adapter.jpg,Common Vendor
OMR-RON-620-716,Omron CL2 Large Cuff,"<div> <div> <h4>Short description:</h4> <ul> <li>Large cuff</li> <li>Cuff fits arm circumference 32 - 42 cm</li> <li>Compatible for the M2 Basic, M2 Classic and M3 upper arm blood pressure monitors</li> </ul> </div> </div> <div> <h4>Description:</h4> <p>The Omron CL2 Large Cuff is an accessory to be used with Omron blood pressure monitors and is suitable for arm circumferences of 32 cm to 42 cm.</p> </div> <div> <h4>Benefits:</h4> <ul> <li>With visual instructions on how to use</li> <li>Comfortable</li> </ul> </div> <div> <h4>How to use:</h4> <ul> <li>Please check your present product as to which plug you must use.</li> <li>Note that two plugs are extremely similar, connect the correct air plug to the air tube.</li> <li>Using the wrong plug may cause air leakage and incorrect readings.</li> </ul> </div>",150,Omron,Omron,Y,Medical Equipment's///Health Monitors///Blood Pressure Monitors,Omron CL2 Large Cuff.jpg///Omron CL2 Large Cuff1.jpg,Common Vendor
OMR-RON-621-717,Omron CS2 Small Cuff,"<div> <div> <h4>Short description:</h4> <ul> <li>Small cuff</li> <li>Cuff fits arm circumference 17 - 22 cm</li> <li>Can be connected to various Omron BP monitors</li> </ul> </div> </div> <div> <h4>Description:</h4> <p>Omron CS2 small cuff has arm circumference of 17 to 22 centimeters. Please refer to the original instruction manual of your blood pressure monitor.</p> </div> <div> <h4>Benefits:</h4> <ul> <li>Omron small cuff can be connected to various Omron blood pressure monitors.</li> <li>Can be used for pediatric patients</li> </ul> </div> <div> <h4>How to use:</h4> <ul> <li>Please check your present product as to which plug you must use.</li> <li>Note that two plugs are extremely similar, connect the correct air plug to the air tube.</li> <li>Using the wrong plug may cause air leakage and incorrect readings.</li> </ul> </div>",87.5,Omron,Omron,Y,Medical Equipment's///Health Monitors///Blood Pressure Monitors,Omron CS2 Small Cuff.jpg///Omron CS2 Small Cuff1.jpg,Common Vendor
OMR-RON-622-718,Omron CM2 Medium Cuff,"<div> <div> <h4>Short description:</h4> <ul> <li>Medium cuff</li> <li>Cuff fits arm circumference 22 - 32 cm</li> <li>Compatible for the M2 Basic, M2 Classic and M3 upper arm blood pressure monitors</li> </ul> </div> </div> <div> <h4>Description:</h4> <p>The Omron CM2 Medium Cuff is an accessory to be used with Omron blood pressure monitors and is suitable for arm circumferences of 22 cm to 32 cm.</p> </div> <div> <h4>Benefits:</h4> <ul> <li>With visual instructions on how to use</li> <li>Comfortable</li> </ul> </div> <div> <h4>How to use:</h4> <ul> <li>Please check your present product as to which plug you must use.</li> <li>Note that two plugs are extremely similar, connect the correct air plug to the air tube.</li> <li>Using the wrong plug may cause air leakage and incorrect readings.</li> </ul> </div>",80,Omron,Omron,Y,Medical Equipment's///Health Monitors///Blood Pressure Monitors,Omron CM2 Medium Cuff.jpg,Common Vendor
OMR-RON-623-719,Omron M2 Automatic Blood Pressure Monitor,"<div> <div> <h4>Short description:</h4> <ul> <li>Fully automatic blood pressure monitor</li> <li>Large easy-to-read display</li> <li>Intellisense technology for quick, comfortable and accurate measurement</li> <li>One-button operation: simple, quick and easy to use</li> </ul> </div> </div> <div> <h4>Description:</h4> <p>This clinically validated M2 Basic also features a hypertension indicator that displays a symbol on screen if a reading is higher than the recommended blood pressure level of 135/85 mmHg. With a clinically validated monitor, you can be assured that it has undergone tests conducted by independent doctors according to a predetermined protocol, which includes ensuring the accuracy of the measurements (algorithm) of the blood pressure monitor. When using an Omron blood pressure monitor, please ensure that the cuff size is correct. The Omron M2 Basic comes with a standard size cuff for arm circumference 22 cm to 32 cm.</p> </div> <div> <h4>Benefits:</h4> <ul> <li>Irregular heartbeat detection</li> <li>Blood Pressure Indicator</li> <li>Cuff wrapping guide</li> <li>21 Memories</li> </ul> </div> <div> <h4>How to use:</h4> <ul> <li>Please read the instruction manual carefully before use.</li> </ul> </div>",231,Omron,Omron,Y,Medical Equipment's///Health Monitors///Blood Pressure Monitors,Omron M2 Automatic Blood Pressure Monitor.jpg///Omron M2 Automatic Blood Pressure Monitor1.jpg,Common Vendor
OMR-RON-624-720,Omron M2 Basic Blood Pressure Monitor,"<div> <div> <h4>Short description:</h4> <ul> <li>Intellisense technology</li> <li>Easy cuff : 22-32 cm</li> <li>Fully automatic</li> <li>Clinically validated</li> </ul> </div> </div> <div> <h4>Description:</h4> <p>This simple, fully automatic upper arm blood pressure monitor gives you comfortable, quick and accurate blood pressure monitoring. Intellisense technology ensures that the arm cuff reaches the correct inflation and doesn't pump up too high. The Omron M2 Basic comes with a standard size cuff for arm circumference 22 cm to 32 cm.</p> </div> <div> <h4>Benefits:</h4> <ul> <li>Intellisense technology for quick, comfortable and accurate measurement</li> <li>One-button operation: simple, quick and easy to use</li> <li>Easy to wrap cuff (22-32 cm)</li> </ul> </div> <div> <h4>How to use:</h4> <ul> <li>Please read the instruction manual</li> </ul> </div>",195,Omron,Omron,Y,Medical Equipment's///Health Monitors///Blood Pressure Monitors,Omron M2 Basic Blood Pressure Monitor.jpg///Omron M2 Basic Blood Pressure Monitor1.jpg,Common Vendor
OMR-RON-625-721,Omron M6 Comfort Blood Pressure Monitor,"<div> <div> <h4>Short description:</h4> <ul> <li>Fully automatic, clinically validated monitor with dual-sized cuff for comfortable, quick and accurate blood pressure monitoring</li> <li>Intellisense technology detects the right inflation pressure automatically</li> <li>Hypertension indicator displays on screen</li> </ul> </div> </div> <div> <h4>Description:</h4> <p>The M6 Comfort is equipped with a range of useful health indicators. With the Easy BP Level Indicator, which features an LED light, you can see at a glance if your blood pressure is normal or high. The Morning Hypertension Tracking Function and Irregular Heartbeat Detector provide additional insight into your vascular health.</p> </div> <div> <h4>Benefits:</h4> <ul> <li>Cuff wrapping indicates if the cuff has been wrapped correctly to ensure accurate readings</li> <li>Dual-check system provides a second check to ensure the measurement's accuracy</li> <li>Blood pressure indicator</li> <li>100 Memories in each user</li> <li>Irregular heartbeat</li> <li>Displays Movement error</li> </ul> </div> <div> <h4>How to use:</h4> <ul> <li>Please read the instruction mannual enclosed before use.</li> </ul> </div>",359,Omron,Omron,Y,Medical Equipment's///Health Monitors///Blood Pressure Monitors,Omron M6 Comfort Blood Pressure Monitor.jpg///Omron M6 Comfort Blood Pressure Monitor2.jpg///Omron M6 Comfort Blood Pressure Monitor1.jpg,Common Vendor
OMR-RON-626-722,Omron RS2 Wrist Blood Pressure Monitor,"<div> <div> <h4>Short description:</h4> <ul> <li>Intellisense technology</li> <li>Cuff wrapping guide</li> <li>Fully automatic</li> <li>Clinically validated</li> </ul> </div> </div> <div> <h4>Description:</h4> <p>The Omron RS2 is a compact and easy to use blood pressure monitor, operating on the oscillometric principle. It measures your blood pressure and pulse rate simply and quickly. For comfortable controlled inflation without the need of pressure pre-setting or re-inflation the device uses its advanced 'IntelliSense' technology.</p> </div> <div> <h4>Benefits:</h4> <ul> <li>Irregular heartbeat detection</li> <li>Cuff wrapping guide</li> <li>30 memories</li> </ul> </div> <div> <h4>How to use:</h4> <ul> <li>Apply the wrist cuff following the cuff wrapping guide.</li> <li>Sit correctly.</li> <li>Press the start/stop button.</li> <li>The wrist cuff will start to inflate automatically.</li> <li>Undo the wrist cuff and remove the unit.</li> <li>Press the start/stop button to turn off the monitor.</li> <li>The monitor automatically stores the measurement in its memory. It will automatically turn off after two minutes.</li> </ul> </div>",215,Omron,Omron,Y,Medical Equipment's///Health Monitors///Blood Pressure Monitors,Omron RS2 Wrist Blood Pressure Monitor.jpg///Omron RS2 Wrist Blood Pressure Monitor1.jpg,Common Vendor
OMR-RON-627-723,Omron RS3 Wrist Blood Pressure Monitor,"<div> <div> <h4>Short description:</h4> <ul> <li>With cuff wrapping guide</li> <li>60 memories</li> <li>Irregular heartbeat detection</li> <li>Clinically validated</li> </ul> </div> </div> <div> <h4>Description:</h4> <p>The Omron RS3 is a compact and easy to use blood pressure monitor, operating on the oscillometric principle. It measures your blood pressure and pulse rate simply and quickly. For comfortable controlled inflation without the need of pressure pre-setting or re-inflation the device uses its advanced 'IntelliSense' technology.</p> </div> <div> <h4>Benefits:</h4> <ul> <li>It automatically displays the average of up to the last 3 readings taken over a 10 minute period. Another sensor also highlights any movement (which can invalidate readings) to ensure the accuracy of every individual result.</li> </ul> </div> <div> <h4>How to use:</h4> <ul> <li>Applying the wrist cuff following the cuff wrapping guide.</li> <li>Sit correctly.</li> <li>Press the start/stop button.</li> <li>The wrist cuff will start to inflate automatically.</li> <li>Undo the wrist cuff and remove the unit.</li> <li>Press the start/stop button to turn off the monitor.</li> <li>The monitor automatically stores the measurement in its memory. It will automatically turn off after two minutes.</li> </ul> </div>",256,Omron,Omron,Y,Medical Equipment's///Health Monitors///Blood Pressure Monitors,Omron RS3 Wrist Blood Pressure Monitor.jpg///Omron RS3 Wrist Blood Pressure Monitor1.jpg,Common Vendor
WEL-S.A-628-724,Welch Allyn Dura Shock Aneroid Sphygmomanometer,"<div> <div> <h4>Short description:</h4> <ul> <li>Shock resistant aneroid</li> <li>Gear-free</li> <li>Rotatable gauge snaps into cuff</li> <li>Maintain accurate blood pressure readings with lower lifetime costs</li> </ul> </div> </div> <div> <h4>Description:</h4> <p>This integrated-style gauge with its cuff-mounted design is compact and lightweight for patient comfort and ease of use. In use, the gauge rests on the outer part of the patient's arm. With gear-free Dura Shock technology, you can count on the robust design of the Integrated Aneroid to remain in calibration longer than traditional aneroid, providing more accurate readings over time and a lower lifetime cost, helping to improve practice efficiencies and your bottom line.</p> </div> <div> <h4>Benefits:</h4> <ul> <li>Folded edge for comfort</li> <li>Rotatable gauge snaps into cuff</li> <li>Meets AAMI shock-resistant standard</li> <li>Lightweight and latex free</li> </ul> </div> <div> <h4>How to use:</h4> <ul> <li>Wrap the cuff around the arm with the artery index marker located over the brachial artery and with the lower edge of the cuff 2.5 cm above the bend in the elbow.</li> <li>Inflate cuff rapidly to a level 30 mm Hg above estimated (or palpatory) systolic pressure.</li> <li>Partially open the valve to allow deflation at a rate of 2 to 3 mm Hg per second. As the pressure falls, note systolic pressure and diastolic pressure detected with your stethoscope.</li> <li>Rapidly release the remaining pressure and record measurements immediately.</li> <li>After a minimum of 30 seconds, repeat the above steps for a second reading.</li> </ul> </div>",588,Welch Allyn,Welch Allyn U.S.A,Y,Medical Equipment's///Health Monitors///Blood Pressure Monitors,Welch Allyn Dura Shock Aneroid Sphygmomanometer.jpg,Common Vendor
BEU-RER-629-725,Beurer BM45 Blood Pressure Monitor,"<div> <div> <h4>Short description:</h4> <ul> <li>Upper arm blood pressure monitor</li> <li>Having arrhythmia detection function</li> <li>Large and easy-to-read LCD display</li> <li>Automatic switch-off function</li> <li>2x60 memory space</li> </ul> </div> </div> <div> <h4>Description:</h4> <p>The upper arm blood pressure monitor is used for non­invasive measurement and monitoring of adults' arterial blood pressure. This instrument can identify possible heart rhythm disturbance during measurement and if necessary indicates the measurement. Suitable for upper arm circumferences 22-36 cm.</p> </div> <div> <h4>Benefits:</h4> <ul> <li>Risk indicator</li> <li>Stores the results and displays the progression of readings together with the average</li> <li>Having sensor-touch buttons, illuminate start and stop button</li> <li>Shows average of all saved measured values and morning and evening blood pressure for the last 7 days</li> <li>Perfect to read as it has white illuminated XL display</li> </ul> </div> <div> <h4>How to use:</h4> <ul> <li>Attach the cuff and adopt the posture in which you want to perform the measurement</li> <li>To start the blood pressure monitor, press the Start button, all displays will illuminate briefly</li> <li>The blood pressure monitor will begin the measurement automatically after 3 seconds, the cuff automatically inflates</li> <li>As soon as a pulse is found, the pulse symbol is displayed</li> <li>Systolic pressure, diastolic pressure and pulse measurements are displayed</li> </ul> </div>",219,Beurer,Beurer,Y,Medical Equipment's///Health Monitors///Blood Pressure Monitors,Beurer BM45 Blood Pressure Monitor.jpg,Common Vendor
BEU-RER-630-726,Beurer BM28 Blood Pressure Monitor,"<div> <div> <h4>Short description:</h4> <ul> <li>Universal cuff for upper arm circumference</li> <li>Includes mains adapter</li> <li>Risk indicator</li> </ul> </div> </div> <div> <h4>Description:</h4> <p>Beurer BM 28 automatically measures blood pressure and pulse on the upper arm, with cuff for upper arm circumferences of 22-42. Alerts in case of possible cardiac arrhytmia.</p> </div> <div> <h4>Benefits:</h4> <ul> <li>Preparatory diagnosis to have an idea about the status of your health</li> <li>Gives timely and accurate measurement</li> </ul> </div> <div> <h4>How to use:</h4> <ul> <li>See package insert for the instructions.</li> </ul> </div>",169,Beurer,Beurer,Y,Medical Equipment's///Health Monitors///Blood Pressure Monitors,Beurer BM28 Blood Pressure Monitor.jpg///Beurer BM28 Blood Pressure Monitor1.jpg,Common Vendor
BEU-RER-631-727,Beurer BM27 Blood Pressure Monitor,"<div> <div> <h4>Short description:</h4> <ul> <li>Universal cuff for upper arm circumference</li> <li>Classification of measurement with color chart</li> <li>Risk indicator</li> </ul> </div> </div> <div> <h4>Description:</h4> <p>Beurer BM 27 automatically measures blood pressure and pulse on the upper arm, with cuff for upper arm circumferences of 22-42. It alerts in case of possible cardiac arrhytmia. It provides average value of all saved measurements.</p> </div> <div> <h4>Benefits:</h4> <ul> <li>Preparatory diagnosis to have an idea about the status of your health</li> <li>Gives timely and accurate measurement</li> </ul> </div> <div> <h4>How to use:</h4> <ul> <li>See package insert for the instructions.</li> </ul> </div>",159,Beurer,Beurer,Y,Medical Equipment's///Health Monitors///Blood Pressure Monitors,Beurer BM27 Blood Pressure Monitor.jpg,Common Vendor
OMR-RON-632-728,Omron M7 Intelli IT Blood Pressure Monitor,"<div> <div> <h4>Short description:</h4> <ul> <li>Automatic upper arm blood pressure monitor</li> <li>Intelli Warp Cuff Technology, for an easy and accurate reading</li> <li>Irregular heartbeat detection</li> <li>360? accuracy with Intelli wrap cuff</li> </ul> </div> </div> <div> <h4>Description:</h4> <p>Omron Intelli Wrap Cuff technology assures consistent accuracy from any position around the upper arm. Intelli Wrap Cuff consistent accuracy is confirmed by golden standard and is even for arms with size 22-42 cm. Unlike other cuffs, the Omron Intelli Wrap Cuff measurement zone wraps 360 degrees around the upper arm. There is no measurement 'weak spot', making it virtually impossible to place the cuff incorrectly around the upper arm.</p> </div> <div> <h4>Benefits:</h4> <ul> <li>Average of 3 consecutive readings in 10 minutes</li> <li>Indicates if cuff is wrapped correctly: not too loose or too tight</li> <li>LED indicator: normal (green) or high (red)</li> <li>Allows you to track whether your morning measurement is different from the rest of the day</li> <li>Memory capacity for two users</li> </ul> </div> <div> <h4>How to use:</h4> <ul> <li>Please read the instruction manual carefully before use.</li> </ul> </div>",499,Omron,Omron,Y,Medical Equipment's///Health Monitors///Blood Pressure Monitors,Omron M7 Intelli IT Blood Pressure Monitor.jpg///Omron M7 Intelli IT Blood Pressure Monitor2.jpg///Omron M7 Intelli IT Blood Pressure Monitor1.jpg,Common Vendor
BEU-RER-633-729,Beurer BM40 Blood Pressure Monitor,"<div> <div> <h4>Short description:</h4> <ul> <li>Upper arm blood pressure monitor</li> <li>Fully automatic measurement</li> <li>With arrhythmia detection function and risk indicator</li> <li>Large and easy-to-read LCD display</li> <li>Date and time/Automatic switch-off function</li> </ul> </div> </div> <div> <h4>Description:</h4> <p>Beurer BM40 upper arm blood pressure monitor with a compact design and clear display allow you to optimally monitor your blood pressure. It measures your blood pressure quickly and easily, storing the results and displaying the progression of readings together with the average. A warning is issued for anyone suffering from cardiac arrhythmia or for possible disturbance in heart rhythm. The recorded values are classified and evaluated graphically. Applicable for upper arm circumferences from 22 to 35 cm and XL cuff (30 to 42 cm) available as an accessory.</p> </div> <div> <h4>Benefits:</h4> <ul> <li>Fully automatic blood pressure and pulse measurement on the upper arm</li> <li>Shows average of all saved measured values and morning and evening blood pressure for the last 7 days with 2 x 60 memory spaces</li> <li>Incorrect usage message and low battery indicator</li> </ul> </div> <div> <h4>How to use:</h4> <ul> <li>Attach the cuff and adopt the posture in which you want to perform the measurement.</li> <li>Start the device with the START/STOP button.</li> <li>Following the display check, during which all numbers light up, the cuff inflates automatically.</li> <li>As soon as a pulse is detected, the pulse symbol flashes.</li> <li>Measuring can be cancelled at any time by pressing the START/STOP button.</li> <li>Systolic pressure, diastolic pressure and pulse readings are displayed.</li> <li>The measurement is automatically stored.</li> <li>The device switches off automatically after 3 minutes.</li> <li>Wait at least 5 minutes before taking another measurement.</li> </ul>",129,Beurer,Beurer,Y,Medical Equipment's///Health Monitors///Blood Pressure Monitors,Beurer BM40 Blood Pressure Monitor.jpg///Beurer BM40 Blood Pressure Monitor1.jpg,Common Vendor
OMR-RON-634-730,Omron M3 Comfort 360 Intelli Wrap Cuff Blood Pressure Monitor,"<div> <div> <h4>Short description:</h4> <ul> <li>Intelli wrap cuff technology for an easy and accurate reading</li> <li>Irregular heartbeat detection</li> <li>Easy high blood pressure color indicator</li> </ul> </div> </div> <div> <h4>Description:</h4> <p>The M3 Comfort enables a fast and accurate blood pressure measurement. Regular cuffs can cause inaccurate or variable results when positioned incorrectly. This is due to the small zone on the cuff where accurate measurement is possible. M3 Comfort comes with the Intelli Wrap Cuff technology, which supports 360 degrees accuracy, enabling accurate results in any position around the upper arm.</p> </div> <div> <h4>Benefits:</h4> <ul> <li>Helps detect stroke risk factors</li> <li>Clinically validated  Complies with the European Society of Hypertension standards</li> <li>Intellisense technology  Inflates the cuff to the ideal level for each use</li> </ul> </div> <div> <h4>How to use:</h4> <ul> <li>Preparation</li> <li>Install the battery</li> <li>Set the date and time Using the device</li> <li>Apply the arm cuff to your left upper arm</li> <li>Secure closed with the fabric fastener</li> <li>Sit correctly Taking a measurement</li> <li>Select your user ID (1 or 2)</li> <li>Press the start/stop button, the arm cuff will start to inflate automatically</li> <li>Remove the arm cuff</li> <li>Press the start/stop button to turn the monitor off</li> <li>The monitor automatically stores the measurement results in its memory, it will automatically turn off after 2 minutes</li> </ul> </div>",299,Omron,Omron,Y,Medical Equipment's///Health Monitors///Blood Pressure Monitors,Omron M3 Comfort 360 Intelli Wrap Cuff Blood Pressure Monitor.jpg///Omron M3 Comfort 360 Intelli Wrap Cuff Blood Pressure Monitor2.jpg///Omron M3 Comfort 360 Intelli Wrap Cuff Blood Pressure Monitor1.jpg,Common Vendor
BEU-RER-635-731,Beurer BM26 Blood Pressure Monitor Cuff 1's,<div> <div> <h4>Short description:</h4> <ul> <li>Upper arm blood pressure monitor cuff</li> <li>For upper arm circumferences from 30 - 42 cm</li> <li>One XL Size Cuff</li> </ul> </div> </div> <div> <h4>Description:</h4> <p>Beurer BM26 Blood Pressure Monitor Cuff is as an accessory for attaching to the upper arm blood pressure monitor. The cuff is also compatible with Beurer BM 40 blood pressure monitors.</p> </div> <div> <h4>Benefits:</h4> <ul> <li>XL size cuff 30 - 42 cm</li> <li>Suitable for blood pressure monitor BM 26 and BM 40</li> </ul> </div> <div> <h4>How to use:</h4> <ul> <li>Always read the instruction manual for detailed information before use.</li> </ul> </div>,90,Beurer,Beurer,Y,Medical Equipment's///Health Monitors///Blood Pressure Monitors,Beurer BM26 Blood Pressure Monitor Cuff 1's.jpg,Common Vendor
ROS-AND-636-732,Rossmax CH155F Automatic Blood Pressure Monitor,<div> <div> <h4>Short description:</h4> <ul> <li>Movement detection</li> <li>Real fuzzy technology</li> <li>Clinically accurate</li> <li>One-touch automatic operation</li> <li>Hypertension Risk Indication and Irregular Heartbeat Detection (IHB)</li> </ul> </div> </div> <div> <h4>Description:</h4> <p>This blood pressure monitor has passed the criteria of the European Society of Hypertension by achieving all requirements. This monitor further meets the AAMI accuracy standard requirements (AAMI/ANSI/ISO 81060-2). Real Fuzzy Technology determines ideal cuff pressure based on one's systolic blood pressure and arm size. Users no longer need to pre-set the inflation level before measurement.</p> </div> <div> <h4>Benefits:</h4> <ul> <li>The Movement Detection helps reminding the user to remain still and is indicating any body movement during measurement.</li> <li>The technology eliminates arm discomfort through unnecessary high inflation settings and also prevents inaccurate readings caused by erroneous cuff inflation levels.</li> <li>Average of last 3 readings and 90 memories</li> <li>Latex-free patented universal cone cuff</li> </ul> </div> <div> <h4>How to use:</h4> <ul> <li>Please read the instructions carefully before use.</li> </ul> </div>,182.4,Rossmax,"Rossmax,Switzerland",Y,Medical Equipment's///Health Monitors///Blood Pressure Monitors,Rossmax CH155F Automatic Blood Pressure Monitor.jpg///Rossmax CH155F Automatic Blood Pressure Monitor1.jpg,Common Vendor
ROS-AND-637-733,Rossmax X5 Automatic Blood Pressure Monitor,"<div> <div> <h4>Short description:</h4> <ul> <li>Arrhythmia Detection (ARR)</li> <li>Atrial Fibrillation Detection (AFib)</li> <li>Premature Contraction Detection (PC)</li> <li>Early stage stroke risk screening with only one single measurement</li> </ul> </div> </div> <div> <h4>Description:</h4> <p>Rossmax X5 introduces PARR (Pulse Arrhythmia) technology that detects arrhythmia during regular blood pressure checks without any additional user skills, user interaction and measurement prolongation. It has an added feature of Atrial Fibrillation Detection (AFIB) and Premature Contraction Detection (PC). It will help in the prevention of the risk of cardio disease and stroke by early detection of atrial fibrillation, premature contraction, tachycardia and bradycardia.</p> </div> <div> <h4>Benefits:</h4> <ul> <li>Cuff detection and movement detection</li> <li>120 memories for 2-users with guest mode and date/time indication</li> <li>Cuff Holder Design</li> <li>Large LCD size : 69 x 78 mm</li> <li>Lifetime Calibration</li> </ul> </div> <div> <h4>How to use:</h4> <ul> <li>Press the User-Switching key to select memory zone 1, memory zone 2 or guest mode.</li> <li>After a memory zone is selected, press the ON/OFF/START key to reset the monitor so it can start measurement in the chosen memory zone.</li> <li>Press the ON/OFF/START key. All digits will light up, checking the display functions. The checking procedure will be completed in 2 seconds.</li> <li>After all symbols appear, the display will show a blinking 0. The monitor is ready to measure and will automatically inflate the cuff slowly to start measurement.</li> <li>When the measurement is completed, the cuff will exhaust the pressure inside. Systolic pressure, diastolic pressure and pulse will be shown simultaneously on the LCD screen.</li> <li>The measurement is then automatically stored into the pre-designated memory zone.</li> </ul> </div>",338.4,Rossmax,"Rossmax,Switzerland",Y,Medical Equipment's///Health Monitors///Blood Pressure Monitors,Rossmax X5 Automatic Blood Pressure Monitor.jpg///Rossmax X5 Automatic Blood Pressure Monitor2.jpg///Rossmax X5 Automatic Blood Pressure Monitor1.jpg,Common Vendor
ROS-AND-638-734,Rossmax Digital Korotkoff Cone Cuff Large 1's,"<div> <div> <h4>Short description:</h4> <ul> <li>Patented Cone Cuff</li> <li>Latex free</li> <li>With position guideline</li> <li>Easy to apply</li> </ul> </div> </div> <div> <h4>Description:</h4> <p>The ergonomic, cone-shaped design of Rossmax Cone cuffs promotes blood pressure measurement to a whole new easy and delightful experience. This Digital Korotkoff Cone Cuff Large has a measurements of 34  46 cm or 13.4  18.1 inches.</p> </div> <div> <h4>Benefits:</h4> <ul> <li>No more annoying rotating and sliding when wrapping the cuff.</li> <li>Ergonomic shape for easy apply</li> </ul> </div> <div> <h4>How to use:</h4> <ul> <li>To be used with Rossmax Blood Pressure monitors.</li> </ul> </div>",76,Rossmax,"Rossmax,Switzerland",Y,Medical Equipment's///Health Monitors///Blood Pressure Monitors,Rossmax Digital Korotkoff Cone Cuff Large 1's.jpg///Rossmax Digital Korotkoff Cone Cuff Large 1's1.jpg,Common Vendor
ROS-AND-639-735,Rossmax AC Adaptor for Blood Pressure Monitor,"<div> <div> <h4>Short description:</h4> <ul> <li>Regulated output</li> <li>Energy saving</li> <li>Output Voltage DC 6V 0.8A</li> </ul> </div> </div> <div> <h4>Description:</h4> <p>This AC adaptor from Rossmax is compatible with most of the Rossmax Blood Pressure Monitors. Changing the batteries is not a problem if you have this AC adaptor. Plug size is as follows: Outer(-) is Ø4.0mm; Inner(+) is Ø1.7mm; and Input: 100-240V AC, 50-60 Hz.</p> </div> <div> <h4>Benefits:</h4> <ul> <li>Regulated output</li> <li>Energy saving</li> </ul> </div> <div> <h4>How to use:</h4> <ul> <li>Insert the AC Adaptor Plug into the AC Adapter Jack on the monitor.</li> <li>Plug the AC Adapter into electrical outlet</li> </ul> </div>",36,Rossmax,"Rossmax,Switzerland",Y,Medical Equipment's///Health Monitors///Blood Pressure Monitors,Rossmax AC Adaptor for Blood Pressure Monitor.jpg///Rossmax AC Adaptor for Blood Pressure Monitor1.jpg,Common Vendor
ROS-AND-640-736,Rossmax CH91 Semi-Automatic Blood Pressure Monitor,"<div> <div> <h4>Short description:</h4> <ul> <li>Digital technology</li> <li>Irregular Heartbeat Detection (IHB)</li> <li>90 memories</li> <li>One-touch operation</li> <li>Latex-free patented cone cuff</li> </ul> </div> </div> <div> <h4>Description:</h4> <p>Blood pressure measurements determined with Rossmax CH91 are equivalent to those obtained by a trained observer using cuff/stethoscope auscultation method, within the limits prescribed by the American National Standard, electronic or automated sphygmomanometers. This unit is to be used by adult consumers in a home environment. It offers accurate blood pressure and pulse measurements quickly and easily. Simply inflate the cuff to the desired pressure. The cuff will automatically deflate and show your readings on the easy to read display.</p> </div> <div> <h4>Benefits:</h4> <ul> <li>Easy to use manual inflation</li> <li>Accurate blood pressure and pulse measurements quickly and easily</li> </ul> </div> <div> <h4>How to use:</h4> <ul> <li>Unwrap the arm cuff, leaving the end of the cuff through the D-ring of the cuff</li> <li>Put your left arm through the cuff loop, color strip indication should be positioned closer to you with the tube pointing in the direction of your arm</li> <li>Turn your left palm upward and place the edge of the arm cuff at approximately 1.5 to 2.5 cm above the inner side of the elbow joint and tighten the cuff by pulling the end of the cuff</li> <li>Center the tube over the middle of the arm and press the hook and loop material together securely, allow room for 2 fingers to fit between the cuff and your arm</li> <li>Position the artery mark over the main artery (on the inside of your arm)</li> <li>Plug in the cuff connecting tube into the unit and lay your arm on a table (palm upward) so the cuff is at the same height as your heart</li> <li>Press the ON/OFF key and press the bulb to increase pressure in the arm cuff</li> <li>The display will show the pressure reading within the cuff and continue pumping until the pressure reaches approximately 50~60 mmHg above your normal systolic pressure</li> <li>Sit still and wait for the monitor to deflate and measure your blood pressure</li> <li>It is important to remain still and quiet during measurement, any significant movement may affect measurement results</li> <li>Upon completion of the measurement cycle, the monitor will display systolic pressure, diastolic pressure and pulse rate readings at once</li> <li>Measurement is now completed, and the reading is automatically stored in the monitor</li> <li>Press the ON/OFF key to rapidly deflate and turn off the power, if no key is pressed, the unit will shut off automatically in 1 minute</li> </ul> </div>",112,Rossmax,"Rossmax,Switzerland",Y,Medical Equipment's///Health Monitors///Blood Pressure Monitors,Rossmax CH91 Semi-Automatic Blood Pressure Monitor.jpg,Common Vendor
ROS-AND-641-737,Rossmax AX356 Automatic Blood Pressure Monitor,<div> <div> <h4>Short description:</h4> <ul> <li>Slim type - less than 3 cm in thickness</li> <li>Movement Detection</li> <li>Hypertension Risk Indication</li> <li>90 memories with date and time</li> <li>5 years Warranty</li> </ul> </div> </div> <div> <h4>Description:</h4> <p>This unit tracks the variations in the blood pressure readings between morning and evening. This device uses a Real fuzzy Technology which determines the ideal cuff pressure based on one's systolic blood pressure and arm size.The technology eliminates arm discomfort through unnecessary high inflation settings.</p> </div> <div> <h4>Benefits:</h4> <ul> <li>7/14/21/28 day AM/PM Averaging</li> <li>Movement Detection</li> <li>Real Fuzzy Technology</li> <li>90 memories with date and time</li> <li>Average of last 3 readings</li> <li>One-touch automatic operation</li> <li>Latex-free patented universal cone cuff</li> <li>Lifetime Calibration</li> <li>AAMI Validation</li> </ul> </div> <div> <h4>How to use:</h4> <ul> <li>Please read the manual carefully for detailed information.</li> </ul> </div>,207.2,Rossmax,"Rossmax,Switzerland",Y,Medical Equipment's///Health Monitors///Blood Pressure Monitors,Rossmax AX356 Automatic Blood Pressure Monitor.jpg///Rossmax AX356 Automatic Blood Pressure Monitor1.jpg,Common Vendor
ROS-AND-642-738,Rossmax AC701K Automatic Blood Pressure Monitor,"<div> <div> <h4>Short description:</h4> <ul> <li>Digital Korotkoff Technology</li> <li>Hypertension Risk Indication</li> <li>Irregular Heartbeat Detection (IHB)</li> <li>120 memories for 2-users with date and time indication</li> <li>Average of last 3 readings</li> </ul> </div> </div> <div> <h4>Description:</h4> <p>This device with a proprietary microphone built into the arm cuff, the innovative DK Technology actually listens like your doctor when taking a reading. The Exclusive DK Technology delivers ABSOLUTE Accuracy by using the advanced dual sensor cuff system that senses both pressure and sound. This device is clinically proven.</p> </div> <div> <h4>Benefits:</h4> <ul> <li>Jumbo size XL digit</li> <li>One-touch automatic operation</li> <li>Patented Digital Korotkoff Cone cuff</li> <li>PC Link (Optional)</li> <li>Adaptor socket</li> <li>AAMI Validation</li> <li>5 years Warranty.</li> </ul> </div> <div> <h4>How to use:</h4> <ul> <li>Please read the manual carefully for detailed information.</li> </ul> </div>",260,Rossmax,"Rossmax,Switzerland",Y,Medical Equipment's///Health Monitors///Blood Pressure Monitors,Rossmax AC701K Automatic Blood Pressure Monitor.jpg///Rossmax AC701K Automatic Blood Pressure Monitor1.jpg,Common Vendor
ROS-AND-643-739,Rossmax BQ705 Wrist Blood Pressure Monitor,"<div> <div> <h4>Short description:</h4> <ul> <li>Smart sense technology</li> <li>One-touch automatic operation</li> <li>Lifetime calibration</li> <li>Clinically Accurate</li> <li>5 years Warranty</li> </ul> </div> </div> <div> <h4>Description:</h4> <p>Rossmax BQ705 Wrist Blood Pressure Monitor is more convenient and portable. This device incorporates smart sense technology which gives more precise readings with greater accuracy. Smart Sense Technology utilizes an advanced air control system. The electronic deflation valve precisely controls the deflation rate and allows the monitor to detect and analyze pulse signals, adjusting cuff pressure during deflation. This significantly ensures more precise analysis, while reaching greater accuracy.</p> </div> <div> <h4>Benefits:</h4> <ul> <li>Jumbo size XL digit</li> <li>120 memories for 2-users with date and time indication</li> <li>Guest Mode</li> <li>Movement Detection</li> <li>Hypertension Risk Indication</li> <li>Irregular Heartbeat Detection (IHB)</li> <li>Average of last 3 readings</li> <li>AAMI Validation(AAMI/ANSI/ISO81060-2)</li> <li>5 years Warranty</li> <li>PC Link (Optional)</li> </ul> </div> <div> <h4>How to use:</h4> <ul> <li>Please refer to the instructions manual before use</li> </ul> </div>",156,Rossmax,"Rossmax,Switzerland",Y,Medical Equipment's///Health Monitors///Blood Pressure Monitors,Rossmax BQ705 Wrist Blood Pressure Monitor.jpg,Common Vendor
IHE-INC-644-740,iHealth BP7 Wireless Blood Pressure Wrist Monitor (iOS only),"<div> <div> <h4>Short description:</h4> <ul> <li>Wireless, lightweight wrist BP monitor</li> <li>FDA approved</li> <li>Irregular heartbeat detection</li> <li>Multi-user support</li> </ul> </div> </div> <div> <h4>Description:</h4> <p>The iHealth BP7 Wireless Blood Pressure Wrist Monitor is a fully automatic wrist cuff blood pressure monitor that uses the oscillometric principle to measure your blood pressure and pulse rate. The monitor works with your mobile devices to test, track and share vital blood pressure data. The iHealth BP7 Wireless Blood Pressure Wrist Monitor (Electronic Sphygmomanometer) is intended for use in a professional setting or at home and is a non-invasive blood pressure measurement system. It is designed to measure the systolic and diastolic blood pressures and pulse rate of an adult individual by using a technique in which an inflatable cuff is wrapped around the wrist. The measurement range of the cuff circumference is 5.3 to 8.7 (13.5cm-22cm).</p> </div> <div> <h4>Benefits:</h4> <ul> <li>FDA approved for accurate systolic/diastolic blood pressure and heart rate results.</li> <li>View and track results and trends with intuitive charts/graphs on your smartphone or tablet.</li> <li>One touch data sharing with your doctors and caregivers, and secure, HIPPA compliant Cloud data storage.</li> <li>Measure blood pressure directly from your iPad, Android &amp; IOS mobile phones.</li> <li>Record systolic/diastolic numbers, heart rate, and pulse wave.</li> <li>View historical readings and World Health Organizations' (WHO) classifications through colorful, easy-to-read displays.</li> <li>Share results instantly with friends, family, or healthcare providers.</li> <li>Unlimited users and memory.</li> <li>Motion Sensor Technology helps ensure accurate readings.</li> </ul> </div> <div> <h4>How to use:</h4> <ul> <li>Read the manual instructions carefully before use.</li> <li>Download the Free iHealth App: Prior to first use, download and install iHealth Myvitals from the App Store.</li> <li>Account Set Up and Registration: Follow the on-screen instructions to register and set up your personal account.</li> <li>Charge Battery Prior First Time Use: Connect the monitor to a USB port using the charging cable provided until the green indicator light stabilizes.</li> <li>Connect to iOS Device via Bluetooth: a. Apply the cuff or press the START/STOP button, the Bluetooth indicator will begin flashing. b. Turn Bluetooth On under the Settings Menu on the iOS device. c. Wait until the model name printed on the monitor, (i.e.BP7 xxxxxx) and Not Paired appear in the Bluetooth menu, and select the model name BP7 xxxxxx to pair and connect. The Bluetooth indicator will remain steady upon successful connection. When using the monitor for the first time, it may take up to 30 seconds for your iOS device to detect the Bluetooth signal. d. Each subsequent time you use the monitor, Not Connected will be displayed next to BP7 xxxxxx in the Bluetooth Menu. e. Please repeat these steps when you switch to another iOS device with the monitor.</li> </ul> </div>",325,iHealth,Ihealth Lab Inc,Y,Medical Equipment's///Health Monitors///Blood Pressure Monitors,iHealth BP7 Wireless Blood Pressure Wrist Monitor.jpg///iHealth BP7 Wireless Blood Pressure Wrist Monitor1.jpg,Common Vendor
OMR-RON-645-741,Omron M6 Upper Arm Blood Pressure Monitor,"<div> <div> <h4>Short description:</h4> <ul> <li>Reduces errors with unique intelli wrap cuff</li> <li>Helps to detect stroke risk</li> <li>Instant interpretation of results with the easy high blood pressure indicator</li> </ul> </div> </div> <div> <h4>Description:</h4> <p>Omron M6 blood pressure monitor is fully automatic and features intellisense technology. The fully automatic omron M6 comfort helps you monitor blood pressure from the comfort of your home. Also, it features a chart indicating measurements for optimal blood pressure to severe hypertension for a better comparison and inference of health condition. It also has a hypertension indicator that alerts if the blood pressure is over the recommended level of 135/85 mmHg.</p> </div> <div> <h4>Benefits:</h4> <ul> <li>Quick and accurate reading</li> <li>Detects irregular heartbeat</li> </ul> </div> <div> <h4>How to use:</h4> <ul> <li>Apply the arm cuff</li> <li>Press the O/I START button and remain still, the cuff will start to inflate automatically</li> <li>When the measurement is complete, the arm cuff completely deflates and blood pressure and pulse rate are displayed</li> </ul> </div>",435,Omron,Omron,Y,Medical Equipment's///Health Monitors///Blood Pressure Monitors,Omron M6 Upper Arm Blood Pressure Monitor.jpg,Common Vendor
ALP-PK2-646-742,ALPK2 Adult Cuff,<div> <div> <h4>Short description:</h4> <ul> <li>Replacement cuff for adult</li> <li>Velcro cuff</li> <li>Cotton cuff</li> </ul> </div> </div> <div> <h4>Description:</h4> <p>This replacement cuff for adult is to be used with ALPK2 manometers (mercurial or aneroid). It is comfortable to wear.</p> </div> <div> <h4>Benefits:</h4> <ul> <li>Appropriate cuff size for measuring blood pressure of adult patients</li> <li>With Velcro cuff for easy attachment and removal</li> </ul> </div> <div> <h4>How to use:</h4> <ul> <li>Use the replacement cuff with the mercurial or aneroid manometers for measuring blood pressure of adult patients.</li> </ul> </div>,138.5,ALPK2,Alpk2,Y,Medical Equipment's///Health Monitors///Blood Pressure Monitors,ALPK2 Adult Cuff.jpg,Common Vendor
ROS-AND-647-743,Rossmax Cone Cuff 1's,"<div> <div> <h4>Short description:</h4> <ul> <li>Patented Cone Cuff</li> <li>Latex free</li> <li>With position guideline</li> <li>Easy to apply</li> </ul> </div> </div> <div> <h4>Description:</h4> <p>The ergonomic, cone-shaped design of Rossmax Cone cuffs promotes blood pressure measurement to a whole new easy and delightful experience. This Digital Korotkoff Cone Cuff Large has a measurements of 34  46 cm or 13.4  18.1 inches.</p> </div> <div> <h4>Benefits:</h4> <ul> <li>No more annoying rotating and sliding when wrapping the cuff.</li> <li>Ergonomic shape for easy apply</li> </ul> </div> <div> <h4>How to use:</h4> <ul> <li>To be used with Rossmax Blood Pressure monitors.</li> </ul> </div>",46.4,Rossmax,"Rossmax,Switzerland",Y,Medical Equipment's///Health Monitors///Blood Pressure Monitors,Rossmax Cone Cuff 1's.jpg///Rossmax Cone Cuff 1's1.jpg,Common Vendor
ACC-N0A-648-744,Accurete Blood Pressure Monitor H240,"<div> <div> <h4>Short description:</h4> <ul> <li>Multiple measurement technology</li> <li>Irregular heartbeat detector</li> <li>USB data transfer</li> <li>A/A Graded by British Hypertension Society</li> <li>2 x 99 data memory</li> </ul> </div> </div> <div> <h4>Description:</h4> <p>Accurete Blood Pressure Monitor is a reliable medical device for taking measurements on the upper arm. It is simple to use, accurate and come highly recommended for blood pressure monitoring in your home. This products comes with wide range cuff, size M-L (22-42 cm/ 8.7 - 16.5), with software CD (for PC) and 4 batteries size AA.</p> </div> <div> <h4>Benefits:</h4> <ul> <li>Comfortable cuff for all common arm sizes</li> <li>Easy to read display and characters</li> <li>2 users with guest mode</li> <li>Easy to operate with precise technology</li> </ul> </div> <div> <h4>How to use:</h4> <ul> <li>Please see package leaflet for instructions.</li> </ul> </div>",212,Accurete,N/A,Y,Medical Equipment's///Health Monitors///Blood Pressure Monitors,Accurete Blood Pressure Monitor H240.jpg///Accurete Blood Pressure Monitor H2401.jpg,Common Vendor
ACC-N0A-649-745,Accurete Blood Pressure Monitor H140,"<div> <div> <h4>Short description:</h4> <ul> <li>Upper arm blood pressure monitor</li> <li>Irregular heartbeat detector</li> <li>2 x 99 data memory</li> <li>Low battery indicator</li> </ul> </div> </div> <div> <h4>Description:</h4> <p>Accurete Blood Pressure Monitor is a reliable medical device for taking measurements on the upper arm. It is simple to use, accurate and come highly recommended for blood pressure monitoring in your home. This products comes with comfortable cuff for all common arm sizes (wide range soft cuff, 22-42 cm/ 8.7  16.5), can be connect to AC/DC jack and with low battery indicator.</p> </div> <div> <h4>Benefits:</h4> <ul> <li>Ensures comfortable and accurate measurements</li> <li>With optimal speed and pressure control</li> <li>Easy to read large display and characters</li> </ul> </div> <div> <h4>How to use:</h4> <ul> <li>Please see package leaflet for instructions.</li> </ul> </div>",152,"
Accurete",N/A,Y,Medical Equipment's///Health Monitors///Blood Pressure Monitors,Accurete Blood Pressure Monitor H140.jpg///Accurete Blood Pressure Monitor H1401.jpg,Common Vendor
ACC-N0A-650-746,Accurete Wrist Blood Pressure Monitor Slim H30,"<div> <div> <h4>Short description:</h4> <ul> <li>Wrist blood pressure monitor</li> <li>Irregular heartbeat detector</li> <li>Inflation mode technology</li> <li>LED control wrist and heart level</li> </ul> </div> </div> <div> <h4>Description:</h4> <p>Accurete Wrist Blood Pressure Monitor Slim contains large wrist cuff (13.5-23 cm /5.3-9.1), instruction manual, 2 batteries size AAA, storage case and low battery indicator. It is simple to use, accurate and come highly recommended for blood pressure monitoring in your home.</p> </div> <div> <h4>Benefits:</h4> <ul> <li>Easy to read large display and characters</li> <li>Early alerts to possible heart arrhythmias</li> <li>Quick and gentle measurement during inflation</li> </ul> </div> <div> <h4>How to use:</h4> <ul> <li>Please see package leaflet for instructions.</li> </ul> </div>",132,Accurete,N/A,Y,Medical Equipment's///Health Monitors///Blood Pressure Monitors,Accurete Wrist Blood Pressure Monitor Slim H30.jpg///Accurete Wrist Blood Pressure Monitor Slim H302.jpg///Accurete Wrist Blood Pressure Monitor Slim H301.jpg,Common Vendor
OMR-RON-651-747,Omron Evolv HEM-7600T Tubeless Blood pressure Monitor,<div> <div> <h4>Short description:</h4> <ul> <li>Automatic blood pressure monitor</li> <li>With no tubes and no wires</li> <li>Accurate</li> <li>Connectable to smartphone</li> </ul> </div> </div> <div> <h4>Description:</h4> <p>Omron Evolv Tubeless Blood pressure Monitor is a digital monitor intended for use in measuring blood pressure and pulse rate in adult population. The device detects the appearance of irregular heartbeats during measurement and gives a warning signal with readings.</p> </div> <div> <h4>Benefits:</h4> <ul> <li>An oscillometric monitor does not need a stethoscope so the monitor is simple to use</li> <li>Can be used generally in household purposes</li> <li>It gives warning signal when irregular heartbeat is detected</li> </ul> </div> <div> <h4>How to use:</h4> <ul> <li>Please read the labelled instructions carefully.</li> </ul> </div>,699,Omron,Omron,Y,Medical Equipment's///Health Monitors///Blood Pressure Monitors,Omron Evolv HEM-7600T Tubeless Blood pressure Monitor.jpg///Omron Evolv HEM-7600T Tubeless Blood pressure Monitor1.jpg,Common Vendor
ALP-PK2-652-748,ALPK2 Cuff XL,<div> <div> <h4>Short description:</h4> <ul> <li>Replacement cuff for adult</li> <li>Velcro cuff</li> <li>Cotton cuff</li> <li>Extra Large size</li> </ul> </div> </div> <div> <h4>Description:</h4> <p>This replacement cuff in extra large size for adult is to be used with ALPK2 manometers (mercurial or aneroid). It is comfortable to wear.</p> </div> <div> <h4>How to use:</h4> <ul> <li>Use the replacement cuff with the mercurial or aneroid manometers for measuring blood pressure of adult patients.</li> </ul> </div>,90,ALPK2,Alpk2,Y,Medical Equipment's///Health Monitors///Blood Pressure Monitors,ALPK2 Cuff XL.jpg,Common Vendor
MAX-0UK-653-749,Max Palm Type Aneroid Blood Pressure Monitor,<div> <div> <h4>Short description:</h4> <ul> <li>Zinc alloy cover chrome plate</li> <li>Rotary handle and gauge</li> <li>Measure scope: 300 mmHG Gauge</li> <li>Accuracy: +/- 3 mmHG</li> </ul> </div> </div> <div> <h4>Description:</h4> <p>Max Palm Type Aneroid Blood Pressure Monitor is used to measure blood pressure using one hand to operate both the meter and the bulb. It offers advantages such as being sturdy and easy to transport thus ensuring top reliability of both professional and domestic use.</p> </div> <div> <h4>Benefits:</h4> <ul> <li>Helps to measure blood pressure accurately</li> <li>Easy to use and convenient to transport</li> <li>Offers high quality of performance</li> </ul> </div> <div> <h4>How to use:</h4> <ul> <li>Please see the user's guide for instructions.</li> </ul> </div>,143,Max,Max Medical Products Ltd. UK,Y,Medical Equipment's///Health Monitors///Blood Pressure Monitors,Max Palm Type Aneroid Blood Pressure Monitor.jpg///Max Palm Type Aneroid Blood Pressure Monitor1.jpg,Common Vendor
BEU-RER-654-750,Beurer BM35 Blood Pressure Monitor,<div> <div> <h4>Short description:</h4> <ul> <li>Zinc alloy cover chrome plate</li> <li>Rotary handle and gauge</li> <li>Measure scope: 300 mmHG Gauge</li> <li>Accuracy: +/- 3 mmHG</li> </ul> </div> </div> <div> <h4>Description:</h4> <p>Max Palm Type Aneroid Blood Pressure Monitor is used to measure blood pressure using one hand to operate both the meter and the bulb. It offers advantages such as being sturdy and easy to transport thus ensuring top reliability of both professional and domestic use.</p> <div> <div> <h4>Short description:</h4> <ul> <li>With arm cuff for upper arm 22-36 cm</li> <li>Detects cardiac arrhythmia</li> <li>Includes batteries and storage pouch</li> <li>3 years guarantee</li> </ul> </div> </div> <div> <h4>Description:</h4> <p>Beurer BM35 automatically measures blood pressure and pulse on the upper arm. It alarms in case of possible heart rhythm disturbances. With cuff for upper arm circumference of 22-36 cm. It provides average morning and evening blood pressure with 2 x 60 memory places.</p> </div> <div> <h4>Benefits:</h4> <ul> <li>Preparatory diagnosis of the status of your health</li> <li>Gives timely and accurate measurement</li> <li>Detects abnormalities in cardiac rhythm pattern for possible conditions</li> </ul> </div> <div> <h4>How to use:</h4> <ul> <li>See package insert for instructions.</li> </ul> </div> </div> <div> <h4>Benefits:</h4> <ul> <li>Helps to measure blood pressure accurately</li> <li>Easy to use and convenient to transport</li> <li>Offers high quality of performance</li> </ul> </div> <div> <h4>How to use:</h4> <ul> <li>Please see the user's guide for instructions.</li> </ul> </div>,149,Beurer,Beurer,Y,Medical Equipment's///Health Monitors///Blood Pressure Monitors,Beurer BM35 Blood Pressure Monitor.jpg,Common Vendor
