Product Code,Package Name,Description,Price ,Brand,Manufacturer,Age Group,Product Type,Gender,Category,Stock,OTC,Product Image,Vendor
DAI-DC2-201-901,Daily Concepts Your Dual Texture Scrubber DC2,"<p><strong>Short description:</strong><br/> Texture scrubber<br/> With Smart technology<br/> Reusable packaging<br/> Ideal for the body<br/><br/><strong>Description:</strong><br/> Daily Concepts Your Dual Texture Scrubber with regular<br/> texture for more exfoliation and soft texture for more gentle<br/> parts of the body. Natural cotton base layer with nylon<br/> exfoliating loops for the ideal texture. Environmentally<br/> friendly, soy based foam material (inside the scrubber) to<br/> create a rich lather.<br/><br/><strong>Benefits:</strong><br/> Right texture for sloughing the skin, providing a bit<br/> pampering skin bath regime<br/> Easy to carry perfect taking to the gym<br/> Perfect accompaniment for thinking and singing in the<br/> shower while the fabrics work thoroughly to keep clean<br/><br/><strong>How to use:</strong><br/> Scrub on the body gently while bathing for clean and<br/> refreshed skin.</p>",33.60,Daily Concepts,T. Taio Industries USA (DBA Daily Concepts),Adult,Body Scrub,Unisex,Personal Care///Pesonal Hygiene///Body Scrub,1000,Y,Daily Concepts Your Dual Texture Scrubber DC2.jpg,Common Vendor
DAI-DC3-202-902,Daily Concepts Your Stretch Wash Cloth DC3,"<p><strong>Short description:</strong><br/> Stretch wash cloth<br/> With smart technology<br/> Mild<br/> Clinically, allergy and dermatologist tested<br/><br/><strong>Description:</strong><br/> Daily Concepts Your Stretch Wash Cloth DC3 expands to reach<br/> the back and has just the right texture for an efficient and<br/> luxuriant shower experience. It stretches three times its size to<br/> reach hard to reach areas of the body.<br/><br/><strong>Benefits:</strong><br/> Versatile to use as regular wash cloth or stretch it to meet hard<br/> to reach body parts, making it perfect for head to toe use<br/> Designed more efficiently than a typical back brush. Its handles<br/> allow stretching in different angles, getting in there and finishing<br/> the job. Its texture will exfoliate the dead skin cells of the top layer<br/> of the skin, creating healthy, fresh feeling all over the body<br/><br/><strong>How to use:</strong><br/> Scrub the side which needs to be cleaned</p>",33.60,Daily Concepts,T. Taio Industries USA (DBA Daily Concepts),Adult,Wash Cloth,Unisex,Personal Care///Pesonal Hygiene///Body Scrub,1000,Y,Daily Concepts Your Stretch Wash Cloth DC3.jpg,Common Vendor
DAI-DC4-203-903,Daily Concepts Your Exfoliating Gloves DC4,"<p><strong>Short description:</strong><br/> Exfoliating gloves<br/> With smart technology<br/> Vigorous<br/> Clinically allergy and dermatologist tested<br/><br/><strong>Description:</strong><br/> Daily Concepts Your Exfoliating Gloves DC4 used to firm<br/> texture deeply exfoliates skin during a bath shower. Natural<br/> cotton base layer with nylon exfoliating loops for ideal<br/> texture.<br/><br/><strong>Benefits:</strong><br/> Ideal to use while getting a scrub treatment in your favorite<br/> spa or at home. Its texture will exfoliate the dead skin cells<br/> of the top layer of the skin, creating a healthy, fresh feeling<br/> all over the body. With special blend of materials allow<br/> fabric to stretch so that the gloves adapt to the hands.<br/><br/><strong>How to use:</strong><br/> Use in both hands to keep clean and with fabric stretch to adapt<br/> make more comfortable.</p>",42.00,Daily Concepts,T. Taio Industries USA (DBA Daily Concepts),Adult,Body Scrub,Unisex,Personal Care///Pesonal Hygiene///Body Scrub,1000,Y,Daily Concepts Your Exfoliating Gloves DC4.jpg,Common Vendor
DAI-C15-204-904,Daily Concepts Your Body Kit DC15,"<p><strong>Short description:</strong><br/> 2 in 1 Body Kit<br/> With Removable Handle<br/> Body Scrubber<br/> Cleanse and exfoliate the skin<br/> Body applicator<br/><br/><strong>Description:</strong><br/> Daily Concepts Your Body Kit allows to customize exfoliation and<br/> lotion or self-tanner application experience. The kit comes with 3<br/> pieces namely body scrubber, body applicator head for lotion or<br/> self-tanner and wooden handle that helps extend the reach.<br/><br/><strong>Benefits:</strong><br/> Perfect for all skin types.<br/> Great to use if having sensitive skin or if wanting great exfoliation.<br/> Body kit is perfect accompaniment for thinking and singing in the shower while the fabric work thoroughly to keep clean and<br/> moisturized and help for self-tanning process.<br/><br/><strong>How to use:</strong><br/> Care, hang with string and store wooden handle in a dry place.<br/> Rinse the body scrubber head well after each use and monitor the<br/> smart technology label seen onto scrubber to know when it is time to replace it. Wipe clean and dry your body applicator head, store in a dry place.</p>",112.50,Daily Concepts,T. Taio Industries USA (DBA Daily Concepts),Adult,Body Scrub,Unisex,Personal Care///Pesonal Hygiene///Body Scrub,1000,Y,Daily Concepts Your Body Kit DC15.jpg,Common Vendor
DAI-C16-205-905,Daily Concepts Your Konjac Sponge Pure DC16,"<p><strong>Short description:</strong><br/> Konjac sponge<br/> 100% natural konjac root<br/> Pure<br/> Provides pH balance<br/> Preservative free</p> <p><br/><strong> Description:</strong><br/> Daily Concepts Your Konjac Sponge Pure DC16 is highly absorbent<br/> in both water and oils and is excellent for thorough cleansing. It is<br/> made from a traditional Japanese jelly-like food, made from a kind<br/> of potato called Konnyaku potato. Konjac has been traditionally<br/> used in Japan as a beauty treatment for a long time due to its<br/> properties.<br/><br/><strong>Benefits:</strong><br/> It also has great function to break down skin's dirt and balance pH<br/> Has no preservatives<br/> No chemicals and no color<br/> Vegan<br/> Clinically allergy tested</p> <p><br/><strong>How to use:</strong><br/> Rinse the konjac sponge in warm water before each use.<br/> Apply cleanser or use alone to gently massage skin in circular<br/> motion.<br/> After each use, rinse thoroughly, squeeze out water and hang to dry in well-ventilated area.<br/> Use twice daily; recommended morning and night.<br/> Replace after 3 months.</p>",55.60,Daily Concepts,T. Taio Industries USA (DBA Daily Concepts),Adult,Body Sponge,Unisex,Personal Care///Pesonal Hygiene///Body Scrub,1000,Y,Daily Concepts Your Konjac Sponge Pure DC16.jpg,Common Vendor
DAI-C17-206-906,Daily Concepts Your Konjac Sponge Charcoal DC17,"<p><strong>Short description:</strong><br/> Konjac sponge<br/> Charcoal exfoliates and detoxifies<br/> Made from 100% natural Konjac Root<br/><br/><strong>Description:</strong><br/> Daily Concepts Your Konjac Sponge Charcoal DC17 is a traditional<br/> Japanese jelly-like food, made from a kind of potato called<br/> Konnyaku potato. Konjac has been traditionally used in Japan as a<br/> beauty treatment for a long time due to its properties. It is highly<br/> absorbent in both water and oils and is excellent for a thorough<br/> cleansing.<br/><br/><strong>Benefits:</strong><br/> It has great function to break down skins dirt and balance pH.<br/> No preservatives and no chemicals.<br/> With bamboo charcoal that helps absorb impurities to purify and deep cleanse the skin.<br/> Biodegradable, vegan and never tested on animals.<br/><br/><strong>How to use:</strong><br/> Rinse the konjac sponge in warm water before each use.<br/> Apply cleanser or use alone to gently massage skin in circular<br/> motion. After each use, rinse thoroughly, squeeze out water and<br/> hang to dry in well-ventilated area. Use twice daily; recommended<br/> morning and night. Replace after 3 months.</p>",69.50,Daily Concepts,T. Taio Industries USA (DBA Daily Concepts),Adult,Body Scrub,Unisex,Personal Care///Pesonal Hygiene///Body Scrub,1000,Y,Daily Concepts Your Konjac Sponge Charcoal DC17.jpg,Common Vendor
DAI-C18-207-907,Daily Concepts Your Konjac Sponge Turmeric DC18,"<p><strong>Short description:</strong><br/> Konjac sponge<br/> Turmeric hydrates and regenerates<br/> Made from 100% natural Konjac Root<br/><br/><strong>Description:</strong><br/> Daily Concepts Your Konjac Sponge Turmeric DC18 is a traditional<br/> Japanese jelly-like food, made from a kind of potato called<br/> Konnyaku potato. Konjac has been traditionally used in Japan as a<br/> beauty treatment for a long time due to its properties. It is highly<br/> absorbent in both water and oils and is excellent for a thorough<br/> cleansing.<br/><br/><strong>Benefits:</strong><br/> It has great function to break down skins dirt and balance pH.<br/> No preservatives and no chemicals.<br/> Turmeric helps to heal and prevent dry skin.<br/> Biodegradable, vegan and never tested on animals.<br/><br/><strong>How to use:</strong><br/> Rinse the konjac sponge in warm water before each use.<br/> Apply cleanser or use alone to gently massage skin in circular<br/> motion. After each use, rinse thoroughly, squeeze out water and<br/> hang to dry in well-ventilated area.<br/> Use twice daily; recommended morning and night.<br/> Replace after 3 months.</p>",69.50,Daily Concepts,T. Taio Industries USA (DBA Daily Concepts),Adult,Body Scrub,Unisex,Personal Care///Pesonal Hygiene///Body Scrub,1000,Y,Daily Concepts Your Konjac Sponge Turmeric DC18.jpg,Common Vendor
DAI-CS2-208-908,Daily Concepts Exfoliating Body Scrubber DCS2,"<p><strong>Short description:</strong><br/> Exfoliating body scrubber<br/> With smart technology<br/> Mild<br/> Perfect for travel<br/> For all skin types<br/><br/><strong>Description:</strong><br/> Daily Concepts Exfoliating Body Scrubber is a dual texture<br/> scrubber used for exfoliating the body. The regular texture<br/> can be used for areas that needs more exfoliation and soft texture for the gentler parts of the body. The body scrubber<br/> has unique natural cotton base layer with nylon exfoliating<br/> loops for ideal texture. The dual texture is the perfect<br/> accompaniment for singing in the shower while fabrics<br/> works thoroughly to keep clean.<br/><br/><strong>Benefits:</strong><br/> Round shape to cover more parts of the body in less time.<br/> Dual texture, perfect for all skin types and the whole body.<br/> Great to use for sensitive skin or for an ultimate exfoliation.<br/> Smart Technology alerts when the Body Scrubber needs to be replaced.<br/><br/><strong>How to use:</strong><br/> Scrub the side which needs to be cleaned.</p>",18.60,Daily Concepts,T. Taio Industries USA (DBA Daily Concepts),Adult,Body Scrub,Unisex,Personal Care///Pesonal Hygiene///Body Scrub,1000,Y,Daily Concepts Exfoliating Body Scrubber DCS2.jpg,Common Vendor
DAI-C22-209-909,Daily Concepts Your Body Towel Wrap White DC22,"<p><strong>Short description:</strong><br/> Towel wrap<br/> For a quick dry and comfortable fit<br/> With reusable travel pouch<br/><br/><strong>Description:</strong><br/> Daily Concepts Your Body Towel Wrap is used for quick<br/> drying and comfortable fit with reusable travel pouch. It can<br/> be wrapped around body and secure it, for hands-free use.<br/><br/><strong>Benefits:</strong><br/> With adjustable velcro closure and elastic top makes it one size fits most. Perfect for facials, while applying makeup or<br/> for everyday use at home, gym and while travelling with<br/> reusable pouch<br/> Machine washable<br/><br/><strong>How to use:</strong><br/> Use the towel after bath for dry and clean bathing.</p>",104.20,Daily Concepts,T. Taio Industries USA (DBA Daily Concepts),Adult,Body Scrub,Unisex,Personal Care///Pesonal Hygiene///Body Scrub,1000,Y,Daily Concepts Your Body Towel Wrap White DC22.jpg,Common Vendor
PUR-TER-210-910,Pure Blue Shower Filter,"<p><strong>Short description:</strong><br/> Shower purifier<br/> Reduce hair loss<br/> Reduce dry sensitive skin<br/><br/><strong>Description:</strong><br/> Pure Blue Shower Filter brings back healthier and softer hair<br/> and skin with 98% chlorine reduction in the shower. It avoids<br/> hair thinning, hair loss and itchy scalp. It can be installed in<br/> seconds and cartridge filter lasts for up to 6 months.<br/><br/><strong>Benefits:</strong><br/> Improves dry and sensitive skin instantly<br/> It preserves hair treatments and color<br/> It softens hard water by removing lead, mercury and nickel<br/><br/><strong>How to use:</strong><br/> See package insert for details.</p>",299.00,Pure Blue,Pure Blue USA,Adult,Shower Filter,Unisex,Personal Care///Pesonal Hygiene///Body Scrub,1000,Y,Pure Blue Shower Filter.jpg,Common Vendor
BAS-USH-211-911,Bass Nylon Bristles Rubber Grip Shower Brush,"<p><strong>Short description:</strong><br/> Finest quality<br/> For all hair types<br/> With nylon bristles<br/><br/><strong>Description:</strong><br/> Bass brushes has been used and recommended by hair<br/> stylist everywhere. It has optimized design, no cushion to<br/> trap water, no mold or mildew. It has no cushion nor<br/> recessed pins. It has ultra-light grip handle and is 100%<br/> sanitizable.<br/><br/><strong>Benefits:</strong><br/> Heat resistant and wet detangler<br/> Ideal for brushing and styling with blow dryer<br/> Conforms to scalp for better comfort and styling<br/><br/><strong>How to use:</strong><br/> Use while combing and styling hair.</p>",26.25,Bass Brush,Bass Brushes,Teens - Adult,Hair Brush,Unisex,Personal Care///Pesonal Hygiene///Body Scrub,1000,Y,Bass Nylon Bristles Rubber Grip Shower Brush.jpg,Common Vendor
BAS-S52-212-912,Bass Hand Made Knitted Style Sisal Body Strap S52,"<p><strong>Short description:</strong><br/> Body massage<br/> Sisal body strap<br/> Natural health and beauty secret<br/> Biodegradable Fibre Material<br/><br/><strong>Description:</strong><br/> Bass body strap is a powerful natural massager that cleans<br/> and exfoliates by helping to remove dead cells and toxins. It<br/> helps to reduce fatty tissues and cellulite by increasing<br/> blood and lymphatic circulation, with a fast, cost effective<br/> and efficient method. Use bass sisal body strap everyday for<br/> a softer, smoother and healthier skin.<br/><br/><strong>Benefits:</strong><br/> Delicately hand knitted<br/> Made with 100% natural biodegradable fibers<br/> Cleans and exfoliates<br/><br/><strong>How to use:</strong><br/> Keep your body wet, soap and massage your body with Bass Hand Made Knitted Style Strap.</p>",84.00,"
Bass Brush",The Bass Brush Company USA,Teens - Adult,Body Scrub,Unisex,Personal Care///Pesonal Hygiene///Body Scrub,1000,Y,Bass Hand Made Knitted Style Sisal Body Strap S52.jpg,Common Vendor
BAS-S55-213-913,Bass Knitted Style Firm Sisal Deluxe Hand Glove S55,"<p><strong>Short description:</strong><br/> Finest quality<br/> 100% natural plant fibers<br/> Excellent for massage<br/><br/><strong>Description:</strong><br/> Bass Knitted Style Firm Sisal Deluxe Hand Glove is made of 100%<br/> natural plant fibers. It is ideal for cleaning the entire body. Special<br/> texturing stimulates skin and blood circulation.<br/><br/><strong>Benefits:</strong><br/> Can be used wet or dry<br/> Stimulating and invigorating<br/> Excellent for massage<br/><br/><strong>How to use:</strong><br/> Keep your body wet<br/> Soap the wet glove<br/> Keep glove away from the direct flow of water, otherwise soap suds<br/> on it will be washed away. Always begin the massage at the feet and<br/> massage upwards towards the heart</p>",33.60,Bass Brush,Bass Brushes,Teens - Adult,Body Scrub,Unisex,Personal Care///Pesonal Hygiene///Body Scrub,1000,Y,Bass Knitted Style Firm Sisal Deluxe Hand Glove S55.jpg,Common Vendor
BAS- M22-114-914,Bass Extra Thick Firm Hand Strap Sisal Hand Pad M2,"<p><strong>Short description:</strong><br/> Finest quality<br/> Made of 100% natural plant fibers<br/> Excellent for massage<br/><br/><strong>Description:</strong><br/> Bass Extra Thick Firm Hand Strap Sisal Hand Pad is made of<br/> 100% natural plant fibers. It is ideal for cleaning the entire<br/> body. Special texturing stimulates skin and blood circulation.<br/><br/><strong>Benefits:</strong><br/> Can be used wet or dry<br/> Stimulating and invigorating<br/> Ideal for travelling<br/><br/><strong>How to use:</strong><br/> Keep your body wet<br/> Soap the wet hand pad<br/> Keep hand pad away from the direct flow of water,<br/> otherwise soap suds on it will be washed away<br/> Always begin the massage at the feet and massage upwards<br/> towards the heart</p>",21.00,"
Bass Brush",Bass Brushes,Adult,Body Scrub,Unisex,Personal Care///Pesonal Hygiene///Body Scrub,1000,Y,Bass Extra Thick Firm Hand Strap Sisal Hand Pad M2.jpg,Common Vendor
BAS-57R-215-915,Bass Firm Carpet Style Sisal Hand Mitt Wet/Dry S57R,"<p><strong>Short description:</strong><br/> 100% aloe<br/> Sisal bristle<br/> Hand mitt<br/> Biodegradable Fibre<br/><br/><strong>Description:</strong><br/> A daily bass massage with 100% aloe sisal bristle hand mitt results in smoother, clearer and better toned skin.<br/><br/><strong>Benefits:</strong><br/> Stimulates circulation and invigorates blood flow<br/> Helps to combat cellulite<br/> Highly effective, flexibly following the body's contours<br/> Hygienic and machine washable<br/><br/><strong>How to use:</strong><br/> Use for wet and dry massage.</p>",84.00,Bass Brush,The Bass Brush Company USA,Teens - Adult,Body Scrub,Unisex,Personal Care///Pesonal Hygiene///Body Scrub,1000,Y,Bass Firm Carpet Style Sisal Hand Mitt WetDry S57R.jpg,Common Vendor
DAI-RAP-216-916,Daily Concepts Your Hair Towel Wrap,"<p><strong>Short description:</strong><br/> Hair wrap towel<br/> For a quick and dry smoothing experience<br/> Anti-frizz towel<br/> Easy to use<br/> Hands free drying<br/><br/><strong>Description:</strong><br/> Daily Concepts Your Hair Towel Wrap Pink DC21P is used for quick<br/> dry and comfortable fit with reusable travel pouch. Wrap around<br/> hair and button it, for hands-free use.<br/><br/><strong>Benefits:</strong><br/> For hands-free drying<br/> Anti-frizz towel<br/> Reusable, travel packaging<br/><br/><strong>How to use:</strong><br/> Place the towel on your head with button placed in the back of your<br/> head at the base of the neck. Your hair should be inside with the tip<br/> of the hair towel wrap directed away from you towards the front.<br/> Take the tip and twist it like if you were twisting a conventional towel. Once you have finished remove the towel from your head. <br/> Then take the tip and pass it to the back of your head and secure<br/> with button in the back.</p>",67.20,"
Daily Concepts",T. Taio Industries USA (DBA Daily Concepts),Teens - Adult,Hair Towel,Unisex,Personal Care///Pesonal Hygiene///Body Scrub,1000,Y,Daily Concepts Your Hair Towel Wrap.jpg,Common Vendor
DAI-C29-217-917,Daily Concepts Your Mesh Sponge DC29,"<p><strong>Short description:</strong><br/> Gentle<br/> With smart technology<br/> For a soft and luxurious bath or shower<br/> For all skin types<br/><br/><strong>Description:</strong><br/> Daily Concepts Your Mesh Sponge DC29 has unique smart label<br/> technology with indicator that fades when its time to replace the<br/> Body Mesh Sponge. This comes along with 50 gram mesh ideal for<br/> gentle exfoliation and an exceptional lather.<br/><br/><strong>Benefits:</strong><br/> With anti-microbial treated sponge to inhibit the growth of health<br/> microorganisms. Gentle exfoliation and a luxurious lather make for<br/> an exceptionally refreshed and revitalized effect on the skin<br/> Versatile and perfect shower sidekick working as an effective<br/> applicator for whatever form of soap you prefer to apply.<br/><br/><strong>How to use:</strong><br/> Apply cleanser and massage skin in circular motion<br/> After each use, rinse thoroughly, squeeze out water and hang to dry<br/> in well-ventilated area. Use daily as recommended</p>",60.00,"
Daily Concepts",T. Taio Industries USA (DBA Daily Concepts),Teens - Adult,Body Sponge,Unisex,Personal Care///Pesonal Hygiene///Body Scrub,1000,Y,Daily Concepts Your Mesh Sponge DC29.jpg,Common Vendor
DAI-C31-218-918,Daily Concepts Your Detox Massage Brush DC31,<p><strong>Short description:</strong><br/> Detox massaging brush<br/> 100% natural bristles and beechwood<br/> Vigorous<br/> For radiant skin<br/> For dry brushing<br/><br/><strong>Description:</strong><br/> Daily Concepts Your Detox Massage Brush is ideal for dry brushing plus skin detoxification with natural bristles and massaging nodules for radiant skin.<br/><br/><strong>Benefits:</strong><br/> Ideal for either a dry or wet exfoliation<br/> Detoxifying nodules and bristle help to achieve radiant skin<br/> It improves overall appearance of skin<br/><br/><strong>How to use:</strong><br/> Polish in circular motions all over body in order to stimulate circulation and to eliminate layers of dead skin</p>,67.20,Daily Concepts,T. Taio Industries USA (DBA Daily Concepts),Adults,Massage Brush,Unisex,Personal Care///Pesonal Hygiene///Body Scrub,1000,Y,Daily Concepts Your Detox Massage Brush DC31.jpg,Common Vendor
DAI-DC1-200-900,Daily Concepts Your Body Scrubber DC1,"<p><strong>Short description:</strong><br/> Body scrubber<br/> Smart technology<br/> Mild<br/> Perfect for travel<br/> Ideal post-workout<br/><br/><strong>Description:</strong><br/> Daily Concepts Your Body Scrubber DC1 has a regular<br/> texture for areas requiring more exfoliation and soft<br/> texture for the more gentler parts of the body. The<br/> scrubber has a label with indicator that fades when<br/> it's time to replace the dual texture scrubber.<br/><br/><strong>Benefits:</strong><br/> Natural cotton base layer with nylon exfoliating loops<br/> for the ideal texture<br/> Environmentally friendly, soy based foam material<br/> (inside the scrubber) for creating a rich lather.<br/> Clinically, allergy and dermatologist tested<br/> Great to use when in hurry<br/><br/><strong>How to use:</strong><br/> Scrub the side which need to be clean</p>",38.00,"
Daily Concepts",T. Taio Industries USA (DBA Daily Concepts),Adult,Body Scrub,Unisex,Personal Care///Pesonal Hygiene///Body Scrub,1000,Y,Daily Concepts Your Body Scrubber DC1.jpg,Common Vendor
,,,,,,,,,,,,,
,,,,,,,,,,,,,
,,,,,,,,,,,,,
,,,,,,,,,,,,,
,,,,,,,,,,,,,
,,,,,,,,,,,,,
,,,,,,,,,,,,,
,,,,,,,,,,,,,
