Product Code,Package Name,Description,Price,Stock,Brand,Manufacturer,Net Volume,Age Group,Product Form,Gender,OTC,Category,Product Image,Vendor
LOU-MER-607-903,Louis Widmer Antiperspirant Non-Scented Deo Cream 40 mL,"<div> <div> <h4>Short description:</h4> <ul> <li>Reliable protection for 24 hours</li> <li>Ideal for very sensitive skin</li> <li>Inhibits sweating</li> </ul> </div> </div> <div> <h4>Description:</h4> <p>Deo cream contains Aluminium chlorohydrate that reduces excessive perspiration. In addition, the products contain high quality active ingredients, which neutralise odours and are non-harmful to the skin and allergy sufferers. Ethylhexylglycerin inhibits bacteria on the skin that creates odours. The mild bases ensure optimum tolerability. The deodorant products are well-tolerated even by irritated, reddened skin in the armpit region.</p> </div> <div> <h4>Benefits:</h4> <ul> <li>Inhibits sweating</li> <li>Optimally tolerated, even by extremely sensitive skin</li> <li>24-hours protection</li> <li>No alcohol</li> <li>Suitable for use on hands and feet</li> </ul> </div> <div> <h4>How to use:</h4> <ul> <li>All deos are suitable for use under the arms and on the hands and feet</li> <li>Profuse perspiration in the folds of the body (obese persons) can be treated effectively over a long period of time</li> <li>One application per day is normally sufficient</li> <li>In treating hyperhidrosis and in order to in?crease the effect, the products can be applied mornings and evenings</li> <li>The maximum efficacy, i.e. an antiperspirant effect over a 24-hour period, is obtained after 2 to 3 days' use of the product</li> </ul> </div>",83,1000,Louis Widmer,Louis Widmer,40 ML,18+ Years,Cream,Unisex,Y,Personal Care///Personal Hygiene///Body Hygiene,Louis Widmer Antiperspirant Non-Scented Deo Cream 40 mL.jpg,Common Vendor
LOU-MER-608-904,Louis Widmer Antiperspirant Non-Scented Deo Roll On 50 mL,"<div> <div> <h4>Short description:</h4> <ul> <li>Regulates perspiration</li> <li>Optimum skin tolerance</li> <li>Effective for 24 hours</li> </ul> </div> </div> <div> <h4>Description:</h4> <p>Louis widmer Deo Roll On Antiperspirant contain aluminium chlorhydrate which inhibits excessive perspiration from forming. The Deodorants contain high quality active ingredients which are dermatologically and allergologically safe. Chitosan in the Deo Roll-on is a soothing deodorizing marine-based active agent. Ethylhexyl glycerin inhibits odor-causing bacteria on the skin .The mild formulas guarantee optimum tolerance even by very sensitive skin. The Deodorants are also well tolerated by irritated, reddened skin in the axillary area.</p> </div> <div> <h4>Benefits:</h4> <ul> <li>Prevents perspiration</li> <li>Effective for 24 hour,No alcohol</li> <li>Well tolerated by irritated, reddened skin in the axillary area</li> </ul> </div> <div> <h4>How to use:</h4> <ul> <li>Use under the arms and on the hands and feet</li> <li>Generally applied once daily</li> </ul> </div>",82,1000,Louis Widmer,Louis Widmer,50 ML,Adults,Rollon,Unisex,Y,Personal Care///Personal Hygiene///Body Hygiene,Louis Widmer Antiperspirant Non-Scented Deo Roll On 50 mL.jpg,Common Vendor
LOU-MER-609-905,Louis Widmer Deo Spray 75 mL,"<div> <div> <h4>Short description:</h4> <ul> <li>Prevents perspiration</li> <li>Effective for 24 hours</li> <li>Optimally tolerated, even by extremely sensitive skin</li> </ul> </div> </div> <div> <h4>Description:</h4> <p>Louis Widmer Deo Spray 75 mL is for freshness and safety all day and also for sensitive skin. The latest emulsion technology (PIT emulsion) and the formulation of additives guarantee 24 hours antiperspirant effect and bacteriostatic protection. This deodorant contains Aluminium Chlorhydrate, inhibits perspiration. Chitosan, soothing deodorizing marine-based active agent. Ethylhexyl glycerin inhibits odor-causing bacteria on the skin. Suitable for even the most sensitive skin.</p> </div> <div> <h4>Benefits:</h4> <ul> <li>24 hours antiperspirant effect and bacteriostatic protection</li> <li>Suitable for even the most sensitive skin</li> <li>Well tolerated by irritated, reddened skin in the axillary area</li> <li>Alcohol free</li> </ul> </div> <div> <h4>How to use:</h4> <ul> <li>Spray under the arms and on the hands and feet</li> <li>Generally applied once daily</li> </ul> </div>",80,1000,Louis Widmer,Louis Widmer,75 ML,18+ Years,Spray/Mist,Unisex,Y,Personal Care///Personal Hygiene///Body Hygiene,Louis Widmer Deo Spray 75 mL.jpg,Common Vendor
NIV-VEA-610-906,Nivea Dry Comfort Plus Antiperspirant Spray 150 mL,"<h4>Short description:</h4> <ul> <li>Anti-perspirant</li> <li>Extra protection up to 48h</li> <li>Gentle care</li> <li>DryPlus System &amp; Minerals</li> </ul> <div> <h4>Description:</h4> <p>Nivea Deodorant Dry Comfort with minerals offers the true confidence of effective 48h regulation of perspiration and guarantees a pleasantly dry skin feeling. The optimal combination of reliable anti-perspirant protection and Nivea's mild care.</p> </div> <div> <h4>Benefits:</h4> <ul> <li>Without alcohol, colourants or preservatives</li> <li>Skin tolerance dermatologically proven</li> </ul> </div> <div> <h4>How to use:</h4> <ul> <li>Hold can 15 cm from the underarm and spray.</li> <li>Do not apply to broken or irritated skin.</li> <li>Allow product to dry completely.</li> </ul> </div>",14.75,1000,Nivea,Beiersdorf,150 ML,Adults,Spray/Mist,Unisex,Y,Personal Care///Personal Hygiene///Body Hygiene,Nivea Dry Comfort Plus Antiperspirant Spray 150 mL.jpg///Nivea Dry Comfort Plus Antiperspirant Spray 150 mL1.jpg,Common Vendor
NIV-VEA-611-907,Nivea Dry Comfort Plus Female Deodorant Roll-On 50 mL,"<div> <div> <h4>Short description:</h4> <ul> <li>Anti-perspirant</li> <li>48h extra protection</li> <li>Gentle care</li> <li>Dry feeling against sweat and body odor</li> </ul> </div> </div> <div> <h4>Description:</h4> <p>Nivea deodorant 'dry comfort plus'  gives you extra anti-perspirant performance for a dry feeling and caring 48h protection against sweat and body odor. For the first time Nivea research developed a formula containing a second, additional anti-perspirant agent. This unique 'dryplus system' gives you reliable, 48h protection against sweat and body odor.</p> </div> <div> <h4>Benefits:</h4> <ul> <li>Effective regulation of perspiration  with Dry Plus System and minerals</li> <li>48h anti-perspirant protection and gentle Nivea care</li> <li>Skin tolerance dermatologically proven</li> <li>Without alcohol or colorants</li> </ul> </div> <div> <h4>How to use:</h4> <ul> <li>Apply the deodorant to your clean underarms daily after shower.</li> </ul> </div>",13.5,1000,Nivea,Beiersdorf,50 ML,Adults,Rollon,Female,Y,Personal Care///Personal Hygiene///Body Hygiene,Nivea Dry Comfort Plus Female Deodorant Roll-On 50 mL.jpg///Nivea Dry Comfort Plus Female Deodorant Roll-On 50 mL1.jpg///Nivea Dry Comfort Plus Female Deodorant Roll-On 50 mL2.jpg,Common Vendor
NIV-VEA-612-908,Nivea Fresh Natural Deodorant Stick 40 mL,"<div> <div> <h4>Short description:</h4> <ul> <li>Fresh natural deodorant</li> <li>Fresh feeling all day long  with ocean extracts</li> <li>48h deodorant protection and gentle care</li> </ul> </div> </div> <div> <h4>Description:</h4> <p>Nivea Deodorant Fresh Natural with ocean extracts offers the true confidence of 48h effective deodorant protection providing a fresh feeling. The optimal combination of reliable deodorant protection and Nivea's mild care.</p> </div> <div> <h4>Benefits:</h4> <ul> <li>Handy, light, stick-free ease to keep you smelling and feeling good anytime, anywhere.</li> <li>Without colourants or preservatives.</li> <li>Skin tolerance dermatologically proven.</li> </ul> </div> <div> <h4>How to use:</h4> <ul> <li>Apply to underarms only, do not use on broken skin.</li> <li>Stop use if rash or irritation occurs.</li> </ul> </div>",15,1000,Nivea,Beiersdorf,40 ML,Adults,Stick,Unisex,Y,Personal Care///Personal Hygiene///Body Hygiene,Nivea Fresh Natural Deodorant Stick 40 mL.jpg///Nivea Fresh Natural Deodorant Stick 40 mL1.jpg,Common Vendor
NIV-VEA-613-909,Nivea Men Cool Kick Deo Stick 40 mL,"<h4><strong>Short description:</strong></h4> <ul> <li>Kick of freshness</li> <li>Helps you stay cool and active all through your day</li> <li>Deodorant</li> </ul> <h4><strong>Description:</strong></h4> <p>Nivea deodorant cool kick stick with 48h efficacy guarantees an instant feeling of extra freshness. Its mild Cool-Care Formula offers the optimal combination of mild Nivea care and deodorant protection. All day long.</p> <div> <h4><strong>Benefits:</strong></h4> <ul> <li>48 hour anti perspirant protection</li> <li>Excellent skin tolerance</li> <li>Dermatologically proven</li> <li>Without alcohol, colorants or preservatives</li> </ul> <h4><strong>How to use:</strong></h4> <ul> <li>Apply the deodorant stick to clean underarms.</li> </ul> </div>",15,1000,Nivea,Beiersdorf,40 ML,Adults,Stick,Male,Y,Personal Care///Personal Hygiene///Body Hygiene,Nivea Men Cool Kick Deo Stick 40 mL.jpg///Nivea Men Cool Kick Deo Stick 40 mL1.jpg,Common Vendor
NIV-VEA-614-910,Nivea Men Dry Impact Plus Stick 40 mL,"<div> <div> <h4>Short description:</h4> <ul> <li>Anti-perspirant</li> <li>Extra protection</li> <li>Excellent skin tolerance</li> </ul> </div> </div> <div> <h4>Description:</h4> <p>Nivea Deodorant Dry Impact Plus with minerals offers the real confidence of effective 48h regulation of perspiration and guarantees a dry skin feeling.</p> </div> <div> <h4>Benefits:</h4> <ul> <li>Light masculine scent</li> <li>Without alcohol, colourants or preservatives</li> </ul> </div> <div> <h4>How to use:</h4> <ul> <li>Allow product to dry completely and do not apply to broken or irritated skin.</li> </ul> </div>",15,1000,Nivea,Beiersdorf,40 ML,Adults,Stick,Male,Y,Personal Care///Personal Hygiene///Body Hygiene,Nivea Men Dry Impact Plus Stick 40 mL.jpg///Nivea Men Dry Impact Plus Stick 40 mL1.jpg,Common Vendor
NIV-VEA-615-911,Nivea Men Dry Impact Plus Antiperspirant Roll-On 50 mL,"<div> <div> <h4>Short description:</h4> <ul> <li>48h Dry Skin Feeling</li> <li>Highly effective anti-perspirant formula for a long lasting dry skin feeling</li> <li>Antiperspirant care</li> <li>Dry feeling and caring protection against sweat and body odour</li> </ul> </div> </div> <div> <h4>Description:</h4> <p>Nivea Men Deodorant 'Dry Impact Plus' gives you extra anti-perspirant performance for a dry feeling and caring 48h protection against sweat and body odour. For the first time Nivea Men research developed a formula containing a second, additional anti-perspirant agent. This unique 'DryPlus system' gives you reliable, 48h protection against sweat and body odour.</p> </div> <div> <h4>Benefits:</h4> <ul> <li>Effective regulation of perspiration  with DryPlus System and minerals</li> <li>48h effective anti-perspirant protection &amp; Nivea Men Care Complex</li> <li>Skin tolerance dermatologically approved</li> <li>No alcohol or colourants</li> </ul> </div> <div> <h4>How to use:</h4> <ul> <li>Roll-on evenly on underarms.</li> <li>Allow product to dry completely before dressing.</li> <li>Do not apply to broken or irritated skin.</li> </ul> </div>",13.5,1000,Nivea,Beiersdorf,50 ML,Adults,Rollon,Male,Y,Personal Care///Personal Hygiene///Body Hygiene,Nivea Men Dry Impact Plus Antiperspirant Roll-On 50 mL.jpg,Common Vendor
NIV-VEA-616-912,Nivea Men Dry Impact Plus Deodorant 150 mL,"<div> <div> <h4>Short description:</h4> <ul> <li>Extra protection</li> <li>Dryplus system</li> <li>Anti perspirant</li> </ul> </div> </div> <div> <h4>Description:</h4> <p>Nivea Men Deodorant Dry Impact Plus gives you extra anti-perspirant performance for a dry feeling and caring 48h protection against sweat and body odour. This unique DryPlus system gives you reliable, 48h protection against sweat and body odour.</p> </div> <div> <h4>Benefits:</h4> <ul> <li>Effective regulation of perspiration  with DryPlus system and minerals</li> <li>48h effective anti-perspirant protection</li> <li>Skin tolerance and dermatologically approved</li> </ul> </div> <div> <h4>How to use:</h4> <ul> <li>Hold can 15 cm from the underarm and spray. Allow product to dry completely.</li> </ul> </div>",14.75,1000,Nivea,Beiersdorf,150 ML,Adults,Spray/Mist,Male,Y,Personal Care///Personal Hygiene///Body Hygiene,Nivea Men Dry Impact Plus Deodorant 150 mL.jpg,Common Vendor
NIV-VEA-617-913,Nivea Men Fresh Active Deodorant 150 mL,"<div> <div> <h4>Short description:</h4> <ul> <li>Long lasting freshness</li> <li>Ocean extracts</li> <li>Deodorant</li> </ul> </div> </div> <div> <h4>Description:</h4> <p>Nivea Men Fresh Active Original, a deodorant for men that keeps you feeling fresh, all day long. Designed with a special formula enriched with Ocean Extracts, this deodorant not only appeals to the senses, but also keeps body odour in check for all your daily rigorous tasks. It cares for your underarm skin while giving you protection against body odour all day long.</p> </div> <div> <h4>Benefits:</h4> <ul> <li>Gives long lasting freshness</li> <li>Ensures day long body odour control</li> <li>Has a fresh masculine fragrance</li> <li>Dermatologically proven to be skin tolerant</li> </ul> </div> <div> <h4>How to use:</h4> <ul> <li>Hold the can 10-15 cms away</li> <li>Spray directly on underarm and on body</li> <li>Apply on skin for best results</li> </ul> </div>",14.75,1000,Nivea,Beiersdorf,150 ML,Adults,Spray/Mist,Male,Y,Personal Care///Personal Hygiene///Body Hygiene,Nivea Men Fresh Active Deodorant 150 mL.jpg,Common Vendor
NIV-VEA-618-914,Nivea Men Invisible for Black and White Deodorant Spray 150 mL,<div> <div> <h4>Short description:</h4> <ul> <li>Anti-perspirant</li> <li>No white marks</li> <li>Anti-yellow staining</li> <li>Care complex</li> </ul> </div> </div> <div> <h4>Description:</h4> <p>The new Deodorant developed with textile experts to offer you powerful anti-perspirant protection without risks of white marks and with reduction of yellow stains. For your black tops to stay black and the white shirts to stay white. The unique formula protects you 48h non-stop against perspiration and helps to maintain the original color of your clothes. The transparent protection doesn't leave traces.</p> </div> <div> <h4>Benefits:</h4> <ul> <li>White mark protection on black clothing and anti-yellow staining on white clothing</li> <li>48h anti-perspirant protection and Nivea Men Care Complex</li> <li>Skin tolerance dermatologically proven</li> <li>No alcohol</li> </ul> </div> <div> <h4>How to use:</h4> <ul> <li>Hold can 15 cm from the underarm and spray. Allow product to dry completely.</li> </ul> </div>,14.75,1000,Nivea,Beiersdorf,150 ML,18+ Years,Spray/Mist,Male,Y,Personal Care///Personal Hygiene///Body Hygiene,Nivea Men Invisible for Black and White Deodorant Spray 150 mL.jpg///Nivea Men Invisible for Black and White Deodorant Spray 150 mL1.jpg///Nivea Men Invisible for Black and White Deodorant Spray 150 mL2.jpg,Common Vendor
NIV-VEA-619-915,Nivea Men Invisible for Black and White Deodorant Stick 40 mL,<div> <div> <h4>Short description:</h4> <ul> <li>Anti-perspirant</li> <li>No white marks</li> <li>Anti-yellow staining</li> <li>Care complex</li> </ul> </div> </div> <div> <h4>Description:</h4> <p>The new Deodorant developed with textile experts to offer you powerful anti-perspirant protection without risks of white marks and with reduction of yellow stains. For your black tops to stay black and the white shirts to stay white. The unique formula protects you 48h non-stop against perspiration and helps to maintain the original color of your clothes. The transparent protection doesn't leave traces.</p> </div> <div> <h4>Benefits:</h4> <ul> <li>White mark protection on black clothing and anti-yellow staining on white clothing</li> <li>48h anti-perspirant protection and Nivea Men Care Complex</li> <li>Skin tolerance dermatologically proven</li> <li>No alcohol</li> </ul> </div> <div> <h4>How to use:</h4> <ul> <li>Apply the deodorant stick to your underarms daily after shower.</li> </ul> </div>,15,1000,Nivea,Beiersdorf,40 ML,18+ Years,Stick,Male,Y,Personal Care///Personal Hygiene///Body Hygiene,Nivea Men Invisible for Black and White Deodorant Stick 40 mL.jpg///Nivea Men Invisible for Black and White Deodorant Stick 40 mL1.jpg,Common Vendor
NIV-VEA-620-916,Nivea Men Silver Protect Spray 150 mL,<div> <div> <h4>Short description:</h4> <ul> <li>Anti-perspirant</li> <li>With anti-bacterial action</li> <li>Reduces upto 99.9% bacteria</li> </ul> </div> </div> <div> <h4>Description:</h4> <p>Nivea Men Silver Protect with silver ions offers you the real confidence of effective 48h regulation of perspiration with a modern masculine scent. The antibacterial formula with silver ions is highly active and fights against bacteria rapidly: Silver ions are able to enter the bacterial cells and to deactivate their vital functions. This leads to a loss in viability of the bacteria and the inhibition of bacterial replication.</p> </div> <div> <h4>Benefits:</h4> <ul> <li>Fights body odour  anti-bacterial formula with silver ions</li> <li>48h anti-perspirant protection</li> <li>Skin tolerance dermatologically proven</li> <li>No alcohol or colorants</li> </ul> </div> <div> <h4>How to use:</h4> <ul> <li>Hold can 15 cm from the underarm and spray.</li> <li>Do not apply to irritated or damaged skin.</li> <li>Allow product to dry completely.</li> </ul> </div>,14.75,1000,Nivea,Beiersdorf,150 ML,18+ Years,Spray/Mist,Male,Y,Personal Care///Personal Hygiene///Body Hygiene,Nivea Men Silver Protect Spray 150 mL.jpg,Common Vendor
NIV-VEA-621-917,Nivea Natural Fairness Roll-On 50 mL,<div> <div> <h4>Short description:</h4> <ul> <li>Anti-perspirant</li> <li>Gentle care</li> <li>Fairer and smoother underarms</li> </ul> </div> </div> <div> <h4>Description:</h4> <p>Nivea natural fairness with Vitamin C and Licorice enhances skin's fairness in just 2 weeks all while soothing and protecting all day long.</p> </div> <div> <h4>Benefits:</h4> <ul> <li>Softens dry and irritated skin with Avocado extracts.</li> <li>Provides reliable 48-hour deodorant protection.</li> <li>Skin tolerance dermatologically proven.</li> </ul> </div> <div> <h4>How to use:</h4> <ul> <li>Roll on evenly and allow to dry before dressing.</li> <li>Do not apply to broken or irritated skin.</li> </ul> </div>,13.5,1000,Nivea,Beiersdorf,50 ML,Adults,Rollon,Unisex,Y,Personal Care///Personal Hygiene///Body Hygiene,Nivea Natural Fairness Roll-On 50 mL.jpg,Common Vendor
NIV-VEA-622-918,Nivea Pearl & Beauty Antiperspirant Spray 150 mL,"<div> <div> <h4>Short description:</h4> <ul> <li>Anti-perspirant</li> <li>Gentle care</li> <li>Fairer and smoother underarms</li> </ul> </div> </div> <div> <h4>Description:</h4> <p>Nivea Pearl and Beauty offers precious pearl extracts to even out the skin tone, so that your underarms can look as attractive as the rest of your body. It is highly effective in protecting against sweat and body odour and it gives your underarms a comfortable soft dryness and velvety finish.</p> </div> <div> <h4>Benefits:</h4> <ul> <li>Smooth beautiful underarms  contains pearl extract</li> <li>48h effective anti-perspirant protection</li> <li>Skin tolerance dermatologically approved</li> <li>Without alcohol or colourants</li> </ul> </div> <div> <h4>How to use:</h4> <ul> <li>Hold can 15 cm from the underarm and spray. Allow product to dry completely.</li> </ul> </div>",14.75,1000,Nivea,Beiersdorf,150 ML,Adults,Spray/Mist,Female,Y,Personal Care///Personal Hygiene///Body Hygiene,Nivea Pearl & Beauty Antiperspirant Spray 150 mL.jpg,Common Vendor
NIV-VEA-623-919,Nivea Pearl & Beauty Deo Stick 40 mL,"<div> <div> <h4>Short description:</h4> <ul> <li>Anti-perspirant</li> <li>Smooth and beautiful underarms</li> <li>Gentle care</li> </ul> </div> </div> <div> <h4>Description:</h4> <p>Nivea Pearl and Beauty offers precious pearl extracts to even out the skin tone, so that your underarms can look as attractive as the rest of your body. It is highly effective in protecting against sweat and body odour and it gives your underarms a comfortable soft dryness and velvety finish.</p> </div> <div> <h4>Benefits:</h4> <ul> <li>Smooth and beautiful underarms  contains pearl extract</li> <li>48h effective anti-perspirant protection</li> <li>Skin tolerance dermatologically approved</li> <li>Without alcohol or colourants</li> </ul> </div> <div> <h4>How to use:</h4> <ul> <li>Apply the deodorant stick to clean underarms.</li> </ul> </div>",15,1000,Nivea,Beiersdorf,40 ML,18+ Years,Stick,Female,Y,Personal Care///Personal Hygiene///Body Hygiene,Nivea Pearl & Beauty Deo Stick 40 mL.jpg,Common Vendor
NIV-VEA-624-920,Nivea Powder Touch Anti-perspirant Spray 150 mL,"<div> <div> <h4>Short description:</h4> <ul> <li>Anti-perspirant</li> <li>48 h gentle care</li> <li>Soft skin feeling</li> <li>Quick dry</li> <li>With Kaolin powder</li> </ul> </div> </div> <div> <h4>Description:</h4> <p>Nivea Powder Touch Anti-perspirant feels extremely soft while applying, leaves your underarms instantly dry and smooth and protects you for 48h. The ultra-light formula enriched with kaolin powder is quickly absorbed by your skin and provides a soft and dry skin feeling. It comes with a delicate and pampering fragrance for 48h protection with gentle Nivea care.</p> </div> <div> <h4>Benefits:</h4> <ul> <li>Quick dry and soft skin feeling</li> <li>48h anti-perspirant protection</li> <li>Anti-residues on skin and clothes</li> <li>Skin tolerance dermatologically proven</li> <li>Without alcohol or colorants</li> </ul> </div> <div> <h4>How to use:</h4> <ul> <li>Shake well before use.</li> <li>Hold 15 cm from the underarm and spray.</li> <li>Allow product to dry completely before getting dressed.</li> </ul> </div>",14.75,1000,Nivea,Beiersdorf,150 ML,Adults,Spray/Mist,Unisex,Y,Personal Care///Personal Hygiene///Body Hygiene,Nivea Powder Touch Anti-perspirant Spray 150 mL.jpg///Nivea Powder Touch Anti-perspirant Spray 150 mL1.jpg,Common Vendor
VIC-CHY-625-921,Vichy 24 Hour Deodorant Cream 40 mL,"<div> <div> <h4>Short description:</h4> <ul> <li>24-hour deodorant cream</li> <li>For sensitive or depilated skin</li> <li>Hypoallergenic and fragrance free</li> <li>Alcohol free and paraben free</li> </ul> </div> </div> <div> <h4>Description:</h4> <p>A gentle formula, specially adapted for sensitive and depilated skin. The deodorant active ingredients combined with soothing Proline Cutei give the skin 24-hour deodorant efficacy and incredible tolerance all day long.</p> </div> <div> <h4>Benefits:</h4> <ul> <li>24-hour deodorant efficacy</li> <li>Melting texture that leaves skin soft</li> <li>Absorbed quickly after application with no sticky or greasy residue</li> </ul> </div> <div> <h4>How to use:</h4> <ul> <li>Apply daily to clean, dry armpits.</li> </ul> </div>",76.75,1000,Vichy,Loreal,40 ML,18+ Years,Cream,Unisex,Y,Personal Care///Personal Hygiene///Body Hygiene,Vichy 24 Hour Deodorant Cream 40 mL.jpg,Common Vendor
VIC-CHY-626-922,Vichy 48Hr Soothing Anti-Perspirant Roll-On For Sensitive Skin 50 mL,"<div> <div> <h4>Short description:</h4> <ul> <li>48 hour soothing anti perspirant</li> <li>For sensitive or depilated skin</li> <li>Hypoallergenic, paraben-free, alcohol-free and fragrance-free</li> </ul> </div> </div> <div> <h4>Description:</h4> <p>A gentle formula, specially adapted for sensitive and depilated skin. The anti-perspirant active ingredients combined with soothing Proline Cutei give your skin 48-hour anti-perspiration efficacy and incredible tolerance.</p> </div> <div> <h4>Benefits:</h4> <ul> <li>48-hour deodorant and anti-perspirant efficacy</li> <li>Ultra-tolerance</li> <li>Melting texture that leaves skin soft with no sticky or greasy residue</li> </ul> </div> <div> <h4>How to use:</h4> <ul> <li>Apply daily to clean, dry armpits.</li> </ul> </div>",72.5,1000,Vichy,Loreal,50 ML,Adults,Spray/Mist,Unisex,Y,Personal Care///Personal Hygiene///Body Hygiene,Vichy 48Hr Soothing Anti-Perspirant Roll-On For Sensitive Skin 50 mL.jpg,Common Vendor
VIC-CHY-627-923,Vichy 48Hr Intense Anti-Perspirant Treatment Roll-On 50 mL,"<div> <div> <h4>Short description:</h4> <ul> <li>48 hour anti-perspirant treatment</li> <li>For sensitive skin</li> <li>Suitable for those who suffer from intense perspiration</li> </ul> </div> </div> <div> <h4>Description:</h4> <p>Vichy 48Hr Intense Anti-Perspirant Treatment Roll-On is for women and men who want lasting protection, enriched with aluminium salt. Its extra strength formula deals with more intense underarm perspiration, and provides protection for up to 48 hours.</p> </div> <div> <h4>Benefits:</h4> <ul> <li>Freshness and softness to your skin with no white marks or feeling of discomfort</li> <li>Leaves a soft, powdery film on the skin with no stickiness</li> <li>Hypoallergenic, alcohol-free, fragrance-free and paraben-free</li> </ul> </div> <div> <h4>How to use:</h4> <ul> <li>Apply daily to clean, dry armpits.</li> </ul> </div>",72.5,1000,Vichy,Loreal,50 ML,Adults,Rollon,Unisex,Y,Personal Care///Personal Hygiene///Body Hygiene,Vichy 48Hr Intense Anti-Perspirant Treatment Roll-On 50 mL.jpg,Common Vendor
VIC-CHY-628-924,Vichy 72Hr Stress Resist Anti-Perspirant Treatment Roll-On 50 mL,"<div> <div> <h4>Short description:</h4> <ul> <li>72 hours anti-perspirant treatment</li> <li>For excessive perspiration and sensitive skin</li> <li>Stress resist anti-perspirant</li> </ul> </div> </div> <div> <h4>Description:</h4> <p>Hyper-effective anti-perspirant, even under stress. Rich in anti-perspirant active ingredients, ultra-absorbent minerals and Perspicalm, this anti-perspirant regulates heat and perspiration at times of stress.</p> </div> <div> <h4>Benefits:</h4> <ul> <li>72-hour anti-perspirant efficacy, effective even at times of stress</li> <li>Increased efficacy application after application</li> <li>Ultra-comfortable, quick-drying and non-sticky texture</li> <li>Protected and feel secure all day long</li> </ul> </div> <div> <h4>How to use:</h4> <ul> <li>Apply daily to clean, dry armpits.</li> </ul> </div>",72.5,1000,Vichy,Loreal,50 ML,Adults,Rollon,Unisex,Y,Personal Care///Personal Hygiene///Body Hygiene,Vichy 72Hr Stress Resist Anti-Perspirant Treatment Roll-On 50 mL.jpg,Common Vendor
VIC-CHY-629-925,Vichy Homme 72Hr Anti-Perspirant Deodorant 50 mL,"<div> <div> <h4>Short description:</h4> <ul> <li>72-hour anti-perspirant roll-on deodorant</li> <li>Reinforced efficacy, no alcohol</li> <li>Long-lasting freshness</li> </ul> </div> </div> <div> <h4>Description:</h4> <p>The formula, rich in anti-perspirant active ingredients and ultra-absorbent minerals, regulates perspiration and moisture for 72 hours. Skin is comfortable with no stickiness or feeling of irritation all day long and beyond.</p> </div> <div> <h4>Benefits:</h4> <ul> <li>Regulates perspiration and moisture for 72 hours</li> <li>Leaves skin comfortable with no stickiness</li> <li>Optimal tolerance</li> <li>Quick-drying texture which leaves your skin comfortable with no stickiness</li> </ul> </div> <div> <h4>How to use:</h4> <ul> <li>Apply to clean, dry armpits.</li> </ul> </div>",72.5,1000,Vichy,Loreal,50 ML,18+ Years,Rollon,Male,Y,Personal Care///Personal Hygiene///Body Hygiene,Vichy Homme 72Hr Anti-Perspirant Deodorant 50 mL.jpg,Common Vendor
NIV-VEA-630-926,Nivea Men Fresh Powder Deodorant 150 mL + Protect and Care Shave Gel 200 mL Promo Kit,<div> <div> <h4>Short description:</h4> <ul> <li>Deodorant spray + Shaving gel</li> <li>2 in 1 Promo Kit</li> <li>Save 20% + Free bag</li> <li>48-hour protection deodorant spray</li> </ul> </div> </div> <div> <h4>Description:</h4> <p>Nivea Men Fresh Powder Deodorant + Protect and Care Shave Gel Promo Kit is a combination of deodorant spray and shaving gel in 1 pack. The deodorant spray has a reliable 48-hour protection that cares for the skin and has long-lasting freshness with ocean extracts. The shaving gel has the formula of Aloe Vera and Pro-vitamin B5 which cares for the skin and protects it from drying out.</p> </div> <div> <h4>Benefits:</h4> <ul> <li>Shaving gel with cooling and refreshing formula</li> <li>Deodorant spray that gives 48-hour protection against body odor</li> <li>Softens your beard hair</li> </ul> </div> <div> <h4>How to use:</h4> <ul> <li>For deodorant spray: hold can 15cm from the underarm and spray. Allow to dry completely.</li> <li>For shaving gel: Take a small bit of gel on your palms and massage directly on your wet face.</li> </ul> </div>,28.75,1000,Nivea,BDF,150 ML + 200 ML,18+ Years,"Spray/ Mist, Gel",Male,Y,Personal Care///Personal Hygiene///Body Hygiene,Nivea Men Fresh Powder Deodorant 150 mL + Protect and Care Shave Gel 200 mL Promo Kit.jpg,Common Vendor
LOU-MER-631-927,Louis Widmer Scented Anti-Perspirant Deo Roll-On 50 mL,"<div> <div> <h4>Short description:</h4> <ul> <li>Deodorant Roll-on</li> <li>Anti-Perspirant</li> <li>24 hours effect</li> </ul> </div> </div> <div> <h4>Description:</h4> <p>Louis Widmer Scented Anti-Perspirant Deo Roll-On contain aluminium chlorhydrate which inhibits excessive perspiration from forming. The Deodorants contain high quality active ingredients which are dermatologically and allergologically safe. Chitosan in the Deo Roll-on is a soothing deodorizing marine-based active agent. Ethylhexyl glycerin inhibits odor-causing bacteria on the skin .The mild formulas guarantee optimum tolerance even by very sensitive skin. The Deodorants are also well tolerated by irritated, reddened skin in the axillary area.</p> </div> <div> <h4>Benefits:</h4> <ul> <li>It is very well tolerated by the skin</li> <li>No alcohol content which is friendly for the skin</li> <li>Longer effect for 24 hours</li> </ul> </div> <div> <h4>How to use:</h4> <ul> <li>Apply once a day. The product can be applied in the morning and in the evening in the case of severe perspiration.</li> <li>For use under the arms, on hands and feet.</li> </ul> </div>",82,1000,Louis Widmer,Louis Widmer,50 ML,Adults,Rollon,Unisex,Y,Personal Care///Personal Hygiene///Body Hygiene,Louis Widmer Scented Anti-Perspirant Deo Roll-On 50 mL.jpg///Louis Widmer Scented Anti-Perspirant Deo Roll-On 50 mL1.jpg,Common Vendor
NIV-VEA-632-928,Nivea Men Black and White Anti-Perspirant 150 mL + Sensitive Shaving Gel 200 mL Promo Kit,<div> <div> <h4>Short description:</h4> <ul> <li>Anti-perspirant spray + Shaving gel</li> <li>2 in 1 promo pack</li> <li>Save 20% + Free bag</li> </ul> </div> </div> <div> <h4>Description:</h4> <p>Nivea Men Black and White Anti-Perspirant + Sensitive Shaving Gel Promo Kit is a combination of deodorant spray and shaving gel in one pack. The deodorant spray provides a reliable 48-hour protection and comes with white mark protection on black clothing and anti-yellow staining on white clothing. The improved shaving gel contains zero percent alcohol for no burning sensation and is enriched with Chamomile and Hamamelis for skin care.</p> </div> <div> <h4>Benefits:</h4> <ul> <li>Guaranteed 48-hour protection against body odor</li> <li>Deodorant spray has anti-staining formula for black and white shirts</li> <li>Shaving gel is non-irritating to skin because it is alcohol free</li> </ul> </div> <div> <h4>How to use:</h4> <ul> <li>For deodorant spray: hold can 15cm from the underarm and spray. Allow to dry completely.</li> <li>For shaving gel: Take a small bit of gel on your palms and massage directly on your wet face.</li> </ul> </div>,28.75,1000,Nivea,Bdf,150 ML + 200 ML,Adults,"Spray/ Mist, Gel",Male,Y,Personal Care///Personal Hygiene///Body Hygiene,Nivea Men Black and White Anti-Perspirant 150 mL + Sensitive Shaving Gel 200 mL Promo Kit.jpg///Nivea Men Black and White Anti-Perspirant 150 mL + Sensitive Shaving Gel 200 mL Promo Kit1.jpg,Common Vendor
NIV-VEA-633-929,Nivea Men Fresh Active Deodorant 150 mL + Fresh and Cool Shaving Gel 200 mL Promo Kit,"<div> <div> <h4>Short description:</h4> <ul> <li>Deodorant spray + Shaving gel</li> <li>2 in 1 Promo Kit</li> <li>Save 20% + Free bag</li> <li>48-hour protection deodorant spray</li> <li>Invigorates and refreshing shaving gel</li> </ul> </div> </div> <div> <h4>Description:</h4> <p>Nivea Men Fresh Active Deodorant + Fresh and Cool Shaving Gel Promo Kit is a combination of deodorant spray and shaving gel in 1 pack. The deodorant spray has a reliable 48-hour protection that cares for the skin and has long-lasting freshness with ocean extracts. The Fresh and Cool shaving gel with Mini extracts, ISO-Magnesium and vitamin care for an extra invigorating freshness.</p> </div> <div> <h4>Benefits:</h4> <ul> <li>Shaving gel with cooling and refreshing formula</li> <li>Deodorant spray that gives 48-hour protection against body odor</li> <li>Non-irritating to skin</li> <li>Shaving Gel protects against micro cuts and irritations</li> </ul> </div> <div> <h4>How to use:</h4> <ul> <li>For deodorant spray: hold can 15cm from the underarm and spray. Allow to dry completely.</li> <li>For shaving gel: Take a small bit of gel on your palms and massage directly on your wet face.</li> </ul> </div>",28.75,1000,Nivea,Bdf,150 ML + 200 ML,18+ Years,"Spray/Mist, Gel",Male,Y,Personal Care///Personal Hygiene///Body Hygiene,Nivea Men Fresh Active Deodorant 150 mL + Fresh and Cool Shaving Gel 200 mL Promo Kit.jpg///Nivea Men Fresh Active Deodorant 150 mL + Fresh and Cool Shaving Gel 200 mL Promo Kit1.jpg,Common Vendor
EUC-RIN-634-930,Eucerin Anti-Perspirant 48h Roll-On 50 mL,"<div> <div> <h4>Short description:</h4> <ul> <li>Anti-Perspirant</li> <li>Strong perspiration</li> <li>48hr protection</li> <li>Reduction of perspiration and odour</li> <li>Free of alcohol</li> </ul> </div> </div> <div> <h4>Description:</h4> <p>Eucerin Anti-Perspirant 48h Roll-On has been designed for people who suffer from strong sweating. It contains a high concentration of Aluminum Chlorohydrate to prevent the buildup of sweat and body odour.</p> </div> <div> <h4>Benefits:</h4> <ul> <li>It gives 48-hour protection against strong perspiration and odour</li> <li>It is suitable for sensitive and shaved skin and has a fresh, unisex fragrance</li> <li>Alcohol free formula</li> </ul> </div> <div> <h4>How to use:</h4> <ul> <li>Apply after showering in the morning or evening or as needed</li> <li>Leave to dry before putting on clothes or jewellery to prevent staining.</li> <li>Keep out reach of children.</li> </ul> </div>",68.25,1000,Eucerin,Beiersdorf,50 ML,Adults,Rollon,Unisex,Y,Personal Care///Personal Hygiene///Body Hygiene,Eucerin Anti-Perspirant 48h Roll-On 50 mL.jpg///Eucerin Anti-Perspirant 48h Roll-On 50 mL1.jpg,Common Vendor
VIC-CHY-635-931,Vichy Deodorant Mineral Aerosol 125 mL,"<div> <div> <h4>Short description:</h4> <ul> <li>Deodorant mineral</li> <li>48 hour Anti-Odor freshness</li> <li>Magnesium Technology</li> <li>Hypoallergenic</li> </ul> </div> </div> <div> <h4>Description:</h4> <p>Vichy Deodorant Mineral Aerosol is an aluminum free deodorant which uses magnesium technology, contains a combination of magnesium oxide and 5 minerals for an anti-odor effect up to 48 hours and Provitamin B5 for soothing. The formula is hypoallergenic, alcohol-free and paraben-free.</p> </div> <div> <h4>Benefits:</h4> <ul> <li>48 hour anti-odor freshness</li> <li>Aluminum free</li> </ul> </div> <div> <h4>How to use:</h4> <ul> <li>Apply daily to clean, dry armpits.</li> </ul> </div>",72.5,1000,Vichy,Loreal,125 ML,Adults,Spray/ Mist,Unisex,Y,Personal Care///Personal Hygiene///Body Hygiene,Vichy Deodorant Mineral Aerosol 125 mL.jpg,Common Vendor
BIO-RMA-636-932,Bioderma Sensibio Anti-Perspirant Deo 50 mL,"<div> <div> <h4>Short description:</h4> <ul> <li>Regulates and reduces excessive perspiration</li> <li>24h effectiveness</li> <li>For sensitive to intolerant skin</li> <li>No white traces</li> </ul> </div> </div> <div> <h4>Description:</h4> <p>Bioderma Sensibio Anti-Perspirant Deo regulates and reduces excessive perspiration while letting the skin breathe naturally. A new breakthrough for sensitive skin, the Toleridine patented complex biologically increases the skin's tolerance threshold. More resistant, it is better protected against external stress and becomes less reactive.</p> </div> <div> <h4>Benefits:</h4> <ul> <li>Instantly soothes and reduces irritation.</li> <li>Formulated with rigorously selected active ingredients and alcohol-free.</li> <li>Offers maximum efficacy while guaranteeing optimum tolerance.</li> <li>Scented formula and hypoallergenic.</li> </ul> </div> <div> <h4>How to use:</h4> <ul> <li>Morning and/or evening  7 days a week.</li> <li>Apply anti-perspirant onto clean, dry skin.</li> </ul> </div>",68.25,1000,Bioderma,Bioderma,50 ML,Adults,Rollon,Unisex,Y,Personal Care///Personal Hygiene///Body Hygiene,Bioderma Sensibio Anti-Perspirant Deo 50 mL.jpg///Bioderma Sensibio Anti-Perspirant Deo 50 mL1.jpg,Common Vendor
SAN-TUM-637-933,Sanctum Men's Deodorant 75 g,"<div> <div> <h4>Short description:</h4> <ul> <li>Help to control body odour</li> <li>Masculine, woody aroma, free from aluminium and zinc</li> <li>Limits the production of oil/wetness on the skin's surface</li> </ul> </div> </div> <div> <h4>Description:</h4> <p>Sanctum Men's Deodorant is an organic roll-on deodorant created specifically for men. It blends essential oils and herbal extracts to create a masculine woody aroma. The deodorant helps to control body odour and limits the production of oil/wetness on the skin's surface.</p> </div> <div> <h4>Benefits:</h4> <ul> <li>Aluminium and Zinc free</li> <li>Help to control body odour</li> <li>Provides antiseptic and anti inflammatory properties</li> </ul> </div> <div> <h4>How to use:</h4> <ul> <li>Use this aluminum free roll-on deodorant every day under arms and where perspiration or wetness occurs.</li> </ul> </div>",14.55,1000,Sanctum,Cawarra Cosmetics,75 G,Adults,Rollon,Male,Y,Personal Care///Personal Hygiene///Body Hygiene,Sanctum Men's Deodorant 75 g.jpg,Common Vendor
DES-NCE-638-934,Desert Essence Spring Fresh Deodorant 74 mL,"<div> <div> <h4>Short description:</h4> <ul> <li>Natural, long-lasting odor protection</li> <li>With refreshing clean scent</li> <li>Helps neutralize body odor</li> <li>Protects without irritating skin</li> </ul> </div> </div> <div> <h4>Description:</h4> <p>Desert Essence Spring Fresh Deodorant uses known antiseptic properties of Tea Tree Oil combine with Witch Hazel to help neutralize odor. Natural botanicals like aloe vera and grapefruit extracts provide effective, long-lasting deodorant protection while leaving a fresh spring scent.</p> </div> <div> <h4>Benefits:</h4> <ul> <li>Infused with botanical extracts and oils</li> <li>Long-lasting odor protection</li> <li>Leaves a fresh spring scent</li> </ul> </div> <div> <h4>How to use:</h4> <ul> <li>Apply to underarms and replace cap tightly</li> <li>For external use only and avoid contact with the eyes</li> </ul> </div>",28.6,1000,Desert Essence,Desert Essence,74 ML,Adults,N/A,Unisex,Y,Personal Care///Personal Hygiene///Body Hygiene,Desert Essence Spring Fresh Deodorant 74 mL.jpg,Common Vendor
URI-AGE-639-935,Uriage Fresh Deodorant Spray 125ML,"<div> <div> <h4>Short description:</h4> <ul> <li>Refreshing deodorant</li> <li>Anti-odor with 24-hour efficacy</li> <li>Absorbs perspiration</li> <li>Moderate sweating</li> </ul> </div> </div> <div> <h4>Description:</h4> <p>Uriage Fresh Deodorant Spray is a hypoallergenic deodorant formulated with alum stone that offers dual 24-hour mineral effectiveness against odors and perspiration. Alum stone is a powerful anti-bacterial, anti-odor and astringent agent. This deodorant rapidly absorbs perspiration, leaving a silky-smooth finish over skin.</p> </div> <div> <h4>Benefits:</h4> <ul> <li>Optimal protection all day long</li> <li>Aluminium chlorohydrate salt-free</li> <li>Alcohol-free</li> <li>Hypoallergenic</li> </ul> </div> <div> <h4>How to use:</h4> <ul> <li>Apply daily to clean underarms, shake well before use</li> <li>Hold the bottle and spray 15 cm away from underarms</li> </ul> </div>",53.24,1000,Uriage,Uriage,125 ML,Adults,Spray/ Mist,Unisex,Y,Personal Care///Personal Hygiene///Body Hygiene,Uriage Fresh Deodorant Spray 125ML.jpg///Uriage Fresh Deodorant Spray 125ML1.jpg,Common Vendor
URI-AGE-640-936,Uriage Gentle Deodorant Roll On 50 mL,"<div> <div> <h4>Short description:</h4> <ul> <li>Gentle deodorant</li> <li>For normal to combination skin</li> <li>Anti - odor, 24-hour efficacy</li> </ul> </div> </div> <div> <h4>Description:</h4> <p>Uriage Gentle Deodorant Roll-On consists of a formula without aluminum salts and helps regulate perspiration and prevent odor for 24 hours. Inhibits the enzymes that cause excessive perspiration and controls body odor</p> </div> <div> <h4>Benefits:</h4> <ul> <li>Day long protection against body odors</li> <li>Alcohol free and Aluminium Chlorohydrate free</li> <li>Hypoallergenic</li> </ul> </div> <div> <h4>How to use:</h4> <ul> <li>Apply the roll-on deodorant to clean and dry skin, do not apply to irritated skin</li> </ul> </div>",51.19,1000,Uriage,Uriage,50 ML,Adults,Roll-on,Unisex,Y,Personal Care///Personal Hygiene///Body Hygiene,Uriage Gentle Deodorant Roll On 50 mL.jpg///Uriage Gentle Deodorant Roll On 50 mL1.jpg,Common Vendor
OUD-OUD-641-937,Oud Body Deodorant Spray Oud with Musk 200 mL,<div> <div> <h4>Short description:</h4> <ul> <li>Body deodorant spray</li> <li>Long lasting freshness</li> <li>Oud with Musk</li> </ul> </div> </div> <div> <h4>Description:</h4> <p>Oud Musk Body Deodorant is made from hand picked French perfume for the delicate fragrance and long-lasting freshness and carefree day.</p> </div> <div> <h4>Benefits:</h4> <ul> <li>It gives long lasting freshness</li> <li>Made from hand picked Frech perfume for delicate fragrance</li> </ul> </div> <div> <h4>How to use:</h4> <ul> <li>For external use only</li> <li>Do not pierce or burn when empty. Keep out of reach of children. Do not spray on naked flame or any incandescent material</li> <li>Keep away from heat. Exposure to heat may cause and explosion. Keep away from ignition - No smoking</li> <li>Do not spray towards eyes. Extremely flammable</li> </ul> </div>,25.25,1000,Oud,"Smart Chem Hygiene LLC, UAE",200 ML,Adults,Spray/Mist,Unisex,Y,Personal Care///Personal Hygiene///Body Hygiene,Oud Body Deodorant Spray Oud with Musk 200 mL.jpg///Oud Body Deodorant Spray Oud with Musk 200 mL1.jpg,Common Vendor
NUX-UXE-642-938,Nuxe Men 24-Hour Protection Deodorant 50 mL,"<div> <div> <h4>Short description:</h4> <ul> <li>24-hour deodorant protection</li> <li>No marks</li> <li>No stains</li> </ul> </div> </div> <div> <h4>Description:</h4> <p>Nuxe Men 24-Hour Protection Deodorant guarantees 24- hour protection and gives masculine, woody and spicy fragrance which all men would want. It can be used even in light shirts because it leaves no stains.</p> </div> <div> <h4>Benefits:</h4> <ul> <li>Does not contain alcohol</li> <li>Leaves no stains</li> <li>Does not contain aluminum salts</li> <li>Gives 24-hour protection against sweat and body odor</li> </ul> </div> <div> <h4>How to use:</h4> <ul> <li>Apply to clean, dry skin in the morning or anytime of the day.</li> </ul> </div>",31,1000,Nuxe,"Nuxe Laboratories, France",50 ML,Adults,Rollon,Male,Y,Personal Care///Personal Hygiene///Body Hygiene,Nuxe Men 24-Hour Protection Deodorant 50 mL.jpg///Nuxe Men 24-Hour Protection Deodorant 50 mL1.jpg,Common Vendor
ISD-DIN-643-939,Isdin Deo Germisdin Ultra 72 Hour Roll On 40 mL,"<div> <div> <h4>Short description:</h4> <ul> <li>For excessive perspiration</li> <li>Reduces perspiration from week one</li> <li>Alcohol-free</li> </ul> </div> </div> <div> <h4>Description:</h4> <p>Antiperspirant deodorant ideal for excessive perspiration as it normalizes perspiration and prevents bad odor. A specific product for excessive sweating, thanks to the innovative combination of activated aluminum-zirconium salt and Aluminium Chlorohydrate. It helps prevent the risk of infection and can be used daily as it is easily tolerated with glycine.</p> </div> <div> <h4>Benefits:</h4> <ul> <li>Affords effective protection for 72 hours</li> <li>Prevents unpleasant odor</li> <li>It controls excessive perspiration</li> </ul> </div> <div> <h4>How to use:</h4> <ul> <li>Apply a layer to dry underarms after washing</li> <li>Daily use but application every two days may be advisable in people with very sensitive skin</li> </ul> </div>",64.05,1000,Isdin,Isdin,40 ML,Adults,Rollon,Unisex,Y,Personal Care///Personal Hygiene///Body Hygiene,Isdin Deo Germisdin Ultra 72 Hour Roll On 40 mL.jpg///Isdin Deo Germisdin Ultra 72 Hour Roll On 40 mL1.jpg,Common Vendor
ISD-DIN-644-940,Isdin Deo Ureadin Comfort 24 Hour Hydrating Ureadin Roll On 50 mL,"<div> <div> <h4>Short description:</h4> <ul> <li>Hydrating and with a dry finish</li> <li>Provides 24-hour protection</li> <li>Roll-on</li> </ul> </div> </div> <div> <h4>Description:</h4> <p>Isdin Deo Ureadin Comfort 24 Hour Hydrating Urea Roll on provide effective protection for the entire day. It has dry and soft finish which provides moisture for the skin.</p> </div> <div> <h4>Benefits:</h4> <ul> <li>Roll-on 24-hour antiperspirant deodorant</li> <li>Affords effective protection throughout the entire day</li> <li>Gives a fresh and soft finish</li> <li>Easy to apply roll-on presentation</li> </ul> </div> <div> <h4>How to use:</h4> <ul> <li>Apply the product on clean and dry skin, extending it throughout the entire underarm area.</li> </ul> </div>",50.75,1000,Isdin,Isdin,50 ML,Adults,Rollon,Unisex,Y,Personal Care///Personal Hygiene///Body Hygiene,Isdin Deo Ureadin Comfort 24 Hour Hydrating Ureadin Roll On 50 mL.jpg///Isdin Deo Ureadin Comfort 24 Hour Hydrating Ureadin Roll On 50 mL1.jpg,Common Vendor
ISD-DIN-645-941,Isdin Deo Lambda Control Intense 48 Hour Fresh Roll On 50 mL,"<div> <div> <h4>Short description:</h4> <ul> <li>Leaves a fresh feeling</li> <li>Provides 48-hour protection</li> <li>Especially formulated for sensitive skins</li> </ul> </div> </div> <div> <h4>Description:</h4> <p>Isdin Deo Lambda Control Intense 48 Hour Cream gives an effective protection against sweat and odor for the entire day. It has an effectivity that will last for about 48 hours.</p> </div> <div> <h4>Benefits:</h4> <ul> <li>Affords effective protection throughout the day</li> <li>Roll-on presentation, easy to apply</li> <li>Leaves your skin moisturized and fresh</li> </ul> </div> <div> <h4>How to use:</h4> <ul> <li>Apply the product on clean and dry skin, extending it throughout the entire underarm area.</li> </ul> </div>",50.75,1000,Isdin,Isdin,50 ML,Adults,Rollon,Unisex,Y,Personal Care///Personal Hygiene///Body Hygiene,Isdin Deo Lambda Control Intense 48 Hour Fresh Roll On 50 mL.jpg///Isdin Deo Lambda Control Intense 48 Hour Fresh Roll On 50 mL1.jpg,Common Vendor
ISD-DIN-646-942,Isdin Deo Lambda Control Intense 48 Hour Cream 50 mL,"<div> <div> <h4>Short description:</h4> <ul> <li>Alcohol-free cream deodorant</li> <li>Especially formulated for sensitive skins</li> <li>Provides 48-hour protection</li> </ul> </div> </div> <div> <h4>Description:</h4> <p>Isdin Deo Lambda Control Intense 48 Hour Cream gives an effective protection against sweat and odor for the entire day. It has an effectivity that will last for about 48 hours.</p> </div> <div> <h4>Benefits:</h4> <ul> <li>Affords effective protection throughout the day</li> <li>Leaves your skin moisturized and fresh</li> </ul> </div> <div> <h4>How to use:</h4> <ul> <li>Apply in the morning as the first step of the anti-stain facial routine, right after cleaning.</li> <li>Apply on clean and dry skin of the face, hands, neck and / or neckline, avoiding the eye contour. Then continue with the usual facial routine.</li> <li>To help improve the appearance of the spots, apply morning and night for 3 months. Then continue with one application per day as routine maintenance.</li> </ul> </div>",50.75,1000,Isdin,Isdin,50 ML,Adults,Cream,Unisex,Y,Personal Care///Personal Hygiene///Body Hygiene,Isdin Deo Lambda Control Intense 48 Hour Cream 50 mL.jpg///Isdin Deo Lambda Control Intense 48 Hour Cream 50 mL1.jpg,Common Vendor
ISD-DIN-647-943,Isdin Deo Lambda Control Intense 48 Hour Roll On Emulsion 50 mL,"<div> <div> <h4>Short description:</h4> <ul> <li>Roll on deodorant</li> <li>Especially formulated for sensitive skins</li> <li>Provides 48-hour protection</li> </ul> </div> </div> <div> <h4>Description:</h4> <p>Isdin Deo Lambda Control Intense 48 Hour Roll on Emulsion gives an effective protection against sweat and odor for the entire day. It has an effectivity that will last for about 48 hours.</p> </div> <div> <h4>Benefits:</h4> <ul> <li>Affords effective protection throughout the day</li> <li>Roll-on presentation, easy to apply</li> </ul> </div> <div> <h4>How to use:</h4> <ul> <li>Apply the product on clean and dry skin, extending it throughout the entire underarm area.</li> </ul> </div>",50.75,1000,Isdin,Isdin,50 ML,Adults,Emulsion,Unisex,Y,Personal Care///Personal Hygiene///Body Hygiene,Isdin Deo Lambda Control Intense 48 Hour Roll On Emulsion 50 mL.jpg///Isdin Deo Lambda Control Intense 48 Hour Roll On Emulsion 50 mL1.jpg,Common Vendor
ISD-DIN-648-944,Isdin Deo Daily Fresh Pack Deodorant 3's PROMO,"<div> <div> <h4>Short description:</h4> <ul> <li>Intense 48-hour fresh roll on</li> <li>Intense 48-hour alcohol-free roll-on emulsion</li> <li>24-hour comfort hydrating roll on</li> </ul> </div> </div> <div> <h4>Description:</h4> <p>Isdin Deo Daily Fresh Deodorant gives 48-hour protection with moisturizing power to keep feeling fresh throughout the day. Each deodorant has special purposes in which the customer can select based on their preferred use.</p> </div> <div> <h4>Benefits:</h4> <ul> <li>It has smooth dry finish which gives all day protection</li> <li>Alcohol free deodorant</li> <li>Leaves cool sensation that affords effective protection throughout the day</li> </ul> </div> <div> <h4>How to use:</h4> <ul> <li>Apply the product on clean and dry skin, extending it throughout the entire underarm area.</li> </ul> </div>",88.2,1000,Isdin,Isdin,N/A,Adults,Rollon,Unisex,Y,Personal Care///Personal Hygiene///Body Hygiene,Isdin Deo Daily Fresh Pack Deodorant 3's PROMO.jpg,Common Vendor
NUX-UXE-649-945,Nuxe Body Long Lasting Deodorant Roll-on 50 mL,"<div> <div> <h4>Short description:</h4> <ul> <li>Long lasting deodorant</li> <li>With natural powders of Alum and Silver</li> <li>With sweet and delicate fragrance</li> </ul> </div> </div> <div> <h4>Description:</h4> <p>Nuxe Body Long Lasting Deodorant Roll-on contains natural alum and silver powder which provides long-lasting protection without leaving white marks. It is scented with the sweet and delicate Nuxe body fragrance coconut sorbet, white blossom and wild vanilla.</p> </div> <div> <h4>Benefits:</h4> <ul> <li>Soothes skin and neutralizes body odor</li> <li>No alcohol</li> <li>Gives long-lasting protection</li> </ul> </div> <div> <h4>How to use:</h4> <ul> <li>Use in the morning after showering on clean, dry skin throughout the day as necessary.</li> </ul> </div>",31,1000,Nuxe,"Nuxe Laboratories, France",50 ML,18+ Years,Rollon,Unisex,Y,Personal Care///Personal Hygiene///Body Hygiene,Nuxe Body Long Lasting Deodorant Roll-on 50 mL.jpg,Common Vendor
