Product Code,Package Name,Description,Price,Stock,Brand,Manufacturer,Condition,Net Volume,Age Group,Geder,OTC,Category,Product Image,Vendor,
BIO-OIL-UNI-701,Bio Oil Dry Skin Gel 200 mL,"<div> <div> <h4><strong>Short description:</strong></h4> <ul> <li>Moisturizing gel</li> <li>For dry and sensitive skin</li> <li>Hydrates and protects the skin</li> </ul> </div> </div> <div> <h4><strong>Description:</strong></h4> <p>Bio Oil Dry Skin Gel is suitable for dry and sensitive skin, it replenishes the skin's barrier and gives a deeply moisture.</p> </div> <div> <h4><strong>Benefits:</strong></h4> <ul> <li>It helps to restore dry skin and retain optimal hydrated state</li> <li>It also gives the skin protective film</li> </ul> </div> <div> <h4><strong>How to use:</strong></h4> <ul> <li>Apply a small amount to dry skin as required</li> <li>Use less than you would if applying a cream</li> <li>For external use only</li> <li>Do not use on broken skin</li> </ul> </div>",55.13,2,Bio Oil,Union Swiss,N/A,200 ML,Adults,Unisex,Y,PERSONAL CARE///Skin Care///Body Moisturizer,Bio Oil Dry Skin Gel 200 mL.jpg,Common Vendor,
AVE-ENO-UNI-702,Aveeno Skin Relief Bath and Shower Oil 300 mL,"<div> <div> <h4><strong>Short description:</strong></h4> <ul> <li>Bath and shower oil</li> <li>Proven to gently cleanse skin</li> <li>For sensitive and irritable skin</li> </ul> </div> </div> <div> <h4><strong>Description:</strong></h4> <p>Aveeno Skin Relief Bath and Shower Oil combines triple oat complex with the lasting moisturization of oil. This unique formula is clinically proven to gently cleanse and moisturize very dry, sensitive and irritable skin.</p> </div> <div> <h4><strong>Benefits:</strong></h4> <ul> <li>Helps to relieve itchy sensations linked to dryness</li> <li>Leaves you with skin that feels soft and comfortable</li> </ul> </div> <div> <h4><strong>How to use:</strong></h4> <ul> <li>Shake well before use. Massage directly onto wet skin and rinse.</li> </ul> </div>",95.25,2,Aveeno,Johnson&Johnson,N/A,300 ML,Adults,Unisex,Y,PERSONAL CARE///Skin Care///Body Moisturizer,Aveeno Skin Relief Bath and Shower Oil 300 mL.jpg,Common Vendor,
BIO-RMA-UNI-703,Bioderma Cicabio Lotion 40 mL,"<div> <div> <h4><strong>Short description:</strong></h4> <ul> <li>Drying repairing lotion</li> <li>Relieves damaged and irritated skin</li> <li>Restores the epidermis</li> </ul> </div> </div> <div> <h4><strong>Description:</strong></h4> <p>Cicabio Lotion dries irritated skin prone to maceration. It promotes perfect skin repair by acting on each stage of the biological epidermal reconstruction process.</p> </div> <div> <h4><strong>Benefits:</strong></h4> <ul> <li>Dries, absorbs and limits oozing</li> <li>Restores the epidermis</li> <li>Relieves discomfort and reduces the urge to scratch</li> <li>Prevents bacterial proliferation</li> <li>Excellent tolerance</li> </ul> </div> <div> <h4><strong>How to use:</strong></h4> <ul> <li>Shake the bottle of Cicabio Lotion well before using.</li> <li>Break the tamperproof seal.</li> <li>Turn the top until it clicks to open and close it.</li> <li>Apply Cicabio Lotion with a sterile gauze or directly with the tip onto the irritated area after cleansing.</li> <li>Use twice a day until the skin is completely repaired.</li> </ul> </div>",57.75,2,Bioderma,Bioderma,N/A,40 ML,Adults,Unisex,Y,PERSONAL CARE///Skin Care///Body Moisturizer,Bioderma Cicabio Lotion 40 mL.jpg,Common Vendor,
BIO-RMA-UNI-704,Bioderma Cicabio Cream 40 mL,"<div> <div> <h4><strong>Short description:</strong></h4> <ul> <li>Soothing and repairing cream</li> <li>For irritated and damaged skin</li> <li>Suitable for adults, children and babies</li> <li>Restores, relieves and purifies</li> <li>Paraben free, hypoallergenic, non-comedogenic</li> </ul> </div> </div> <div> <h4><strong>Description:</strong></h4> <p>Bioderma Cicabio Cream helps repair irritated skin by acting on each stage of the biological epidermal reconstruction process. The synergic combination of resveratrol, copper and centella asiatica promotes high-quality epidermal restoration. Zinc prevents bacterial proliferation. The innovative active ingredient Antalgicine quickly relieves feelings of discomfort and reduces the urge to scratch.</p> </div> <div> <h4><strong>Benefits:</strong></h4> <ul> <li>For minor skin damage like superficial peeling, non-abrasive laser treatments following the dermatological treatments on medical advice</li> <li>For outbreaks of dryness like irritations, redness, over heating squamous zones</li> <li>Restores the epidermis and moisturizes</li> <li>Relieves discomfort and reduces the urge to scratch</li> <li>Its dressing effect texture combined with hyaluronic acid and moisturizing agents forms a breathable film for optimum skin comfort</li> <li>Rapid absorption without leaving a greasy film</li> </ul> </div> <div> <h4><strong>How to use:</strong></h4> <ul> <li>Twice daily until your skin is fully repaired</li> <li>Apply Cicabio Creme on the damaged area after cleansing and drying</li> <li>If irritation persists, consult your doctor</li> <li>Ask your doctor before using on the bottom area</li> </ul> </div>",69.00,2,Bioderma,Bioderma,Irritated Skin,40 ML,"Children, Teenage,Adults",Unisex,Y,PERSONAL CARE///Skin Care///Body Moisturizer,Bioderma Cicabio Cream 40 mL.jpg,Common Vendor,
BIO-RMA-UNI-705,Bioderma Cicabio Arnica+ 40 mL,"<div> <div> <h4><strong>Short description:</strong></h4> <ul> <li>For bruises, knocks and bumps</li> <li>Resorbs swelling and bruises</li> <li>Quickly relieves</li> </ul> </div> </div> <div> <h4><strong>Description:</strong></h4> <p>Cicabio Arnica + promotes the quick and targeted resorption of bumps and the pigments responsible for blue skin and limits all potential cutaneous disruptions. Its creamy texture enriched with glycerine maintains a good level of moisture while guaranteeing fast absorption for instant and optimum comfort.</p> </div> <div> <h4><strong>Benefits:</strong></h4> <ul> <li>Promotes the resorption of bruises, knocks and bumps</li> <li>Quickly relieves discomfort</li> <li>Prevents bacterial proliferation</li> <li>Fast absorption</li> <li>Non-comedogenic</li> </ul> </div> <div> <h4><strong>How to use:</strong></h4> <ul> <li>Apply Cicabio Arnica+ as soon as possible, massaging lightly onto the weakened area</li> <li>Repeat once or twice a day until your skin is fully repaired</li> </ul> </div>",75.75,2,Bioderma,Bioderma,N/A,40 ML,Adults,Unisex,Y,PERSONAL CARE///Skin Care///Body Moisturizer,Bioderma Cicabio Arnica+ 40 mL.jpg,Common Vendor,
BEB-COM-UNI-706,Bebecom Glycerin Oil 200 mL,"<div> <div> <h4><strong>Short description:</strong></h4> <ul> <li>For normal and dry skin</li> <li>Hypoallergenic</li> <li>Organic and mineral based skin care oil</li> </ul> </div> </div> <div> <h4><strong>Description:</strong></h4> <p>Glycerin is a high performance skin care oil, suitable for normal and dry skin. It has a balancing moisturizing properties of glycerin that protect skin against harsh elements. This skin care oil is organic and mineral based, free from alcohol, ammonia, formaldehyde and without fragrance.</p> </div> <div> <h4><strong>Benefits:</strong></h4> <ul> <li>Acts immediately on rough, dry skin and creates a protective barrier.</li> <li>Stimulates rapid healing of irritated skin and slight injuries.</li> </ul> </div> <div> <h4><strong>How to use:</strong></h4> <ul> <li>Apply onto clean skin daily especially on dry areas.</li> </ul> </div>",10.50,2,Bebecom,Pigeon Corp,N/A,200 ML,Adults,Unisex,Y,PERSONAL CARE///Skin Care///Body Moisturizer,Bebecom Glycerin Oil 200 mL.jpg,Common Vendor,
BEL-LLS-UNI-707,Bell's Calamine Lotion 200 mL,"<div> <div> <h4><strong>Short description:</strong></h4> <ul> <li>Protective lotion</li> <li>For minor skin irritations and sunburn</li> <li>Relieve discomfort</li> </ul> </div> </div> <div> <h4><strong>Description:</strong></h4> <p>Bell's Calamine Lotion is usually indicated for minor skin irritations and sunburn. It has a cooling effect used to relieve the discomfort of dermatitis. It cools the skin by evaporation and is useful for allaying the pain the swelling of sunburn.</p> </div> <div> <h4><strong>Benefits:</strong></h4> <ul> <li>Protective application in eczema</li> <li>Protective for slight abrasions</li> </ul> </div> <div> <h4><strong>How to use:</strong></h4> <ul> <li>For children, adults and the elderly. Shake the bottle well. Apply with cotton wool to the affected area as required.</li> </ul> </div>",15.00,2,Bells,Bells,N/A,200 ML,Adults,Unisex,Y,PERSONAL CARE///Skin Care///Body Moisturizer,Bell's Calamine Lotion 200 mL.jpg,Common Vendor,
BEL-LLS-UNI-708,Bell's Olive Oil 70 mL,"<div> <div> <h4><strong>Short description:</strong></h4> <ul> <li>Use for skin softening and massage</li> <li>Also for culinary use in dressings and salads</li> <li>For skincare</li> </ul> </div> </div> <div> <h4><strong>Description:</strong></h4> <p>Olive oil is a liquid fat obtained from olives. It is commonly used in cooking or culinary, whether for frying or as dressings in salads. It is mainly used also in pharmaceuticals and cosmetics as part an ingredient for skin care.</p> </div> <div> <h4><strong>Benefits:</strong></h4> <ul> <li>Can be used as home remedy for skincare</li> <li>Can be used as an oil for massage or as a moisturizer</li> </ul> </div> <div> <h4><strong>How to use:</strong></h4> <ul> <li>Apply to the affected area of skin undiluted then massage gently.</li> </ul> </div>",11.00,2,Bells,Bells,N/A,70 ML,Adults,Unisex,Y,PERSONAL CARE///Skin Care///Body Moisturizer,Bell's Olive Oil 70 mL.jpg,Common Vendor,
AVE-ENE-UNI-709,Avene Akerat Body Care Cream 200ML,"<div> <div> <h4><strong>Short description:</strong></h4> <ul> <li>For keratosis-prone skin</li> <li>Hypoallergenic</li> <li>Non Comedogene</li> <li>Suitable for very dry, rough and scaly skin</li> </ul> </div> </div> <div> <h4><strong>Description:</strong></h4> <p>For the care and relief of keratosis-prone skin in adults: very dry, rough and scaly skin.This cream Nourishes, hydrates and soothes.,Leaves your skin feeling soft and supple.</p> </div> <div> <h4><strong>Benefits:</strong></h4> <ul> <li>Hydrating: emollient and keratoreductors decrease sensations of irritation, offset skin dryness.</li> <li>Keratolytic: Helps to get rid of irritating and unsightly flakes; your skin is smoother.</li> <li>Nourishing: Skin is more supple and comfortable.</li> <li>Soothing: Avène Thermal Spring Water softens your skin.</li> <li>Akerat body cream is specially recommended for skin that is sensitive and dry, with calloused, hard or scaly areas</li> </ul> </div> <div> <h4><strong>How to use:</strong></h4> <ul> <li>Apply Akérat with gentle massaging movements once to twice a day, concentrating on dry and squamous areas. Do not apply to children under the age of 3 or to open wounds. Avoid contact with the eyes.</li> </ul> </div>",110.25,2,Avene,Pierre Fabre,N/A,200 ML,Adults,Unisex,Y,PERSONAL CARE///Skin Care///Body Moisturizer,Avene Akerat Body Care Cream 200ML.jpg,Common Vendor,
AVA-LON-UNI-710,Avalon Urea Cream with Lactic Acid 100 mL,"<div> <div> <h4><strong>Short description:</strong></h4> <ul> <li>10% Urea</li> <li>With 5% Lactic acid</li> <li>Effective moisturizer</li> <li>Keratolytic</li> </ul> </div> </div> <div> <h4><strong>Description:</strong></h4> <p>Avalon Urea Cream is a very effective moisturizer for the stratum corneum. It has anti-itching and antibacterial properties. The advanced Urea Cream now comes with lactic acid to provide extra benefits for smoothing your dry skin. With several active ingredients working in conjunction, your skin will get the vital nutrients and protection it needs to stay moisturized and healthy. Can be used for: hyperkeratosis, ichthyosis, and eczema, dry and rough skin.</p> </div> <div> <h4><strong>Benefits:</strong></h4> <ul> <li>The presence of Sodium Chloride will reduce the tendency of dry skin.</li> <li>The skin will become elastic as a result of the keratolytic properties.</li> <li>The keratolytic properties alleviate rough, scaly skin, allowing your healthy, fully protected skin to shine.</li> <li>Because urea and lactic acid both occur naturally in humans, Avalon's cream is not only more efficient than other products but better tolerated by your skin, as well.</li> </ul> </div> <div> <h4><strong>How to use:</strong></h4> <ul> <li>See enclosed leaflet or follow the advice of your healthcare provider.</li> </ul> </div>",53.00,2,Avalon,Avalon Pharma,N/A,100 ML,Adults,Unisex,Y,PERSONAL CARE///Skin Care///Body Moisturizer,Avalon Urea Cream with Lactic Acid 100 mL.jpg,Common Vendor,
ATO-ALM-UNI-711,Atopalm Moisturizing Body Lotion 295 mL,"<div> <div> <h4><strong>Short description:</strong></h4> <ul> <li>Moisturizing body lotion</li> <li>Paraben free</li> <li>For dry and sensitive skin</li> <li>Multi lamellar emulsion formula</li> </ul> </div> </div> <div> <h4><strong>Description:</strong></h4> <p>Atopalm Moisturizing Body Lotion is a lightweight, quickly absorbed, yet very effective, paraben free body lotion with unique, patented multi lamellar emulsion technology that provides the ultimate in revitalizing the skin's moisture through the restoration of the skins' protective barrier system.</p> </div> <div> <h4><strong>Benefits:</strong></h4> <ul> <li>Helps to restore skins protective moisture barrier.</li> <li>Prevents over evaporation of skin's own moisture and protects it from environmental stresses</li> <li>Aids to restore the natural lipids lost from skin barrier which are depleted by microdermabrasion</li> </ul> </div> <div> <h4><strong>How to use:</strong></h4> <ul> <li>After shower or bath, smooth all over the body. Use as often as necessary, paying special attention to those stubborn, troublesome, extra dry spots at elbows, knees and heels.</li> </ul> </div>",115.50,2,Atopalm,Neopharm USA,Dry & Sensitive Skin,295 ML,Adults,Unisex,Y,PERSONAL CARE///Skin Care///Body Moisturizer,Atopalm Moisturizing Body Lotion 295 mL.jpg,Common Vendor,
AVE-ENE-UNI-712,Avene Trixera+ Selectiose Emollient Balm 200 mL,"<div> <div> <h4><strong>Short description:</strong></h4> <ul> <li>Emollient balm</li> <li>For face and body</li> <li>Hypoallergenic and non-comedogenic</li> </ul> </div> </div> <div> <h4><strong>Description:</strong></h4> <p>Avene Trixera+ Selectiose Emollient Balm is an ultra-rich, daily moisturizer provides 24-hour hydration to nourish, soothe itching and help prevent moisture loss for moderately to very dry, sensitive skin. Enriched with ceramides and essential fatty acids to smooth and soften the skin. Suitable for infants, children and adults.</p> </div> <div> <h4><strong>Benefits:</strong></h4> <ul> <li>Ultra-rich formula nourishes and moisturizes</li> <li>Calms itching</li> <li>Restores skin's natural barrier</li> <li>Safe for infants, children and adults</li> </ul> </div> <div> <h4><strong>How to use:</strong></h4> <ul> <li>Apply once or twice daily on the severely dry areas of the face and body.</li> </ul> </div>",115.13,2,Avene,Pierre Fabre,N/A,200 ML,Adults,Unisex,Y,PERSONAL CARE///Skin Care///Body Moisturizer,Avene Trixera+ Selectiose Emollient Balm 200 mL.jpg,Common Vendor,
DER-ICA-UNI-713,Dermalogica Body Hydrating Cream 473 mL,"<div> <div> <h4><strong>Short description:</strong></h4> <ul> <li>Advanced body cream</li> <li>Helps tone and smooth skin</li> <li>Ideal for all skin conditions</li> <li>Conditioning skin smoother</li> </ul> </div> </div> <div> <h4><strong>Description:</strong></h4> <p>Advanced body lotion helps tone and smooth all skin conditions. Use after cleansing to help hydrate skin and lock in moisture. Smooth and relieve skin dryness with Lactic Acid and natural hydroxy acid extracts from Sugar Cane and Apple. Lavender, Patchouli and Orange essential oils combine with Green Tea to help soothe and soften. Non-greasy emulsion absorbs easily and provides immediate hydration results.</p> </div> <div> <h4><strong>Benefits:</strong></h4> <ul> <li>Provides gentle exfoliation and hydration to leave skin toned and smooth</li> <li>Moisturize and condition with botanical extracts and essential oils</li> <li>Non-greasy formula absorbs easily</li> </ul> </div> <div> <h4><strong>How to use:</strong></h4> <ul> <li>Apply to the body with large sweeping movements.</li> </ul> </div>",200.81,2,Dermalogica,Dermalogica,N/A,473 ML,Adults,Unisex,Y,PERSONAL CARE///Skin Care///Body Moisturizer,Dermalogica Body Hydrating Cream 473 mL.jpg,Common Vendor,
EGO-EGO-UNI-714,Ego QV Skin Lotion,"<div> <div> <h4><strong>Short description:</strong></h4> <ul> <li>Repairs skin</li> <li>Designed for all skin types</li> <li>Suitable for infants and the elderly</li> </ul> </div> </div> <div> <h4><strong>Description:</strong></h4> <p>QV Skin Lotion helps prevent and soothe dry skin. With a luxuriously light formulation, it's easy to apply to all parts of the body. Use daily on the face and body to leave your skin feeling soft and supple. For best results, apply after your bath or shower.</p> </div> <div> <h4><strong>Benefits:</strong></h4> <ul> <li>Helps seal in natural moisture by acting as a protective barrier</li> <li>pH balanced and low-irritant formulation</li> <li>Free from fragrance, color, lanolin and propylene glycol</li> <li>Non-comedogenic ? won't block the pores</li> <li>Dermatological formula</li> </ul> </div> <div> <h4><strong>How to use:</strong></h4> <ul> <li>Apply to affected areas as often as required, particularly after showing, bathing, shaving, exposure to harsh climatic conditions and at night</li> <li>Avoid soap, as it may irritate sensitive skin</li> </ul> </div>",90.56,2,Ego,Ego,N/A,100 ML,18+ Years,Unisex,Y,PERSONAL CARE///Skin Care///Body Moisturizer,Ego QV Skin Lotion.jpg,Common Vendor,
EGO-EGO-UNI-715,Ego QV Intensive Body Moisturiser 100 g,"<div> <div> <h4><strong>Short description:</strong></h4> <ul> <li>Fragrance free and colour free</li> <li>Easily absorbed</li> <li>Sting free formula</li> <li>Dermatologically tested</li> <li>Non comedogenic - won't block the pores</li> </ul> </div> </div> <div> <h4><strong>Description:</strong></h4> <p>Soothing moisture for extremely dry and sensitive skin. Even extremely dry and sensitive skin can feel soft and pampered with QV Intensive Body Moisturiser. This highly emollient intensive balm not only helps to rehydrate your skin, but also helps seal in your skin's moisture too.</p> </div> <div> <h4><strong>Benefits:</strong></h4> <ul> <li>Water-free formulation won't sting when applied to inflamed or cracked skin.</li> <li>Suitable for dry, sensitive, itchy skin and eczema.</li> <li>Low-irritant formulation, free from fragrance, colour and lanolin and prpylene glycol to suit even delicate skin types.</li> <li>Maintains skin's protective properties.</li> </ul> </div> <div> <h4><strong>How to use:</strong></h4> <ul> <li>Apply liberally to the face and body and massage in gently. Use after bathing and showering</li> </ul> </div>",82.00,2,Ego,Ego,N/A,100 G,18+ Years,Unisex,Y,PERSONAL CARE///Skin Care///Body Moisturizer,Ego QV Intensive Body Moisturiser 100 g.jpg,Common Vendor,
DES-NCE-UNI-716,"Desert Essence Organics Bulgarian Lavender Hand and Body Lotion 8 fl oz, 237 mL","<div> <div> <h4><strong>Short description:</strong></h4> <ul> <li>Soothes and nurtures dry and stressed skin</li> <li>Leaves skin feeling smooth and hydrates without an oily residue</li> <li>Invigorates the senses</li> </ul> </div> </div> <div> <h4><strong>Description:</strong></h4> <p>Desert Essence Organics Bulgarian Lavender have a healing effect on the skin, as well as an ability to soothe the senses. Skin-nourishing Organic Jojoba Oil and Organic Shea Butter deeply hydrate skin, leaving it feeling smooth and silky.</p> </div> <div> <h4><strong>Benefits:</strong></h4> <ul> <li>Calms and soothe the senses of skin</li> <li>Deep moisturization</li> <li>Smooth and silky feeling</li> </ul> </div> <div> <h4><strong>How to use:</strong></h4> <ul> <li>Smooth onto skin daily, as often as needed.</li> </ul> </div>",50.40,2,Desert Essence,Desert Essence,N/A,237 ML,Adults,Unisex,Y,PERSONAL CARE///Skin Care///Body Moisturizer,"Desert Essence Organics Bulgarian Lavender Hand and Body Lotion 8 fl oz, 237 mL.jpg",Common Vendor,
DES-NCE-UNI-717,"Desert Essence Organics Fragrance Free Hand and Body Lotion 8 fl oz, 237 mL","<div> <div> <h4><strong>Short description:</strong></h4> <ul> <li>Protects and repair skin damage from everyday environmental damage</li> <li>Leaves skin feeling moisturized and revitalized</li> <li>Fragrance Free</li> </ul> </div> </div> <div> <h4><strong>Description:</strong></h4> <p>Desert Essence Organics Fragrance Free Hand and Body Lotion contains sunflower and organic jojoba oil as well as organic Shea Butter to deeply moisturize, leaving skin soft and silky. Organic Green Tea helps protect and repair skin with high levels of antioxidants and polyphenols.</p> </div> <div> <h4><strong>Benefits:</strong></h4> <ul> <li>Deep moisturization</li> <li>Vitamin E and Organic Jojoba oil penetrate into the skin without leaving an oily residue, leaving skin feeling smooth and silky</li> </ul> </div> <div> <h4><strong>How to use:</strong></h4> <ul> <li>Smooth onto skin daily, as often as needed.</li> </ul> </div>",50.40,2,Desert Essence,Desert Essence,Irritated Skin,237 ML,Adults,Unisex,Y,PERSONAL CARE///Skin Care///Body Moisturizer,"Desert Essence Organics Fragrance Free Hand and Body Lotion 8 fl oz, 237 mL.jpg",Common Vendor,
EUC-RIN-UNI-718,Eucerin Atopicontrol Body Care Lotion 250 mL,"<div> <div> <h4><strong>Short description:</strong></h4> <ul> <li>12% omega Licorice extract</li> <li>Smoothes rough and irritated skin</li> <li>Helps relieves itching</li> <li>Suitable for babies</li> <li>Fragrance free and paraben free</li> </ul> </div> </div> <div> <h4><strong>Description:</strong></h4> <p>Eucerin AtopiControl Body Care Lotion uses a combination of concentrated Omega-6-fatty acids (Evening Primrose Oil and Grape Seed Oil) and soothing Licochalcone A (an extract of the licorice root) to replenish skin, helping restore its natural barrier and making it more resilient. Apply once or twice daily or as adjunctive care to Eucerin AtopiControl Acute Care Cream during a flare-up. With regular application itch and tightness are relieved and skin feels soft and noticeably smoothed. Eucerin AtopiControl Body Care Lotion is clinically and dermatologically proven to be compatible with atopic skin in adults and children.</p> </div> <div> <h4><strong>Benefits:</strong></h4> <ul> <li>Omega oils and Licochalcone A to help alleviate the discomfort of Atopic Dermatitis</li> <li>Easily absorbed water-in-oil lotion that hydrates, soothes and reduces roughness in atopic skin</li> </ul> </div> <div> <h4><strong>How to use:</strong></h4> <ul> <li>Apply once or twice daily, or as often as needed.</li> </ul> </div>",146.00,2,Eucerin,Beiersdorf,"Atopic, Irritated Skin",250 ML,Adults,Unisex,Y,PERSONAL CARE///Skin Care///Body Moisturizer,Eucerin Atopicontrol Body Care Lotion 250 mL.jpg,Common Vendor,
EUC-RIN-UNI-719,Eucerin Urea Repair Plus 10% Urea Lotion 250 mL,"<div> <div> <h4><strong>Short description:</strong></h4> <ul> <li>Immediate relief of dry skin signs</li> <li>Contains Urea, Ceramide and other Natural Moisturising Factors (NMFs)</li> <li>Repairs dry skin and provides intensive moisture</li> <li>Suitable for extremely dry, itchy and flaky skin</li> </ul> </div> </div> <div> <h4><strong>Description:</strong></h4> <p>Eucerin Urea Repair Plus 10% Urea Lotion gives very dry, rough body skin the daily care it needs. It contains a unique combination of ingredients - Urea, Ceramide and other Natural Moisturising Factors (NMFs) which bind moisture in and restore skin's natural protective barrier to prevent further moisture loss. The formula has been clinically and dermatologically proven to deliver immediate relief and intense moisturisation, delaying dryness and roughness for up to 48 hours.</p> </div> <div> <h4><strong>Benefits:</strong></h4> <ul> <li>Skin feels smooth and supple</li> <li>Long-lasting moisturisation and delaying the symptoms of dry skin for up to 48 hours</li> <li>Suitable for those with Xerosis, Diabetes, Psoriasis and Keratosis Pilaris</li> </ul> </div> <div> <h4><strong>How to use:</strong></h4> <ul> <li>Make sure your skin is clean and dry before applying.</li> <li>Gently massage the lotion into your skin until completely absorbed.</li> <li>Apply as often as required.</li> </ul> </div>",122.00,2,Eucerin,Beiersdorf,N/A,250 ML,Adults,Unisex,Y,PERSONAL CARE///Skin Care///Body Moisturizer,Eucerin Urea Repair Plus 10% Urea Lotion 250 mL.jpg,Common Vendor,
EUC-RIN-UNI-720,Eucerin Urea Repair Plus 5% Urea Lotion 250 mL,"<div> <div> <h4><strong>Short description:</strong></h4> <ul> <li>Immediate relief of dry skin signs like roughness, scaliness and flakiness</li> <li>Provides moisture and strenghtens the skin barrier</li> <li>5% Urea, ceramide and NMF</li> </ul> </div> </div> <div> <h4><strong>Description:</strong></h4> <p>Eucerin Urea Repair Plus 5% Urea Lotion gives very dry, rough body skin the daily care it needs. It contains a unique combination of ingredients - Urea, Ceramide and other Natural Moisturising Factors (NMFs) which bind moisture in and restore skin's natural protective barrier to prevent further moisture loss. The formula has been clinically and dermatologically proven to deliver immediate relief and intense moisturisation, delaying dryness and roughness for up to 48 hours.</p> </div> <div> <h4><strong>Benefits:</strong></h4> <ul> <li>Skin feels smooth and supple</li> <li>Long-lasting moisturisation and delaying the symptoms of dry skin for up to 48 hours</li> <li>Suitable for those with Xerosis, Diabetes, Psoriasis and Keratosis Pilaris</li> </ul> </div> <div> <h4><strong>How to use:</strong></h4> <ul> <li>Make sure your skin is clean and dry before applying.</li> <li>Gently massage the lotion into your skin until completely absorbed.</li> <li>Apply as often as required.</li> </ul> </div>",104.00,2,Eucerin,Beiersdorf,N/A,250 ML,Adults,Unisex,Y,PERSONAL CARE///Skin Care///Body Moisturizer,Eucerin Urea Repair Plus 5% Urea Lotion 250 mL.jpg,Common Vendor,
EUC-RIN-UNI-721,Eucerin pH5 Wash Lotion 400 mL,"<div> <div> <h4><strong>Short description:</strong></h4> <ul> <li>Ph5 skin protection wash lotion</li> <li>For body and face</li> <li>Preserves skin</li> </ul> </div> </div> <div> <h4><strong>Description:</strong></h4> <p>Eucerin pH5 Skin-Protection Wash lotion is a daily-use, soap-free formula. It's extra mild surfactants ensure that sensitive skin is gently but effectively cleansed. The formula helps to strengthen skin's natural protection and prevents it from drying out.</p> </div> <div> <h4><strong>Benefits:</strong></h4> <ul> <li>Citrate buffer helps maintain a healthy pH level of the skin pH5</li> <li>which is the skin's natural protective layer to retain moisture and protect the skin 's full potential</li> <li>Suitable for irritated skin and for daily use on allergy prone skin</li> </ul> </div> <div> <h4><strong>How to use:</strong></h4> <ul> <li>For body and face, lather to the skin and rinse carefully.</li> </ul> </div>",91.50,2,Eucerin,Beiersdorf,N/A,400 ML,Adults,Unisex,Y,PERSONAL CARE///Skin Care///Body Moisturizer,Eucerin pH5 Wash Lotion 400 mL.jpg,Common Vendor,
EUC-RIN-UNI-722,Eucerin pH5 Skin-Protection Lotion 400 mL,"<div> <div> <h4><strong>Short description:</strong></h4> <ul> <li>With Dexpanthenol</li> <li>Regenerates skin</li> </ul> </div> </div> <div> <h4><strong>Description:</strong></h4> <p>Eucerin pH5 Skin-Protection Lotion is a gentle yet effective body lotion developed specifically for the needs of sensitive body skin. The formula contains 5% Dexpanthenol, an active ingredient that stimulates skin regeneration and strengthens skin's natural defences. It protects skin from irritation, has wound healing properties and boosts skin's natural moisture production with every use. Use daily for long-lasting protection and soft, smooth skin.</p> </div> <div> <h4><strong>Benefits:</strong></h4> <ul> <li>Regenerate skin's natural protective barrier</li> <li>Reduces trans epidermal water loss and maintaining skin's protective barrier</li> </ul> </div> <div> <h4><strong>How to use:</strong></h4> <ul> <li>Apply daily (or more regularly if appropriate) after showering or bathing</li> <li>Massage gently until completely absorbed</li> </ul> </div>",115.50,2,Eucerin,Beiersdorf,N/A,400 ML,Adults,Unisex,Y,PERSONAL CARE///Skin Care///Body Moisturizer,Eucerin pH5 Skin-Protection Lotion 400 mL.jpg,Common Vendor,
ISI-SIS-UNI-723,Isis Urelia 50 Hydrating Body Balm 40 mL,"<div> <div> <h4><strong>Short description:</strong></h4> <ul> <li>Severe scaly skin with itching</li> <li>Hydrating body balm</li> <li>Contains 50% urea</li> <li>For localized hyperkeratosis</li> </ul> </div> </div> <div> <h4><strong>Description:</strong></h4> <p>Urelia 50 is specially adapted to very dry skin with localised hyperkeratosis. It combines intense keratolytic action with durable hydration. It effectively removes scales and reduces rough areas while contributing to restoring the skin barrier.</p> </div> <div> <h4><strong>Benefits:</strong></h4> <ul> <li>Eliminates scales and normalizes cell division, moisturizes and antibacterial</li> <li>Prevents and repairs skin damages</li> <li>Restores the natural barrier function</li> </ul> </div> <div> <h4><strong>How to use:</strong></h4> <ul> <li>Apply Urelia 50 once or twice a day on affected areas (plaques, calluses, nails)</li> <li>Use appropriate sun protection on exposed areas and limit exposure while using the product and for one week afterwards</li> <li>Avoid contact with eyes, external use only</li> </ul> </div>",99.75,2,Isis,Isispharm Switzerland,N/A,40 ML,18+ Years,Unisex,Y,PERSONAL CARE///Skin Care///Body Moisturizer,Isis Urelia 50 Hydrating Body Balm 40 mL.jpg,Common Vendor,
KEM-OOL-UNI-724,Kemo Cool Snake Oil Drops Original 60 mL,<div> <div> <h4><strong>Short description:</strong></h4> <ul> <li>Protective hair repair</li> <li>Snake oil drops</li> <li>Restores beauty to hair</li> </ul> </div> </div> <div> <h4><strong>Description:</strong></h4> <p>This original snake oil drops has a softening and untangling action to the hair. It restructures hair and damage ends.</p> </div> <div> <h4><strong>Benefits:</strong></h4> <ul> <li>Intense natural shine</li> <li>Restores beauty to hair</li> </ul> </div> <div> <h4><strong>How to use:</strong></h4> <ul> <li>Apply few drops on hands palm and spread with fingertips over dry or damp hair. Don't rinse.</li> </ul> </div>,54.75,2,Kemo Cool,Kemo Cool,N/A,60 ML,Adults,Unisex,Y,PERSONAL CARE///Skin Care///Body Moisturizer,Kemo Cool Snake Oil Drops Original 60 mL.jpg,Common Vendor,
MAX-OON-UNI-725,"Max-On Soft White Body Lotion 6.76 fl oz, 200 mL","<div> <div> <h4><strong>Short description:</strong></h4> <ul> <li>Evens and lightens the skin</li> <li>Goodness of bearberry extract, liquorice root and vitamin PP</li> <li>Ideal for Body whitening, Dry skin, Hyper-pigmentation and dark spots</li> </ul> </div> </div> <div> <h4><strong>Description:</strong></h4> <p>Max-On Soft White Body Lotion is a gentle body lotion composed of rich ingredients including bearberry extract, licorice root, vitamin PP, and green tea which help to lighten the appearance of dark spots and balance the skin tone. This gentle formula can also be used to even and restore the darkened underarms and sensitive areas.</p> </div> <div> <h4><strong>Benefits:</strong></h4> <ul> <li>Suitable for under arms and sensitive areas</li> <li>Lighten the appearance of dark spots</li> <li>Balance the skin tone</li> </ul> </div> <div> <h4><strong>How to use:</strong></h4> <ul> <li>Use after Max-On Soft White Body Wash</li> <li>Gently massage on to parts of the body that require special attention</li> <li>Use twice daily or as advised by physician</li> </ul> </div>",262.50,2,Max-On,Max-On,N/A,200 ML,Adults,Unisex,Y,PERSONAL CARE///Skin Care///Body Moisturizer,"Max-On Soft White Body Lotion 6.76 fl oz, 200 mL.jpg",Common Vendor,
NIV-VEA-UNI-726,Nivea Almond Oil Nourishing Body Lotion 250 mL,"<div> <div> <h4><strong>Short description:</strong></h4> <ul> <li>Deeply nourish the skin</li> <li>Provide long lasting moisturization</li> <li>Enriched with Almond oil</li> <li>For dry to very dry skin</li> </ul> </div> </div> <div> <h4><strong>Description:</strong></h4> <p>This patented Nivea formula is using the knowledge, that our skin contains sufficient moisture in its deeper layers, that assures its fresh, healthy look. Unluckily with time and exposure to outside influences our skin often looses access to this inner moisture depot. Inspired by natural skin processes Nivea has developed an active, which reactivated the skin to use of htis source again.</p> </div> <div> <h4><strong>Benefits:</strong></h4> <ul> <li>Intensively nourishes</li> <li>Reduces the roughness of your dry skin</li> <li>Formula with Almond Oil softens the skin</li> </ul> </div> <div> <h4><strong>How to use:</strong></h4> <ul> <li>Apply this body milk daily to your whole body.</li> <li>Reapply on dry skin parts.</li> </ul> </div>",17.75,2,Nivea,Beiersdorf,N/A,250 ML,18+ Years,Unisex,Y,PERSONAL CARE///Skin Care///Body Moisturizer,Nivea Almond Oil Nourishing Body Lotion 250 mL.jpg,Common Vendor,
NIV-VEA-UNI-727,Nivea Men Revitalizing Body Lotion 250 mL,"<div> <div> <h4><strong>Short description:</strong></h4> <ul> <li>Provides long lasting moisturization</li> <li>Enriched with Vitamin E and Hydra IQ</li> <li>For normal skin</li> </ul> </div> </div> <div> <h4><strong>Description:</strong></h4> <p>This is a non greasy formula; Revitalizing body lotion gives your skin a revitalizing kick and immediately provides it with a extra burst of freshness, all day everyday!</p> </div> <div> <h4><strong>Benefits:</strong></h4> <ul> <li>Revitalizes and refreshes your skin</li> <li>provides 24+ hours of moisturization</li> <li>Absorbs in seconds, with no sticky feeling</li> </ul> </div> <div> <h4><strong>How to use:</strong></h4> <ul> <li>Apply lotions all over your body</li> <li>Reapply on dry skin areas</li> </ul> </div>",17.75,2,Nivea,Beiersdorf,N/A,250 ML,18+ Years,Unisex,Y,PERSONAL CARE///Skin Care///Body Moisturizer,Nivea Men Revitalizing Body Lotion 250 mL.jpg,Common Vendor,
NUT-LUS-UNI-728,Nutraplus 10% Urea Cream 100 g,"<div> <div> <h4><strong>Short description:</strong></h4> <ul> <li>10% w/w urea</li> <li>Available in a pack size of 100 g</li> <li>For the treatment of dry and damaged skin</li> </ul> </div> </div> <div> <h4><strong>Description:</strong></h4> <p>Nutraplus is an emollient, a moisturising and protective cream for the treatment of dry or damaged skin. The active substance in this product is urea, a natural substance found in healthy skin. The presence of urea in the cream moisturises the skin. This helps bring back soft and supple skin.</p> </div> <div> <h4><strong>Benefits:</strong></h4> <ul> <li>Emollient</li> <li>Moisturises and protects the skin</li> <li>Treatment of dry or damaged skin</li> </ul> </div> <div> <h4><strong>How to use:</strong></h4> <ul> <li>Always use this medicine exactly as described in the product leaflet or as directed by your doctor or pharmacist</li> <li>Check with your doctor or pharmacist if you are not sure</li> <li>For external use only</li> <li>First gently wash and dry the affected areas of your skin</li> <li>Apply evenly to dry skin areas 2 to 3 times a day, or as advised by your doctor or pharmacist</li> <li>Wipe away any excess cream with a tissue</li> </ul> </div>",52.00,2,Nutraplus,Galderma,N/A,100 G,Adults,Unisex,Y,PERSONAL CARE///Skin Care///Body Moisturizer,Nutraplus 10% Urea Cream 100 g.jpg,Common Vendor,
NUT-LUS-UNI-729,Nutraplus 10% Urea Lotion 200 mL,"<div> <div> <h4><strong>Short description:</strong></h4> <ul> <li>10% urea</li> <li>Emollient for dry, rough skin</li> <li>Moisturizing lotion</li> </ul> </div> </div> <div> <h4><strong>Description:</strong></h4> <p>Nutraplus lotion is an odorless moisturizing lotion that hydrates and restores softness to especially dry, rough skin. Nutraplus lotion contains 10% urea. Dermatologists often recommend a product containing urea for persistent dry skin.</p> </div> <div> <h4><strong>Benefits:</strong></h4> <ul> <li>Penetrates the skin and enhances its ability to absorb and retain needed moisture</li> <li>Hydrates and restores softness</li> </ul> </div> <div> <h4><strong>How to use:</strong></h4> <ul> <li>Apply evenly to dry skin areas 2 to 3 times daily or as directed by your physician.</li> </ul> </div>",59.00,2,Nutraplus,Galderma,N/A,200 ML,Adults,Unisex,Y,PERSONAL CARE///Skin Care///Body Moisturizer,Nutraplus 10% Urea Lotion 200 mL.jpg,Common Vendor,
PAL-RIS-UNI-730,Palmer's Cocoa Butter Moisturizing Body Oil 250 mL,"<div> <div> <h4><strong>Short description:</strong></h4> <ul> <li>Cocoa butter formula With Vitamin E</li> <li>Moisturizing body oil</li> <li>Lightly scented</li> <li>Fast absorbing</li> <li>Leaves skin silky soft</li> <li>For shower and Bath</li> </ul> </div> </div> <div> <h4><strong>Description:</strong></h4> <p>Palmer's Cocoa Butter Moisturizing Body Oil is an advanced multi-purpose skin perfection product that can be used all over the body. This preservative-free, lightweight formula contains an exclusive blend of key ingredients formulated to help improve the appearance of scars, stretch marks, dry, damaged skin, uneven skin tone, aging skin and fine lines and wrinkles. Skin looks and feels instantly soft and smooth with this unique, non-greasy, non-staining formula.</p> </div> <div> <h4><strong>Benefits:</strong></h4> <ul> <li>Light oil formulated with pure cocoa butter</li> <li>Vitamin E to help soften and soothe rough, dry skin</li> <li>Light scented and fast absorbing</li> </ul> </div> <div> <h4><strong>How to use:</strong></h4> <ul> <li>Remove cap, peel off seal, replace cap.</li> <li>After Shower or Bath: Apply directly onto damp skin. Leave on for a few seconds. Pat dry.</li> <li>In the Bath: Add 1-2 capfuls under running water for a moisturizing, soothing bath. Pat dry.</li> </ul> </div>",32.25,2,Palmer's,E.T.Browne Drug Co Inc,N/A,250 ML,Adults,Unisex,Y,PERSONAL CARE///Skin Care///Body Moisturizer,Palmer's Cocoa Butter Moisturizing Body Oil 250 mL.jpg,Common Vendor,
SEB-MED-UNI-731,Sebamed Moisturizing Body Lotion 200 mL,"<div> <div> <h4><strong>Short description:</strong></h4> <ul> <li>For sensitive, normal to oily skin</li> <li>Preserves natural moisture content of your skin</li> <li>Naturally protective for effective body care</li> <li>Soothes and moisturizes skin</li> </ul> </div> </div> <div> <h4><strong>Description:</strong></h4> <p>Sebamed Moisturizing Body Lotion nourishes and moisturizes damaged dry skin. Uniquely formulated to be gentle on sensitive skin, it's pH 5.5 formulation helps support your skin's natural hydrolipid barrier (the acid mantle). It is recommended for normal as well as problematic skin conditions such as eczema and psoriasis.</p> </div> <div> <h4><strong>Benefits:</strong></h4> <ul> <li>Rapidly absorbed and non-greasy texture</li> <li>Helps restore your skin's moisture balance</li> <li>Nourishing, non-irritating formula suitable for the most sensitive of skin</li> <li>Chamomile extract and allantoin soothe and moisturize skin</li> </ul> </div> <div> <h4><strong>How to use:</strong></h4> <ul> <li>Apply to body after showering or bathing.</li> </ul> </div>",11.75,2,Sebamed,Sebamed Germany,N/A,200 ML,Adults,Unisex,Y,PERSONAL CARE///Skin Care///Body Moisturizer,Sebamed Moisturizing Body Lotion 200 mL.jpg,Common Vendor,
TOP-REM-UNI-732,Topicrem Ultra-Moisturizing Body Milk 500 mL,"<div> <div> <h4><strong>Short description:</strong></h4> <ul> <li>Ideal for baby, child and adult</li> <li>For sensitive and dry skin</li> <li>Penetrates instantly</li> <li>24 hour hydration</li> </ul> </div> </div> <div> <h4><strong>Description:</strong></h4> <p>Topicrem ultra moisturizing body milk is an unctuous emulsion, enriched with moisturizing (urea , glycerin ), protector and nourishing agents, provides 24 hour protection and eliminates all signs of dry skin. Particularly suitable for dry or dehydrated skin, as well as children's fragile skin. Developed for babies and children, tested under pediatric control.</p> </div> <div> <h4><strong>Benefits:</strong></h4> <ul> <li>High moisturizing effectiveness</li> <li>Practical and rapid penetration</li> <li>Non sticky and non greasy milky texture, pleasant smell</li> </ul> </div> <div> <h4><strong>How to use:</strong></h4> <ul> <li>Apply 1 to 2 times a day to the body after previously cleansing with gentle cleansing gel body and hair.</li> </ul> </div>",162.75,2,Topicrem,Laboratories Nigy,N/A,500 ML,18+ Years,Unisex,Y,PERSONAL CARE///Skin Care///Body Moisturizer,Topicrem Ultra-Moisturizing Body Milk 500 mL.jpg,Common Vendor,
URE-ARE-UNI-733,Urecare Urea Cream 100 g,"<div> <div> <h4><strong>Short description:</strong></h4> <ul> <li>10% urea cream</li> <li>Skin moisturizer</li> <li>For external use</li> </ul> </div> </div> <div> <h4><strong>Description:</strong></h4> <p>Urecare is a topical cream that helps the skin to capture, retain moisture and relieves dry skin conditions.</p> </div> <div> <h4><strong>Benefits:</strong></h4> <ul> <li>Helps the skin to capture and retain moisture</li> <li>Relieves dry skin conditions</li> </ul> </div> <div> <h4><strong>How to use:</strong></h4> <ul> <li>Apply to the affected area two or three times daily or as directed by physician.</li> </ul> </div>",50.00,2,Urecare,Orion,N/A,100 G,18+ Years,Unisex,Y,PERSONAL CARE///Skin Care///Body Moisturizer,Urecare Urea Cream 100 g.jpg,Common Vendor,
SAV-RAL-UNI-734,"Savannah Bee Tupelo Honey Body Lotion 8 fl oz, 236 mL","<div> <div> <h4><strong>Short description:</strong></h4> <ul> <li>Body lotion with honey</li> <li>Rejuvenates and softens naturally</li> <li>Tupelo honey</li> </ul> </div> </div> <div> <h4><strong>Description:</strong></h4> <p>Savannah Bee Tupelo Honey Body Lotion is a luxurious, long-lasting everyday lotion for silky skin. Honey naturally rejuvenates and softens your skin. Savannah Bee honey lotion is the daily solution to your skin care needs. It contains aloe vera, coconut oil, and honey to nourish and hydrate your skin. Honey Body Lotions are very gentle and perfect for your entire body. Savannah Bee Honey Lotions are made with natural honey, contain no parabens or petroleum, and are never tested on animals.</p> </div> <div> <h4><strong>Benefits:</strong></h4> <ul> <li>Lightweight moisturizer for long lasting softening effect on skin</li> <li>Pairs hive ingredients with aloe vera leaf juice, coconut oil, almond oils and safflower seed oil giving a light moisturizing effect</li> <li>Honey is a natural humectant, pulls moisture from air and feeds the skin</li> </ul> </div> <div> <h4><strong>How to use:</strong></h4> <ul> <li>Use daily for all-over moisturizing, paying special attention to those rough elbows and knees.</li> </ul> </div>",45.50,2,Natural,Savannah,N/A,236 ML,18+ Years,Unisex,Y,PERSONAL CARE///Skin Care///Body Moisturizer,"Savannah Bee Tupelo Honey Body Lotion 8 fl oz, 236 mL.jpg",Common Vendor,
EXC-IAL-UNI-735,Excipial H Hydro Face & Body Cream 60 g,"<div> <div> <h4><strong>Short description:</strong></h4> <ul> <li>Excipial hydrocream</li> <li>For dry sensitive skin</li> <li>Face and body</li> </ul> </div> </div> <div> <h4><strong>Description:</strong></h4> <p>Excipial H Hydro Face &amp; Body Cream 60 g confronts the toughest skin with fast acting and soothing relief to dry skin. With excipial hydro formulations that will restore, retain skin moisture and maintain hydration.</p> </div> <div> <h4><strong>Benefits:</strong></h4> <ul> <li>Intense long lasting moisturizing effect</li> <li>Absorbs quickly to relieve dry skin</li> <li>It helps relieve minor skin irritation</li> <li>Non-greasy</li> <li>Lanolin free</li> </ul> </div> <div> <h4><strong>How to use:</strong></h4> <ul> <li>Apply generously as needed to dry skin areas daily.</li> </ul> </div>",31.50,2,Excipial,Galderma,N/A,60 G,Adults,Unisex,Y,PERSONAL CARE///Skin Care///Body Moisturizer,Excipial H Hydro Face & Body Cream 60 g.jpg,Common Vendor,
EXC-IAL-UNI-736,Excipial H Hydro Lotion 200 mL,"<div> <div> <h4><strong>Short description:</strong></h4> <ul> <li>Excipial hydro lotion</li> <li>Care for dry skin</li> <li>For dry sensitive slkin</li> <li>Dermatologically proven</li> </ul> </div> </div> <div> <h4><strong>Description:</strong></h4> <p>Excipial H Hydro Lotion confronts the toughest skin with fast acting, soothing relief to dry skin. The excipial hydro formulations will restore, retain skin moisture and maintain hydration.</p> </div> <div> <h4><strong>Benefits:</strong></h4> <ul> <li>With intense long-lasting moisturizing effect</li> <li>It absorbs quickly to relieve dry skin</li> <li>Helps minor skin irritation</li> <li>Non-greasy</li> <li>Lanolin free</li> </ul> </div> <div> <h4><strong>How to use:</strong></h4> <ul> <li>Apply generously as needed to dry skin areas daily.</li> </ul> </div>",47.00,2,Excipial,Galderma,N/A,200 ML,Adults,Unisex,Y,PERSONAL CARE///Skin Care///Body Moisturizer,Excipial H Hydro Lotion 200 mL.jpg,Common Vendor,
EXC-IAL-UNI-737,Excipial M U10 Body Cream 100 g,"<div> <div> <h4><strong>Short description:</strong></h4> <ul> <li>10% Urea moisturizing cream</li> <li>For dry and itchy skin</li> <li>Dermatologically proven</li> </ul> </div> </div> <div> <h4><strong>Description:</strong></h4> <p>Excipial M U10 Body Cream confronts the toughest skin with fast acting, soothing relief to chronic, very dry skin. This cream improves the skin's moisture content with absorption of urea, part of the skin's natural moisturizer, which hydrates and replenishes skin for a soft and supple appearance.</p> </div> <div> <h4><strong>Benefits:</strong></h4> <ul> <li>It has an intense, long lasting moisturizing effect</li> <li>Absorbs quickly to relieve dry skin</li> <li>Non-greasy</li> <li>Fragrance free</li> </ul> </div> <div> <h4><strong>How to use:</strong></h4> <ul> <li>Apply generously daily as needed.</li> </ul> </div>",36.40,2,Excipial,Galderma,N/A,100 G,Adults,Unisex,Y,PERSONAL CARE///Skin Care///Body Moisturizer,Excipial M U10 Body Cream 100 g.jpg,Common Vendor,
MAM-INO-UNI-738,"Mambino Organics Fresh Beauty Moisture Me Nourishing Body Oil 120 mL, 4 fl. oz","<div> <div> <h4><strong>Short description:</strong></h4> <ul> <li>Nourishing body oil</li> <li>Intensely hydrating</li> <li>Enhances elasticity and tone</li> <li>For all skin types</li> </ul> </div> </div> <div> <h4><strong>Description:</strong></h4> <p>Mambino Organics Fresh Beauty Moisture Me Nourishing Body Oil is a refreshing body nourishing oil which delivers superior long-lasting hydration, skin firming and toning benefits to boost collagen production with elasticity enhancing omega essential fatty acids to leave skin soft, nourished and supple.</p> </div> <div> <h4><strong>Benefits:</strong></h4> <ul> <li>It moisturizes rough and dry skin</li> <li>Prevents the formation of stretch marks</li> <li>Preventing premature signs of aging</li> </ul> </div> <div> <h4><strong>How to use:</strong></h4> <ul> <li>Apply liberally and massage onto damp skin after shower or bath for all-day hydration.</li> <li>During pregnancy, use morning and evening.</li> <li>For optimum benefits, follow Organic Oh Baby! Belly Butter, paying extra attention to the abdomen, breast and thighs.</li> <li>Continue using after pregnancy to help in the rebound of your body.</li> </ul> </div>",76.60,2,Mambino,Mambino Organics,N/A,120 ML,Adults,Unisex,Y,PERSONAL CARE///Skin Care///Body Moisturizer,"Mambino Organics Fresh Beauty Moisture Me Nourishing Body Oil 120 mL, 4 fl. oz.jpg",Common Vendor,
FRE-CHE-UNI-739,Freche Sensicare Hydrating & Calming Cream 40 mL,"<div> <div> <h4><strong>Short description:</strong></h4> <ul> <li>Hydrating and calming cream</li> <li>Moisturizes and soothes</li> <li>With Telangyn</li> </ul> </div> </div> <div> <h4><strong>Description:</strong></h4> <p>Freche Sensicare Hydrating &amp; Calming Cream is especially formulated to care sensitive skin, that moisturize and unify skin from localized redness, leaving the skin unified and comfortable.</p> </div> <div> <h4><strong>Benefits:</strong></h4> <ul> <li>Formula intended for reducing apparent redness and dull looking appearance</li> <li>Its soothing properties improves the blood circulation and helps reduces the facial skin redness</li> <li>Aplha bisabolol helps in soothing and it restores cutaneous comfort</li> <li>Free from artificial fragrance and parabens</li> </ul> </div> <div> <h4><strong>How to use:</strong></h4> <ul> <li>Apply a small quantity on clean face and neck every morning and evening.</li> <li>Store at a cool dry place.</li> <li>For external use only.</li> <li>Keep out of reach of children.</li> </ul> </div>",72.75,2,Freche,Alpol Cosmetique,N/A,40 ML,Adults,Unisex,Y,PERSONAL CARE///Skin Care///Body Moisturizer,Freche Sensicare Hydrating & Calming Cream 40 mL.jpg,Common Vendor,
DRO-NIC-UNI-740,Dr. Organic Vitamin E Skin Lotion 200 mL,"<div> <div> <h4><strong>Short description:</strong></h4> <ul> <li>Tocopherol enriched</li> <li>Intensive moisturizing and hydrating lotion</li> <li>Daily skin moisturizer</li> </ul> </div> </div> <div> <h4><strong>Description:</strong></h4> <p>An exceptional moisturizing lotion based on Organic Vitamin E and enriched with Aloe Vera, Cocoa Butter, Shea Butter, Olive oil, Sunflower oil, Irish Moss and Vitamin A. Fragrance free and intensively soothing, suitable for use all over the body and providing exceptional antioxidant protection.</p> </div> <div> <h4><strong>Benefits:</strong></h4> <ul> <li>This lotion absorbs directly into the skin's epidermal layer, instantly hydrating and regenerating the intercellular structure.</li> <li>Leaving the skin radiant, supple and silky smooth.</li> </ul> </div> <div> <h4><strong>How to use:</strong></h4> <ul> <li>Apply liberally to the skin. Repeat as often as required.</li> </ul> </div>",70.50,2,Dr Organic,Dr Organics Group Ltd,N/A,200 ML,Adults,Unisex,Y,PERSONAL CARE///Skin Care///Body Moisturizer,Dr. Organic Vitamin E Skin Lotion 200 mL.jpg,Common Vendor,
NOW-NOW-UNI-741,Now Avocado Moisturizing Oil 118 mL,"<div> <div> <h4><strong>Short description:</strong></h4> <ul> <li>100% pure avocado oil</li> <li>For soft and healthy skin</li> <li>Nutrient rich</li> <li>Hydrating</li> </ul> </div> </div> <div> <h4><strong>Description:</strong></h4> <p>Now avocado moisturizing oil is a natural, nutrient-rich vegetable oil. Heavy in texture, avocado oil helps to keep skin supple, while thoroughly moisturizing and softening stubborn dry or rough skin.</p> </div> <div> <h4><strong>Benefits:</strong></h4> <ul> <li>It has soothing effect for the skin</li> <li>It softens skin surfaces and leaves no greasy residue</li> <li>Hexan free</li> <li>For Vegan and Vegetarian</li> </ul> </div> <div> <h4><strong>How to use:</strong></h4> <ul> <li>Apply to the scalp as conditioner and for the body as massage oil.</li> </ul> </div>",49.00,2,Now,Now,N/A,118 ML,Adults,Unisex,Y,PERSONAL CARE///Skin Care///Body Moisturizer,Now Avocado Moisturizing Oil 118 mL.jpg,Common Vendor,
GLY-LID-UNI-742,Glysolid Body Lotion 250 mL,"<div> <div> <h4><strong>Short description:</strong></h4> <ul> <li>Classic</li> <li>Body lotion</li> <li>Intensive care</li> <li>For dry and normal skin</li> </ul> </div> </div> <div> <h4><strong>Description:</strong></h4> <p>Glysolid Body Lotion 250 is an intensive care for dry and normal skin. It softly moisturizes the skin, making it smooth and supple. High quality chamomile extract that reduces inflammation and irritations.</p> </div> <div> <h4><strong>Benefits:</strong></h4> <ul> <li>It has a natural pH- value that hydrates your skin</li> <li>Preserves natural skin balance and makes it shine with beauty and health</li> <li>It softens the skin making it supple</li> </ul> </div> <div> <h4><strong>How to use:</strong></h4> <ul> <li>Apply on the skin after bath or as and when required.</li> </ul> </div>",15.00,2,Glysolid,Burnus Gmbh,N/A,250 ML,Adults,Unisex,Y,PERSONAL CARE///Skin Care///Body Moisturizer,Glysolid Body Lotion 250 mL.jpg,Common Vendor,
GRA-RAL-UNI-743,Grahams Natural Body & Bath Oil 100 mL,"<div> <div> <h4><strong>Short description:</strong></h4> <ul> <li>With manuka and emu oil</li> <li>Naturally hydrates sensitive skin</li> <li>Relieves itchy dry skin</li> </ul> </div> </div> <div> <h4><strong>Description:</strong></h4> <p>Grahams Natural Body &amp; Bath Oil rejuvenates the skins natural oils whilst leaving your body feeling hydrated and replenished. With an all-natural gentle combination of oils. Suitable for itchy and dry skin.</p> </div> <div> <h4><strong>Benefits:</strong></h4> <ul> <li>It prevents and relieves dryness of the skin</li> <li>Non-allergic gentle for skin</li> </ul> </div> <div> <h4><strong>How to use:</strong></h4> <ul> <li>Apply the oil to clean skin, as often as required to prevent and relieve dryness</li> <li>Add 1-2 capfuls to bath water then soak for 10-15 minutes.</li> </ul> </div>",34.13,2,Grahams Natural,Grahams Naturals,N/A,100 ML,Adults,Unisex,Y,PERSONAL CARE///Skin Care///Body Moisturizer,Grahams Natural Body & Bath Oil 100 mL.jpg,Common Vendor,
AVE-ENO-UNI-744,Aveeno Skin Relief Nourishing Lotion 300 mL,<div> <div> <h4><strong>Short description:</strong></h4> <ul> <li>Beauty and body lotion</li> <li>Formulated with 3 oat complex</li> <li>Fast absorbing and non greasy formula</li> </ul> </div> </div> <div> <h4><strong>Description:</strong></h4> <p>Aveeno skin relief nourishing?lotion has 3 oat formula and shea butter to helps the skin to become nourished and healthier looking skin.</p> </div> <div> <h4><strong>Benefits:</strong></h4> <ul> <li>Triple formula for skin nourishment</li> <li>For dry and itchy skin</li> <li>24hr skin absorption</li> </ul> </div> <div> <h4><strong>How to use:</strong></h4> <ul> <li>For best results apply daily as necessary.</li> </ul> </div>,129.25,2,Aveeno,Johnson&Johnson,N/A,300 ML,Adults,Unisex,Y,PERSONAL CARE///Skin Care///Body Moisturizer,Aveeno Skin Relief Nourishing Lotion 300 mL.jpg,Common Vendor,
GRA-RAL-UNI-745,Grahams Natural Moisturizing Lotion 200 mL,"<div> <div> <h4><strong>Short description:</strong></h4> <ul> <li>Powerful antioxidant lotion enriched with Sheabutter and Beetroot extract</li> <li>Deeply nourishes and soothe dry skin</li> <li>Hydrate thirsty skin and improve skin elasticity</li> </ul> </div> </div> <div> <h4><strong>Description:</strong></h4> <p>Grahams Natural Moisturizing Lotion is powerful antioxidant lotion enriched with Sheabutter and Beetroot extract. It restores the skins moisture balance by deeply nourishing and to soothe dry skin. It is enriched with an infusion of Shea Butter, Sunflower seed oil and Beetroot extract to hydrate thirsty skin and improve skin elasticity.</p> </div> <div> <h4><strong>Benefits:</strong></h4> <ul> <li>Powerful antioxidant lotion enriched with Sheabutter and Beetroot extract</li> <li>Deeply nourishes and soothe dry skin</li> <li>Hydrate thirsty skin and improve skin elasticity</li> </ul> </div> <div> <h4><strong>How to use:</strong></h4> <ul> <li>Apply to skin and massage gently into skin</li> <li>Rapidly absorbed to deliver long lasting softness and protection</li> </ul> </div>",51.00,2,Grahams Natural,Grahams Naturals,N/A,200 ML,Adults,Unisex,Y,PERSONAL CARE///Skin Care///Body Moisturizer,Grahams Natural Moisturizing Lotion 200 mL.jpg,Common Vendor,
SAV-NAH-UNI-746,"Savannah Bee Royal Jelly Body Butter Original 6.7 oz, 190 g","<div> <div> <h4><strong>Short description:</strong></h4> <ul> <li>Rich &amp; Luxurious Original Formula</li> <li>Nutrient-rich and protective formula</li> <li>Softens and protects the skin</li> </ul> </div> </div> <div> <h4><strong>Description:</strong></h4> <p>The original Royal Jelly Body Butter glides on with the sweet fragrance of a Southern Spring. The classic body butter formula provides deep moisturizing and delivers multivitamins and antioxidants to keep your skin the way it was born to bee. Pairs hive ingredients with shea butter, cocoa butter, pecan oil and orange peel wax for additional skin hydration.</p> </div> <div> <h4><strong>Benefits:</strong></h4> <ul> <li>Repairs and regenerates the skin giving it a healthier appearance.</li> <li>Honey is a natural humectant, pulls moisture from air and feeds the skin.</li> <li>Royal Jelly includes lipids, amino acids and proteins which help smooth and brighten the skin and improve elasticity.</li> <li>Beeswax includes a softening agent that creates a protective shield against the elements</li> <li>Propolis includes vitamin A, B1, B2, B3, Biotin, High Bioflavonoids, promotes smoother skin</li> </ul> </div> <div> <h4><strong>How to use:</strong></h4> <ul> <li>Apply all over the body and all other dry spots.</li> </ul> </div>",11.00,2,Savannah,Savannah Bee Company,N/A,190 G,Adults,Unisex,Y,PERSONAL CARE///Skin Care///Body Moisturizer,"Savannah Bee Royal Jelly Body Butter Original 6.7 oz, 190 g.jpg",Common Vendor,
BAD-GER-UNI-747,"Badger Damascus Rose Body Oil 118 mL, 4 fl.oz","<div> <div> <h4><strong>Short description:</strong></h4> <ul> <li>Gentle and nourishing body oil</li> <li>With lavender and chamomile</li> <li>Moisturize and restore</li> </ul> </div> </div> <div> <h4><strong>Description:</strong></h4> <p>Badger Damascus Rose Body Oil with Lavender and Chamomile is an elegant blend of naturally restorative oils that honors the beautifully evolving body. Super-absorbent Jojoba and antioxidant-rich Pomegranate soothe and nourish dry, delicate or combination skin leaving it supple, radiant and with a youthful glow. Delicately fragranced with true organic Damascus Rose, the flower of beauty and wisdom and beautifully balanced with Lavender and Chamomile essential oils.</p> </div> <div> <h4><strong>Benefits:</strong></h4> <ul> <li>Super concentrated yet lightweight moisturizer leaves skin supple and radiant.</li> <li>With powerful antioxidants from Pomegranate and Seabuckthorn.</li> <li>Non-greasy and absorbs easily.</li> <li>Lasts 3 times longer than your average water-based lotion.</li> <li>Free of artificial ingredients, fragrances, dyes, parabens, GMOs, synthetics, or harsh ingredients.</li> </ul> </div> <div> <h4><strong>How to use:</strong></h4> <ul> <li>For best results, apply daily after shower or bath in place of lotion of skin cream.</li> <li>Can also be used as a full body restorative, for a romantic massage, or as a nourishing treatment before bed. For external use only.</li> <li>Do not apply to damaged skin. Keep away from eyes.</li> <li>Discontinue use if irritation or rash develops.</li> </ul> </div>",120.80,2,Badger,WS Badger Company Inc,N/A,118 ML,Adults,Unisex,Y,PERSONAL CARE///Skin Care///Body Moisturizer,"Badger Damascus Rose Body Oil 118 mL, 4 fl.oz.jpg",Common Vendor,
DER-AAE-UNI-748,"Derma E Vitamin E 14,000IU Skin Oil 60 mL","<div> <div> <h4><strong>Short description:</strong></h4> <ul> <li>Vitamin E skin oil</li> <li>Deeply penetrates to renew and condition skin</li> <li>Prevent and minimize the signs of aging</li> </ul> </div> </div> <div> <h4><strong>Description:</strong></h4> <p>Derma E Vitamin E oil deeply penetrates to renew, repair and condition skin. With 14,000 IU of Vitamin E within a base of pure Safflower Oil, this formula helps moisturize, soothe, soften and rehydrate dry, rough skin and reduce the look of fine lines and wrinkles. Natural moisturizer and antioxidant Vitamin E helps protect the skin's fatty acids, fight free radicals, and prevent and minimize the signs of aging.</p> </div> <div> <h4><strong>Benefits:</strong></h4> <ul> <li>Ideal for normal to dry, or sensitive skin that may react to many other skincare products</li> <li>Fragrance-free and hypoallergenic</li> <li>Moisturizes, soothes, soften and rehydrates dry, rough skin</li> </ul> </div> <div> <h4><strong>How to use:</strong></h4> <ul> <li>Pour a small amount of Vitamin E Oil onto the fingertips</li> <li>Apply to the entire face, neck and dry flaky patches in light upward strokes and use as desired</li> </ul> </div>",157.50,2,Derma E,Derma E,N/A,60 ML,Adults,Unisex,Y,PERSONAL CARE///Skin Care///Body Moisturizer,"Derma E Vitamin E 14,000IU Skin Oil 60 mL.jpg",Common Vendor,
ISI-SIS-UNI-749,Isis Bodytone Reveal Lotion 100 mL,<div> <div> <h4><strong>Short description:</strong></h4> <ul> <li>Revealing and moisturizing body milk</li> <li>Pigmentation spots</li> <li>Lightening and quickly absorbed</li> </ul> </div> </div> <div> <h4><strong>Description:</strong></h4> <p>Isis bodytone reveal lotion comes with a perfect combination of active ingredients to hydrate and lighten fair and dark pigmented skin thanks to the combination of natural emollients.</p> </div> <div> <h4><strong>Benefits:</strong></h4> <ul> <li>Deeply nourishes and hydrates your skin.</li> <li>Exfoliates and reduces performed melanin responsible for pigmentation</li> <li>Restores fair skin and unifies pigmented body skin</li> </ul> </div> <div> <h4><strong>How to use:</strong></h4> <ul> <li>Apply to the body once or twice a day.</li> </ul> </div>,231.00,2,Isis,Isispharm Switzerland,N/A,100 ML,Adults,Unisex,Y,PERSONAL CARE///Skin Care///Body Moisturizer,Isis Bodytone Reveal Lotion 100 mL.jpg,Common Vendor,
DES-NCE-UNI-750,"Desert Essence 100% Pure Jojoba Oil 2 fl oz, 60 mL","<div> <div> <h4><strong>Short description:</strong></h4> <ul> <li>100% Pure Jojoba Oil</li> <li>For hair, skin &amp; scalp</li> <li>Non-GMO</li> <li>Moisturizes skin without leaving any oily residue</li> </ul> </div> </div> <div> <h4><strong>Description:</strong></h4> <p>Pressed from plant seeds native to the Sonoran and Peruvian deserts, Jojoba Oil is a natural, time-honored moisturizer for skin and hair. Suitable for even the most sensitive skin, it penetrates quickly after application, and also makes for an enriching aftershave moisturizer.</p> </div> <div> <h4><strong>Benefits:</strong></h4> <ul> <li>Moisturizes skin without leaving any oily residue</li> <li>Effectively cleanses clogged pores</li> <li>Helps prevent flakiness when massaged on scalp</li> </ul> </div> <div> <h4><strong>How to use:</strong></h4> <ul> <li>This amazing oil can be used to remove makeup, cleanse pores, and nourish skin and scalp.</li> </ul> </div>",65.60,2,Desert Essence,Desert Essence,N/A,60 ML,Adults,Unisex,Y,PERSONAL CARE///Skin Care///Body Moisturizer,"Desert Essence 100% Pure Jojoba Oil 2 fl oz, 60 mL.jpg",Common Vendor,
DES-NCE-UNI-751,Desert Essence Sweet Almond Hand and Body Lotion 237 mL,"<div> <div> <h4><strong>Short description:</strong></h4> <ul> <li>Replenishing hand and body lotion</li> <li>Deeply nourishes dry skin</li> <li>Leaves skin feeling soft and silky</li> </ul> </div> </div> <div> <h4><strong>Description:</strong></h4> <p>Organic Almond Extract and Almond Oil, with a high level of Vitamins A, E and B, proteins and fatty acids, penetrate the skin, providing soothing nourishment and moisture. Vitamin E-rich Sunflower Oil helps repair damage done by environmental stressors. Organic Shea Butter, a rich natural emollient, helps skin retain moisture and restore elasticity.</p> </div> <div> <h4><strong>Benefits:</strong></h4> <ul> <li>Leaves skin feeling smooth and supple</li> <li>Helps repair damage from environmental stressors</li> <li>Soothes, nourishes and moisturizes without a greasy residue</li> </ul> </div> <div> <h4><strong>How to use:</strong></h4> <ul> <li>Smooth onto skin daily, as often as needed.</li> </ul> </div>",50.40,2,Desert Essence,Desert Essence,N/A,237 ML,Adults,Unisex,Y,PERSONAL CARE///Skin Care///Body Moisturizer,Desert Essence Sweet Almond Hand and Body Lotion 237 mL.jpg,Common Vendor,
EGO-EGO-UNI-752,Ego QV Cream,"<div> <div> <h4><strong>Short description:</strong></h4> <ul> <li>Dermatologically tested</li> <li>pH balanced, suitable for sensitive skin</li> <li>Non comedogenic-won't block the pores</li> </ul> </div> </div> <div> <h4><strong>Description:</strong></h4> <p>Ego QV Cream is highly concentrated moisturizing cream for dry skin. This rich, protective cream replenishes the skin and helps repair dry areas. It contains squalene, a natural component found in the skin's oil. Areas prone to dryness like the elbows, knees and hands will just love what QV Cream can do to help.</p> </div> <div> <h4><strong>Benefits:</strong></h4> <ul> <li>Recommended for moisturizing dry skin</li> <li>Helps to seal in natural moisture by acting as a protective barrier</li> <li>pH 6, low-irritant formulation, free from fragrance, color, lanolin and propylene glycol</li> <li>Suitable for skin conditions such as dry, scaly skin, winter itch, ichthyosis, xerosis, dermatitis</li> <li>Suitable for sensitive skin</li> <li>Suitable for infants and the elderly</li> </ul> </div> <div> <h4><strong>How to use:</strong></h4> <ul> <li>Apply to the affected area as often as required, particularly after bathing, showering, shaving, exposure to harsh climatic condition and at night.</li> </ul> </div>",73.50,2,Ego,Ego,N/A,100 G,Adults,Unisex,Y,PERSONAL CARE///Skin Care///Body Moisturizer,Ego QV Cream.jpg,Common Vendor,
GLY-LID-UNI-753,Glysolid Glycerin Cream,"<div> <div> <h4><strong>Short description:</strong></h4> <ul> <li>With Glycerin and Allantoin</li> <li>Ideal for sensitive, stressed and damaged skin</li> <li>Protects, calms and smoothes skin</li> </ul> </div> </div> <div> <h4><strong>Description:</strong></h4> <p>Glysolid cream with Glycerin and Allantoin is designed to treat sensitive, stressed and damaged skin. The glycerin used is vegetable based, acts as a skin softener; keeps skin cells supple and flexible. Allantoin, stimulates skin cell regeneration and the healing of small injuries, nicks, scrapes and minor burns. When applied to the skin, it adds a light protective film, locking in your skin's natural oils and moisture. This protection lasts for hours, providing your skin with the soothing moisture to help repair even the driest skin. With regular use, your skin remains soft, smooth and healthy looking.</p> </div> <div> <h4><strong>Benefits:</strong></h4> <ul> <li>Quickly restores the natural beauty of the skin while softening it</li> <li>Made without preservatives or perfumes</li> <li>Compatible for all skin types</li> <li>Protects, calms, smoothes skin and provides rapid relief to irritated skin</li> <li>Effective on the toughest areas of your body - hands, elbows, feet, heels and knees</li> </ul> </div> <div> <h4><strong>How to use:</strong></h4> <ul> <li>Apply a very thin film of Glysolid regularly on the skin.</li> </ul> </div>",10.50,2,Glysolid,Burnus Gmbh,N/A,125 ML,Adults,Unisex,Y,PERSONAL CARE///Skin Care///Body Moisturizer,Glysolid Glycerin Cream.jpg,Common Vendor,
CET-HIL-UNI-754,Cetaphil Moisturizing Lotion,"<div> <div> <h4><strong>Short description:</strong></h4> <ul> <li>Lightweight hydration for everyday use</li> <li>For face and body</li> <li>For all skin types</li> <li>Dermatologist recommended</li> </ul> </div> </div> <div> <h4><strong>Description:</strong></h4> <p>Cetaphil Moisturizing Lotion is specifically formulated to soothe your chronically dry skin. Once applied, your skin feels soft and smooth. It is non-greasy, non irritating and non comedogenic (won't clog pores), leaving you feeling more comfortable in your own skin.</p> </div> <div> <h4><strong>Benefits:</strong></h4> <ul> <li>Lightweight hydration to replenish sensitive and normal skin</li> <li>Fast-acting, long-lasting, light-weight formula helps maintain healthy skin</li> <li>Special ingredients are proven to bind water to skin and help prevent moisture loss</li> <li>Protects and enhances skin's natural moisture</li> </ul> </div> <div> <h4><strong>How to use:</strong></h4> <ul> <li>Apply daily to dry skin as needed or as directed by physician.</li> </ul> </div>",53.55,2,Cetaphil,Galderma,N/A,118 ML,18+ Years,Unisex,Y,PERSONAL CARE///Skin Care///Body Moisturizer,Cetaphil Moisturizing Lotion.jpg,Common Vendor,
FRE-CHE-UNI-755,Freche Nutricare Cream,"<div> <div> <h4><strong>Short description:</strong></h4> <ul> <li>Body moisturizer</li> <li>Long-lasting hydration</li> <li>For dry and dehydrated skin</li> <li>Clinically tested formula</li> </ul> </div> </div> <div> <h4><strong>Description:</strong></h4> <p>Freche Nutricare Cream is the complete solution for dry and dehydrated skin. This quick absorption formula uses the combination of cotton oil and butter complex that prevents skin water loss and increases the moisturization, leaving the skin soft, smooth, and nourished.</p> </div> <div> <h4><strong>Benefits:</strong></h4> <ul> <li>Emollient formula made of Shea Butter, rich in vitamin E, to provide firming nourishing, moisturizing and protection to the skin</li> <li>Restores lipid barrier, normalizes skin balance in stratum corneum with vitamin B3 which makes skin comfortable, more resilient to external damages and reduce sensitivity</li> <li>Free from parabens</li> </ul> </div> <div> <h4><strong>How to use:</strong></h4> <ul> <li>Apply once or twice evenly whole body particularly after showering, bathing, or cleansing.</li> <li>Use regularly to seal moisture into the skin.</li> <li>Store at a cool dry place.</li> <li>For external use only.</li> <li>Keep out reach of children.</li> </ul> </div>",76.50,2,Freche,Alpol Cosmetique,N/A,100 ML,Adults,Unisex,Y,PERSONAL CARE///Skin Care///Body Moisturizer,Freche Nutricare Cream.jpg,Common Vendor,
BIO-OIL-UNI-756,Bio Oil Dry Skin Gel,"<div> <div> <h4><strong>Short description:</strong></h4> <ul> <li>Treatment for dry skin</li> <li>Made from oil</li> <li>82% improvement in just 2 days</li> </ul> </div> </div> <div> <h4><strong>Description:</strong></h4> <p>Comes in a new way for dry skin treatment, by its oil based nature it gives warm feeling to the skin unlike the traditional lotions, creams and body butters primarily made of water giving skin cold feeling because of water evaporation. The majority said it was better than they were used before.</p> </div> <div> <h4><strong>Benefits:</strong></h4> <ul> <li>Warm feeling when applied</li> <li>Suitable for sensitive skin and non comedogenic</li> <li>Best for dry skin treatment</li> </ul> </div> <div> <h4><strong>How to use:</strong></h4> <ul> <li>Apply small amount to dry skin as required.</li> </ul> </div>",19.60,2,Bio Oil,Union Swiss,N/A,50 ML,18+ Years,Unisex,Y,PERSONAL CARE///Skin Care///Body Moisturizer,Bio Oil Dry Skin Gel.jpg,Common Vendor,
EVO-ERM-UNI-757,Evoluderm Delight Shea Butter Body Lotion 500 mL,"<div> <div> <h4><strong>Short description:</strong></h4> <ul> <li>Moisturizing shea butter body lotion</li> <li>For dry skin</li> <li>Softens the skin</li> </ul> </div> </div> <div> <h4><strong>Description:</strong></h4> <p>Evoluderm Delight Shea Butter Body Lotion reveals all the beauty secrets of Shea Butter, which is known for its nutritious and restorative properties. Intense rich, it moisturizes your skin-deep down and envelops in a delicately scented veil.</p> </div> <div> <h4><strong>Benefits:</strong></h4> <ul> <li>Its creamy and ultra-melt in texture is instantly absorbed, leaving the skin perfectly supple and soft</li> <li>Preserves the skin's natural hydration</li> <li>Allows skin to regain comfort and flexibility</li> </ul> </div> <div> <h4><strong>How to use:</strong></h4> <ul> <li>Apply daily to the entire body, massage in circular movements until fully absorbed.</li> </ul> </div>",21.60,2,Evoluderm,"Paris Evoluderm, France",N/A,500 ML,Adults,Unisex,Y,PERSONAL CARE///Skin Care///Body Moisturizer,Evoluderm Delight Shea Butter Body Lotion 500 mL.jpg,Common Vendor,
EVO-ERM-UNI-758,Evoluderm Monoi Moisturizing Body Lotion 500 mL,"<div> <div> <h4><strong>Short description:</strong></h4> <ul> <li>Moisturizing body lotion</li> <li>Moisturizes and enhances the skin</li> <li>For dry skin</li> <li>Paraben free</li> </ul> </div> </div> <div> <h4><strong>Description:</strong></h4> <p>Evoluderm Moisturizing Body Lotion is enriched with designation of Origin Tahitian Monoi with moisturizing and regenerating properties. Its ultra-creamy texture is instantly absorbed and leaves no sticky effect, enveloping the skin with a delicate exotic fragrance.</p> </div> <div> <h4><strong>Benefits:</strong></h4> <ul> <li>Nourishes and deeply protects even the driest skin</li> <li>Enhances skin silkiness and suppleness</li> <li>Soothes and repairs deep dry skin</li> </ul> </div> <div> <h4><strong>How to use:</strong></h4> <ul> <li>Apply daily to the entire body, massage in circular movements until fully absorbed.</li> </ul> </div>",22.40,2,Evoluderm,"Paris Evoluderm, France",Dry & Sensitive Skin,500 ML,Adults,Unisex,Y,PERSONAL CARE///Skin Care///Body Moisturizer,Evoluderm Monoi Moisturizing Body Lotion 500 mL.jpg,Common Vendor,
EVO-ERM-UNI-759,Evoluderm Ultra-Nourishing Surgras Body Lotion 500 mL,"<div> <div> <h4><strong>Short description:</strong></h4> <ul> <li>13% Glycerin + Shea Butter enriched body lotion</li> <li>Ultra-nourishing</li> <li>For the whole family</li> </ul> </div> </div> <div> <h4><strong>Description:</strong></h4> <p>Evoluderm Surgras Body Lotion contains glycerin that moistirizes skin and helps protect it from drying out, Shea butter which nourishes and intensively softens the skin.</p> </div> <div> <h4><strong>Benefits:</strong></h4> <ul> <li>Ideally protected skin that feels ultra-comfortable and extremely soft</li> <li>Hydrates and nourishes skin</li> </ul> </div> <div> <h4><strong>How to use:</strong></h4> <ul> <li>Apply all over the entire body using circular, upward massages until completely absorbed</li> <li>Avoid contact with the eyes, in case of contact with the eyes rinse well under clean water</li> </ul> </div>",25.60,2,Evoluderm,"Paris Evoluderm, France",N/A,500 ML,Adults,Unisex,Y,PERSONAL CARE///Skin Care///Body Moisturizer,Evoluderm Ultra-Nourishing Surgras Body Lotion 500 mL.jpg,Common Vendor,
EVO-ERM-UNI-760,Evoluderm Almond Face and Body Cream 250 mL,"<div> <div> <h4><strong>Short description:</strong></h4> <ul> <li>Gentle face and body cream</li> <li>With sweet almond oil</li> <li>0% Paraben</li> <li>Moisturizes the skin</li> </ul> </div> </div> <div> <h4><strong>Description:</strong></h4> <p>Evoluderm Almond Face and Body Cream 250 mL 3071Description:Evoluderm Almond Face and Body Cream is a nourishing and protective treatment ideal for the whole family, tolerated by all types of skin. Enriched with Sweet Almond Oil which soothes, ptotects and nourishes the skin intensely. This oil is also ideal for relieving small tugging of the skin daily.This formula is combined Glycerin which is a natural ingredient with a high moisturizing power and deeply hydrates the skin.</p> </div> <div> <h4><strong>Benefits:</strong></h4> <ul> <li>Moisturizes and nourishes the face and body deeply</li> <li>Relieves small tugging of the skin</li> <li>Keeps the skin perfectly nourished and protected in all circumstances</li> </ul> </div> <div> <h4><strong>How to use:</strong></h4> <ul> <li>Apply to face and body, massage in a circular motion to facilitate absorption.</li> </ul> </div>",19.20,2,Evoluderm,"Paris Evoluderm, France",N/A,250 ML,Adults,Unisex,Y,PERSONAL CARE///Skin Care///Body Moisturizer,Evoluderm Almond Face and Body Cream 250 mL.jpg,Common Vendor,
EXC-IAL-UNI-761,Excipial P Pruri Lotion 200 mL,"<div> <div> <h4><strong>Short description:</strong></h4> <ul> <li>Alleviating pruritus symptoms</li> <li>Hydrating</li> <li>For dry and very dry itchy skin</li> </ul> </div> </div> <div> <h4><strong>Description:</strong></h4> <p>Excipial Pruri Lotion is a high-quality range of skincare developed with dermatologist to meet skins specific needs. With active components, glycerin and menthol.</p> </div> <div> <h4><strong>Benefits:</strong></h4> <ul> <li>It soothes and cares for dry skin prone to itching</li> <li>Confers skin hydration, elasticity and soothing</li> </ul> </div> <div> <h4><strong>How to use:</strong></h4> <ul> <li>Ideal for daily use. Apply generously as needed.</li> </ul> </div>",77.70,2,Excipial,N/A,N/A,200 ML,Adults,Unisex,Y,PERSONAL CARE///Skin Care///Body Moisturizer,Excipial P Pruri Lotion 200 mL.jpg,Common Vendor,
BEP-ENE-UNI-762,Bepanthene Lotion 200ML,"<div> <div> <h4><strong>Short description:</strong></h4> <ul> <li>Body milk for skin care</li> <li>For care of normal skin exposed to everyday stress</li> <li>With pro-vitamin B5</li> </ul> </div> </div> <div> <h4><strong>Description:</strong></h4> <p>Bepanthen Lotion contains the active substance dexpanthenol, also known as pro-vitamin B5. Dexpanthenol is a vitamin precursor that is essential for building healthy skin. Bepanthen Lotion is used for care of normal skin exposed to everyday stress (showering, bathing, frequent hand washing, changing weather conditions, etc.) and for treating reddened (sunburn, etc.) or unbroken, irritated skin.</p> </div> <div> <h4><strong>Benefits:</strong></h4> <ul> <li>Light textured</li> <li>Moisturizing</li> <li>Rapidly absorbed preparation</li> </ul> </div> <div> <h4><strong>How to use:</strong></h4> <ul> <li>Apply one or more times daily as required and gently rub into the skin.</li> </ul> </div>",52.50,2,Bepanthene,Bayer Consumer Healthcare,N/A,200 ML,Adults,Unisex,y,PERSONAL CARE///Skin Care///Body Moisturizer,Bepanthene Lotion 200ML.jpg,Common Vendor,
ISD-DIN-UNI-763,Isdin Nutratopic Pro-AMP Emollient Cream 200 mL,"<div> <div> <h4><strong>Short description:</strong></h4> <ul> <li>Emollient body cream</li> <li>Ideal for the whole family</li> <li>For atopic skin</li> <li>With L-isoleucine Pro-Amp</li> </ul> </div> </div> <div> <h4><strong>Description:</strong></h4> <p>Isdin Nutratopic Pro-AMP Emollient Cream formulated to Moisturizes and soothes atopic skin, since the skin with atopic dermatitis needs specific formula to keep the symptoms under control and in the same time improve skin immunity to slow down the rate of the atopic inflammatory cycle. Nutratopic Pro-AMP Emollient cream can be applied perfectly on face and small areas of the body.</p> </div> <div> <h4><strong>Benefits:</strong></h4> <ul> <li>Restores barrier function</li> <li>Boost Skin Immunity With Microbium technology.</li> <li>Alleviates itching</li> <li>Reduces inflammation</li> <li>Inhibits the risk of bacterial adhesion</li> </ul> </div> <div> <h4><strong>How to use:</strong></h4> <ul> <li>Apply at least twice a day to the cleansed, dry skin of the affected areas in order to control signs and as maintenance in remission periods.</li> </ul> </div>",128.63,2,Isdin,Isdin,"Atopic, Dry Skin",200 ML,Adults,Unisex,Y,PERSONAL CARE///Skin Care///Body Moisturizer,Isdin Nutratopic Pro-AMP Emollient Cream 200 mL.jpg,Common Vendor,
ISD-DIN-UNI-764,Isdin Nutratopic Pro-AMP Emollient Lotion 400 mL,"<div> <div> <h4><strong>Short description:</strong></h4> <ul> <li>Emollient body lotion</li> <li>For large area hydration</li> <li>Ideal for the whole family</li> <li>For atopic skin</li> <li>With L-isoleucine Pro-Amp</li> </ul> </div> </div> <div> <h4><strong>Description:</strong></h4> <p>Isdin Nutratopic Pro-AMP Emollient Lotion formulated to moisturize and soothe atopic skin, since the skin with atopic dermatitis needs specific formula to alleviate the unwanted symptoms and in the same time improve skin immunity to slow down the rate of the atopic inflammatory cycle. Nutratopic Pro-AMP Emollient Lotion can be used daily and perfectly for large areas of the body since its lotion texture allows easy application on large areas affected by atopic dermatitis</p> </div> <div> <h4><strong>Benefits:</strong></h4> <ul> <li>Restores the barrier function</li> <li>Moisturizes deeply, helping alleviate itching and irritation due to its content in Laureth-9 and Niacinamide</li> <li>Inhibits the risk of bacterial adhesion</li> <li>Restores the right balance of your skin thanks to its emollient properties</li> <li>Using it daily helps prevent new outbreaks and prolongs the period free of lesions</li> </ul> </div> <div> <h4><strong>How to use:</strong></h4> <ul> <li>Apply at least twice a day on cleansed, dry skin.</li> <li>Easy body application thanks to its lotion consistency.</li> </ul> </div>",135.98,2,Isdin,Isdin,N/A,400 ML,Adults,Unisex,Y,PERSONAL CARE///Skin Care///Body Moisturizer,Isdin Nutratopic Pro-AMP Emollient Lotion 400 mL.jpg,Common Vendor,
NOW-NOW-UNI-765,Now Cocoa Butter 100% Pure Multi Purpose Moisturizer 207 mL,"<div> <div> <h4><strong>Short description:</strong></h4> <ul> <li>Multi-Purpose</li> <li>Cocoa butter</li> <li>100% pure</li> </ul> </div> </div> <div> <h4><strong>Description:</strong></h4> <p>Now cocoa butter 100% pure multi purpose moisturizer unites the skin-softening effects of 75% pure cocoa butter with 25% pure jojoba. When combined together they can address dry skin.</p> </div> <div> <h4><strong>Benefits:</strong></h4> <ul> <li>Excellent choice for hair, body and scalp treatment</li> <li>Contains no preservatives</li> <li>For Vegan/Vegetarian</li> </ul> </div> <div> <h4><strong>How to use:</strong></h4> <ul> <li>To soften, scoop out and rub vigorously in between clean hands until the desired texture has been reached.</li> <li>As a daily moisturizer, apply to skin as needed.</li> </ul> </div>",65.00,2,Now,Now,N/A,207 ML,Adults,Unisex,Y,PERSONAL CARE///Skin Care///Body Moisturizer,Now Cocoa Butter 100% Pure Multi Purpose Moisturizer 207 mL.jpg,Common Vendor,
CAN-DES-UNI-766,Candes Eclat Sublime Lightening Milk Body Lotion 400 mL,"<div> <div> <h4><strong>Short description:</strong></h4> <ul> <li>Sublime lightening milk</li> <li>For the body</li> <li>White mulberry and AHA</li> </ul> </div> </div> <div> <h4><strong>Description:</strong></h4> <p>Candes Eclat Sublime Lightening Milk Body Lotion especially designed for the beauty of black and dark brown skins. Rich in lightening vegetable extracts and fruit AHA, it offers a lighter and more unifies complexion.</p> </div> <div> <h4><strong>Benefits:</strong></h4> <ul> <li>It gradually reduces blemishes on the body</li> <li>Offers the skin suppleness, softness and firmness</li> <li>With triple action combination anti-blemish, lightening and moisturizing</li> </ul> </div> <div> <h4><strong>How to use:</strong></h4> <ul> <li>After cleansing with the lightening cleaning gel</li> <li>Spread a sufficient quantity of the product over the body</li> <li>Massage lightly until completely absorbed.</li> <li>Use regularly in the morning and evening for visible results</li> </ul> </div>",299.00,2,Candes,Candes,N/A,400 ML,Adults,Unisex,Y,PERSONAL CARE///Skin Care///Body Moisturizer,Candes Eclat Sublime Lightening Milk Body Lotion 400 mL.jpg,Common Vendor,
SKI-AB -UNI-767,Skinlab Effulgence Rich Whitening Body Cream 120 g,"<div> <div> <h4><strong>Short description:</strong></h4> <ul> <li>Whitening body cream</li> <li>Enriched with vitamin C and shea butter</li> <li>With kojic acid</li> <li>Great for sensitive skin</li> </ul> </div> </div> <div> <h4><strong>Description:</strong></h4> <p>Skinlab Effulgence Rich Whitening Body Cream contains shea butter, vitamin C and extracts from beautiful Japanese mushroom and kojic. It drastically improved when used consistently within weeks and it prevents the developing of any new sunspots with a highly advanced formula designed to brighten the skin corrects acne scars and any hyperpigmentation.</p> </div> <div> <h4><strong>Benefits:</strong></h4> <ul> <li>It helps repair damage from the sun</li> <li>Decreases the risk of early aging caused by sun</li> <li>Its rich cream texture is great for sensitive skin that cant handle glycolic or have rosacea</li> </ul> </div> <div> <h4><strong>How to use:</strong></h4> <ul> <li>Apply Effulgence Whitening Body Cream with finger tips to clean, dry nude skin best after shower.</li> <li>Sunscreen protects the skin when exposed to sun.</li> </ul> </div>",120.75,2,Skinlab ,N/A,N/A,120 G,Adults,Unisex,Y,PERSONAL CARE///Skin Care///Body Moisturizer,Skinlab Effulgence Rich Whitening Body Cream 120 g.jpg,Common Vendor,
OUD-OUD-UNI-768,Oud Body Lotion Oud and Oud 300 mL,"<div> <div> <h4><strong>Short description:</strong></h4> <ul> <li>Body lotion</li> <li>Specially formulated high-quality OUD fragrance used</li> <li>With Shea Butter</li> <li>Oud and Oud</li> </ul> </div> </div> <div> <h4><strong>Description:</strong></h4> <p>Oud Oud &amp; Oud Body Lotion is specially formulated to moisturize the skin, leaving it soft and smooth with a magical Oud fragrance.</p> </div> <div> <h4><strong>Benefits:</strong></h4> <ul> <li>Using high quality approved European origin raw materials</li> <li>All materials used are Bio-degradable</li> <li>It moisturizes the skin and gives smooth texture</li> </ul> </div> <div> <h4><strong>How to use:</strong></h4> <ul> <li>Use as required by applying on to the body.</li> <li>In case of contact with eyes; rinse well with water. Store in a clean and dry place.</li> </ul> </div>",35.25,2,Oud,"Smart Chem Hygiene LLC, UAE",N/A,300 ML,Adults,Unisex,Y,PERSONAL CARE///Skin Care///Body Moisturizer,Oud Body Lotion Oud and Oud 300 mL.jpg,Common Vendor,
NUX-UXE-UNI-769,Nuxe Body 24-Hour Moisturizing Body Lotion 200 mL,"<div> <div> <h4><strong>Short description:</strong></h4> <ul> <li>Leaves a satin and soft finished for the skin</li> <li>With Almond and Orange flower petals</li> <li>For dry skin</li> <li>Contains 95.7% ingredients of natural origin</li> </ul> </div> </div> <div> <h4><strong>Description:</strong></h4> <p>Nuxe Body 24-HOur Moisturizing Body Lotion is immediately absorbed for a non-greasy finish. Provides 24-hour hydration to reveal comfortable, supple skin. It contains natural ingredients including Almond and Orange blossom, Wheat and Wood sugars. The skin feels soft and as smooth as silk after used.</p> </div> <div> <h4><strong>Benefits:</strong></h4> <ul> <li>Helps to moisturized the skin for all day</li> <li>Prevents itchy and dry skin</li> <li>Absorbed immediately by the skin</li> </ul> </div> <div> <h4><strong>How to use:</strong></h4> <ul> <li>Apply your 24HR Moisturizing Body Lotion NUXE Body in the morning and/or night to the whole body.</li> </ul> </div>",57.25,2,Nuxe,Nuxe Laboratory,N/A,200 ML,Adults,Unisex,Y,PERSONAL CARE///Skin Care///Body Moisturizer,Nuxe Body 24-Hour Moisturizing Body Lotion 200 mL.jpg,Common Vendor,
NOW-NOW-UNI-770,Now Sweet Almond Moisturizing Oil 118 mL,"<div> <div> <h4><strong>Short description:</strong></h4> <ul> <li>100% pure moisturizing oil</li> <li>Promotes healthy-looking skin</li> <li>Nourishing</li> </ul> </div> </div> <div> <h4><strong>Description:</strong></h4> <p>Now sweet almond moisturizing oil is a natural oil thats perfect for nourishing and reviving any skin type. It is formulated from pressed almond pure oil extraction.</p> </div> <div> <h4><strong>Benefits:</strong></h4> <ul> <li>For skin in need of clean and natural nourishment, as a moisturizer for massage.</li> <li>Easily absorbed and wont clog pores, promoting soft and healthy looking skin.</li> <li>Ideal for the entire body</li> </ul> </div> <div> <h4><strong>How to use:</strong></h4> <ul> <li>Work several drops between your palms and massage into the desired area.</li> <li>For the face after cleansing.</li> <li>Massage 3-5 drops of Organic Almond Oil into your skin.</li> <li>Paying particular attention to the area around your eyes.</li> </ul> </div>",39.00,2,Now,Now,N/A,118 ML,Adults,Unisex,Y,PERSONAL CARE///Skin Care///Body Moisturizer,Now Sweet Almond Moisturizing Oil 118 mL.jpg,Common Vendor,
NIV-VEA-UNI-771,Nivea Care with SPF15 Fairness Cream 200 mL,"<div> <div> <h4><strong>Short description:</strong></h4> <ul> <li>With SPF15</li> <li>Without greasy feeling</li> <li>Fairness skin for skin tone protection</li> <li>For Face, Body and Hands</li> </ul> </div> </div> <div> <h4><strong>Description:</strong></h4> <p>Nivea Care with SPF15 Fairness Cream provides intensive nourishment without a sticky skin feeling and prevents the skin from darkening. It contains SPF 15 which prevent darkening of skin tone and helps to achieved fair skin all over the body. Results will be the skin looks even and beautiful.</p> </div> <div> <h4><strong>Benefits:</strong></h4> <ul> <li>Helps the skin to become more beautiful and fairer looking</li> <li>Dermatologically approved for skin compatibility</li> <li>Contains Vitamin C and Pearl Extract for skin nourishment</li> </ul> </div> <div> <h4><strong>How to use:</strong></h4> <ul> <li>Apply the cream daily for best results.</li> </ul> </div>",16.50,2,Nivea,"Beiersdorf, Germany",N/A,200 ML,Adults,Unisex,Y,PERSONAL CARE///Skin Care///Body Moisturizer,Nivea Care with SPF15 Fairness Cream 200 mL.jpg,Common Vendor,
CET-HIL-UNI-772,Cetaphil PRO Eczema Prone Skin Body Lotion 295 mL,"<div> <div> <h4><strong>Short description:</strong></h4> <ul> <li>With Ceramide technology to help restore skin barrier</li> <li>For very dry itchy skin</li> <li>Hypoallergenic</li> </ul> </div> </div> <div> <h4><strong>Description:</strong></h4> <p>Cetaphil PRO Eczema Prone Skin Body Lotion gives restorative moisture to the skin. It is clinically proven to alleviate the symptoms of itchy, dry skin. Easy to apply and relieves dry skin.</p> </div> <div> <h4><strong>Benefits:</strong></h4> <ul> <li>Quick and long-lasting relief of itchy, dry skin</li> <li>Non-greasy creamy lotion that makes skin soft</li> <li>Suitable for children and adults</li> <li>Preservative and fragrance free</li> </ul> </div> <div> <h4><strong>How to use:</strong></h4> <ul> <li>Test on small area of skin before use</li> <li>Apply liberally as often as needed or as recommended by the physician</li> <li>For best results use immediately after bathing with Cetaphil PRO Eczema-Prone Skin</li> </ul> </div>",90.30,2,Cetaphil,Cetaphil,Eczema,295 ML,Adults,Unisex,Y,PERSONAL CARE///Skin Care///Body Moisturizer,Cetaphil PRO Eczema Prone Skin Body Lotion 295 mL.jpg,Common Vendor,
GLY-MED-UNI-773,Glymed Lotion 100 mL,"<div> <div> <h4><strong>Short description:</strong></h4> <ul> <li>Rich hydrating moisturizing face and body lotion</li> <li>Glycerin and Olive Oil</li> <li>For all day skin nourishment</li> </ul> </div> </div> <div> <h4><strong>Description:</strong></h4> <p>Glymed Lotion has been specially formulated with Olive oil and Olive water to heal and hydrate the skin, leaving it soft, supple and nourished all day.</p> </div> <div> <h4><strong>Benefits:</strong></h4> <ul> <li>Helps to prevent premature signs of aging</li> <li>Moisturize the dry skin</li> <li>Helps to heal the skin and promotes skin regeneration</li> </ul> </div> <div> <h4><strong>How to use:</strong></h4> <ul> <li>Apply gently on the affected area or as directed by the physician.</li> </ul> </div>",18.00,2,Glymed,GCSI,N/A,100 ML,Adults,Unisex,Y,PERSONAL CARE///Skin Care///Body Moisturizer,Glymed Lotion 100 mL.jpg,Common Vendor,
CRI-PLE-UNI-774,Cripple Cream 50 g,"<div> <div> <h4><strong>Short description:</strong></h4> <ul> <li>Moisturizing skin care cream</li> <li>Maintains healthy skin</li> <li>Rejuvenate the skin</li> </ul> </div> </div> <div> <h4><strong>Description:</strong></h4> <p>Cripple Cream contains aloe vera, wheat germ oil, allantoin and cocoa butter that are known by creating additional moisture for the skin. It helps to rejuvenate the skin and maintains softness.</p> </div> <div> <h4><strong>Benefits:</strong></h4> <ul> <li>Helps to soothe the skin</li> <li>Moisturize and fight skin aging</li> <li>Increases the skin elasticity</li> </ul> </div> <div> <h4><strong>How to use:</strong></h4> <ul> <li>Rub a small amount of the cream on the affected areas.</li> </ul> </div>",65.95,2,Cripple,M.N.B Company,N/A,50 G,Adults,Unisex,Y,PERSONAL CARE///Skin Care///Body Moisturizer,Cripple Cream 50 g.jpg,Common Vendor,
