Product Code,Package Name,Description,Price,Stock,OTC,Category,Product Image,Vendor
PRO-ILL-601-301,PROFORM 105 CST TREADMILL,"<h3><strong>DESCRIPTION</strong></h3> <ul> <li>ProShox Cushioning</li> <li>Heart rate measurement</li> <li>Thumb pulse sensor</li> <li>5 inch high contrast, multi-colour display</li> <li>Safety key for secure operation</li> <li>Energy saving mode</li> <li>Foldable design</li> <li>iFit® Bluetooth Smart (Ble) Connectivity</li> </ul> <h3><strong>SPECIFICATIONS</strong></h3> <ul> <li>6 preset workouts to choose from</li> <li>Speed: 0-16 km/h with digital quick speed control</li> <li>Inclination: 1.5 - 6%</li> <li>Dimensions: 163L x 76W x 138H cm</li> <li>Max. user capacity: 115 kg</li> <li>Product weight: 53 kg</li> <li>Warranty: 1 year</li> <li>Available only in UAE</li> <li>Free Installation</li> <li>",2995,2,Y,FITNESS///Cardio Equipment,PROFORM 105 CST TREADMILL.jpg,Common Vendor
PRO-ILL-602-302,PROFORM 375I PERFORMANCE TREADMILL,"<h3><strong>DESCRIPTION</strong></h3> <ul> <li>Powered, automatic incline adjustability for best leg workout</li> <li>Patented shock absorbers and cushioning for minimum impact on joints</li> <li>On-board workout programmes designed by personal trainers help meet your fitness goals</li> <li>SpaceSaver design allows you to easily fold the deck up</li> <li>EasyLift Assist lets you you lift deck with an easy push</li> </ul> <h3><strong>SPECIFICATIONS</strong></h3> <ul> <li>EKG grip pulse heart rate sensor gives instant readings for performance training</li> <li>Speed: 0-16 Kph Digital QuickSpeed® Control</li> <li>Incline: 10% Digital Quick Incline Control</li> <li>Tread Belt: 46 x 127 cm</li> <li>Weight Capacity: 125 kg</li> <li>Warranty: 1 year</li> <li>Available only in UAE</li> <li>Free Installation</li> </ul>",4495,2,Y,FITNESS///Cardio Equipment,PROFORM 375I PERFORMANCE TREADMILL.jpg,Common Vendor
NOR-ILL-603-303,NORDIC TRACK COMMERCIAL 1750 TREADMILL,"<h3><strong>DESCRIPTION</strong></h3> <ul> <li>Powered, automatic incline adjustability for best leg workout</li> <li>10 inch interactive HD OneTouch® touchscreen</li> <li>Runners Flex cushioning softens impact on your joints</li> <li>Dual AutoBreeze Workout Fans</li> <li>SpaceSaver® fold-able design with EasyLift Assist</li> <li>EKG grip pulse heart rate sensor</li> </ul> <h3><strong>SPECIFICATIONS</strong></h3> <ul> <li>On-demand workouts feature LIVE Interactions</li> <li>Speed: 0-22 Kph</li> <li>Incline: 15% Incline-Matching Tech</li> <li>Motor: 3.75 CHP</li> <li>Tread Belt: 55 x 152 cm</li> <li>User Weight Capacity: 135 kg</li> <li>Dimension: 200 L x 99 W x 160 H</li> <li>Warranty: 1 year</li> <li>Available only in UAE</li> <li>Free Installation</li> </ul>",40495,2,Y,FITNESS///Cardio Equipment,NORDIC TRACK COMMERCIAL 1750 TREADMILL.jpg,Common Vendor
PRO-ILL-604-304,PROFORM 705 CST TREADMILL,"<h3><strong>DESCRIPTION</strong></h3> <ul> <li>22 workout programmes to help you meet your fitness goals</li> <li>ProShox cushioning reduces pressure on knees and joints</li> <li>5-inch display for tracking progress</li> <li>iFit bluetooth compatibility, two 2-inch speakers and integrated tablet holder</li> <li>SpaceSaver design allows you to easily fold it up</li> </ul> <h3><strong>SPECIFICATIONS</strong></h3> <ul> <li>EKG heart rate sensors in hand grip</li> <li>Speed: 0-12 Mph (20 Kph approx.)</li> <li>Incline: 0-12%</li> <li>Tread Belt: 20 x 60 inches</li> <li>Weight Capacity: 147 kg</li> <li>Motor: 2.75 CHP</li> <li>Dimensions: 61L x 36.5W x 79H inches</li> <li>Product Weight: 91 kg</li> <li>Warranty: 1 year</li> <li>Available only in UAE</li> <li>Free Installation</li> </ul>",5495,2,Y,FITNESS///Cardio Equipment,PROFORM 705 CST TREADMILL.jpg,Common Vendor
TEE-BLE-605-305,TEETER FITSPINE LX9 INVERSION TABLE,"<h3><strong>DESCRIPTION</strong></h3> <ul> <li>Helps with spine flexibility and decompression</li> <li>FlexTech Bed lengthens and stretches your spine</li> <li>Acupressure nodes &amp; lumbar bridge Included</li> <li>Hinge design is engineered for effortless, smooth movement</li> <li>Grip-and-Stretch handholds</li> <li>Ergo-Embrace supports distributes weight evenly around feet and heel</li> </ul> <h3><strong>SPECIFICATIONS</strong></h3> <ul> <li>Boarding base frame for easy mounting and dismounting and non-skid raised boarding platform</li> <li>Deluxe EZ-Reach ankle system for firm ankle grip and gravity-activated safety lock</li> <li>Stretch Max handles provide enhanced user assistance and stretching options</li> <li>EZ-Stretch Traction Handles with push on the ends for a quick-release from full inversion</li> <li>Warranty: 1 year</li> <li>Available only in UAE</li> <li>Free Installation</li> </ul>",2295,2,Y,FITNESS///Cardio Equipment,TEETER FITSPINE LX9 INVERSION TABLE.jpg,Common Vendor
NOR-ILL-606-306,NORDIC TRACK COMMERCIAL 2950 TREADMILL,<h3><strong>DESCRIPTION</strong></h3> <ul> <li>22 inch touchscreen</li> <li>Dual Autobreeze workout fan</li> <li>Flex Select cushioning allows for comfortable runs</li> <li>SpaceSaver® fold-able design with EasyLift Assist</li> <li>EKG Grip Pulse heart rate sensor</li> <li>iFit® Bluetooth Smart (Ble) Connectivity</li> </ul> <h3><strong>SPECIFICATIONS</strong></h3> <ul> <li>40 preset workouts to choose from</li> <li>4.25 CHP DurX Commercial Plus Motor</li> <li>Tread belt: 60 L x 22 W inches</li> <li>Speed: 0-12 km/h with digital quick speed control</li> <li>Inclination: -3 to 15%</li> <li>Dimensions: 80 L x 40 W x 67 H inches</li> <li>Max. user capacity: 300 lbs</li> <li>Warranty: 1 year</li> <li>Available only in UAE</li> <li>Free Installation</li> </ul>,14995,2,Y,FITNESS///Cardio Equipment,NORDIC TRACK COMMERCIAL 2950 TREADMILL.jpg///NORDIC TRACK COMMERCIAL 2950 TREADMILL1.jpg///NORDIC TRACK COMMERCIAL 2950 TREADMILL2.jpg,Common Vendor
NOR-IKE-607-307,NORDIC TRACK VR21 RECUMBENT BIKE,"<h3><strong>DESCRIPTION</strong></h3> <ul> <li>Ideal for strengthening your back, legs, hamstrings, quadriceps and thigh muscles</li> <li>5-inch display, iFit® connectivity, OneTouch controls and two 2-inch speakers</li> <li>Water bottle and tablet holder</li> <li>Recumbent design offers back support</li> <li>AutoBreeze workout fan</li> <li>Extra-wide ergonomic pedals and lumbar-supported cushioned seat with adjustment</li> <li>32 preset workouts designed by certified trainers</li> <li>Offers smooth operation on a 9 kg effective flywheel</li> <li>25 digital resistance levels</li> </ul> <h3><strong>SPECIFICATIONS</strong></h3> <ul> <li>EKG dual-grip pulse heart rate sensor</li> <li>SMR Silent Magnetic Resistance for smooth workouts</li> <li>Weight Capacity: 125 kg</li> <li>Assembled Dimensions: 155 L x 59 W x 132 H cm</li> <li>Product Weight: 68 kg</li> <li>Warranty: 1 year (3 months for components)</li> <li>Available only in UAE</li> <li>Free Installation</li> </ul>",4195,2,Y,FITNESS///Cardio Equipment,NORDIC TRACK VR21 RECUMBENT BIKE.jpg,Common Vendor
PRO-ILL-608-308,PROFORM 400I PERFORMANCE TREADMILL,<h3><strong>DESCRIPTION</strong></h3> <ul> <li>EKG heart rate sensor</li> <li>7-inch display and integrated tablet holder</li> <li>iFit technology allows you to virtually train with professional coaches</li> </ul> <h3><strong>SPECIFICATIONS</strong></h3> <ul> <li>Speed: 0-16 Kph</li> <li>Incline: 0-10%</li> <li>Tread Belt: 46 x 127 cm</li> <li>Weight Capacity: 136 kg</li> <li>Motor: 2.0 CHP</li> <li>Dimensions: 165 x 81 x 140 cm</li> <li>Product Weight: 67 kg</li> <li>Warranty: 1 year</li> <li>Available only in UAE</li> <li>Free Installation</li> </ul>,5995,2,Y,FITNESS///Cardio Equipment,PROFORM 400I PERFORMANCE TREADMILL.jpg///PROFORM 400I PERFORMANCE TREADMILL1.jpg,Common Vendor
NOR-IKE-609-309,NORDIC TRACK GX 4.4 PRO UPRIGHT EXERCISE BIKE,<h3><strong>DESCRIPTION</strong></h3> <ul> <li>Upright frame design gives your leg muscles a challenging and fat-burning cardio workout</li> <li>Offers smooth operation on a 7.2kg effective flywheel</li> <li>25 different resistance levels</li> <li>Extra-wide ergonomic pedals and oversized cushioned seat offer comfort</li> <li>30 preset workouts designed by certified trainers</li> <li>5-inch display and iFit COACH technology</li> <li>Water bottle and integrated tablet holder</li> </ul> <h3><strong>SPECIFICATIONS</strong></h3> <ul> <li>EKG grip pulse heart rate sensor</li> <li>AutoBreeze workout fan</li> <li>Weight Capacity: 136 kg</li> <li>Assembled Dimensions: 42L x 23W x 61.5H inches</li> <li>Warranty: 1 year (3 months for components)</li> <li>Available only in UAE</li> <li>Free Installation</li> </ul>,3495,2,Y,FITNESS///Cardio Equipment,NORDIC TRACK GX 4.4 PRO UPRIGHT EXERCISE BIKE.jpg///NORDIC TRACK GX 4.4 PRO UPRIGHT EXERCISE BIKE1.jpg///NORDIC TRACK GX 4.4 PRO UPRIGHT EXERCISE BIKE2.jpg,Common Vendor
NOR-IKE-610-310,NORDIC TRACK COMMERCIAL S10I STUDIO BIKE,"<h3><strong>DESCRIPTION</strong></h3> <ul> <li>Inertia-enhanced flywheel, PowerGrade drive system and Flex frame deliver a smooth cycling experience</li> <li>22 digital resistance levels</li> <li>Ergonomic pedals and cushioned seat offer comfort</li> <li>Preset workouts designed by certified trainers</li> <li>10-inch display, iFit COACH technology, OneTouch controls, dual 2-inch speakers and bluetooth connectivity</li> </ul> <h3><strong>SPECIFICATIONS</strong></h3> <ul> <li>EKG dual-grip pulse heart rate sensor</li> <li>AutoBreeze workout fan</li> <li>Decline/Incline: -10%-20%</li> <li>Weight Capacity: 150 kg</li> <li>Assembled Dimensions: 140L x 55W x 141H cm</li> <li>Product Weight: 80kg</li> <li>Warranty: 1 year (3 months for components)</li> <li>Available only in UAE</li> <li>Free Installation</li> </ul>",8995,2,Y,FITNESS///Cardio Equipment,NORDIC TRACK COMMERCIAL S10I STUDIO BIKE.jpg///NORDIC TRACK COMMERCIAL S10I STUDIO BIKE1.jpg,Common Vendor
BOW-M6I-611-311,BOWFLEX MAX TRAINER M6I,<h3><strong>DESCRIPTION</strong></h3> <ul> <li>With 16 levels of resistance</li> <li>Unique burn rate display allows you to track your progress</li> <li>Integrated contact grips with heart rate monitor</li> <li>Magnetic media rack for tablet or smartphone and USB charging port</li> <li>Bluetooth heart rate compatible</li> <li>Connectivity for up to 2 individual users</li> </ul> <h3><strong>SPECIFICATIONS</strong></h3> <ul> <li>Connects with JRNY app</li> <li>Weight Capacity: 136 kg</li> <li>Minimum Ceiling Height: User height + 38 cm</li> <li>Product Weight: 67 kg</li> <li>Dimensions: 117L X 66W x 163H cm</li> <li>Warranty: 1 year</li> <li>Available only in UAE</li> <li>Free Installation</li> </ul>,7495,2,Y,FITNESS///Cardio Equipment,BOWFLEX MAX TRAINER M6I.jpg///BOWFLEX MAX TRAINER M6I1.jpg///BOWFLEX MAX TRAINER M6I3.jpg///BOWFLEX MAX TRAINER M6I2.jpg,Common Vendor
NOR-LLS-612-312,NORDIC TRACK SPEEDWEIGHT ADJUSTABLE DUMBBELLS,<h3><strong>DESCRIPTION</strong></h3> <ul> <li>For unisex</li> <li>Ideal for wellness and easy to use</li> <li>Adjusts 1 to 5 kg</li> </ul> <h3><strong>SPECIFICATIONS</strong></h3> <ul> <li>Fits next to treadmill</li> <li>Quick adjustment system</li> </ul>,1495,2,Y,FITNESS///Strength Equipment,NORDIC TRACK SPEEDWEIGHT ADJUSTABLE DUMBBELLS.jpg,Common Vendor
PRO-NER-613-313,PROFORM ENDURANCE 420E ELLIPTICAL TRAINER,"<h3><strong>DESCRIPTION</strong></h3> <div> <ul> <li>Allows to work both lower body and upper body muscles</li> <li>Front drive machine</li> <li>20 workout apps</li> <li>5-inch display, two 2-inch speakers and iFit connectivity</li> <li>Water bottle and tablet holder</li> </ul> <h3><strong>SPECIFICATIONS</strong></h3> <div> <ul> <li>EKG grip pulse heart rate sensor</li> <li>7kg of Effective Inertia</li> <li>20 digital resistance levels</li> <li>Stride length: 51cm</li> <li>Weight Capacity: 125 kg</li> <li>Assembled Dimensions: 171L x 67W x 176H cm</li> <li>Product Weight: 86kg</li> <li>Warranty: 1 year</li> <li>Available only in UAE</li> <li>Free Installation</li> </ul> </div> </div>",3495,2,Y,FITNESS///Cardio Equipment,PROFORM ENDURANCE 420E ELLIPTICAL TRAINER.jpg,Common Vendor
NOR-TEM-614-314,NORDIC TRACK FUSION CST SYSTEM,"<h3><strong>DESCRIPTION</strong></h3> <ul> <li>10 portal 10i tablet included</li> <li>Power and heart rate LED display</li> <li>Ergonomic, removable handles</li> <li>Six precision cable ends</li> <li>Two ankle strap accessories</li> <li>Free standing base</li> <li>Integrated tablet and smartphone holder</li> </ul> <div> <h3><strong>SPECIFICATIONS</strong></h3> <ul> <li>Inertia-enhanced flywheel</li> <li>SMR Silent magnetic resistance</li> <li>95 independent cable travel</li> <li>20 power settings</li> <li>Two squat pulleys included</li> <li>Dimension: 41L x 60W x 74H inches</li> <li>Warranty: 1 year</li> <li>Available only in UAE</li> <li>Free Installation</li> </ul> </div>",10995,2,Y,FITNESS///Strength Equipment,NORDIC TRACK FUSION CST SYSTEM.jpg///NORDIC TRACK FUSION CST SYSTEM2.jpg///NORDIC TRACK FUSION CST SYSTEM1.jpg,Common Vendor
NOR-INE-615-315,NORDIC TRACK RW900 ROWING MACHINE,"<h3><strong>DESCRIPTION</strong></h3> <ul> <li>Inertia-enhanced flywheel, delivers a smooth experience</li> <li>Ergonomic seat, oversized pivot pedals and SoftTouch handle</li> <li>30 pre-set workouts</li> <li>22-inch Touchscreen</li> <li>Two digitally amplified speakers</li> <li>iFit® Bluetooth compatibility</li> <li>SpaceSaver® fold-able design with transport wheels</li> </ul> <div> <h3><strong>SPECIFICATIONS</strong></h3> <ul> <li>SMR Silent Magnetic Resistance</li> <li>Resistance: 26 digital levels</li> <li>Weight Capacity: 130 kg</li> <li>Assembled Dimensions: 219L x 55W x 128H cm</li> <li>Product Weight: 59 kg</li> <li>Warranty: 1 year</li> <li>Available only in UAE</li> <li>Free Installation</li> </ul> </div>",7995,2,Y,FITNESS///Strength Equipment,NORDIC TRACK RW900 ROWING MACHINE.jpg,Common Vendor
EVE-RIP-616-316,EVERLAST ADJUSTABLE HIGH TENSION HAND GRIP,<h3><strong>DESCRIPTION</strong></h3> <ul> <li>Develop hand and wrist strength while sculpting forearms</li> <li>High tension level for strengthening</li> </ul> <div> <h3><strong>SPECIFICATIONS</strong></h3> <ul> <li>Specially designed handles for increased durability</li> <li>20-90 lbs of resistance</li> </ul> </div>,55,2,Y,FITNESS///Strength Equipment,EVERLAST ADJUSTABLE HIGH TENSION HAND GRIP.jpeg,Common Vendor
EVE-RIP-617-317,EVERLAST ADJUSTABLE LOW TENSION HAND GRIP,<h3><strong>DESCRIPTION</strong></h3> <ul> <li>Develop hand and wrist strength while sculpting forearms</li> <li>Low tension level for strengthening</li> </ul> <div> <h3><strong>SPECIFICATIONS</strong></h3> <ul> <li>Specially designed handles for increased durability</li> <li>10-40 lbs of resistance</li> </ul> </div>,55,2,Y,FITNESS///Strength Equipment,EVERLAST ADJUSTABLE LOW TENSION HAND GRIP.jpg,Common Vendor
BOD-IPS-618-318,BODY SCULPTURE SOFT HAND GRIPS,"<h3><strong>DESCRIPTION</strong></h3> <ul> <li>An efficient strategy to condition full hand strength, these sturdy workout tools enhance your grip strength by adding resistance.</li> <li>The soft handles are great for long term toughness while the spring steels deliver consistent pressure as you start squeezing your way to improved endurance.</li> </ul> <div> <h3><strong>SPECIFICATIONS</strong></h3> <ul> <li>2 piece set</li> <li>Helps you work on your strength from anywhere</li> <li>Portable design</li> </ul> </div>",20,2,Y,FITNESS///Strength Equipment,BODY SCULPTURE SOFT HAND GRIPS.jpg,Common Vendor
BOD-BAR-619-319,BODY SCULPTURE SIT UP BAR,"<h3><strong>DESCRIPTION</strong></h3> <ul> <li>With a quick and easy installation, this sit up bar provides 3 levels of step height to help you tone and strengthen muscles with tried and true techniques.</li> <li>The oversized clamp can be fixed to any doorway to give you the option of doing a variety of core strengthening exercises.</li> </ul> <div> <h3><strong>SPECIFICATIONS</strong></h3> <ul> <li>Footboard length: 26.5cm</li> <li>Dimensions: 19 x 32cm</li> </ul> </div>",52,2,Y,FITNESS///Strength Equipment,BODY SCULPTURE SIT UP BAR.jpg,Common Vendor
PRO-RIP-620-320,PROFORM ADJUSTABLE HEAVY TENSION HAND GRIP,<h3><strong>DESCRIPTION</strong></h3> <ul> <li>Increases grip strength and strengthen chest and arm muscles</li> <li>Adjustable with 5 levels of tension</li> <li>3 length options ensures ergonomic grip</li> </ul> <div> <h3><strong>SPECIFICATIONS</strong></h3> <ul> <li>Comfortable soft handle</li> <li>Padded hand grip</li> </ul> </div>,85,2,Y,FITNESS///Strength Equipment,PROFORM ADJUSTABLE HEAVY TENSION HAND GRIP.jpg,Common Vendor
EVE-BAG-621-321,EVERLAST CARDIO FITNESS PUNCHING BAG,<h3><strong>DESCRIPTION</strong></h3> <ul> <li>Easy assembly</li> <li>Durable construction for strikes</li> <li>Heavy duty spring neck for quick and responsive rebound</li> </ul> <div> <h3><strong>SPECIFICATIONS</strong></h3> <ul> <li>Height: 64 inches at highest setting</li> <li>Weight: 14.5kg approx. when filled with water</li> <li>Available only in UAE</li> <li>Free Installation</li> </ul> </div>,345,2,Y,FITNESS///Cardio Equipment,EVERLAST CARDIO FITNESS PUNCHING BAG.jpg,Common Vendor
BOD-OPE-622-322,BODY SCULPTURE SKIPPING ROPE,"<h3><strong>DESCRIPTION</strong></h3> <ul> <li>Improves cardio endurance</li> <li>Secure grip helps in maintaining speed during workouts</li> <li>Ideal for professionals, amateurs as well as kids</li> </ul> <div> <h3><strong>SPECIFICATIONS</strong></h3> <ul> <li>Easy to grip</li> <li>Rope Length: 275 cm</li> </ul> </div>",27,2,Y,FITNESS///Cardio Equipment,BODY SCULPTURE SKIPPING ROPE.jpg,Common Vendor
BOD-AND-623-323,BODY SCULPTURE LATEX AEROBIC BAND,"<h3><strong>DESCRIPTION</strong></h3> <ul> <li>Helping you get stronger and limber by adding resistance to exercises, this latex band helps you work on small muscle groups to get the toning and definition you desire!</li> <li>The durable and compact construction stretches your upper and lower body to get maximum results with the most minimum equipment.</li> </ul> <div> <h3><strong>SPECIFICATIONS</strong></h3> <ul> <li>Quick and efficient workout</li> <li>Thickness: 0.50mm</li> <li>Dimensions: 150 x 15 cm</li> </ul> </div>",27,2,Y,FITNESS///Strength Equipment,BODY SCULPTURE LATEX AEROBIC BAND.jpg,Common Vendor
BOD-RIP-624-324,BODY SCULPTURE SQUEEZE GRIP,"<h3><strong>DESCRIPTION</strong></h3> <ul> <li>Helps to reduce stress and improves blood circulation</li> <li>Strengthens hands, wrists and forearms</li> </ul> <div> <h3><strong>SPECIFICATIONS</strong></h3> <ul> <li>Easy to grip</li> <li>Material composition: Silica Gel</li> </ul> </div>",40,2,Y,FITNESS///Strength Equipment,BODY SCULPTURE SQUEEZE GRIP.jpg,Common Vendor
BOD-ALL-625-325,BODY SCULPTURE SQUEEZE BALL,"<h3><strong>DESCRIPTION</strong></h3> <ul> <li>Squeezing your stress away, this all-purpose workout tool enhances your grip and motor skills by making your fingers, hands and forearms more stronger.</li> <li>This handy dandy ball fits perfectly in your hand and allows you to crush, smash and toss your stiffness and joint pain away along with all your worries!</li> </ul> <div> <h3><strong>SPECIFICATIONS</strong></h3> <ul> <li>Improves blood circulation</li> <li>Compact and portable</li> <li>Retains shape</li> </ul> </div>",16,2,Y,FITNESS///Strength Equipment,BODY SCULPTURE SQUEEZE BALL.jpg,Common Vendor
SKL-PRO-626-326,SKLZ LATERAL RESISTOR PRO,"<h3><strong>DESCRIPTION</strong></h3> <ul> <li>Includes ankle cuffs (2), resistance bands (2) and SackPack DLX carry bag</li> <li>Heavy-duty nylon webbing and adjustable Velcro ankle cuffs</li> <li>Easy to wear and remove</li> </ul> <div> <h3><strong>SPECIFICATIONS</strong></h3> <ul> <li>Includes an additional resistance band for increased resistance up to 40+ lbs</li> <li>Product Dimensions: 3 L x 7 W x 6 H inches (approx.)</li> </ul> </div>",145,2,Y,FITNESS///Strength Equipment,SKLZ LATERAL RESISTOR PRO.jpg,Common Vendor
KET-SET-627-327,KETTLER REACTION BALL SET,"<h3><strong>DESCRIPTION</strong></h3> <ul> <li>Made from durable rubber in a six-hemisphere design</li> <li>Creates unpredictable bounce, leaping and popping randomly</li> <li>Works well on hard surfaces such as grass, wood, asphalt, clay, even dirt</li> <li>Improves reaction time, reflexes and hand-eye coordination</li> <li>Good for: baseball, football and basketball training</li> </ul> <div> <h3><strong>SPECIFICATIONS</strong></h3> <ul> <li>Set of 2 reaction balls</li> <li>Diameter of balls: 10 cm</li> </ul> </div>",58,2,Y,FITNESS///Strength Equipment,KETTLER REACTION BALL SET.jpg,Common Vendor
BOD-DVD-628-328,BODY SCULPTURE CORE TRIMMER WITH DVD,"<h3><strong>DESCRIPTION</strong></h3> <ul> <li>Engaging muscles in the lower, middle and upper abs as well as your obliques, this effective workout system strengthens your complete core.</li> <li>The instructional DVD and Wall Exercise Chart show different routines and exercises to tone arms and legs too.</li> </ul> <div> <h3><strong>SPECIFICATIONS</strong></h3> <ul> <li>Can be folded when not in use</li> <li>Compact and portable</li> <li>Maximum 120kg user weight allowed</li> <li>Dimensions: 43 x 55 x 37cm</li> </ul> </div>",260,2,Y,FITNESS///Strength Equipment,BODY SCULPTURE CORE TRIMMER WITH DVD.jpg,Common Vendor
BOD-NER-629-329,BODY SCULPTURE TOTAL BODY SUSPENSION TRAINER,"<h3><strong>DESCRIPTION</strong></h3> <p>The Total Body Suspension Trainer by Body Sculpture is an exercising tool that allows both indoor and outdoor workouts. Featuring adjustable nylon straps, this machine helps both begginers and athletes to get great results as it boosts strength and cardiovascular workouts.</p> <ul> <li>Adjustable nylon straps</li> <li>Highly durable</li> <li>Allows for many kinds of exercises</li> <li>Recommended for both begginers and athletes</li> </ul>",230,2,Y,FITNESS///Strength Equipment,BODY SCULPTURE TOTAL BODY SUSPENSION TRAINER.jpg,Common Vendor
PTP-ALL-630-330,PTP REACTION BALL,<h3><strong>DESCRIPTION</strong></h3> <ul> <li>Simulate fast-paced game situations and build up your hand-eye coordination by choosing to workout with this super compact reaction ball.</li> <li>The six-sided design creates an erratic bounce effect which tests your reaction time in changing pace and footwork in retrieving the ball back in the least possible time.</li> </ul>,49,2,Y,FITNESS///Strength Equipment,PTP REACTION BALL.jpg,Common Vendor
BOD-AND-631-331,BODY SCULPTURE PILATES BAND,<h3><strong>DESCRIPTION</strong></h3> <ul> <li>Add this band to your Pilates routine to get the ultimate sculpting tool for your bodys resistance training.</li> <li>The toe straps and hand grips keep the strap in place as you get to work while the exercises depicted on the strap itself give you ample of motivation to mix up your routine everyday!</li> </ul> <h3><strong>SPECIFICATIONS</strong></h3> <div> <ul> <li>Increases difficulty of stretches and lunges to result in toned muscles</li> <li>Portable and compact construction allows you take it on the go</li> <li>Thickness: 0.65mm</li> </ul> </div>,42,2,Y,FITNESS///Strength Equipment,BODY SCULPTURE PILATES BAND.jpg,Common Vendor
PTP-LEX-632-332,PTP RECOVERY PACK MYO-X2/STRETCHING STRAP/TRIFLEX,"<h3><strong>DESCRIPTION</strong></h3> <ul> <li>Get those tired muscles working in top-notch order again, be it after a workout or long days at the office, with this handy and user-friendly 3 piece pack.</li> <li>The Myo-X2 massager targets sore muscles in the neck, back and calves while the stretching strap and triflex assist in relaxing muscles with targeted presusure.</li> </ul> <h3><strong>SPECIFICATIONS</strong></h3> <ul> <li>Latex and rubber free</li> <li>Recommended for rehab and injury prevention</li> <li>Informative poster included</li> </ul>",229,2,Y,FITNESS///Strength Equipment,PTP RECOVERY PACK MYO-X2 STRETCHING STRAP TRIFLEX.jpg,Common Vendor
IRO-IPS-633-333,IRON GYM HAND GRIPS,"<h3><strong>DESCRIPTION</strong></h3> <p>The Iron Gym Hand Grips for unisex strengthens your grip and is the perfect tool for all aspiring athletes. Using the efficient strategy of working the muscles in your hand, fingers, wrist and forearm, the heavy-duty steel resistance provides adequate pressure every time you squeeze its anti-slip handles.</p> <h3><strong>SPECIFICATIONS</strong></h3> <ul> <li>Strengthens grip</li> <li>Anti-slip handles</li> <li>Pocket sized</li> <li>Steel spring resistance</li> </ul>",27,2,Y,FITNESS///Strength Equipment,IRON GYM HAND GRIPS.jpg///IRON GYM HAND GRIPS1.jpg,Common Vendor
BOD-ENT-634-334,BODY SCULPTURE GYM WORKER WITH DVD (STEPPER),"<p><strong>DESCRIPTION</strong></p> <ul> <li>Letting you try your hand at 18 different types of exercises, this all in one workout machine helps you practice aerobic steps, pressure exercises and much more!</li> <li>The removable handles work on double duty as dumbbells while the instructional DVD provides guidance as you sculpt the physique you have wanted for so long.</li> </ul> <p><strong>SPECIFICATIONS</strong></p> <ul> <li>Maximum user weight: 100kg</li> <li>Dimensions: 16 x 68 x 36.5cm</li> <li>Multifunction pockets store accessories</li> <li>Inclusive of carry case</li> </ul>",129,2,Y,FITNESS///Cardio Equipment,BODY SCULPTURE GYM WORKER WITH DVD (STEPPER).jpg///BODY SCULPTURE GYM WORKER WITH DVD (STEPPER)1.jpg///BODY SCULPTURE GYM WORKER WITH DVD (STEPPER)2.jpg///BODY SCULPTURE GYM WORKER WITH DVD (STEPPER)3.jpg///BODY SCULPTURE GYM WORKER WITH DVD (STEPPER)4.jpg,Common Vendor
NOR-ENT-635-335,NORDIC TRACK SPACESAVER® SE7I ELLIPTICAL CROSS TRAINER,<p><strong>DESCRIPTION</strong></p> <ul> <li>5 inch backlit screen display</li> <li>Autobreeze&trade; workout fan</li> <li>Tablet and bottle holder</li> <li>SpaceSaver&reg; fold-able design with transport wheels</li> <li>EKG Grip Pulse heart rate sensor</li> <li>18 inch stride length</li> <li>iFit&reg; Bluetooth connectivity</li> </ul> <p><strong>SPECIFICATIONS</strong></p> <ul> <li>22 digital resistance levels</li> <li>8 kg of effective inertia for a smooth motion</li> <li>SMR&trade; Silent Magnetic Resistance</li> <li>Max. user weight: 325 lbs</li> <li>Dimensions: 80 L x 32 W x 71 H inches</li> <li>Inclination: 0 to 10%</li> <li>Warranty: 1 year</li> <li>Available only in UAE</li> <li>Free Installation</li> </ul>,4995,2,Y,FITNESS///Cardio Equipment,NORDIC TRACK SPACESAVER® SE7I ELLIPTICAL CROSS TRAINER.jpg///NORDIC TRACK SPACESAVER® SE7I ELLIPTICAL CROSS TRAINER1.jpg,Common Vendor
BOD-ENT-636-336,BODY SCULPTURE RUNNING VEST,<p><strong>DESCRIPTION</strong></p> <p><strong>The Body Sculpture Running Vest for men and women features reflective elements on the front and the back for added safety during your training sessions out and about during low visibility scenarios.</strong></p> <p><strong>SPECIFICATIONS</strong></p> <ul> <li>Reflective strips on the back and the front</li> <li>Breathable and quick drying</li> <li>Mesh material</li> <li>One size fits all</li> </ul>,27,2,Y,FITNESS///Strength Equipment,BODY SCULPTURE RUNNING VEST.jpg///BODY SCULPTURE RUNNING VEST1.jpg,Common Vendor
BOD-ENT-637-337,BODY SCULPTURE FITNESS BELT,"<p><strong>DESCRIPTION</strong></p> <p>The Body Sculpture Fitness Belt is made with high-quality leather and comes with well-padded lining for good back support and protects you from having an injury especially during weightlifting. Cushioned on the inside for better comfort, the belt provides adjustability and leaves you with a good fit.</p> <ul> <li>Adjustable for a good fit</li> <li>Comfortable interior layer</li> <li>Great back support to avoid injuries</li> <li>Recommended for weight lifters</li> <li>Material Composition: Leather and Textiles</li> </ul> ",48,2,Y,FITNESS///Strength Equipment,BODY SCULPTURE FITNESS BELT.jpg,Common Vendor
IRO-ENT-638-338,IRON GYM PUSH UP MAX,"<p><strong>DESCRIPTION</strong></p> <div> <div> <div> <p>Tone your chest, arms, shoulders and your back with Iron Gym&reg; Push Up Max. Including a revolutionary 3 in 1 functionality, the push up routine allows you to improve your muscles and enhances your performance by reducing strain on your wrists and joints. Push Up Max comes with an additional elevation rack to intensify your workout and instability discs to further challenge your core.</p> <ul> <li>A set of two rotating grips, elevation racks and instability discs</li> <li>Elevation racks intensify your workout</li> <li>Instability discs challenge your core</li> </ul> </div> </div> </div>",205,2,Y,FITNESS///Strength Equipment,IRON GYM PUSH UP MAX.jpg///IRON GYM PUSH UP MAX1.jpg///IRON GYM PUSH UP MAX2.jpg,Common Vendor
PRO-ENT-639-339,PROFORM TRICEPS PUSH-UP STAND,<p><strong>DESCRIPTION</strong></p> <div> <div> <div> <ul> <li>Simulates an unstable surface to increase muscle activation and improve strength</li> <li>Handles adjust from narrow to wide</li> <li>Workout DVD included</li> </ul> <p><strong>SPECIFICATIONS</strong></p> <ul> <li>Unique design with a rounded platform</li> <li>Perfect for at home workouts</li> <li>Activates the core</li> </ul> </div> </div> </div>,142,2,Y,FITNESS///Strength Equipment,PROFORM TRICEPS PUSH-UP STAND.jpg,Common Vendor
IRO-ENT-640-340,IRON GYM IRON GRIP WITH WRIST SUPPORT,"<p><strong>DESCRIPTION</strong></p> <p><strong>Work beyond your grip strength with the Iron Gym Iron Grip With Wrist Support for men and women. Take the burden off your fingers and forearms and transfer it to your shoulders, back, arms and traps.</strong></p> <div> <div> <div> <p><strong>SPECIFICATIONS</strong></p> <ul> <li>Solid steel hooks coated with non-slip material</li> <li>High quality velcro fastening</li> <li>Moisture-free slip-proof grip</li> <li>Durable, lightweight, compact and portable</li> <li>Heavy duty quality webbing</li> </ul> </div> </div> </div>",75,2,Y,FITNESS///Strength Equipment,IRON GYM IRON GRIP WITH WRIST SUPPORT.jpg///IRON GYM IRON GRIP WITH WRIST SUPPORT1.jpg,Common Vendor
PTP-ENT-641-341,PTP ULTIMATE SUPERBAND,"<p><strong>DESCRIPTION</strong></p> <p>The PTP Ultimate Superband allows you to strengthen your core, lats, shoulders, biceps, triceps and pectoral muscles more easily. This superband provides a span of 54.4-79.5kg worth of resistance, suitable for beginners and heavy individuals who need maximum leverage to lift their own body weight.</p> <p><strong>SPECIFICATIONS</strong></p> <ul> <li>To gain incredible strength, speed, agility and flexibility</li> <li>Helps you lift your own body weight for assisted chin-ups, pull-ups and dips</li> <li>Can be used to run against the resistance for explosive training</li> <li>Premium quality latex, manufactured through a continuous layering process</li> <li>6.4cm wide</li> </ul>",239,2,Y,FITNESS///Strength Equipment,PTP ULTIMATE SUPERBAND.jpg///PTP ULTIMATE SUPERBAND1.jpg,Common Vendor
PTP-ENT-642-342,PTP ANKLE STRAPS,"<p><strong>DESCRIPTION</strong></p> <p><strong>The PTP Ankle Straps represent a great starting point for your resistance training system. Compatible with the PTP PowerTube, these straps allow you to target your hips, thighs, glutes, and perform a wide range of Pilates exercises without needing a reformer machine.</strong></p> <p><strong>SPECIFICATIONS</strong></p> <ul> <li>Adjustable to any ankle sizes</li> <li>Soft neoprene fabrication provides maximum comfort</li> <li>Easy setup that only takes mere seconds with its velcro system</li> </ul>",69,2,Y,FITNESS///Strength Equipment,PTP ANKLE STRAPS.jpg,Common Vendor
IFI-ENT-643-343,IFIT RIP 60 - TRAINER,"<p><strong>DESCRIPTION</strong></p> <p>Get maximum muscle activation with Pro-Form's Rip:60. This item features suspension trainers along with 12 workout DVDs to give you an eight-week workout plan that's scientifically designed for a total-body program. It also features an 8-week nutrition guide along with a quick-start exercise chart.</p> <ul> <li>Ultimate suspension trainer</li> <li>12 workout DVDs for an eight week, total-body program</li> <li>8-week nutrition guide</li> <li>Certified quick-start exercise chart</li> <li>Easy storage and travel bag</li> <li>Sturdy aluminium bracket</li> <li>Durable nylon straps</li> <li>Door cover</li> <li>2 ankle straps with sliding handles</li> </ul> ",415,2,Y,FITNESS///Strength Equipment,IFIT RIP 60 - TRAINER.jpg,Common Vendor
BOD-ENT-644-344,BODY SCULPTURE PUSH UP BARS,"<p><strong>DESCRIPTION</strong></p> <p>Push up anywhere with the Body Sculpture Push Up Bars for men and women. Highly durable, lightweight with comfortable grip and non-slip base, these are great at home or on the go.</p> <ul> <li>Great for working arms, shoulders and back</li> <li>Comfortable hand grips</li> <li>Non-slip base</li> <li>Durable yet lightweight &ndash; ideal for moving around the home or on the go</li> </ul>",63,2,Y,FITNESS///Strength Equipment,BODY SCULPTURE PUSH UP BARS.jpg,Common Vendor
IFI-ENT-645-345,IFIT PRO-FORM SUSPENSION TRAINER,"<p><strong>DESCRIPTION</strong></p> <div> <div> <div>Suspension trainers are a great training tool for core workouts and developing biceps and the back. Try the durable and quality Pro-Form Suspension Trainer system that easily attaches to your door and ideal for home use. It helps improve upper and lower body strength, plus stability during exercises. <ul> <li>Fits most standard doors</li> <li>Nylon straps</li> <li>Foam-covered handles</li> </ul> </div> </div> </div> ",230,2,Y,FITNESS///Strength Equipment,IFIT PRO-FORM SUSPENSION TRAINER.jpg,Common Vendor
BOD-ENT-646-346,BODY SCULPTURE FITNESS BELT,"<p><strong>DESCRIPTION</strong></p> <div> <div> <div> <p>The Body Sculpture Fitness Belt is made with high-quality leather and comes with well-padded lining for good back support and protects you from having an injury especially during weightlifting. Cushioned on the inside for better comfort, the belt provides adjustability and leaves you with a good fit.</p> <ul> <li>Adjustable for a good fit</li> <li>Comfortable interior layer</li> <li>Great back support to avoid injuries</li> <li>Recommended for weight lifters</li> <li>Material Composition: Leather and Textiles</li> </ul> </div> </div> </div>",121,2,Y,FITNESS///Strength Equipment,BODY SCULPTURE FITNESS BELT.jpg,Common Vendor
PTP-ENT-647-347,PTP POWER HANDLES,<p><strong>DESCRIPTION</strong></p> <div> <div> <div> <ul> <li>Superior PTP custom grip for maximum comfort</li> <li>Built to last with heavy-duty inner and outer materials</li> <li>Extra-wide to accommodate all hand sizes</li> </ul> </div> </div> </div>,69,2,Y,FITNESS///Strength Equipment,PTP POWER HANDLES.jpg,Common Vendor
PTP-ENT-648-348,PTP ULTRA LIGHT MICROBAND,"<p><strong>DESCRIPTION</strong></p> <p><strong>Perfect for individuals seeking to start exercising or slowly returning to physical activity, the PTP Ultra Light Microband for men and women allows to gently tone up buttocks, condition shoulders and improve hip mobility.</strong></p> <p><strong>SPECIFICATIONS</strong></p> <ul> <li>Loop design promotes small range of motion</li> <li>For mobility, joint function, injury prevention or rehab</li> <li>Helps to improve sports specific movements and speed up recovery</li> <li>Ideal to target glutes, hips and shoulders and increase upper and lower body strength</li> <li>Recommended for beginners or those returning to mobility after injury</li> <li>Made from premium latex for unrivalled durability and performance</li> </ul>",65,2,Y,FITNESS///Strength Equipment,PTP ULTRA LIGHT MICROBAND.jpg///PTP ULTRA LIGHT MICROBAND1.jpg,Common Vendor
BOD-ENT-649-349,BODY SCULPTURE DIGITAL HAND GRIP,"<p><strong>DESCRIPTION</strong></p> <ul> <li>Helps to strengthen palms, wrists and forearms</li> <li>Digital counter helps track number of repetitions</li> </ul> <p><strong>SPECIFICATIONS</strong></p> <ul> <li>Non-slip handles for grip</li> <li>Easy to use and carry</li> </ul>",32,2,Y,FITNESS///Strength Equipment,BODY SCULPTURE DIGITAL HAND GRIP.jpg,Common Vendor
BOD-ENT-650-350,BODY SCULPTURE PUSH-UP HANDLES,"<p><strong>DESCRIPTION</strong></p> <ul> <li>Lightweight but sturdy construction</li> <li>Enhances muscle strength and develops power in shoulders, triceps, chest and core muscles</li> <li>Ideal for stability and joint exercises</li> </ul> <p><strong>SPECIFICATIONS</strong></p> <ul> <li>Ergonomic design reduces stress on wrists</li> <li>Easy to use and carry</li> </ul>",63,2,Y,FITNESS///Strength Equipment,BODY SCULPTURE PUSH-UP HANDLES.jpg,Common Vendor
BOD-ENT-651-351,BODY SCULPTURE RESISTANCE CABLE,<p><strong>DESCRIPTION</strong></p> <ul> <li>Resistance training tool is designed to train all major muscles</li> <li>Helps to build lean muscle mass to boost metabolism and burn fat</li> </ul> <p><strong>SPECIFICATIONS</strong></p> <ul> <li>Stretches and exercises can be performed in seated position</li> <li>Length: 300 cm</li> <li>Diameter: 9 x 4.6 mm</li> </ul>,28,2,Y,FITNESS///Strength Equipment,BODY SCULPTURE RESISTANCE CABLE.jpg,Common Vendor
BOD-ENT-652-352,BODY SCULPTURE RESISTANCE CABLE,<p><strong>DESCRIPTION</strong></p> <ul> <li>Resistance training tool is designed to train all major muscles</li> <li>Helps to build lean muscle mass to boost metabolism and burn fat</li> </ul> <p><strong>SPECIFICATIONS</strong></p> <ul> <li>Stretches and exercises can be performed in seated position</li> <li>Length: 300 cm</li> <li>Diameter: 9 x 3.6 mm</li> </ul>,30,2,Y,FITNESS///Strength Equipment,BODY SCULPTURE RESISTANCE CABLE1.jpg,Common Vendor
BOD-ENT-653-353,BODY SCULPTURE RESISTANCE CABLE,<p><strong>DESCRIPTION</strong></p> <ul> <li>Resistance training tool is designed to train all major muscles</li> <li>Helps to build lean muscle mass to boost metabolism and burn fat</li> </ul> <p><strong>SPECIFICATIONS</strong></p> <ul> <li>Stretches and exercises can be performed in seated position</li> <li>Length: 300 cm</li> <li>Diameter: 9 x 2.6 mm</li> </ul>,32,2,Y,FITNESS///Strength Equipment,BODY SCULPTURE RESISTANCE CABLE2.jpg,Common Vendor
PTP-ENT-654-354,PTP MICROBAND - HEAVY,<p><strong>DESCRIPTION</strong></p> <ul> <li>Helps to prevent injuries</li> <li>Great tool for experienced users</li> <li>Ideal for lower body exercises</li> </ul> <p><strong>SPECIFICATIONS</strong></p> <ul> <li>Designed with a reactive knit</li> <li>Machine washable</li> </ul>,95,2,Y,FITNESS///Strength Equipment,PTP MICROBAND - HEAVY.jpg,Common Vendor
NIK-ENT-655-355,NIKE WRIST WEIGHTS,"<p><strong>DESCRIPTION</strong></p> <ul> <li>Pack of two</li> <li>Anatomical design</li> <li>Adjustable strap with velcro closure gives a secure fit</li> </ul> <p><strong>SPECIFICATIONS</strong></p> <ul> <li>Dri-FIT lining wicks sweat away</li> <li>Weight: 0.45 kg each</li> <li>Material composition: 91% Iron, 7% Thermoplastic Rubber, 2% Polyester</li> </ul>",129,2,Y,FITNESS///Strength Equipment,NIKE WRIST WEIGHTS.jpg,Common Vendor
NIK-ENT-656-356,NIKE MEN'S PRO COMBAT 2.0 PATELLA BAND,"<p><strong>DESCRIPTION</strong></p> <ul> <li>Helps you to play with comfort and security</li> <li>Strategically placed padding absorbs shocks and vibrations</li> <li>Lightweight and breathable</li> </ul> <p><strong>SPECIFICATIONS</strong></p> <ul> <li>Elastic strap for a locked-in feel</li> <li>Material composition: 40% Nylon, 25% SBR, 18% Polyester, 6% Rubber, 5% CR, 3% EVA, 3% Spandex</li> </ul>",27,2,Y,FITNESS///Strength Equipment,NIKE MEN'S PRO COMBAT 2.0 PATELLA BAND.jpg,Common Vendor
BOD-ENT-657-357,BODY SCULPTURE GRIP MASTER,<p><strong>DESCRIPTION</strong></p> <ul> <li>Set of 2 pieces</li> <li>Combination of performance and aesthetic</li> <li>Fingerstrap for grip</li> </ul> <p><strong>SPECIFICATIONS</strong></p> <ul> <li>Soft upper prevents calluses on palm</li> <li>Textured underside provides firm grip during workouts</li> </ul>,19,2,Y,FITNESS///Strength Equipment,BODY SCULPTURE GRIP MASTER.jpg,Common Vendor
MEF-ENT-658-358,MEFITPRO RAGE PULL-UP ASSIST,"<p><strong>DESCRIPTION</strong></p> <ul> <li>Teaches and assists with proper pull up technique</li> <li>Bar Attachment Strap, delta quick Link and resistance bands</li> <li>Resistance Bands - 30 lbs. of Resistance each</li> </ul> <p><strong>SPECIFICATIONS</strong></p> <ul> <li>Heavy-duty pull up assist system</li> <li>Pull up bar NOT included</li> </ul>",235,2,Y,FITNESS///Strength Equipment,MEFITPRO RAGE PULL-UP ASSIST.jpg,Common Vendor
SKL-ENT-659-359,SKLZ HOPZ 2.0 VERTICAL JUMP TRAINER,<p><strong>DESCRIPTION</strong></p> <ul> <li>Strap on to build explosive leg power and strengthen jumping muscles</li> <li>Move resistance cables on belt to target specific muscles</li> <li>Change resistance cable quickly with patented Slide-Lock on belt and ankle straps</li> </ul> <p><strong>SPECIFICATIONS</strong></p> <ul> <li>Adjustable belt with side padding fits better and helps with proper cable placement</li> <li>Durable cables and ankle straps with built-in shoe harness keeps straps in place</li> </ul>,340,2,Y,FITNESS///Strength Equipment,SKLZ HOPZ 2.0 VERTICAL JUMP TRAINER.jpg,Common Vendor
IRO-ENT-660-360,IRON GYM ROTATING PUSH UP GRIPS,"<p><strong>DESCRIPTION</strong></p> <p><strong>Engage more muscles and maximize the results of your upper body workout with the Iron Gym Rotating Push Up Grips for unisex. Strengthening your shoulders, triceps and your chest muscles, the pushup stands help you perform exercises with minimal joint strain. The compact size allows easy portability.</strong></p> <p><strong>SPECIFICATIONS</strong></p> <ul> <li>Perform pushups with minimal joint strain</li> <li>Compact sized</li> </ul>",55,2,Y,FITNESS///Strength Equipment,IRON GYM ROTATING PUSH UP GRIPS.jpg,Common Vendor
PTP-ENT-661-361,PTP MICROBAND (3 PACK),"<p><strong>DESCRIPTION</strong></p> <ul> <li>With resistance capacities varying from Light, Medium and Heavy, the all in one 3 pack microbands suit all kinds of athletes at different fitness levels.</li> <li>Ideal for targeting hips, glutes, legs and shoulders, the 3 bands can be looped together to give you extra length to give you a challenging yet achievable level of tension.</li> </ul> <p><strong>SPECIFICATIONS</strong></p> <ul> <li>Light band delivers 5.3 kg worth of tension</li> <li>Medium band with 8.3 kg is perfect for joint stability</li> <li>Heavy 9.7kg band rocks your strength and metabolic rate</li> <li>Smooth latex construction</li> <li>Carry bag allows easy transport</li> </ul>",149,2,Y,FITNESS///Strength Equipment,PTP MICROBAND (3 PACK).jpg,Common Vendor
BOD-ENT-662-362,BODY SCULPTURE SQUEEZE BALL,"<p><strong>DESCRIPTION</strong></p> <ul> <li>Squeezing your stress away, this all-purpose workout tool enhances your grip and motor skills by making your fingers, hands and forearms more stronger.</li> <li>This handy dandy ball fits perfectly in your hand and allows you to crush, smash and toss your stiffness and joint pain away along with all your worries!</li> </ul> <p><strong>SPECIFICATIONS</strong></p> <ul> <li>Improves blood circulation</li> <li>Compact and portable</li> <li>Retains shape</li> </ul>",16,2,Y,FITNESS///Strength Equipment,BODY SCULPTURE SQUEEZE BALL.jpg,Common Vendor
MEF-ENT-663-363,MEFITPRO TRX TACTICAL GYM SUSPENSION TRAINER,"<p><strong>DESCRIPTION</strong></p> <ul> <li>Portable, rugged tactical gym allows you to train anywhere</li> <li>Includes: 1 TRX tactical suspension trainer, 1 TRX door anchor, TRX suspension anchor, 1 TRX Xtender, 1 mesh backpack, 1 force guidebook</li> </ul> <p><strong>SPECIFICATIONS</strong></p> <ul> <li>Made of lightweight and durable materials</li> <li>Easy to carry</li> </ul>",1310,2,Y,FITNESS///Strength Equipment,MEFITPRO TRX TACTICAL GYM SUSPENSION TRAINER.jpg,Common Vendor
IRO-ENT-664-364,IRON GYM P6 AB STRAPS,"<p><strong>DESCRIPTION</strong></p> <ul> <li>For unisex</li> <li>Get the best ab workout with these straps</li> <li>Targets lower abs, upper abs, obliques and core</li> <li>Comfortable, padded design that is adjustable</li> <li>Adjustable design</li> <li>Can hold users weighing up to 300lbs</li> </ul> <p><strong>SPECIFICATIONS</strong></p> <ul> <li>Dimensions: 11.5"" x 13.1""</li> <li>Attaches to any pull-up bar</li> <li>Velcro strap fastening</li> <li>Heavy duty canvas</li> </ul>",55,2,Y,FITNESS///Strength Equipment,IRON GYM P6 AB STRAPS.jpg,Common Vendor
PTP-ENT-665-365,PTP YOGA STRETCHING STRAP,"<p><strong>DESCRIPTION</strong></p> <ul> <li>For unisex</li> <li>Lightweight, compact and durable strap is easy to carry</li> <li>Helps to improve your balance, flexibility and posture</li> </ul> <p><strong>SPECIFICATIONS</strong></p> <ul> <li>Allows you to safely ease into challenging poses and hold stretches for longer</li> <li>D-rings allow you to adjust the strap and firmly secure it</li> <li>Material composition: 100% Organic Cotton</li> </ul>",60,2,Y,FITNESS///Strength Equipment,PTP YOGA STRETCHING STRAP.jpg,Common Vendor
MEF-ENT-666-366,MEFITPRO TRX RIP TRAINER KIT,"<p><strong>DESCRIPTION</strong></p> <ul> <li>Resistance cord system helps you to develop core strength, explosive power, flexibility and endurance</li> <li>Easy to carry</li> </ul> <p><strong>SPECIFICATIONS</strong></p> <ul> <li>Durable, medium resistance cord with nylon cover</li> <li>Commercial-grade rubber handles</li> <li>Two-piece weighted bar</li> <li>Industrial-strength carabiner</li> </ul>",1100,2,Y,FITNESS///Strength Equipment,MEFITPRO TRX RIP TRAINER KIT.jpg,Common Vendor
PRO-ENT-667-367,PROFORM SIT-UP EXERCISER,<p><strong>DESCRIPTION</strong></p> <ul> <li>Good for an abdominal workout in the comfort of your own home</li> <li>Comfortable foam cushioning at handles</li> <li>Adjustable design based on your preference</li> </ul> <p><strong>SPECIFICATIONS</strong></p> <ul> <li>Dimensions: 2.1 x 12.8 x 4.8 Inch</li> <li>Fits any standard door</li> </ul>,58,2,Y,FITNESS///Strength Equipment,PROFORM SIT-UP EXERCISER.jpg,Common Vendor
BOD-ENT-668-368,BODY SCULPTURE FITNESS LOOP,"<p><strong>DESCRIPTION</strong></p> <p>Pick up the Body Sculpture Fitness Loop for a great workout. This rubber strap band is made of eco-friendly latex, and it offers great resistance for aerobic exercises and body building.</p> <ul> <li>Strong resistance and lightweight</li> Tension value: Approximate 65-175lb <li>Dimension: 208 x 0.45cm</li> <li>Material composition: Natural rubber</li> </ul>",79,2,Y,FITNESS///Strength Equipment,BODY SCULPTURE FITNESS LOOP.jpg,Common Vendor
KET-ENT-669-369,KETTLER BASIC SLING TRAINER,<p><strong>DESCRIPTION</strong></p> <ul> <li>Reinforced hand straps for sturdy grip</li> <li>Adjustable straps for custom fit</li> </ul> <p><strong>SPECIFICATIONS</strong></p> <ul> <li>Suitable for strengthening the whole body</li> <li>Max. user weight: 100 kg</li> </ul>,110,2,Y,FITNESS///Strength Equipment,KETTLER BASIC SLING TRAINER.jpg,Common Vendor
BOD-ENT-670-370,BODY SCULPTURE PUSH-UP HANDLES,"<p><strong>DESCRIPTION</strong></p> <ul> <li>Soft, contoured foam grips</li> <li>Ergonomic design reduces stress on wrists</li> <li>Elevated position allows greater range of motion for strengthening chest, triceps, and shoulders</li> </ul> <p><strong>SPECIFICATIONS</strong></p> <ul> <li>Stable, non-slip end cap</li> <li>Easy to use and carry</li> </ul>",95,2,Y,FITNESS///Strength Equipment,BODY SCULPTURE PUSH-UP HANDLES1.jpg,Common Vendor
BOD-ENT-671-371,BODY SCULPTURE POWER TRAINING ROPE,"<p><strong>DESCRIPTION</strong></p> <p>Elevate your strength workout with the Body Sculpture Power Training Rope for men and women. Made with tough nylon and a full 9 metres in length, you can take this to the gym or use as part of your home gym for an allover body blast.</p> <ul> <li>Dimensions: 9m length, 3.8cm diameter</li> <li>Tightly bound rope</li> <li>Works arms, back, shoulders and legs</li> <li>Encourages grip strength</li> <li>Material composition: Nylon</li> </ul>",260,2,Y,FITNESS///Strength Equipment,BODY SCULPTURE POWER TRAINING ROPE.jpg,Common Vendor
BOD-ENT-672-372,BODY SCULPTURE SOFTWAY DOORWAY GYM PULL-UP BAR,"<p><strong>DESCRIPTION</strong></p> <ul> <li>Ideal for pull-ups, push-ups, chin-ups, dips, crunches, and more</li> <li>Soft foam grip handles for comfort</li> <li>Designed to fit most doorway frames or use on the floor for pushups, dips, and sit-ups</li> </ul> <p><strong>SPECIFICATIONS</strong></p> <ul> <li>Material composition: Steel</li> <li>Maximum size: 32W inches</li> </ul>",52,2,Y,FITNESS///Strength Equipment,BODY SCULPTURE SOFTWAY DOORWAY GYM PULL-UP BAR.jpg,Common Vendor
KET-ENT-673-373,KETTLER DUMBBELL AND BARBELL RACK,"<p><strong>DESCRIPTION</strong></p> <ul> <li>Large top shelf for numerous free weights, adjustable weights or both</li> <li>Protective bar brackets prevent damaging weight bars</li> <li>Rubberized gaskets prevent dumbbells from rolling</li> <li>Holds up to 4 Olympic or standard weight bars</li> </ul> <p><strong>SPECIFICATIONS</strong></p> <ul> <li>Secure and durable powder coated steel frame</li> <li>Chip-resistant chrome plated weight plate posts for durability</li> <li>Max weight capacity: 500 kg approx</li> <li>Dimensions: 120L x 60W x 90H cm</li> <li>Dumbbells, barbells, weight plates and accessories are not included</li> <li>Available only in UAE</li> <li>Free Installation</li>",1465,2,Y,FITNESS///Strength Equipment,KETTLER DUMBBELL AND BARBELL RACK.jpg,Common Vendor
BOW-ENT-674-374,BOWFLEX SELECTTECH 4.1 BENCH,"<p><strong>DESCRIPTION</strong></p> <ul> <li>Ideal for dumbbell, barbell and cage use</li> <li>Corrects posture and stabilizes positioning for a safe, muscle-building free weight workout</li> <li>Heavy-duty commercial construction</li> <li>Wheels away for easy storage</li> </ul> <p><strong>SPECIFICATIONS</strong></p> <ul> <li>Adjusts to five different positions for total versatility: 30&deg;, 45&deg;, 90&deg;, flat and decline</li> <li>Built strong to last long with heavy-duty commercial quality steel</li> <li>Comes with a standard removable leg hold-down brace for added decline position support</li> <li>Dimensions: 142.25 L x 66 W x 51 H cm</li> <li>Available only in UAE</li> </ul>",1195,2,Y,FITNESS///Strength Equipment,BOWFLEX SELECTTECH 4.1 BENCH.jpg,Common Vendor
BOD-ENT-675-375,BODY SCULPTURE BODY TRIMMER TUBE- 9 FT,"<p><strong>DESCRIPTION</strong></p> <ul> <li>Lightweight and easy to carry</li> <li>Enhances muscular strength, endurance and stamina</li> <li>Grooved handles for grip</li> </ul> <p><strong>SPECIFICATIONS</strong></p> <ul> <li>Product length: 9 feet</li> <li>Material composition: Latex</li> </ul>",32,2,Y,FITNESS///Strength Equipment,BODY SCULPTURE BODY TRIMMER TUBE- 9 FT.jpg,Common Vendor
PTP-ENT-676-376,PTP MEDIUM POWERTUBE,"<p><strong>DESCRIPTION</strong></p> <p><strong>The PTP Medium Powertube for men and women helps you to develop muscular strength, body toning and fat burning. With a 7.5kg of tension, this is perfect for people with an intermediate level of fitness/regular physical activity.</strong></p> <p><strong>SPECIFICATIONS</strong></p> <ul> <li>Innovative anti-snapping ICT for unrivalled safety</li> <li>Weight rating for added convenience</li> <li>Built-in metal clips to easily add or subtract resistance and alternate between upper and lower body workouts</li> <li>Premium latex tubing manufactured through a continuous immersion process</li> </ul>",85,2,Y,FITNESS///Strength Equipment,PTP MEDIUM POWERTUBE.jpg,Common Vendor
