Product Code,Package Name,Description,Price,Stock,OTC,Category,Product Image,Vendor
NIK-VES-601-501,NIKE ESSENTIAL FITNESS GLOVES,"<p><strong>DESCRIPTION</strong></p> <p>Sporting a one piece padded synthetic leather palm, the Nike Essential Fitness Gloves for men provides increased flexibility and protection, allowing you to workout for as long as you please.</p> <p><strong>SPECIFICATIONS</strong></p> <ul> <li>Adjustable wrist strap ensures secure fit</li> <li>Extended middle finger for easy removal</li> <li>Padded synthetic-leather palm with stitched flex grooves</li> </ul>",79.00,2,Y,Fitness///Fitness Accessories,NIKE ESSENTIAL FITNESS GLOVES.jpg///NIKE ESSENTIAL FITNESS GLOVES1.jpg///NIKE ESSENTIAL FITNESS GLOVES2.jpg,Common Vendor
NIK-VES-602-502,NIKE ULTIMATE FITNESS GLOVES,"<p><strong>DESCRIPTION</strong></p> <p><strong>Built to give you the ultimate fit, the Nike Ultimate Fitness Gloves for men has comfortable padding for control during your workout.</strong></p> <p><strong>SPECIFICATIONS</strong></p> <ul> <li>Comfortable padding for control</li> <li>Half cut fingers</li> <li>Nike Swoosh on the back hand</li> </ul>",99.00,2,Y,Fitness///Fitness Accessories,NIKE ULTIMATE FITNESS GLOVES.jpg///NIKE ULTIMATE FITNESS GLOVES1.jpg///NIKE ULTIMATE FITNESS GLOVES2.jpg,Common Vendor
NIK-VES-603-503,NIKE MEN'S EXTREME FITNESS GLOVES,<p><strong>DESCRIPTION</strong></p> <ul> <li>Max Grip and Dri-FIT mesh back of the hand to give you added protection and breathability</li> <li>Provides protection without added bulk or weight</li> </ul> <p><strong>SPECIFICATIONS</strong></p> <ul> <li>Features Nike Swoosh design</li> <li>Adjustable wrist tab to give you support and a secure fit</li> </ul>,89.00,2,Y,Fitness///Fitness Accessories,NIKE MEN'S EXTREME FITNESS GLOVES.jpg///NIKE MEN'S EXTREME FITNESS GLOVES1.jpg///NIKE MEN'S EXTREME FITNESS GLOVES2.jpg,Common Vendor
NIK-VES-604-504,NIKE WOMEN'S ESSENTIAL FITNESS GLOVES,"<p><strong>DESCRIPTION</strong></p> <ul> <li>Padding in the palm for extra grip while training</li> <li>Lightweight material for improved flexibility</li> <li>Mesh fabric for breathability</li> </ul> <p><strong>SPECIFICATIONS</strong></p> <ul> <li>Adjustable velcro strap</li> <li>Material composition: Polyester, Polyurethane, Nylon, Spandex</li> <li>Size shown: Large</li> </ul>",49.00,2,Y,Fitness///Fitness Accessories,NIKE WOMEN'S ESSENTIAL FITNESS GLOVES.jpg///NIKE WOMEN'S ESSENTIAL FITNESS GLOVES1.jpg,Common Vendor
NIK-VES-605-505,NIKE GYM ULTIMATE FITNESS GLOVES,"<p><strong>DESCRIPTION</strong></p> <ul> <li>For unisex</li> <li>Padding in the palm for extra grip while training</li> <li>Lightweight material for improved flexibility</li> <li>Breathable construction</li> </ul> <p><strong>SPECIFICATIONS</strong></p> <ul> <li>Adjustable velcro strap</li> <li>Material composition: Polyester, Polyurethane, Nylon, Spandex</li> <li>Size shown: Large</li> </ul>",99.00,2,Y,Fitness///Fitness Accessories,NIKE GYM ULTIMATE FITNESS GLOVES.jpg///NIKE GYM ULTIMATE FITNESS GLOVES1.jpg,Common Vendor
NIK-VES-606-506,NIKE WOMEN'S ELEMENTAL FITNESS GLOVES,"<p><strong>DESCRIPTION</strong></p> <ul> <li>Low density foam</li> <li>Lightweight material for improved flexibility</li> <li>Mesh fabric for breathability</li> </ul> <p><strong>SPECIFICATIONS</strong></p> <ul> <li>Adjustable velcro strap</li> <li>Material composition: Polyester, Polyurethane, Nylon, Spandex</li> </ul>",69.00,2,Y,Fitness///Fitness Accessories,NIKE WOMEN'S ELEMENTAL FITNESS GLOVES.jpg///NIKE WOMEN'S ELEMENTAL FITNESS GLOVES1.jpg///NIKE WOMEN'S ELEMENTAL FITNESS GLOVES2.jpg,Common Vendor
NIK-VES-607-507,NIKE WOMEN'S ELEMENTAL FITNESS GLOVES,"<p><strong>DESCRIPTION</strong></p> <ul> <li>Low density foam</li> <li>Lightweight material for improved flexibility</li> <li>Mesh fabric for breathability</li> </ul> <p><strong>SPECIFICATIONS</strong></p> <ul> <li>Adjustable velcro strap</li> <li>Material composition: Polyester, Polyurethane, Nylon, Spandex</li> </ul>",49.00,2,Y,Fitness///Fitness Accessories,NIKE WOMEN'S ELEMENTAL FITNESS GLOVES3.jpg///NIKE WOMEN'S ELEMENTAL FITNESS GLOVES4.jpg///NIKE WOMEN'S ELEMENTAL FITNESS GLOVES5.jpg,Common Vendor
NIK-VES-608-508,NIKE ELEMENTAL CARGO FITNESS GLOVES,"<p><strong>DESCRIPTION</strong></p> <ul> <li>Velcro fastening</li> <li>Foam palm helps absorb light impact</li> <li>Meshed back for breathability</li> <li>Stretchy cuff for easy-wear</li> </ul> <p><strong>SPECIFICATIONS</strong></p> <ul> <li>Upper material : 85% Polyester, 11% Elastane, 2% Polyurethane, 2% Nylon</li> <li>Fill material : 47% Nylon, 42% Polyester, 9% Elastane, 2% Polyurethane</li> </ul>",99.00,2,Y,Fitness///Fitness Accessories,NIKE ELEMENTAL CARGO FITNESS GLOVES.jpg///NIKE ELEMENTAL CARGO FITNESS GLOVES2.jpg///NIKE ELEMENTAL CARGO FITNESS GLOVES3.jpg,Common Vendor
NIK-VES-609-509,NIKE ELEMENTAL FITNESS CARGO GLOVES,"<p><strong>DESCRIPTION</strong></p> <ul> <li>For unisex</li> <li>Velcro fastening</li> <li>Foam palm helps absorb light impact</li> <li>Meshed back for breathability</li> <li>Stretchy cuff for easy-wear</li> </ul> <p><strong>SPECIFICATIONS</strong></p> <ul> <li>Upper material : 85% Polyester, 11% Elastane, 2% Polyurethane, 2% Nylon</li> <li>Fill material : 47% Nylon, 42% Polyester, 9% Elastane, 2% Polyurethane</li> </ul>",99.00,2,Y,Fitness///Fitness Accessories,NIKE ELEMENTAL FITNESS CARGO GLOVES.jpg///NIKE ELEMENTAL FITNESS CARGO GLOVES1.jpg///NIKE ELEMENTAL FITNESS CARGO GLOVES2.jpg,Common Vendor
BOD-VES-610-510,BODY SCULPTURE MESH COTTON/LEATHER FITNESS GLOVES,"<p><strong>DESCRIPTION</strong></p> <p><strong>The Body Sculpture Mesh Cotton/Leather Fitness Gloves for men and women have been made from durable, high quality leather and mesh cotton, making it ideal for a wide range of activities.</strong></p> <ul> <li>Comfortable and flexible</li> <li>Ideal for weight lifting and cycling</li> <li>Padded palm/fingers provide cushion</li> <li>Cotton backing provides flexibility</li> <li>Made from high quality leather and mesh cotton</li> </ul>",42.00,2,Y,Fitness///Fitness Accessories,BODY SCULPTURE MESH COTTON LEATHER FITNESS GLOVES.jpg///BODY SCULPTURE MESH COTTON LEATHER FITNESS GLOVES1.jpg,Common Vendor
NIK-FIT-611-511,NIKE EXTREME FITNESS GLOVES - L,<p><strong>DESCRIPTION</strong></p> <p>The Nike Extreme Fitness Gloves for women provides protection to your hands without added bulk or weight.</p> <p><strong>SPECIFICATIONS</strong></p> <ul> <li>Max Grip and Dri-FIT mesh back of the hand to give you added protection and breathability</li> <li>Provides protection without added bulk or weight</li> <li>Features Nike Swoosh design</li> <li>Adjustable wrist tab to give you support and a secure fit</li> <li>Size: L</li> </ul>,89.00,2,Y,Fitness///Fitness Accessories,NIKE EXTREME FITNESS GLOVES - L.jpg///NIKE EXTREME FITNESS GLOVES - L1.jpg///NIKE EXTREME FITNESS GLOVES - L2.jpg,Common Vendor
BOD-VES-612-512,BODY SCULPTURE SPANDEX LEATHER FITNESS GLOVES,"<p><strong>DESCRIPTION</strong></p> <p><strong>Lift weights, throw ropes and grab onto any fitness equipment with comfort and ease with the Body Sculpture Spandex Leather Fitness Gloves for men and women.</strong></p> <p><strong>SPECIFICATIONS</strong></p> <ul> <li>Padded palm provides comfort</li> <li>Made from durable high quality leather and spandex</li> <li>Half finger cut</li> <li>Size: Medium</li> </ul>",58.00,2,Y,Fitness///Fitness Accessories,BODY SCULPTURE SPANDEX LEATHER FITNESS GLOVES.jpg///BODY SCULPTURE SPANDEX LEATHER FITNESS GLOVES1.jpg///BODY SCULPTURE SPANDEX LEATHER FITNESS GLOVES2.jpg,Common Vendor
NIK-VES-613-513,NIKE WOMEN'S GYM PREMIUM FITNESS GLOVES,"<p><strong>DESCRIPTION</strong></p> <ul> <li>Padding in the palm for extra grip while training</li> <li>Lightweight material for improved flexibility</li> <li>Breathable construction</li> </ul> <p><strong>SPECIFICATIONS</strong></p> <ul> <li>Adjustable velcro strap</li> <li>Material composition: Polyester, Polyurethane, Nylon, Spandex</li> <li>Size shown: Small</li> </ul>",99.00,2,Y,Fitness///Fitness Accessories,NIKE WOMEN'S GYM PREMIUM FITNESS GLOVES.jpg///NIKE WOMEN'S GYM PREMIUM FITNESS GLOVES1.jpg///NIKE WOMEN'S GYM PREMIUM FITNESS GLOVES2.jpg,Common Vendor
NIK-TLE-614-514,NIKE 22OZ BIG MOUTH GRAPHIC WATER BOTTLE,"<p><strong>DESCRIPTION</strong></p> <p><strong>The Nike 22oz Big Mouth Graphic Water Bottle allows you to stay hydrated during your workouts. Holding 22 ounces, this bottle features a leak proof valve and easy-to-hold ergonomic design.</strong></p> <p><strong>SPECIFICATIONS</strong></p> <ul> <li>22 oz</li> <li>Leak proof valve</li> <li>Easy-to-hold ergonomic design</li> <li>Graphic print on the front</li> </ul>",39.00,2,Y,Fitness///Fitness Accessories,NIKE 22OZ BIG MOUTH GRAPHIC WATER BOTTLE.jpg///NIKE 22OZ BIG MOUTH GRAPHIC WATER BOTTLE1.jpg///NIKE 22OZ BIG MOUTH GRAPHIC WATER BOTTLE2.jpg,Common Vendor
NIK-BOT-615-515,NIKE TR HYPERCHARGE GRAPHIC STRAW BOTTLE (20OZ),<p><strong>DESCRIPTION</strong></p> <ul> <li>For unisex</li> <li>Don&rsquo;t forget to hydrate when doing your workout using this durable bottle</li> <li>Ergonomic design</li> <li>Nike Swoosh logo branding</li> </ul> <p><strong>SPECIFICATIONS</strong></p> <ul> <li>Volume: 20oz</li> <li>Easy open slider button</li> <li>Detachable soft straw tip for easy cleaning</li> <li>BPA free</li> </ul>,79.00,2,Y,Fitness///Fitness Accessories,NIKE TR HYPERCHARGE GRAPHIC STRAW BOTTLE (20OZ).jpg///NIKE TR HYPERCHARGE GRAPHIC STRAW BOTTLE (20OZ)1.jpg///NIKE TR HYPERCHARGE GRAPHIC STRAW BOTTLE (20OZ)2.jpg,Common Vendor
PTP-WEL-616-516,PTP COOLING TOWEL,<p><strong>DESCRIPTION</strong></p> <ul> <li>Lightweight and compact</li> <li>Highly absorbent and cooling</li> <li>Easy to use</li> <li>Can be placed in freezer for few hours before use for an extended cooling effect</li> </ul> <p><strong>SPECIFICATIONS</strong></p> <ul> <li>Special mesh fabric with evaporative technology is quick-drying</li> <li>Multi-purpose</li> </ul>,49.00,2,Y,Fitness///Fitness Accessories,PTP COOLING TOWEL.jpg,Common Vendor
PTP-WEL-617-517,PTP COOLING TOWEL,<p><strong>DESCRIPTION</strong></p> <ul> <li>Lightweight and compact</li> <li>Highly absorbent and cooling</li> <li>Easy to use</li> <li>Can be placed in freezer for few hours before use for an extended cooling effect</li> </ul> <p><strong>SPECIFICATIONS</strong></p> <ul> <li>Special mesh fabric with evaporative technology is quick-drying</li> <li>Multi-purpose</li> </ul>,49.00,2,Y,Fitness///Fitness Accessories,PTP COOLING TOWEL1.jpg,Common Vendor
PRO-VES-618-518,PROFORM WOMEN'S TRAINING GLOVES,"<p><strong>DESCRIPTION</strong></p> <ul> <li>Ideal for protecting your hands during strength training</li> <li>Foam-padding at palms enhance comfort</li> <li>Velcro hook and loop fastening at wrist offers a secure fit</li> <li>Breathable, stretch mesh construction</li> <li>Premium quality - perfect for daily use</li> </ul> <p><strong>SPECIFICATIONS</strong></p> <ul> <li>Half finger design for easy mobility</li> <li>Soft yet durable microfiber material</li> </ul>",55.00,2,Y,Fitness///Fitness Accessories,PROFORM WOMEN'S TRAINING GLOVES.jpg,Common Vendor
PUM-TRE-619-519,PUMA SPORTSTYLE TRAINING WATER BOTTLE - 1 LITRE,<p><strong>DESCRIPTION</strong></p> <ul> <li>PUMA print on the design</li> <li>BPA Free</li> <li>Screw-top opening</li> </ul> <p><strong>SPECIFICATIONS</strong></p> <ul> <li>Spill-proof construction</li> <li>Plastic hook for easy carrying</li> <li>Capacity: 1 Litre</li> </ul>,85.00,2,Y,Fitness///Fitness Accessories,PUMA SPORTSTYLE TRAINING WATER BOTTLE - 1 LITRE.jpg///PUMA SPORTSTYLE TRAINING WATER BOTTLE - 1 LITRE1.jpg///PUMA SPORTSTYLE TRAINING WATER BOTTLE - 1 LITRE2.jpg,Common Vendor
PUM-TRE-620-520,PUMA SPORTSTYLE TRAINING WATER BOTTLE - 1 LITRE,<p><strong>DESCRIPTION</strong></p> <ul> <li>PUMA print on the design</li> <li>BPA Free</li> <li>Screw-top opening</li> </ul> <p><strong>SPECIFICATIONS</strong></p> <ul> <li>Spill-proof construction</li> <li>Plastic hook for easy carrying</li> <li>Capacity: 1 Litre</li> </ul>,85.00,2,Y,Fitness///Fitness Accessories,PUMA SPORTSTYLE TRAINING WATER BOTTLE - 1 LITRE3.jpg///PUMA SPORTSTYLE TRAINING WATER BOTTLE - 1 LITRE4.jpg///PUMA SPORTSTYLE TRAINING WATER BOTTLE - 1 LITRE5.jpg,Common Vendor
NIK-TLE-621-521,NIKE SPORT WATER BOTTLE,<p><strong>DESCRIPTION</strong></p> <ul> <li>For hydrating when training</li> <li>Easy grip design</li> <li>Nike Swoosh brand</li> </ul> <p><strong>SPECIFICATIONS</strong></p> <ul> <li>Easy-to-drink spout</li> <li>No-leak valve</li> <li>BPA-free</li> </ul>,52.00,2,Y,Fitness///Fitness Accessories,NIKE SPORT WATER BOTTLE.jpg///NIKE SPORT WATER BOTTLE1.jpg///NIKE SPORT WATER BOTTLE2.jpg,Common Vendor
NIK-SPO-622-522,NIKE SPORT WATER BOTTLE,<p><strong>DESCRIPTION</strong></p> <ul> <li>For hydrating when training</li> <li>Easy grip design</li> <li>Nike Swoosh brand</li> </ul> <p><strong>SPECIFICATIONS</strong></p> <ul> <li>Easy-to-drink spout</li> <li>No-leak valve</li> <li>BPA-free</li> </ul>,49.00,2,Y,Fitness///Fitness Accessories,NIKE SPORT WATER BOTTLE3.jpg///NIKE SPORT WATER BOTTLE4.jpg///NIKE SPORT WATER BOTTLE5.jpg,Common Vendor
