Product Code,Package Name,Description,Price,Stock,Brand,Manufacturer,Net Volume,Product Type,Usage,OTC,Category,Product Image,Vendor
DEN-BRE-RAY-900,Dentiplus Fresh Breath Spray 25 mL,"<p><strong>Short description:</strong><br/> Sugar free<br/> Provides refreshment for mouth<br/> Leaves mouth feeling clean and breath fresh</p> <p><br/><strong>Description:</strong><br/> Dentiplus fresh breath spray is specially formulated with an antiseptic agent to help overcome <br/>mouth odours caused by eating, drinking and smoking. Its minty flavour will leave breath feeling <br/>clean and fresh.<br/><br/><strong>Benefits:</strong><br/> Helps to overcome mouth odours<br/> With antiseptic agent<br/> How to use:<br/> Spray directly into your mouth after eating, drinking or smoking.</p>",9.50,2,Dentiplus,Psl Inc Canada,25 ML,Breath Spray,Breath Fresheners,Y,PERSONAL CARE///oral care///Breath Fresheners,Dentiplus Fresh Breath Spray 25 mL.jpg,Common Vendor
EMO-SPR-IST-901,Emofresh Dental Spray 15 mL,<p><strong>Short description:</strong><br/><br/> Caries protection<br/> Harden enamel<br/> As a mouth freshener<br/><br/><strong>Description:</strong><br/> Emofresh dental spray immediately neutralises the damaging acid &amp; hardens the enamel and<br/> reduces the risk of caries. It also has breath freshener effect.<br/><br/><strong>Benefits:</strong><br/> Neutralises the damaging acids<br/> Helps to harden the enamel<br/> Helps to reduce the risk of caries<br/> How to use:<br/> Use as mouth spray to freshen the oral mucosa.</p>,22.50,2,Emofresh,Dr. Wild & Co. Ltd Switzerland,15 ML,Spray/ Mist,Breath Fresheners,Y,PERSONAL CARE///oral care///Breath Fresheners,Emofresh Dental Spray 15 mL.jpg,Common Vendor
MEN-BUB-GUM-902,Mentos Mixed Fruits Bubble Gum 18's,"<p><strong>Short description:</strong><br/> Sugar free bubble gum<br/> Mixed fruits flavors<br/> With xylitol</p> <p><br/><strong> Description:</strong><br/> Mentos mixed fruits bubble gum provides lots of juicy flavor and can blow huge bubbles.<br/><br/><strong>Benefits:</strong><br/> Sugar free<br/> Mixed fruits flavors<br/> How to use:<br/> Use to freshen up your breath, or as often as required.</p>",12.25,2,Mentos,Perfett Vanmelle Uk,18 PCS/Pack,Bubble Gum,Breath Fresheners,Y,PERSONAL CARE///oral care///Breath Fresheners,Mentos Mixed Fruits Bubble Gum 18's.jpg,Common Vendor
MEN-BUB-GUM-903,Mentos 3D Fresh Gum 14's,<p><strong>Short description:</strong><br/> Sugar free gum<br/> Fresh mint with green tea extract<br/> Feeling cool and confident all day long<br/> Refreshing</p>,6.50,2,Mentos,Perfett Vanmelle Uk,14 PCS/PacK,Bubble Gum,Breath Fresheners,Y,PERSONAL CARE///oral care///Breath Fresheners,Mentos 3D Fresh Gum 14's.jpg,Common Vendor
MEN-BUB-GUM-904,Mentos Juice Blast Red Gum,<p><br/><strong>Description:</strong><br/> Mentos Fresh Gum with mint flavors has 3 mouth-watering flavor layers fused together to tempt your taste buds.<br/><br/><strong>Benefits:</strong><br/> Sugar free gum<br/> Fresh mint with green tea extract<br/> How to use:<br/> Use gum as needed.</p>,5.25,2,Mentos,Perfett Vanmelle Uk,12 PCS/Pack,Bubble Gum,Breath Fresheners,Y,PERSONAL CARE///oral care///Breath Fresheners,Mentos Juice Blast Red Gum.jpg,Common Vendor
MEN-BUB-GUM-905,Mentos Pure Fresh Gum,"<p><strong>Short description:</strong><br/> Pure breath wintergreen<br/> With green tea<br/> Sugar free</p> <p><br/><strong>Description:</strong><br/> Mentos pure fresh wintergreen with green tea extract for pure breath confidence and available in three exciting flavors.<br/><br/><strong>Benefits:</strong><br/> Long lasting freshness<br/> Sugar free</p> <p><br/><strong>How to use:</strong><br/> Use to freshen up your breath, or as often as required.</p>",13.75,2,Mentos,Perfett Vanmelle Uk,32 PCS/Pack,Bubble Gum,Breath Fresheners,Y,PERSONAL CARE///oral care///Breath Fresheners,Mentos Pure Fresh Gum.jpg,Common Vendor
MEN-BUB-GUM-906,Mentos White Sweet Gum 38's,"<p><strong>Short description:</strong><br/> Sugar free chewing gum<br/> Contains xylitol<br/> White sweet mint<br/><br/><strong>Description:</strong><br/> Enjoy the long lasting freshness of Mentos White sweet mint, available in sugar free with xylitol<br/><br/><strong>Benefits:</strong><br/> Sugar Free Chewing Gum<br/> With Xylitol<br/> White Sweet Mint Gum</p> <p><br/><strong>How to use:</strong><br/> Use to freshen up your breath, or as often as required.</p>",8.50,2,Mentos,Perfett Vanmelle Uk,38 PCS/Pack,Bubble Gum,Breath Fresheners,Y,PERSONAL CARE///oral care///Breath Fresheners,Mentos White Sweet Gum 38's.jpg,Common Vendor
MIR-BUB-GUM-907,Miradent Xylitol Chewing Gum 30's,"<p>Short description:<br/> Chewing gum<br/> Sweetened 100% xylitol<br/> Cinnamon<br/> Description:<br/> Miradent Xylitol Chewing Gum Cinnamon is a dental care chewing gum which regularly consumed, it sustainably reduces plaque build-up on the tooth surface. In addition, the production of saliva is stimulated and reduces possible dry mouth. The xylitol used is without the use of genetic engineering. It is also free from gluten, lactose and fructose and comes with resealable package that is ideal for travelling.<br/><br/> Benefits:<br/> It prevents tooth decay<br/> With remineralizing properties<br/> It prevents the formation of plaque<br/> How to use:<br/> Take 7 10 pieces as the recommended daily intake for adults.<br/> Do not consume in excess quantity which may cause a laxative effect.</p>",15.75,2,Miradent,Hager & Werken Germany,30 PCS/Pack,Bubble Gum,Breath Fresheners,Y,PERSONAL CARE///oral care///Breath Fresheners,Miradent Xylitol Chewing Gum 30's.jpg,Common Vendor
SMI-CAN-IES-908,Smint Wild berry,"<p><strong>Short description:</strong><br/> Wild berry flavor<br/> Sugar free<br/> For fresh breath</p> <p><br/><strong>Description:</strong><br/> Smint with a fresh Wild berry flavour, perfect for discreet consumption, anytime, anywhere.<br/><br/><strong>Benefits:</strong><br/> Gives a burst of wild berry flavour in the mouth<br/> Freshens breath</p> <p><br/><strong>How to use:</strong><br/> Use to freshens breath, or often as required.</p>",6.50,2,Smint,Smint,N/A,Candies,Breath Fresheners,Y,PERSONAL CARE///oral care///Breath Fresheners,Smint Wild berry.jpg,Common Vendor
SMI-CAN-IES-909,Smint Xylitol Lemon,"<p><strong>Short description:</strong><br/> Xylitol lemon<br/> Sugar free<br/> For fresh breath</p> <p><br/><strong>Description:</strong><br/> Smint with a fresh Xylitol Lemon flavour, perfect for discreet consumption, anytime, anywhere.<br/><br/><strong>Benefits:</strong><br/> Gives a burst of Lemon flavour in the mouth<br/> Freshens breath</p> <p><br/><strong>How to use:</strong><br/> Use to freshens breath, or often as required.</p>",6.50,2,Smint,Smint,N/A,Candies,Breath Fresheners,Y,PERSONAL CARE///oral care///Breath Fresheners,Smint Xylitol Lemon.jpg,Common Vendor
SMI-GUM-IES-910,Smint and Gum Blackberry Gum and Candy 8's,"<p><strong>Short description:</strong><br/> Longer lasting<br/> Flavor explosion<br/> Gum and candy<br/> Blackberry flavored</p> <p><br/><strong>Description:</strong><br/> Smint and Gum Blackberry Gum and Candy is a sugar free sweet mint flavored which gives a refreshingly fresh burst of xylitol blackberry in the mouth.<br/><br/><strong>Benefits:</strong><br/> Freshens breath<br/> Sugar free<br/> Delicious burst of blackberry</p> <p><br/><strong>How to use:</strong><br/> Use to freshens breath, or often as required.</p>",4.75,2,Smint,"Smint,Turkey",8 PCS/Pack,Gum & Candies,Breath Fresheners,Y,PERSONAL CARE///oral care///Breath Fresheners,Smint and Gum Blackberry Gum and Candy 8's.jpg,Common Vendor
STA-SPR-IST-911,Staycool Breath Freshener Spray (Cardamon)20 mL,"<p><strong>Short description:</strong><br/> Gives instant fresh Breath<br/> Maintains Oral Hygiene<br/> Alternative to chewing on gum or mints<br/> Cardamom flavor</p> <p><br/><strong>Description:</strong><br/> Staycool Breath Freshener Cardamom Spray offers instant fresh breath after eating, drinking or smoking. alcohol free, sugar free and contains antibacterial formulation to maintain oral hygiene.<br/><br/><strong>Benefits:</strong><br/> Sugar Free<br/> Alcohol Free<br/> Contains antibacterial agent clinically proven to eliminate bad breath, odors and germs</p> <p><br/><strong>How to use:</strong><br/> Spray 1 to 2 times directly into your mouth.</p>",14.00,2,Staycool,N/A,20 ML,Spray/ Mist,Oral Cavity,Y,PERSONAL CARE///oral care///Breath Fresheners,Staycool Breath Freshener Spray (Cardamon)20 mL.jpg,Common Vendor
