Product code,Language,Product id,Category,List price,Price,Weight,Quantity,Min quantity,Shipping freight,Date added,Downloadable,Files,Ship downloadable,Inventory tracking,Free shipping,Zero price action,Thumbnail,Detailed image,Product name,Description,Meta keywords,Meta description,Search words,Page title,Taxes,Features,Options,Secondary categories,SEO name,Short description,Status,Popularity,Vendor,Package Size (Variation feature),Strength (Variation feature),Detailed image URL
A01-21S-CHE-748,en,2315,Medications,0,23,0,1000,0,0,5/17/2020 13:39,N,,N,B,N,R,,exim/backup/images/cv_21st_century_c-500mg_orange001.jpg#{[ar]:;[en]:;},21ST CENTURY C-500MG ORANGE,,,,,,,"Insurance Plan: M[NA]; Generic Code: S[00467]; Generic Name: S[Ascorbic Acid (Vitamin C) & Sodium Ascorbate]; Strength: S[500 mg]; Dosage Form: S[Chewable Tablets]; Package Size: S[30's Plastic Bottle]; Brands: E[21st Century Health Care, U.S.A]; Drug Code: S[A01-0013-00467-01]; Greenrain Code: S[1101-7182-002]; Agent Name: T[New Country Healthcare L.L.C.]",,Vitamins & Nutrition///Wellbeings; Vitamins & Nutrition///Wellbeings///Immunity Boosters; Vitamins & Nutrition///Nutrition///Antioxidants,21st-century-c-500mg-orange,,A,196,Common Vendor,30's Plastic Bottle,500 mg,https://www.dwaae.com/images/detailed/3/cv_21st_century_c-500mg_orange001.jpg
A01-21S-TAB-749,en,2316,Medications,0,53,0,1000,0,0,5/17/2020 13:39,N,,N,B,N,R,,exim/backup/images/cv_21st_century_c-500mg_orange002.jpg#{[ar]:;[en]:;},21ST CENTURY C-500MG ORANGE,<p>Full Description </p>,,,,,,"Insurance Plan: M[NA]; Generic Code: S[00468]; Generic Name: S[Ascorbic Acid (Vitamin C) & Sodium Ascorbate]; Strength: S[500 mg]; Dosage Form: S[Tablets]; Package Size: S[110's Bottle]; Brands: E[21st Century Health Care, U.S.A]; Drug Code: S[A01-0013-00468-01]; Greenrain Code: S[1101-7182-001]; Agent Name: T[New Country Medical Supplies]",,Vitamins & Nutrition///Wellbeings; Vitamins & Nutrition///Wellbeings///Immunity Boosters; Vitamins & Nutrition///Nutrition,21st-century-c-500mg-orange-en,,A,88,Common Vendor,110's Bottle,500 mg,https://www.dwaae.com/images/detailed/3/cv_21st_century_c-500mg_orange002.jpg
A01-21S-TAB-024,en,3941,Medications,0,50,0,1000,0,0,5/26/2020 18:03,N,,N,B,N,R,,exim/backup/images/21ST_CENTURY_B_COMPLEX_WITH_C_100.jpg#{[ar]:;[en]:;},21ST CENTURY B COMPLEX WITH C,,,,,,,"Insurance Plan: M[NA]; Generic Code: S[03907]; Generic Name: S[Multivitamin]; Strength: S[Combination]; Dosage Form: S[Tablets]; Package Size: S[100's Bottle]; Brands: E[21st Century Health Care, U.S.A]; Drug Code: S[A01-0012-03907-01]; Greenrain Code: S[1101-5508-001]; Agent Name: T[New Country Medical Supplies]",,Vitamins & Nutrition///Wellbeings; Vitamins & Nutrition///Wellbeings///Energy & Wellbeing Supplements,21st-century-b-complex-with-c,,A,54,Common Vendor,100's Bottle,Combination,https://www.dwaae.com/images/detailed/4/21ST_CENTURY_B_COMPLEX_WITH_C_100.jpg
A01-21S-TAB-575,en,10320,Medications,0,295,0,1000,0,0,6/9/2020 16:23,N,,N,B,N,R,,exim/backup/images/cv_21st_century_arthri-flex_advantage_4217.jpg#{[ar]:;[en]:;},21ST CENTURY ARTHRI-FLEX ADVANTAGE,,,,,,,"Insurance Plan: M[NA]; Generic Code: S[02594]; Generic Name: S[Glucosamine& Hyaluronic Acid& Methylsulfonylmethane (MSM)& Vitamins & Minerals]; Strength: S[Combination]; Dosage Form: S[Tablets]; Package Size: S[180's]; Brands: E[21st Century Health Care, U.S.A]; Drug Code: S[A01-0011-02594-01]; Greenrain Code: S[1101-7240-001]; Agent Name: T[New Country Medical Supplies]",,Vitamins & Nutrition///Wellbeings; Vitamins & Nutrition///Wellbeings///Bone Support,21st-century-arthri-flex-advantage-en,,A,13,Common Vendor,180's,Combination,https://www.dwaae.com/images/detailed/7/cv_21st_century_arthri-flex_advantage_4217.jpg
