Product Code,Package Name,Description,Price,Stock,Brands,Manufacturer,Net Volume,Application,Gender,OTC,Category,Product Image,Vendor
DUC-RAY-203-705,Ducray Squanorm Dry Dandruff Shampoo 200ML,"<div> <div> <h4>Short description:</h4> <ul> <li>Gives long-lasting relief from loose dandruff</li> <li>Cleanses the scalp</li> <li>Creamy texture</li> </ul> </div> </div> <div> <h4>Description:</h4> <p>Ducray Squanorm Dry Dandruff Shampoo provides rapid, long lasting action thanks to the special anti-dandruff active ingredients. It's creamy texture makes it pleasant to apply.</p> </div> <div> <h4>Benefits:</h4> <ul> <li>It eliminates dandruff 94 %</li> <li>Moisturizes the scalp 100 %</li> <li>Relieves scalp discomfort 100%</li> </ul> </div> <div> <h4>How to use:</h4> <ul> <li>Apply to a damp scalp, massage gently and rinse</li> <li>Reapply and leave on for 2 to 3 minutes. Rinse thoroughly</li> <li>Use 2 to 3 times a week for 6 weeks</li> <li>Rinse in case of contact with eyes</li> <li>Product for adults and teenagers only</li> </ul> </div>",70.88,100,Ducray,Pierre Fabre,200 ML,"Hair, Scalp",Unisex,Y,Personal Care///Hair Care///Shampoo and Conditioner,Ducray Squanorm Dry Dandruff Shampoo 200ML.jpg///Ducray Squanorm Dry Dandruff Shampoo 200ML1.jpg,Common Vendor
ANN-IND-204-706,Annemarie Borlind Volume Shampoo 200 mL,"<div> <div> <h4>Short description:</h4> <ul> <li>Volumizing shampoo</li> <li>For fine hair</li> <li>With Natural Care Complex</li> <li>Free of sulfates, silicones and PEGs</li> </ul> </div> </div> <div> <h4>Description:</h4> <p>Annemarie Borlind Volume Shampoo is a volumizing cleansing shampoo for improved elasticity, a seductive shine, and strength for fine hair. The Natural Care Complex marries the firming effect of maple syrup with the strengthening properties of Aquarich. Aquarich is a combination of black oat and lecithin, which has been shown to improve hair structure and shine. In addition, aloe vera provides your hair with vitamins, minerals and amino acids.</p> </div> <div> <h4>Benefits:</h4> <ul> <li>Improved elasticity</li> <li>Seductive shine</li> <li>Strength for fine hair</li> </ul> </div> <div> <h4>How to use:</h4> <ul> <li>Distribute over wet hair, massage in, and then rinse well.</li> </ul> </div>",63.2,100,Annemarie Borlind,Annemarie Borlind,200 ML,"Hair, Scalp",Unisex,Y,Personal Care///Hair Care///Shampoo and Conditioner,Annemarie Borlind Volume Shampoo 200 mL.jpg///Annemarie Borlind Volume Shampoo 200 mL1.jpg,Common Vendor
ANN-IND-205-707,Annemarie Borlind Mild Shampoo 200 mL,"<div> <div> <h4>Short description:</h4> <ul> <li>Mild conditioning shampoo for daily use</li> <li>With Natural Care Complex</li> <li>Free of sulfates, silicones and PEGs</li> </ul> </div> </div> <div> <h4>Description:</h4> <p>Anne Marie Borlind Mild Shampoo is a mild cleansing and gentle care for visibly increasing smoothness and bounce. Also ideal for children. The Natural Care Complex marries the firming effect of maple syrup with the strengthening properties of Aquarich. Aquarich is a combination of black oat and lecithin, which has been shown to improve hair structure and shine. In addition, aloe vera provides your hair with vitamins, minerals and amino acids.</p> </div> <div> <h4>Benefits:</h4> <ul> <li>Gentle care</li> <li>Increase smoothness and bounce</li> </ul> </div> <div> <h4>How to use:</h4> <ul> <li>Distribute over wet hair, massage in, then rinse well.</li> </ul> </div>",57.6,100,Annemarie Borlind,Annemarie Borlind,200 ML,"Hair, Scalp",Unisex,Y,Personal Care///Hair Care///Shampoo and Conditioner,Annemarie Borlind Mild Shampoo 200 mL.jpg///Annemarie Borlind Mild Shampoo 200 mL1.jpg,Common Vendor
RAU-SCH-206-708,Rausch Egg Oil Shine Shampoo 200 mL,"<div> <div> <h4>Short description:</h4> <ul> <li>Special care for the dry hair</li> <li>Conditions dry hair and moisturizes</li> <li>With valuable egg protein and wheatgerm extract</li> <li>Free from silicones and parabens</li> </ul> </div> </div> <div> <h4>Description:</h4> <p>Rausch Egg Oil Shine Shampoo has been specially formulated for the care of dry hair. It nourishes the structure of dry hair with valuable proteins from fresh egg yolk and wheatgerm extract.</p> </div> <div> <h4>Benefits:</h4> <ul> <li>Helps to regenerate and strengthen dry hair</li> <li>Gives new elasticity, smoothness and shine</li> <li>Transforms dull, brittle hair to nourished one</li> <li>Gives you hair suppleness, volume and shine</li> </ul> </div> <div> <h4>How to use:</h4> <ul> <li>Depending on the length of hair, put about a hazelnut-sized amount of shampoo into your hand and dilute with water</li> <li>Spread onto dampened hair and gently massage</li> <li>Rinse well</li> <li>Repeat if necessary</li> </ul> </div>",99.75,100,Rausch,Rausch,200 ML,"Hair, Scalp",Unisex,Y,Personal Care///Hair Care///Shampoo and Conditioner,Rausch Egg Oil Shine Shampoo 200 mL.jpg,Common Vendor
ANN-IND-207-709,Annemarie Borlind Repair Shampoo 200 mL,"<div> <div> <h4>Short description:</h4> <ul> <li>Repair shampoo</li> <li>For stressed hair</li> <li>With Natural Care Complex</li> <li>Free of sulfates, silicones and PEGs</li> </ul> </div> </div> <div> <h4>Description:</h4> <p>Annemarie Borlind Repair Shampoo is a repair care for visibly increasing smoothness and shine. Split ends and hair damage are reduced. The Natural Care Complex marries the firming effect of maple syrup with the strengthening properties of Aquarich. Aquarich is a combination of black oat and lecithin, which has been shown to improve hair structure and shine. In addition, aloe vera provides your hair with vitamins, minerals and amino acids.</p> </div> <div> <h4>Benefits:</h4> <ul> <li>Visibly increase smoothness and shine</li> <li>Spilt ends and hair damage are reduced</li> </ul> </div> <div> <h4>How to use:</h4> <ul> <li>Distribute over wet hair, massage in, and then rinse well.</li> </ul> </div>",63.2,100,Annemarie Borlind,Annemarie Borlind,200 ML,"Hair, Scalp",Unisex,Y,Personal Care///Hair Care///Shampoo and Conditioner,Annemarie Borlind Repair Shampoo 200 mL.jpg///Annemarie Borlind Repair Shampoo 200 mL1.jpg,Common Vendor
DR0-CIN-208-710,Dr.Wolff Alpecin Caffeine Shampoo 250 mL,"<div> <div> <h4><strong>Short description:</strong></h4> <ul> <li>Stimulates hair roots during washing</li> <li>With patented skin activator</li> <li>Noticeably more hair</li> <li>Made in Germany</li> </ul> </div> </div> <div> <h4><strong>Description:</strong></h4> <p>This Caffeine Shampoo contains caffeine that can help to stimulate hair growth directly at the roots. A daily wash with Alpecin C1 shampoo immediately provides the hair roots with the activating ingredient. Alpecin Caffeine shampoo Hair Energizer is detectable after being left on for as little as 120 seconds. If left on longer, more caffeine will be absorbed into the scalp. Alpecin Caffeine penetrates even though the shampoo is rinsed out. In just a short time (120 sec.), caffeine travels along the hair shaft directly into the hair follicles.</p> </div> <div> <h4><strong>Benefits:</strong></h4> <ul> <li>Strengthens weakened hair roots</li> <li>Prevents hair loss</li> <li>Caffeine is very well detectable after being left on for as little as 120 seconds</li> <li>This shampoo does not contain any conditioning agents, so that hair will immediately have more grip</li> </ul> </div> <div> <h4><strong>How to use:</strong></h4> <ul> <li>Leave on the scalp for 2 minutes from application then rinse thoroughly.</li> </ul> </div>",51.5,100,"
Alpecin",Dr Kurt Wolff Gmbh & Co.,250 ML,"Hair, Scalp",Unisex,Y,Personal Care///Hair Care///Shampoo and Conditioner,Dr.Wolff Alpecin Caffeine Shampoo 250 mL.jpg///Dr.Wolff Alpecin Caffeine Shampoo 250 mL1.jpg,Common Vendor
DR0-CIN-209-711,Dr.Wolff Alpecin Double Effect Caffeine Shampoo 200 mL,"<div> <div> <h4>Short description:</h4> <ul> <li>Caffeine Shampoo</li> <li>Counteracts premature hair loss</li> <li>Gentle dandruff removal</li> <li>Made in Germany</li> </ul> </div> </div> <div> <h4>Description:</h4> <p>Dr.Wolff Alpecin Double Effect Caffeine Shampoo helps to counteracts, the hair loss and dandruff simultaneously. It mainly acts by the two steps as follows: Stage One: The Double Effect Shampoo loosens scaly, keratinous cells and helps remove dandruff from the scalp. Stage Two: With the scalp cleared of dandruff, the caffeine complex can penetrate into the hair root and help strengthen it against hair loss.</p> </div> <div> <h4>Benefits:</h4> <ul> <li>Removes dandruff</li> <li>Caffeine complex strengthens hair roots against hair loss</li> </ul> </div> <div> <h4>How to use:</h4> <ul> <li>Leave on the scalp for 2 minutes from application, then rinse thoroughly.</li> </ul> </div>",62,100,Alpecin,Dr Kurt Wolff Gmbh & Co.,200 ML,"Hair, Scalp",Unisex,Y,Personal Care///Hair Care///Shampoo and Conditioner,Dr.Wolff Alpecin Double Effect Caffeine Shampoo 200 mL.jpg///Dr.Wolff Alpecin Double Effect Caffeine Shampoo 200 mL1.jpg,Common Vendor
DUC-RAY-210-712,Ducray Extra-Gentle Dermo-protective Shampoo 400 mL,"<div> <div> <h4>Short description:</h4> <ul> <li>Dermo-protective shampoo</li> <li>Biodegradable formula</li> <li>Frequent use</li> <li>For delicate hair</li> </ul> </div> </div> <div> <h4>Description:</h4> <p>This shampoo can be used on the entire family. This shampoo has a gentle formula that protects the scalp, tames the hair, restoring strength, beauty and shine. Its biodegradable formula was made to minimize environmental impact. Does not sting the eyes.</p> </div> <div> <h4>Benefits:</h4> <ul> <li>Easy to apply</li> <li>Easy to rinse</li> <li>Pleasant fragrance</li> </ul> </div> <div> <h4>How to use:</h4> <ul> <li>Apply Extra-Gentle to wet hair.</li> <li>Lather and rinse.</li> <li>Reapply and leave on for a few minutes.</li> <li>Rinse thoroughly.</li> <li>Use as often as needed.</li> </ul> </div>",86.63,100,Ducray,Pierre Fabre,400 ML,"Hair, Scalp",Unisex,Y,Personal Care///Hair Care///Shampoo and Conditioner,Ducray Extra-Gentle Dermo-protective Shampoo 400 mL.jpg,Common Vendor
DUC-RAY-211-713,Ducray Kelual DS Shampoo 100 mL,"<div> <div> <h4>Short description:</h4> <ul> <li>Anti-dandruff shampoo</li> <li>Eliminates moderate and stubborn dandruff</li> <li>Soothes itching and redness</li> </ul> </div> </div> <div> <h4>Description:</h4> <p>This shampoo gives long-lasting relief from dandruff and rapidly soothes the scalp. Its complete formula is made from purifying complementary actives and it acts on all the factors involved in severe dandruff conditions. Kelual DS Shampoo prevents recurrence.</p> </div> <div> <h4>Benefits:</h4> <ul> <li>Eliminates moderate and stubborn dandruff</li> <li>Soothes itching and redness</li> </ul> </div> <div> <h4>How to use:</h4> <ul> <li>Apply, lather and massage into the scalp, rinse</li> <li>Reapply and leave on for 3 minutes, rinse</li> <li>Intensive treatment phase: 3 times per week. 2 weeks</li> <li>Maintenance phase: Once per week</li> </ul> </div>",86.63,100,Ducray,Pierre Fabre,100 ML,"Hair, Scalp",Unisex,Y,Personal Care///Hair Care///Shampoo and Conditioner,Ducray Kelual DS Shampoo 100 mL.jpg///Ducray Kelual DS Shampoo 100 mL1.jpg,Common Vendor
DUC-RAY-212-714,Ducray Nutricerat Intense Nutrition Shampoo 200 mL,"<div> <div> <h4>Short description:</h4> <ul> <li>For very dry and damaged hair</li> <li>Nourishes the hair in depth from root to ends</li> <li>Leaves the hair soft and shiny</li> </ul> </div> </div> <div> <h4>Description:</h4> <p>With its creamy texture and delicate fragrance, Nutricerat Intense Nutrition Shampoo is formulated with a very gentle cleansing base that makes hair soft and shiny. It gives hair the nourishing substances necessary to help rebuild it.</p> </div> <div> <h4>Benefits:</h4> <ul> <li>Pearl-textured shampoo</li> <li>Creamy foam</li> <li>Easy to rinse</li> <li>Pleasant fragrance</li> </ul> </div> <div> <h4>How to use:</h4> <ul> <li>Apply to damp hair. Lather and rinse.</li> <li>Reapply and leave on for 3 minutes.</li> <li>Rinse thoroughly.</li> <li>Use twice a week for 6 weeks.</li> </ul> </div>",86.63,100,Ducray,Pierre Fabre,200 ML,"Hair, Scalp",Unisex,Y,Personal Care///Hair Care///Shampoo and Conditioner,Ducray Nutricerat Intense Nutrition Shampoo 200 mL.jpg///Ducray Nutricerat Intense Nutrition Shampoo 200 mL1.jpg,Common Vendor
BIO-RMA-213-715,Bioderma Node DS+ Shampoo 125 mL,"<div> <div> <h4>Short description:</h4> <ul> <li>For persistent dandruff and itching</li> <li>Cleanses in depth</li> <li>Prevents recurrence of dandruff</li> <li>Instantly soothes the scalp</li> </ul> </div> </div> <div> <h4>Description:</h4> <p>Bioderma Node DS+ Shampoo is the formula which offers increased efficacy against severe dandruff. It limits the proliferation of Malassezia yeasts responsible for dandruff. It has powerful kerato-regulating agents to clear severe dandruff and facilitate its elimination.</p> </div> <div> <h4>Benefits:</h4> <ul> <li>Lastingly cleanses and relieves itchy scalps</li> <li>Prevents recurrence of dandruff by minimising sebum secretion</li> <li>Instantly soothes the scalp</li> <li>Fluid creamy texture</li> </ul> </div> <div> <h4>How to use:</h4> <ul> <li>As intense treatment use 3 shampoos per week for 3 weeks</li> <li>Maintenance with 1 or 2 shampoos per week</li> <li>Lather and lightly massage your scalp, rinse and repeat</li> <li>Leave on for 5 minutes, then rinse thoroughly</li> <li>Avoid contact with the eyes, do not use in children under the age of 3 years or in pregnant or breastfeeding women</li> </ul> </div>",91.5,100,Bioderma,Bioderma,125 ML,"Hair, Scalp",Unisex,Y,Personal Care///Hair Care///Shampoo and Conditioner,Bioderma Node DS+ Shampoo 125 mL.jpg///Bioderma Node DS+ Shampoo 125 mL1.jpg,Common Vendor
DES-NCE-214-716,Desert Essence Organics Fragrance Free Shampoo 237 mL,"<div> <div> <h4>Short description:</h4> <ul> <li>Moisturizing blend for hair</li> <li>With Organic Jojoba Oil and Organic Green Tea</li> <li>Naturally unscented</li> </ul> </div> </div> <div> <h4>Description:</h4> <p>Organic Jojoba Oil absorbs quickly into the scalp, leaving hair feeling soft and revitalized. Organic Green Tea, rich in antioxidants and polyphenols, gives hair gloss and shine, while Organic Kelp and Nettle Extracts provide iron, calcium, potassium, and other vitamins and minerals which absorb into and help strengthen each hair strand</p> </div> <div> <h4>Benefits:</h4> <ul> <li>Leaves hair softer and more manageable</li> <li>Adds gloss and shine</li> <li>Strengthens hair</li> </ul> </div> <div> <h4>How to use:</h4> <ul> <li>Apply to damp hair, massage into hair and scalp</li> <li>Rinse thoroughly</li> <li>Repeat as necessary</li> <li>Follow with Desert Essence Fragrance Free Conditioner for optimal results</li> </ul> </div>",50.4,100,"
Desert Essence",Desert Essence,237 ML,"Hair, Scalp",Unisex,Y,Personal Care///Hair Care///Shampoo and Conditioner,Desert Essence Organics Fragrance Free Shampoo 237 mL.jpg///Desert Essence Organics Fragrance Free Shampoo 237 mL1.jpg,Common Vendor
DES-NCE-215-717,Desert Essence Organics Green Apple & Ginger Shampoo 237 mL,"<div> <div> <h4>Short description:</h4> <ul> <li>Volumizing formula</li> <li>With Green apple &amp; Ginger</li> <li>Helps to thicken hair</li> </ul> </div> </div> <div> <h4>Description:</h4> <p>Sugar and Coconut Oil Cleansers gently lift and remove everyday pollutants from hair, while Organic Kelp and Nettle extracts provide iron, calcium, potassium, and other vitamins and minerals that absorb into and help strengthen each hair strand. A proprietary blend of Organic Ginger Extract and Ginger Spice acts on the scalp to leave the skin feeling moisturized and revitalized. Organic Maca Root helps to thicken hair and Organic Apple adds shine. With regular use of this gentle, sulfate free formula, hair will be softer, shinier and more manageable.</p> </div> <div> <h4>Benefits:</h4> <ul> <li>Gently removes everyday environmental pollutants from hair</li> <li>Adds volume and shine</li> <li>Helps strengthen hair</li> </ul> </div> <div> <h4>How to use:</h4> <ul> <li>Massage into wet hair, lather and rinse thoroughly</li> <li>For best results, follow with Desert Essence Green Apple and Ginger Conditioner</li> </ul> </div>",65.6,100,Desert Essence,Desert Essence,237 ML,"Hair, Scalp",Unisex,Y,Personal Care///Hair Care///Shampoo and Conditioner,Desert Essence Organics Green Apple & Ginger Shampoo 237 mL.jpg///Desert Essence Organics Green Apple & Ginger Shampoo 237 mL1.jpg,Common Vendor
DES-NCE-216-718,Desert Essence Organics Lemon Tea Tree Shampoo 237 mL,"<div> <div> <h4>Short description:</h4> <ul> <li>Clarifying formula</li> <li>Keeps hair clean and manageable</li> <li>With Tea Tree Oil and Lemon Peel Extract</li> </ul> </div> </div> <div> <h4>Description:</h4> <p>Australian Tea Tree Oil and Lemon Peel Extract gently wash away excess oil and product buildup without stripping hair of its natural moisture. Organic Maca Root Extract helps strengthen and protect hair. With regular use, hair is soft, smooth and more manageable</p> </div> <div> <h4>Benefits:</h4> <ul> <li>Removes excess oil and product buildup from hair and scalp</li> <li>Revitalizes scalp</li> <li>Strengthens and protects hair</li> </ul> </div> <div> <h4>How to use:</h4> <ul> <li>After wetting hair, massage a small amount in to create a lather</li> <li>Rinse well and repeat as necessary</li> <li>Avoid eye area</li> </ul> </div>",65.6,100,Desert Essence,Desert Essence,237 ML,"Hair, Scalp",Unisex,Y,Personal Care///Hair Care///Shampoo and Conditioner,Desert Essence Organics Lemon Tea Tree Shampoo 237 mL.jpg///Desert Essence Organics Lemon Tea Tree Shampoo 237 mL1.jpg,Common Vendor
FOL-ENE-217-719,Foltene Thinning Hair Shampoo for Women 200 mL,"<div> <div> <h4>Short description:</h4> <ul> <li>Shampoo for thinning hair</li> <li>Regenerating and energising</li> <li>With tricalgoxyl panax ginseng extract</li> </ul> </div> </div> <div> <h4>Description:</h4> <p>Foltene Thinning Hair Shampoo for Women is a real booster of energy and vitality for fine, fragile and thinning hair. It helps to boost the thickness and volume of your hair that have been damaged due to stress, incorrect diets, childbirth breast feeding, lack of nutritive elements, pregnancy, hair colorants etc.</p> </div> <div> <h4>Benefits:</h4> <ul> <li>Enhances hair growth, strengthens thin and weak hair and restores the natural balance of the scalp</li> <li>Supplies energy to the hair, giving it body and shine</li> <li>Extra-delicate cleansing action, preserving the health of the hair without altering the scalp's natural protective film</li> <li>Hair regains its natural strength, vitality, volume and shine</li> </ul> </div> <div> <h4>How to use:</h4> <ul> <li>Apply the shampoo to wet hair</li> <li>Massage for 3 minutes then rinse</li> </ul> </div>",99.75,100,"
Foltene",Lunatus [Goemar Lab.],200 ML,"Hair, Scalp",Unisex,Y,Personal Care///Hair Care///Shampoo and Conditioner,Foltene Thinning Hair Shampoo for Women 200 mL.jpg///Foltene Thinning Hair Shampoo for Women 200 mL1.jpg,Common Vendor
GRA-RAL-218-720,Grahams Natural Shampoo 250 mL,"<div> <div> <h4>Short description:</h4> <ul> <li>Unique blend of herbal and organic ingredients</li> <li>Relieves a dry, itchy scalp</li> <li>Designed for normal to dry hair</li> <li>Hypo-allergenic</li> </ul> </div> </div> <div> <h4>Description:</h4> <p>Grahams Natural Shampoo with Manuka honey is a unique blend of organic and herbal ingredients that is suitable for all hair types and contains no parabens. It is ideal for those with sensitive scalps and is suitable for all hair types. It is designed for people with dry, itchy scalps, suffering from eczema or those with sensitive skin.</p> </div> <div> <h4>Benefits:</h4> <ul> <li>Ideal for eczema and psoriasis</li> <li>Leaves the hair shiny and healthy</li> <li>Hypo-allergenic and contain no parabens</li> </ul> </div> <div> <h4>How to use:</h4> <ul> <li>Massage into the hair and scalp and left to soak</li> <li>Rinse thoroughly after use</li> </ul> </div>",46.5,100,Grahams Natural,Grahams Naturals,250 ML,"Hair, Scalp",Unisex,Y,Personal Care///Hair Care///Shampoo and Conditioner,Grahams Natural Shampoo 250 mL.jpg,Common Vendor
KAM-OTO-219-721,Kaminomoto Mild Shampoo 200 mL,"<div> <div> <h4>Short description:</h4> <ul> <li>pH balanced</li> <li>Keratin active  for actual repair of damaged hair</li> <li>Anti-static</li> <li>With jojoba oil for healthy scalp and beautiful hair</li> </ul> </div> </div> <div> <h4>Description:</h4> <p>A mild shampoo that keeps the scalp and hair healthy and improves the effect of hair growers. It steers elasticity and sheen of hair, gives moisture, prevents dandruff and promotes hair growth.</p> </div> <div> <h4>Benefits:</h4> <ul> <li>Gives moisture to hair and scalp</li> <li>Prevents dandruff and promotes hair growth</li> <li>With jojoba seed extract for moisture</li> </ul> </div> <div> <h4>How to use:</h4> <ul> <li>Wash hair with warm water</li> <li>Take proper quantity of the shampoo on your hand, froth it and shampoo your hair with the foam, massage scalp with fingertips</li> <li>Wash it out with adequate amount of water</li> </ul> </div>",55.13,100,Kaminomoto,Kaminomoto Co Ltd,200 ML,"Hair, Scalp",Unisex,Y,Personal Care///Hair Care///Shampoo and Conditioner,Kaminomoto Mild Shampoo 200 mL.jpg,Common Vendor
LA0-SAY-220-722,La Roche - Posay Kerium Anti-Hairloss Shampoo-Complement 200 mL,"<div> <div> <h4>Short description:</h4> <ul> <li>Anti-hair loss shampoo complement</li> <li>Excusive formula with Madecassoside</li> <li>Ideal for male and female hair loss</li> </ul> </div> </div> <div> <h4>Description:</h4> <p>La Roche - Posay Kerium Anti-Hair Loss Shampoo-Complement has a double action with a unique synergy of active ingredients to break the hairloss cycle at any point. Madecassoside, the anti-hairloss innovation derived from research on inflammation, to resorb micro-irritations that accelerate hair loss. Arginine + Vitamin B5, stimulates hair bulb irrigation and the production of capillary matter. Finally, the body-restoring base immediately gives the hair volume and density.</p> </div> <div> <h4>Benefits:</h4> <ul> <li>Restores the hair fibre's body and density</li> <li>Ideal supplement for anti-hairloss treatments</li> <li>Breaks the hairloss cycle from the shower</li> <li>Redensifies hair and optimises the efficacy of anti-hairloss treatment</li> </ul> </div> <div> <h4>How to use:</h4> <ul> <li>For daily use, in combination with other treatments for persistent hairloss, or occasionally for seasonal hairloss.</li> </ul> </div>",96.75,100,La Roche-Posay,Loreal,200 ML,"Hair, Scalp",Unisex,Y,Personal Care///Hair Care///Shampoo and Conditioner,La Roche - Posay Kerium Anti-Hairloss Shampoo-Complement 200 mL.jpg,Common Vendor
LOU-MER-221-723,Louis Widmer Remederm Shampoo 150 mL,"<div> <div> <h4>Short description:</h4> <ul> <li>For dry itchy scalp</li> <li>With Urea + panthenol</li> <li>Dermatologically tested</li> <li>Makes hair shiny and silky</li> </ul> </div> </div> <div> <h4>Description:</h4> <p>Louis Widmer Remederm Shampoo was developed especially for dry and irritated scalp. It is well tolerated and allows frequent or daily use. Remederm Shampoo has a refattening effect and normalises irritated skin. It provides dry, lackluster hair with a silky sheen and suppleness and makes it easily manageable. Carbamide keeps the dry scalp moisturised. Panthenol improves the water retention potential, protects against irritations and soothes the skin. Polydocanol has a calming effect on the skin. Remederm Shampoo contains neither preservatives nor colourants.</p> </div> <div> <h4>Benefits:</h4> <ul> <li>Moisturises the scalp and soothes skin irritation</li> <li>Soothes the scalp</li> <li>Care for dry, itchy scalps</li> <li>Suitable for daily use</li> </ul> </div> <div> <h4>How to use:</h4> <ul> <li>Massage Remederm Shampoo into the wet hair, let it develop its efficacy briefly and rinse out well.</li> <li>Repeat if necessary.</li> </ul> </div>",76.75,100,Louis Widmer,Louis Widmer,150 ML,"Hair, Scalp",Unisex,Y,Personal Care///Hair Care///Shampoo and Conditioner,Louis Widmer Remederm Shampoo 150 mL.jpg///Louis Widmer Remederm Shampoo 150 mL1.jpg,Common Vendor
NIS-SIM-222-724,Nisim Normal to Oily Hair Shampoo 240 mL,"<div> <div> <h4>Short description:</h4> <ul> <li>New Hair Bio Factors</li> <li>With No Sulfates</li> <li>For normal to oily hair</li> <li>Clinically tested</li> </ul> </div> </div> <div> <h4>Description:</h4> <p>This unique deep cleansing and invigorating shampoo has been formulated to maintain a healthy and nutrient rich environment. The fortifying, anti-breakage properties promote naturally stronger, beautiful, healthy hair and healthy looking scalp. This shampoo has been developed for hair and scalps that are normal to oily in texture.</p> </div> <div> <h4>Benefits:</h4> <ul> <li>Suitable for colored and treated hair</li> <li>Promotes and maximizes healthy hair</li> <li>Nourishes the hair and scalp</li> </ul> </div> <div> <h4>How to use:</h4> <ul> <li>Wet hair and apply the shampoo.</li> <li>Work into a rich lather and massage thoroughly into the hair and scalp</li> <li>Rinse well and repeat to maximize results</li> </ul> </div>",83,100,Nisim,Nisim International,240 ML,"Hair, Scalp",Unisex,Y,Personal Care///Hair Care///Shampoo and Conditioner,Nisim Normal to Oily Hair Shampoo 240 mL.jpg///Nisim Normal to Oily Hair Shampoo 240 mL1.jpg,Common Vendor
ACM-ACM-223-725,ACM Novophane DS Shampoo 125 mL,"<div> <div> <h4>Short description:</h4> <ul> <li>Cleans the scalp and balance the skin flora</li> <li>Helps eradicate dandruff and limit its appearance</li> <li>Soothes red blotches and irritations of the scalp</li> </ul> </div> </div> <div> <h4>Description:</h4> <p>Novophane DS gently eliminates scaly conditions and helps prevent their reappearance. It contains soothing and moisturizing agents. Cleans the scalp and balances the skin flora. Helps eradicate dandruff and limit its appearance. Soothes red blotches, irritations and itching of the scalp.</p> </div> <div> <h4>Benefits:</h4> <ul> <li>Eliminates scaly conditions</li> <li>Helps prevent reappearance of Dandruff</li> <li>Soothes scalp</li> </ul> </div> <div> <h4>How to use:</h4> <ul> <li>Apply to wet hair, lather by massaging the scalp, leave for a few minutes and rinse generously.</li> </ul> </div>",99.73,100,ACM,ACM Laboratories,125 ML,"Hair, Scalp",Unisex,Y,Personal Care///Hair Care///Shampoo and Conditioner,ACM Novophane DS Shampoo 125 mL.jpg///ACM Novophane DS Shampoo 125 mL1.jpg,Common Vendor
ACM-ACM-224-726,ACM Novophane Energizing Shampoo 200 mL,"<div> <div> <h4><strong>Short description:</strong></h4> <ul> <li>Energizing shampoo</li> <li>For dull and tired hair</li> <li>Complement to anti hair loss treatments</li> </ul> </div> </div> <div> <h4><strong>Description:</strong></h4> <p>Combination of 6 vitamins with hair and scalp stimulating and fortifying properties, the Novophane energizing shampoo gently cleanses and stimulates fragile hair and scalp. It restores the hair's volume, strength and vigour and can be used as often as required. Gentle and vitamin-rich, it is highly effective in support of an anti-hair loss treatment or in rotation with care shampoos, such as anti-dandruff shampoos.</p> </div> <div> <h4><strong>Benefits:</strong></h4> <ul> <li>Gently cleanses and stimulates fragile hair and scalp</li> <li>Ideal supplement to anti-hair loss treatments</li> <li>Facilitates styling</li> </ul> </div> <div> <h4><strong>How to use:</strong></h4> <ul> <li>Wet the hair.</li> <li>Massage Novophane energizing shampoo gently until it foams. Rinse abundantly.</li> <li>In the event of contact with the eyes, rinse thoroughly with water.</li> </ul> </div>",126,100,ACM,ACM Laboratories,200 ML,"Hair, Scalp",Unisex,Y,Personal Care///Hair Care///Shampoo and Conditioner,ACM Novophane Energizing Shampoo 200 mL.jpg///ACM Novophane Energizing Shampoo 200 mL1.jpg,Common Vendor
REX-SOL-225-727,Rexsol Dandruff Control Shampoo 240 mL,"<div> <div> <h4><strong>Short description:</strong></h4> <ul> <li>Dandruff control shampoo</li> <li>With menthol</li> <li>Suitable for all hair types</li> </ul> </div> </div> <div> <h4><strong>Description:</strong></h4> <p>Rexsol dandruff control shampoo is effective against dandruff, yet gentle on your hair. It contains Zinc Pyrithione, a clinically proven anti-dandruff compound. It controls dandruff flaking while leaving hair clean, shining and easy to manage. It relieves the itching and flaking associated with dandruff and seborrheic dermatitis of the scalp.</p> </div> <div> <h4><strong>Benefits:</strong></h4> <ul> <li>Relieves the itching and flaking</li> <li>Leaves hair clean, shining and easy to manage</li> </ul> </div> <div> <h4><strong>How to use:</strong></h4> <ul> <li>Apply to wet hair and lather, rinse thoroughly.</li> </ul> </div>",58.1,100,Rexsol,Venzel,240 ML,"Hair, Scalp",Unisex,Y,Personal Care///Hair Care///Shampoo and Conditioner,Rexsol Dandruff Control Shampoo 240 mL.jpg,Common Vendor
REX-SOL-226-728,Rexsol Revitalizing Shampoo 240 mL,"<div> <div> <h4>Short description:</h4> <ul> <li>Scientifically formulated to clean thinning hair</li> <li>Protects hair from external wear and tear</li> <li>Suitable for all hair types</li> </ul> </div> </div> <div> <h4>Description:</h4> <p>Rexsol Revitalizing Shampoo gently cleanses the scalp and hair follicles of excess sebum and cholesterol stimulated by dihydroxytestrone, which is one of the factors believed to cause baldness.</p> </div> <div> <h4>Benefits:</h4> <ul> <li>Special ingredients penetrate the hair shaft, help seal the cuticle, and protect hair from wear and tear.</li> <li>It nourishes hair follicles while leaving scalp moist</li> <li>Promotes a healthy looking hair</li> </ul> </div> <div> <h4>How to use:</h4> <ul> <li>Apply to wet hair and lather, leave for one minute and then rinse off thoroughly.</li> </ul> </div>",65.45,100,Rexsol,Venzel,240 ML,"Hair, Scalp",Unisex,Y,Personal Care///Hair Care///Shampoo and Conditioner,Rexsol Revitalizing Shampoo 240 mL.jpg,Common Vendor
SEB-MED-227-729,Sebamed Anti -Hairloss Shampoo 200 mL,"<div> <div> <h4>Short description:</h4> <ul> <li>For all scalp types</li> <li>Reduce hair loss</li> <li>Enriched with Caffeine and Ginkgo biloba</li> </ul> </div> </div> <div> <h4>Description:</h4> <p>Sebamed Anti-Hairloss Shampoo reduces hair loss through activation of the functions of the scalp. Supports and protects the natural barrier function of the skin's acid mantle. The Sebamed Anti-Hairloss Shampoo has a new cleansing formulation that removes excess oil gently from hair and scalp and reduces progressive hair loss which is often associated with increased oiliness and dandruff.</p> </div> <div> <h4>Benefits:</h4> <ul> <li>Soap and alkali-free</li> <li>Reduces hair loss through stimulation of the oxygen and nutrient supply to the hair roots</li> <li>Niacin and caffeine, promotes skin circulation efficiently</li> <li>Revitalising sensations will strengthen your hair roots</li> </ul> </div> <div> <h4>How to use:</h4> <ul> <li>Wet the hair and scalp</li> <li>Gently apply a small amount of shampoo to the scalp</li> <li>Massage and lather it</li> <li>Rinse thoroughly</li> </ul> </div>",26.25,100,Sebamed,Sebamed Germany,200 ML,"Hair, Scalp",Unisex,Y,Personal Care///Hair Care///Shampoo and Conditioner,Sebamed Anti -Hairloss Shampoo 200 mL.jpg///Sebamed Anti -Hairloss Shampoo 200 mL1.jpg,Common Vendor
SEB-OLE-228-730,Sebizole 2% Anti-Dandruff Shampoo 100 mL,"<div> <div> <h4><strong>Short description:</strong></h4> <ul> <li>Anti dandruff shampoo</li> <li>Ketoconazole 2% w/w medicated shampoo</li> <li>For external use</li> </ul> </div> </div> <div> <h4><strong>Description:</strong></h4> <p>Sebizole contains Ketoconazole, used for the relief of signs and symptoms associated with seborrhoeic dermatitis of the scalp. Indicated for the topical treatment of severe dandruff of the scalp and pityriasis versicolor in adults.</p> </div> <div> <h4><strong>Benefits:</strong></h4> <ul> <li>Against dandruff and seborrhoeic dermatitis</li> <li>For external use</li> </ul> </div> <div> <h4><strong>How to use:</strong></h4> <ul> <li>Use as directed by your healthcare provider.</li> </ul> </div>",23,100,Sebizole,"
Douglas Pharma",100 ML,"Hair, Scalp",Unisex,Y,Personal Care///Hair Care///Shampoo and Conditioner,Sebizole 2% Anti-Dandruff Shampoo 100 mL.jpg///Sebizole 2% Anti-Dandruff Shampoo 100 mL1.jpg,Common Vendor
VIC-CHY-229-731,Vichy Dercos Energising Shampoo 200 mL,"<div> <div> <h4>Short description:</h4> <ul> <li>Targets hairloss</li> <li>With Aminexil and vitamins PP/B5/B6</li> <li>Hair is nourished, re enforced and looks more vigorous</li> </ul> </div> </div> <div> <h4>Description:</h4> <p>Vichy Dercos Energising Shampoo is a complement to hair-loss treatments, the only shampoo with Aminexil. Hair becomes stronger and more vigorous from roots to tips. It works by combating the stiffening of perifollicular collagen to retain flexibility and elasticity around hair roots, allowing hair to anchor itself more solidly in the scalp.</p> </div> <div> <h4>Benefits:</h4> <ul> <li>Ideal for men and women suffering from slight to confirmed hair loss</li> <li>Helps anchor the hair and hair recovers vigour and vitality from roots to tips</li> <li>Fluid texture, easy to apply and rinse out</li> <li>Hypoallergenic formula and paraben-free</li> </ul> </div> <div> <h4>How to use:</h4> <ul> <li>Apply to wet hair and leave to act for a few minutes, can be used frequently.</li> </ul> </div>",99.75,100,Vichy,Loreal,200 ML,"Hair, Scalp",Unisex,Y,Personal Care///Hair Care///Shampoo and Conditioner,Vichy Dercos Energising Shampoo 200 mL.jpg///Vichy Dercos Energising Shampoo 200 mL1.jpg,Common Vendor
DCL-DCL-230-732,DCL Anivagene Anti-Dandruff Shampoo 200 mL,"<div> <div> <h4><strong>Short description:</strong></h4> <ul> <li>Anti-dandruff shampoo</li> <li>Piroctone diamine</li> <li>Icelandic lichen extract</li> <li>Sage extract</li> </ul> </div> </div> <div> <h4><strong>Description:</strong></h4> <p>DCL Anivagene Anti-Dandruff Shampoo is formulated with piroctone diamine, icelandic lichen extract and sage extract. These are active principles that act as synergy to eliminate micro-organism responsible for dandruff, reduce the presence of flakes, itch and inflammation of the scalp.</p> </div> <div> <h4><strong>Benefits:</strong></h4> <ul> <li>Ideal for frequent use</li> <li>It normalizes the sebum excess in case of greasy dandruff</li> <li>It helps the scalp to become normal and healthy</li> </ul> </div> <div> <h4><strong>How to use:</strong></h4> <ul> <li>Apply the shampoo on wet hair, gently massage and rinse thoroughly.</li> </ul> </div>",85,100,DCL,DCL,200 ML,"Hair, Scalp",Unisex,Y,Personal Care///Hair Care///Shampoo and Conditioner,DCL Anivagene Anti-Dandruff Shampoo 200 mL.jpg///DCL Anivagene Anti-Dandruff Shampoo 200 mL1.jpg,Common Vendor
ISD-DIN-231-733,Isdin Lambdapil Anti-Hair Loss Shampoo 200 mL,"<div> <div> <h4><strong>Short description:</strong></h4> <ul> <li>Helps prepare the scalp for anti-hair loss treatments</li> <li>Nourishes and strengthens the hair from root</li> <li>Frequent use provides strength and volume</li> <li>Without leaving oily residue</li> </ul> </div> </div> <div> <h4><strong>Description:</strong></h4> <p>Isdin Lambdapil Anti-Hair Loss Shampoo is indicated for men and women who have excessive hair loss. It has an exclusive combination of active ingredients; Serenoa repens extract and multi-action Trichogen complex. It leaves the hair in favorable conditions for subsequent application of capillary lotions.</p> </div> <div> <h4><strong>Benefits:</strong></h4> <ul> <li>Helps slow hair loss stimulate growth.</li> <li>Activates the hair follicle and normalizes sebum secretion.</li> <li>Nourishes and strengthens the structure of hair.</li> <li>Its conditioning agent allows for daily use and leave no greasy residue.</li> </ul> </div> <div> <h4><strong>How to use:</strong></h4> <ul> <li>Apply on damp hair and gently massage hair and scalp until foamy.</li> <li>Rinse with water and repeat with a deep massage, leave foam to act for few minutes.</li> <li>Rinse with water.</li> </ul> </div>",91.88,100,Isdin,Isdin,200 ML,"Hair, Scalp",Unisex,Y,Personal Care///Hair Care///Shampoo and Conditioner,Isdin Lambdapil Anti-Hair Loss Shampoo 200 mL.jpg///Isdin Lambdapil Anti-Hair Loss Shampoo 200 mL1.jpg,Common Vendor
NAT-RLD-232-734,Natural World Brazilian Keratin Smooth Therapy Shampoo 500 mL,"<div> <div> <h4>Short description:</h4> <ul> <li>Brazilian keratin</li> <li>Smoothing therapy shampoo</li> <li>Natural derived 95% ingredients</li> <li>Paraben free, Phosphate free, Gluten free</li> </ul> </div> </div> <div> <h4>Description:</h4> <p>Natural World Brazilian Keratin Smooth Therapy Shampoo is wonderfully creamy formula infused with precious keratin and uplifting blend of 4 essential oils (Rosemary, Lemongrass, Orange and Ylang Ylang). Keratin the main constituent of hair, helps provide targeted repair to the most damaged areas of fine hair's surface.</p> </div> <div> <h4>Benefits:</h4> <ul> <li>Help repair</li> <li>Control frizz</li> <li>Restore shine and softness</li> <li>For dry and frizzy hair</li> </ul> </div> <div> <h4>How to use:</h4> <ul> <li>Apply generously to wet hair and massage into a rich, creamy lather. Rinse thoroughly</li> <li>Repeat application if necessary</li> </ul> </div>",20,100,Natural World,Natural World,500 ML,"Hair, Scalp",Unisex,Y,Personal Care///Hair Care///Shampoo and Conditioner,Natural World Brazilian Keratin Smooth Therapy Shampoo 500 mL.jpg///Natural World Brazilian Keratin Smooth Therapy Shampoo 500 mL1.jpg,Common Vendor
VIC-CHY-233-735,Vichy Dercos Densi-Solutions Thickening Shampoo 250 mL,<div> <div> <h4><strong>Short description:</strong></h4> <ul> <li>Thickening shampoo</li> <li>Rhamnose and Filloxane</li> <li>No parabens</li> </ul> </div> </div> <div> <h4><strong>Description:</strong></h4> <p>Vichy Dercos Densi-Solutions Thickening Shampoo is a daily shampoo to cleanse and promote thicker and more healthy looking hair. It is enriched with Rhamnose and restructuring Filloxane.</p> </div> <div> <h4><strong>Benefits:</strong></h4> <ul> <li>Promotes thicker looking hair in just 6 weeks</li> <li>Cleanses and restores hair</li> <li>Easy to apply with no parabens added which is friendly for sensitive hair</li> <li>For daily use</li> </ul> </div> <div> <h4><strong>How to use:</strong></h4> <ul> <li>Apply shampoo onto scalp and wet hair.</li> <li>Gently massage and rinse.</li> </ul> </div>,99.75,100,Vichy,Loreal,250 ML,"Hair, Scalp",Unisex,Y,Personal Care///Hair Care///Shampoo and Conditioner,Vichy Dercos Densi-Solutions Thickening Shampoo 250 mL.jpg///Vichy Dercos Densi-Solutions Thickening Shampoo 250 mL1.jpg,Common Vendor
SEB-MED-234-736,Sebamed Adult Hair Repair Conditioner 200 mL,"<div> <div> <h4>Short description:</h4> <ul> <li>Hair repair conditioner</li> <li>For all hair types</li> <li>Against hair breakage</li> </ul> </div> </div> <div> <h4>Description:</h4> <p>Sebamed Adult Hair Repair Conditioner is a selected nourishing and conditioning complex that penetrates deeply into the hair shaft to improve and strengthen hair structure, which is easily damaged by styling and harmful environmental influences.</p> </div> <div> <h4>Benefits:</h4> <ul> <li>Effective conditioning of hair and scalp</li> <li>Deep penetration for moisture balance</li> <li>It protects the hair from becoming dry giving luster and volume</li> <li>It softens hair and acquires new vitality and gains body</li> </ul> </div> <div> <h4>How to use:</h4> <ul> <li>Wash your hair.</li> <li>Work a small quantity into a lather in the palms of your hands.</li> <li>Leave it on hair fro 2 minutes. Then rinse it thoroughly.</li> </ul> </div>",24.25,100,Sebamed,Sebapharma Germany,200 ML,"Hair, Scalp",Unisex,Y,Personal Care///Hair Care///Shampoo and Conditioner,Sebamed Adult Hair Repair Conditioner 200 mL.jpg///Sebamed Adult Hair Repair Conditioner 200 mL1.jpg,Common Vendor
PRI-RIN-235-737,Priorin Shampoo for Normal to Dry Hair 200 mL,"<div> <div> <h4>Short description:</h4> <ul> <li>Revitalizing shampoo for lifeless hair</li> <li>Natural care for strong hair</li> <li>Normal/Dry</li> <li>Natural plant extracts</li> </ul> </div> </div> <div> <h4>Description:</h4> <p>Priorin Shampoo for Normal to Dry Hair contains natural plant extracts which reinforce hair structure and revitalize hair beauty. Glycoproteins is a plant derivative factor that strengthen and nourish the hair. Millet extract is suitable for soothing the scalp and nourishing the hair.</p> </div> <div> <h4>Benefits:</h4> <ul> <li>With vitamin B5 that restores and moisturizes the hair</li> <li>It gives volume and brilliance</li> <li>It soothes the scalp and nourished the hair</li> </ul> </div> <div> <h4>How to use:</h4> <ul> <li>Shampoo hair, gently massaging the scalp</li> <li>Let foam act for 2-3 minutes</li> <li>Then rinse thoroughly</li> <li>Repeat the operation</li> </ul> </div>",101,100,Priorin,Bayer Consumer Healthcare,200 ML,"Hair, Scalp",Unisex,Y,Personal Care///Hair Care///Shampoo and Conditioner,Priorin Shampoo for Normal to Dry Hair 200 mL.jpg///Priorin Shampoo for Normal to Dry Hair 200 mL1.jpg,Common Vendor
PRI-RIN-236-738,Priorin Shampoo for Oily Hair 200 mL,"<div> <div> <h4>Short description:</h4> <ul> <li>Revitalizing shampoo</li> <li>For lifeless hair</li> <li>Natural care for strong hair</li> <li>Oily</li> <li>With natural plant extracts</li> </ul> </div> </div> <div> <h4>Description:</h4> <p>Priorin Shampoo for Oily Hair contains natural plant extracts which reinforce hair structure and revitalize hair beauty. Glycoproteins is a plant derivative factor that strengthen and nourish the hair. Millet extract is suitable for soothing the scalp and nourishing the hair.</p> </div> <div> <h4>Benefits:</h4> <ul> <li>With vitamin B5 that restores and moisturizes the hair</li> <li>It gives volume and brilliance</li> <li>It soothes the scalp and nourished the hair</li> </ul> </div> <div> <h4>How to use:</h4> <ul> <li>Shampoo hair, gently massaging the scalp</li> <li>Let foam act for 2-3 minutes</li> <li>Then rinse thoroughly</li> <li>Repeat the operation</li> </ul> </div>",101,100,Priorin,Bayer Consumer Healthcare,200 ML,"Hair, Scalp",Unisex,Y,Personal Care///Hair Care///Shampoo and Conditioner,Priorin Shampoo for Oily Hair 200 mL.jpg///Priorin Shampoo for Oily Hair 200 mL1.jpg,Common Vendor
BIO-KAP-237-739,Biokap Nutricolor Restructuring Shampoo 200 mL,"<div> <div> <h4>Short description:</h4> <ul> <li>Color-saving treatment for colored hair</li> <li>Restructuring shampoo</li> <li>With eucalyptus essential oil, rosemary extract and willow</li> <li>Enriched with bio argan oil which provides nourishment and shine</li> </ul> </div> </div> <div> <h4>Description:</h4> <p>Biokap Nutricolor Restructuring Shampoo is a specific shampoo for dyed and bleached hair. Ideal for frequent use. Due to its high content of unsaturated fatty acids and vitamin E, Argan oil protects, restores and leaves brittle and fragile hair shiny. The essential oils of Rosemary and Eucalyptus have a toning effect on the scalp. Willow extract extends the life of the color by protecting hair from UV radiation.</p> </div> <div> <h4>Benefits:</h4> <ul> <li>Gentle shampoo restructures and conditions the hair, enhancing its natural brightness</li> <li>It contains plant surfactants, it ensures extremely gentle cleansing of the hair and scalp</li> <li>Strengthening the hair fiber and making it soft and voluminous</li> </ul> </div> <div> <h4>How to use:</h4> <ul> <li>Apply to wet hair, massaging gently over the entire length of the hair. Rinse and repeat</li> </ul> </div>",47.2,100,Biokap,Silvio Mora S.R.L.,200 ML,"Hair, Scalp",Unisex,Y,Personal Care///Hair Care///Shampoo and Conditioner,Biokap Nutricolor Restructuring Shampoo 200 mL.jpg///Biokap Nutricolor Restructuring Shampoo 200 mL1.jpg,Common Vendor
TEA-APY-238-740,Tea Tree Therapy Shampoo 473 mL,"<div> <div> <h4>Short description:</h4> <ul> <li>Gentle cleaning</li> <li>Removes build-up</li> <li>For all hair types</li> <li>With tea tree oil and herbal extracts</li> </ul> </div> </div> <div> <h4>Description:</h4> <p>Tea Tree Therapy Shampoo with Tea Tree Oil and Extracts of Arnica, Rosemary, Stinging Nettle and Sage, gently and completely removes build-up from hair and adds moisture to dry flaking scalp. Continuous use will leave hair and scalp in natural condition. It provides gentle cleansing for all hair types and leaves no chemical residue.</p> </div> <div> <h4>Benefits:</h4> <ul> <li>Leaves no chemical residue</li> <li>Leaves hair and scalp refreshed</li> <li>Adds moisture to dry flaking scalp</li> <li>pH balanced</li> </ul> </div> <div> <h4>How to use:</h4> <ul> <li>Apply a small amount of shampoo to wet hair and gently massage into hair and scalp</li> <li>Rinse thoroughly with warm water, repeat if needed</li> <li>For best results use with Tea Tree Therapy Conditioner to leave the hair nourished and tangle free</li> </ul> </div>",48,100,Tea Tree Therapy,"Tea Tree Therapy Inc,CA",473 ML,"Hair, Scalp",Unisex,Y,Personal Care///Hair Care///Shampoo and Conditioner,Tea Tree Therapy Shampoo 473 mL.jpg///Tea Tree Therapy Shampoo 473 mL1.jpg,Common Vendor
SAN-TUM-239-741,Sanctum Shampoo For Normal Hair 200 g,"<div> <div> <h4>Short description:</h4> <ul> <li>Cleanses the hair from the roots to tips through foaming action</li> <li>Penetrates the roots of the hair to strengthen and soften the hair</li> <li>Provides a refreshing aroma, whilst cleansing the hair</li> </ul> </div> </div> <div> <h4>Description:</h4> <p>Sanctum Shampoo For Normal Hair is a pure gentle shampoo that cleanses and fortifies the hair without stripping it of its natural oils . A blend of Lime Oil and Chamomile Extract will help purify and refresh your hair.</p> </div> <div> <h4>Benefits:</h4> <ul> <li>Hydrolyzed Soy Protein penetrates the roots of the hair to strengthen and soften the hair</li> <li>Lime Oil Provides a refreshing aroma, whilst cleansing the hair</li> </ul> </div> <div> <h4>How to use:</h4> <ul> <li>Use daily, wet hair thoroughly</li> <li>Massage a generous amount of shampoo into hair and scalp</li> <li>Rinse thoroughly, repeat if necessary</li> </ul> </div>",14.55,100,Sanctum,Cawarra Cosmetics,200 G,"Hair, Scalp",Unisex,Y,Personal Care///Hair Care///Shampoo and Conditioner,Sanctum Shampoo For Normal Hair 200 g.jpg,Common Vendor
DR0-NIC-240-742,Dr. Organic Lavender Shampoo 265 mL,"<div> <div> <h4>Short description:</h4> <ul> <li>Unique organic bioactive</li> <li>Lavender rich</li> <li>Has balancing, volumising and nourishing properties</li> </ul> </div> </div> <div> <h4>Description:</h4> <p>Dr. Organic Lavender Shampoo is a combination of fragrant essential oil with organic Aloe Vera, designed to leave the hair feeling strengthened, manageable and in total control. This shampoo is beneficial to all hair types and effective in preventing flaky scalp conditions.</p> </div> <div> <h4>Benefits:</h4> <ul> <li>Rich and pleasantly scented</li> <li>Based on Organic Lavender oil and Aloe Vera</li> <li>Volumizes, nourishes and is designed to leave the hair feeling strengthened, manageable and in total control</li> </ul> </div> <div> <h4>How to use:</h4> <ul> <li>Start with a rinse</li> <li>If you have long hair, condition first</li> <li>Lather up  but only at the scalp</li> <li>Don't rinse and repeat</li> <li>Add conditioner from the mid-lengths to the tips</li> <li>Finish with a cold water rinse</li> </ul> </div>",60,100,Dr Organic,Dr Organics Group Ltd,265 ML,"Hair, Scalp",Unisex,Y,Personal Care///Hair Care///Shampoo and Conditioner,Dr. Organic Lavender Shampoo 265 mL.jpg///Dr. Organic Lavender Shampoo 265 mL1.jpg,Common Vendor
DR0-NIC-241-743,Dr. Organic Moroccan Argan Oil Shampoo 265 mL,"<div> <div> <h4>Short description:</h4> <ul> <li>Moisture repair</li> <li>Revitalizing</li> <li>Hydrating and smoothing</li> <li>Rich in EFAs</li> </ul> </div> </div> <div> <h4>Description:</h4> <p>Moroccan Argan oil is an original natural solution against premature aging. It is an incredibly rich source of vitamins, antioxidants and essential fatty acids. Women of the Mediterranean have used Moroccan Argan oil for centuries. The unique properties of this amazing oil are combined with a number of organic essential oils and fruit extracts to create a rich shampoo.</p> </div> <div> <h4>Benefits:</h4> <ul> <li>Leaving the hair looking and feeling beautifully rehydrated and revitalized.</li> <li>Smoothen and cleanses the hairs cuticle fibers.</li> </ul> </div> <div> <h4>How to use:</h4> <ul> <li>Massage shampoo onto wet hair. Rinse and repeat if necessary.</li> </ul> </div>",60,100,Dr Organic,Dr Organics Group Ltd,265 ML,"Hair, Scalp",Unisex,Y,Personal Care///Hair Care///Shampoo and Conditioner,Dr. Organic Moroccan Argan Oil Shampoo 265 mL.jpg///Dr. Organic Moroccan Argan Oil Shampoo 265 mL1.jpg,Common Vendor
DES-NCE-242-744,Desert Essence Italian Red Grape Shampoo 237 mL,"<div> <div> <h4>Short description:</h4> <ul> <li>Protection for color treated hair</li> <li>Repairs damage from environmental stressors</li> <li>Helps strengthen hair</li> </ul> </div> </div> <div> <h4>Description:</h4> <p>Desert Essence Italian Red Grape Shampoo is extracted from red grapes native to Italy, Organic Grape Extract, Resveratrol, and Red Wine Extract provide high levels of antioxidants that act as UV filters to aid in correcting damage. Sugar and Coconut Oil cleansers effectively and gently remove everyday pollutants from hair. Organic Kelp and Nettle Extracts provide iron, calcium, potassium, and other vitamins and minerals that absorb into and help strengthen each hair strand.</p> </div> <div> <h4>Benefits:</h4> <ul> <li>Protects both color and non-color treated hair from harmful sun damage</li> <li>Strengthen each hair strand</li> <li>Effectively and gently remove everyday pollutants from hair</li> </ul> </div> <div> <h4>How to use:</h4> <ul> <li>Massage into wet hair, lather and rinse thoroughly</li> <li>For best results, follow with desert essence italian red grape conditioner</li> </ul> </div>",50.4,100,Desert Essence,Desert Essence,237 ML,"Hair, Scalp",Unisex,Y,Personal Care///Hair Care///Shampoo and Conditioner,Desert Essence Italian Red Grape Shampoo 237 mL.jpg,Common Vendor
DES-NCE-243-745,Desert Essence Tea Tree Daily Replenishing Shampoo 382 mL,"<div> <div> <h4>Short description:</h4> <ul> <li>Deep cleaning formula</li> <li>Restores moisture balance to hair and scalp</li> <li>Formulated with Peppermint and Yucca</li> </ul> </div> </div> <div> <h4>Description:</h4> <p>The natural medicinal properties of Eucalyptus are formulated with powerful, yet gentle Australian Tea Tree Oil to help bring healing to a flaking scalp. Aromatic Peppermint Oil offers reviving, cooling comfort while Yucca conditions for a shiny, beautiful finish.</p> </div> <div> <h4>Benefits:</h4> <ul> <li>Helps to restore moisture balance to hair and scalp</li> <li>Adds shine while helping to reduce flaking</li> <li>Deeply cleanses without stripping hair's natural emollients</li> </ul> </div> <div> <h4>How to use:</h4> <ul> <li>Massage a small amount into wet hair and scalp</li> <li>Lather, and then rinse thoroughly with cool water</li> <li>Follow with desert essence tea tree replenishing conditioner for maximum results</li> <li>Not recommended for color-treated hair, as tea tree can fade color</li> </ul> </div>",65.6,100,Desert Essence,Desert Essence,382 ML,"Hair, Scalp",Unisex,Y,Personal Care///Hair Care///Shampoo and Conditioner,Desert Essence Tea Tree Daily Replenishing Shampoo 382 mL.jpg///Desert Essence Tea Tree Daily Replenishing Shampoo 382 mL1.jpg,Common Vendor
DES-NCE-244-746,Desert Essence Red Raspberry Shampoo 237 mL,"<div> <div> <h4>Short description:</h4> <ul> <li>Natural formula strengthens hair</li> <li>Shine enhancing</li> <li>Removes everyday pollutants and buildup from hair</li> </ul> </div> </div> <div> <h4>Description:</h4> <p>Desert essence red raspberry shampoo contains sugar and coconut oil cleansers, gently lift and remove everyday environmental pollutants without removing hair's natural oils. Rich in vitamins A and C, calcium and magnesium. Organic red raspberry leaf extract strengthens hair and imparts a natural shine.</p> </div> <div> <h4>Benefits:</h4> <ul> <li>Removes everyday pollutants and buildup from hair</li> <li>Adds gloss and shine</li> <li>Strengthens hair</li> </ul> </div> <div> <h4>How to use:</h4> <ul> <li>After wetting hair, massage a small amount in to create lather</li> <li>Rinse well and repeat as necessary</li> </ul> </div>",50.4,100,Desert Essence,Desert Essence,237 ML,"Hair, Scalp",Unisex,Y,Personal Care///Hair Care///Shampoo and Conditioner,Desert Essence Red Raspberry Shampoo 237 mL.jpg///Desert Essence Red Raspberry Shampoo 237 mL1.jpg,Common Vendor
SEB-MED-245-747,Sebamed Everyday Shampoo,"<div> <div> <h4>Short description:</h4> <ul> <li>For normal to dry hair</li> <li>Extra mild cleansing for daily hair care</li> <li>Retains moisture and add volume to hair</li> <li>For healthy hair and scalp</li> <li>Clinically tested</li> </ul> </div> </div> <div> <h4>Description:</h4> <p>This is a gentle extra mild cleansing shampoo with surfactant for daily hair care and protection for scalp. It supports and protects the acid mantle of the scalp for healthy hair. Stabilizes the hair structure with the pH value of 5.5.</p> </div> <div> <h4>Benefits:</h4> <ul> <li>100% soap and alkali-free</li> <li>Formulated with vegetal based active cleansing agents for gentle daily hair care</li> <li>Glycoside surfactant blend safeguards hair and scalp against dryness</li> <li>Keeps hair structure intact for healthy shiny hair</li> <li>Moisture retaining properties penetrate the structure of the hair shaft, adding volume and a silky luster to hair</li> <li>Pleasant delicate fragrance</li> </ul> </div> <div> <h4>How to use:</h4> <ul> <li>Wet the hair and scalp.</li> <li>Gently apply a small amount of shampoo to the scalp.</li> <li>Massage and lather it.</li> <li>Rinse thoroughly.</li> </ul> </div>",21,100,Sebamed,Sebapharma Germany,200 ML,"Hair, Scalp",Unisex,Y,Personal Care///Hair Care///Shampoo and Conditioner,Sebamed Everyday Shampoo.jpg///Sebamed Everyday Shampoo1.jpg,Common Vendor
SEB-MED-246-748,Sebamed Anti-Dandruff Shampoo,"<div> <div> <h4>Short description:</h4> <ul> <li>Anti-dandruff shampoo for oily dandruff prone scalp</li> <li>Soap and alkali-free</li> <li>Relieves dandruff irritation</li> <li>pH 5.5 for healthy hair and scalp</li> </ul> </div> </div> <div> <h4>Description:</h4> <p>This is a gentle cleansing shampoo with mild wash active substances and removing visible signs of dandruff. It supports and protects the acid mantle of the scalp for healthy hair. The pH value of 5.5 supports the regeneration of the scalp's acid mantle to stabilize its barrier function.</p> </div> <div> <h4>Benefits:</h4> <ul> <li>100% soap and alkali-free</li> <li>Active ingredient Piroctone Olamine ensures the gentle removal of dandruff</li> <li>Mild wash active substances gently cleanse hair and scalp, removing visible signs of dandruff irritation</li> <li>Moisturizing and conditioning ingredients revitalize the hair, gives shine</li> <li>Daily hair care stabilizes oily scalp</li> </ul> </div> <div> <h4>How to use:</h4> <ul> <li>Wet the hair, work a small quantity into a lather in the palms of your hands</li> <li>Wash the hair massaging the scalp gently</li> <li>Rinse thoroughly</li> <li>Repeat the application if necessary</li> </ul> </div>",22.25,100,Sebamed,Sebapharma Germany,200 ML,"Hair, Scalp",Unisex,Y,Personal Care///Hair Care///Shampoo and Conditioner,Sebamed Anti-Dandruff Shampoo.jpg///Sebamed Anti-Dandruff Shampoo1.jpg,Common Vendor
BAT-STE-247-749,Batiste Dry Shampoo 200 mL,"<div> <div> <h4>Short description:</h4> <ul> <li>Instant hair refresh</li> <li>Dry shampoo</li> <li>Floral and feminine blush</li> </ul> </div> </div> <div> <h4>Description:</h4> <p>Bursting with fabulous fragrance that lasts all day, Batiste Blush Dry Shampoo is perfect to use between washes for instant hair refreshment. The essence of femininity, Blush is the floral, flirty way to turn heads. A few quick sprays instantly leaves hair feeling clean, fresh and full of body and texture.</p> </div> <div> <h4>Benefits:</h4> <ul> <li>Leaves hair feeling gorgeously clean and fresh by removing excess oil</li> <li>Floral and flirty fragrance</li> </ul> </div> <div> <h4>How to use:</h4> <ul> <li>Shake vigorously before use. Keeping nozzle about 30 cm from hair, spray into roots</li> <li>Massage thorough with fingertips to ensure roots are fully covered</li> <li>Brush through from roots to ends to remove excess residue and style as desired</li> </ul> </div>",34,100,Batiste,Church & Dwight UK LTD,200 ML,"Hair, Scalp",Unisex,Y,Personal Care///Hair Care///Shampoo and Conditioner,Batiste Dry Shampoo 200 mL.jpg,Common Vendor
BIO-RMA-248-750,Bioderma Node Non-Detergent Fluid Shampoo,"<div> <div> <h4>Short description:</h4> <ul> <li>Suitable for all types of hair</li> <li>Non-detergent fluid shampoo</li> <li>Restores the hair's shine and radiance</li> </ul> </div> </div> <div> <h4>Description:</h4> <p>Bioderma Node Shampoo is a non-stripping shampoo that respects the biological balance of fragile hair and scalps. It has gentle cleansing base, made of a unique combination of surfactants. It effectively cleanses while respecting the hydrolipidic film of the hair and scalp.</p> </div> <div> <h4>Benefits:</h4> <ul> <li>Gently cleanses</li> <li>Can be used as follow-up to medicated shampoos</li> <li>Daily use</li> <li>Scented formula</li> <li>Also suitable for Brazilian hair straightening</li> </ul> </div> <div> <h4>How to use:</h4> <ul> <li>Apply morning or evening 7 days a week, lather while gently massaging your scalp, rinse thoroughly and repeat.</li> </ul> </div>",71.5,100,Bioderma,Bioderma,200 ML,"Hair, Scalp",Unisex,Y,Personal Care///Hair Care///Shampoo and Conditioner,Bioderma Node Non-Detergent Fluid Shampoo.jpg///Bioderma Node Non-Detergent Fluid Shampoo1.jpg,Common Vendor
NEX-XUS-249-751,Nexxus Dry Shampoo Refreshing Mist 141 mL,"<div> <div> <h4>Short description:</h4> <ul> <li>Weightlessly cleanses hair, giving refreshing volume and fluidity</li> <li>Enriched with pearl extract</li> <li>No visible residue</li> <li>Salon-quality dry shampoo for volume cleanses hair between washes</li> </ul> </div> </div> <div> <h4>Description:</h4> <p>Nexxus Dry Shampoo Refreshing Mist with pearl extract, instantly cleanses and refreshes hair in between regular washes.This lightweight formula absorbs oil, sweat, and odor while extending the life of your style on non-wash days. Your hair will be left looking revived, with volume and a fresh texture.</p> </div> <div> <h4>Benefits:</h4> <ul> <li>Refreshes hair without water to extend the life of your style</li> <li>Lightweight formula recharges hair to retain natural movement</li> <li>Weightlessly cleanses hair, giving refreshing volume and fluidity</li> </ul> </div> <div> <h4>How to use:</h4> <ul> <li>Refreshes hair without water to extend the life of your style</li> <li>Lightweight formula recharges hair to retain natural movement</li> <li>Weightlessly cleanses hair, giving refreshing volume and fluidity</li> </ul> </div>",58.8,100,Nexxus,"Nexxus, USA",141 ML,"Hair, Scalp",Unisex,Y,Personal Care///Hair Care///Shampoo and Conditioner,Nexxus Dry Shampoo Refreshing Mist 141 mL.jpg///Nexxus Dry Shampoo Refreshing Mist 141 mL1.jpg,Common Vendor
NEX-XUS-250-752,Nexxus Keraphix Damage Healing Shampoo 400 mL,"<div> <h4>Description:</h4> <p>Nexxus Keraphix Damage Healing Shampoo acts as the first step of the treatment process, gently cleanses your severely damaged hair and priming it for continued treatment. Infused with and exclusive Proteinfusion blend with keratin protein and black rice.</p> </div> <div> <h4>Benefits:</h4> <ul> <li>Prepares hair for deep conditioning</li> <li>Gently cleanses and penetrates the hair fiber, starting the Keraphix damage healing process</li> <li>Helps to increase the resilience of hairs cortex</li> </ul> </div> <div> <h4>How to use:</h4> <ul> <li>Apply to wet hair and experience the rich lather. Rice thoroughly</li> <li>Follow with KERAPHIX conditioner or masque to heal signs of damage</li> <li>Once a week, follow with Keraphix reconstructing treatment for a complete restorative ritual for smooth, soft and healthy-looking hair</li> </ul> </div>",78.05,100,Nexxus,"Nexxus, USA",400 ML,"Hair, Scalp",Unisex,Y,Personal Care///Hair Care///Shampoo and Conditioner,Nexxus Keraphix Damage Healing Shampoo 400 mL.jpg///Nexxus Keraphix Damage Healing Shampoo 400 mL1.jpg,Common Vendor
VIC-CHY-251-753,Vichy Dercos Detox Purifying Shampoo 250 mL,"<div> <div> <h4>Short description:</h4> <ul> <li>Purifies hair and scalp</li> <li>Increases hair volume</li> <li>Decreases sebum</li> <li>With Spirulina and charcoal</li> </ul> </div> </div> <div> <h4>Description:</h4> <p>Vichy Dercos Detox Purifying Shampoo specially developed to deeply cleanse and protect hair and scalp made greasy from external aggressors such as pollution.</p> </div> <div> <h4>Benefits:</h4> <ul> <li>Combats pollution and oiliness and addresses scalp health</li> <li>Leaves hair lightweight with a healthy shine and a silky touch</li> <li>Formulated with detoxifying spirulina to absorb pollutant particles</li> <li>No silicone and no parabens</li> </ul> </div> <div> <h4>How to use:</h4> <ul> <li>Apply to wet hair, creating a lather. Rinse thoroughly with water avoiding eye area</li> <li>Follow with Dercos Nutrients Detox Conditioner</li> </ul> </div>",89,100,Vichy,Vichy Laboratories,250 ML,"Hair, Scalp",Unisex,Y,Personal Care///Hair Care///Shampoo and Conditioner,Vichy Dercos Detox Purifying Shampoo 250 mL.jpg///Vichy Dercos Detox Purifying Shampoo 250 mL1.jpg,Common Vendor
VIC-CHY-252-754,Vichy Dercos Detox Dry Shampoo 150 mL,"<div> <div> <div> <div> <h4>Short description:</h4> <ul> <li>Purifies hair and scalp</li> <li>Increases hair volume</li> <li>Suitable for frequent use</li> <li>Detoxifying and absorbing</li> </ul> </div> </div> <div> <h4>Description:</h4> <p>Vichy Dercos Detox Dry Shampoo specially developed for use between washes to refresh, volumize and cleanse hair and scalp made greasy from external aggressors such as pollution.</p> </div> <div> <h4>Benefits:</h4> <ul> <li>Combats pollution and oiliness and leaves hair feeling clean and volumized</li> <li>Extends the time between washes</li> <li>Formulated with detoxifying spirulina to absorb pollutant particles</li> <li>No silicone and no parabens</li> </ul> </div> <div> <h4>How to use:</h4> <ul> <li>Spray dry shampoo onto roots to perk up hair between washes. Blend any residue into the roots</li> <li>Volumize, use slim hair brush to further help work the formula into your hair</li> </ul> </div> </div> </div>",89,100,Vichy,Vichy Laboratories,150 ML,"Hair, Scalp",Unisex,Y,Personal Care///Hair Care///Shampoo and Conditioner,Vichy Dercos Detox Dry Shampoo 150 mL.jpg///Vichy Dercos Detox Dry Shampoo 150 mL1.jpg,Common Vendor
VIC-CHY-253-755,Vichy Dercos Nutri-Protein Shampoo 250 mL,"<div> <div> <h4>Short description:</h4> <ul> <li>Restorative shampoo</li> <li>For dry hair that requires nourishment</li> <li>Gentle cleansing base</li> </ul> </div> </div> <div> <h4>Description:</h4> <p>Vichy Dercos Nutri-Protein Shampoo is enriched with nutria-protein complex based on Pracaxi oil and Quinoa bran. Nourishing shampoo for dry hair with plant-derived cleansing base that acts on hair fiber restoration and luminous complexion.</p> </div> <div> <h4>Benefits:</h4> <ul> <li>Restores and nourishes hair fiber for healthy and luminous reflection</li> <li>Cleanses hair and make every strand supple</li> <li>Gently cleanses hait as its a silicone free shampoo</li> </ul> </div> <div> <h4>How to use:</h4> <ul> <li>Apply generously massage and enjoy then rinse off</li> <li>In case of contact with eyes, rinse them immediately and thoroughly</li> </ul> </div>",89,100,Vichy,Vichy Laboratories,250 ML,Hair,Unisex,Y,Personal Care///Hair Care///Shampoo and Conditioner,Vichy Dercos Nutri-Protein Shampoo 250 mL.jpg///Vichy Dercos Nutri-Protein Shampoo 250 mL1.jpg,Common Vendor
EVO-ERM-254-756,Evoluderm Delight Shea Butter Shampoo 400 mL,"<div> <div> <h4><strong>Short description:</strong></h4> <ul> <li>Repairing shampoo</li> <li>For long delicate hair</li> <li>Without silicone</li> <li>Revitalizes the lengths right to the ends</li> </ul> </div> </div> <div> <h4><strong>Description:</strong></h4> <p>Evoluderm Delight Shea Butter Shampoo 400 mL 17308Description:Evoluderm Delight Shea Butter Shampoo is specially formulated for long and delicate hair. This creamy and ultra-melt in texture provides them with care and nourishment without weighing them down.</p> </div> <div> <h4><strong>Benefits:</strong></h4> <ul> <li>Helps repair hair from deep inside</li> <li>Recovers hair strength and beauty</li> <li>Helps hair to regain vitality and flexibility from the lengths to the ends</li> </ul> </div> <div> <h4><strong>How to use:</strong></h4> <ul> <li>Apply the shampoo to damp hair</li> <li>Massage in using circular movements, then rinse</li> <li>Use with Evoluderm hair mask for optimum results</li> </ul> </div>",14.4,100,Evoluderm,"Paris Evoluderm, France",400 ML,Hair,Female,Y,Personal Care///Hair Care///Shampoo and Conditioner,Evoluderm Delight Shea Butter Shampoo 400 mL.jpg///Evoluderm Delight Shea Butter Shampoo 400 mL1.jpg,Common Vendor
HEL-OVA-255-757,Helan Genova Capelvenere Walnut and Peruvian Bark BioShampoo 200 mL,"<div> <div> <h4>Short description:</h4> <ul> <li>For hair from dark brown to black</li> <li>100% of natural origin in the formulation</li> <li>For frequent use</li> </ul> </div> </div> <div> <h4>Description:</h4> <p>Helan Genova Capelvenere Walnut and Peruvian Bark BioShampoo is the result of the combined action of Sweet Almond Proteins with their restructuring properties, Walnut leaves and husk extract, rich in juglone, and Peruvian Bark extract, slightly astringent makes this shampoo especially suitable for dark hair giving it added shine.</p> </div> <div> <h4>Benefits:</h4> <ul> <li>Improves hair appearance</li> <li>Delivers increased softness and silkiness</li> <li>100% of natural origin in formulation</li> </ul> </div> <div> <h4>How to use:</h4> <ul> <li>Apply to wet hair with a light massage</li> <li>Leave on for a few minutes before rinsing to allow the plant extracts to perform their action fully</li> <li>Rinse thoroughly with slightly-warm water</li> </ul> </div>",52,100,Helan Genova,Helan Cosmetics,200 ML,Hair,Unisex,Y,Personal Care///Hair Care///Shampoo and Conditioner,Helan Genova Capelvenere Walnut and Peruvian Bark BioShampoo 200 mL.jpg///Helan Genova Capelvenere Walnut and Peruvian Bark BioShampoo 200 mL1.jpg,Common Vendor
HEL-OVA-256-758,Helan Genova Capelvenere Re-Plumping BioShampoo 200 mL,"<div> <div> <h4>Short description:</h4> <ul> <li>Re-moisturizing beauty concentrate</li> <li>Leaves the hair looking visibly younger</li> <li>For all hair types</li> <li>With hyaluronic acid</li> </ul> </div> </div> <div> <h4>Description:</h4> <p>Helan Genova Capelvenere Re-Plumping BioShampoo containing specifically- selected cleansing substances of plant origin and boasting a slightly acid pH. It ensures extremely gentle cleansing, while progressively compacting the cells on the hair stem and delivering exceptional lightness.</p> </div> <div> <h4>Benefits:</h4> <ul> <li>Slows down the ageing process</li> <li>Makes the hair easy to comb, supple and glossy</li> <li>Leaves the hair looking visibly younger</li> </ul> </div> <div> <h4>How to use:</h4> <ul> <li>Apply Bioshampoo to wet hair with a light massage</li> <li>Leave on for a few minutes before rinsing to allow the active ingredients to perform their action fully</li> <li>Rinse thoroughly with slightly- warm water</li> </ul> </div>",55.2,100,Helan Genova,Helan Cosmetics,200 ML,Hair,Unisex,Y,Personal Care///Hair Care///Shampoo and Conditioner,Helan Genova Capelvenere Re-Plumping BioShampoo 200 mL.jpg///Helan Genova Capelvenere Re-Plumping BioShampoo 200 mL1.jpg,Common Vendor
HEL-OVA-257-759,Helan Genova Capelvenere Anti-Pollution Detoxing BioExfoliator Shampoo 100 mL,"<div> <div> <div> <div> <h4>Short description:</h4> <ul> <li>Pre-shampoo</li> <li>Antipollution Natural Multifunction Concentrate</li> <li>Restores hair shine, lightness and protection</li> <li>For all hair types</li> <li>98% of natural origin in the formulation</li> </ul> </div> </div> <div> <h4>Description:</h4> <p>Helan Genova Capelvenere Anti-Pollution Detoxing BioExfoliator is delicate and designed to purify hair, through the Moringa oleifera seeds, performing an anti-polluting actionTo protect hair from oxidation through the Argania spinosa and Yerba santa leaves, with their high content of phenolic compounds and glycoproteins, defending scalp skin cells against accelerated oxidation.Coconut fibers and Carnitine PCA, the gentle exfoliating agent par excellence, non-aggressive, non-irritant and suitable for the most sensitive scalp skins, for a visible improvement perform a delicate exfoliating action on scalp and the Coconut oil leaving scalp skin looking luminous and feeling soft.</p> </div> <div> <h4>Benefits:</h4> <ul> <li>Accelerates the cell renewal process</li> <li>Achieves smoother, firmer and more luminous scalp skin</li> <li>Remains the scalp skin effectively cleaner for longer and oiliness is decreased</li> <li>Makes hair feels lighter</li> </ul> </div> <div> <h4>How to use:</h4> <ul> <li>Apply product to damp roots and massage in lightly at least twice a week</li> <li>Before shampooing, leave on for at least 15 minutes</li> <li>Wear a cap to maximize benefits from nourishing properties</li> <li>Rinse thoroughly with slightly-warm water</li> </ul> </div> </div> </div>",57.6,100,Helan Genova,Helan Cosmetics,100 ML,Hair,Unisex,Y,Personal Care///Hair Care///Shampoo and Conditioner,Helan Genova Capelvenere Anti-Pollution Detoxing BioExfoliator Shampoo 100 mL.jpg///Helan Genova Capelvenere Anti-Pollution Detoxing BioExfoliator Shampoo 100 mL1.jpg,Common Vendor
HEL-OVA-258-760,Helan Genova Capelvenere Anti-Pollution Detoxing BioShampoo 200 mL,"<div> <div> <h4>Short description:</h4> <ul> <li>Shampoo for hair deep cleansing</li> <li>For all hair types</li> <li>Detoxing action</li> <li>99% of natural origin in the formulation</li> </ul> </div> </div> <div> <h4>Description:</h4> <p>Helan Genova Capelvenere Detoxing Anti-Pollution BioShampoo is ideal to eliminate the effects of environmental pollution, leading to airborne dust and microparticles to build up on scalp skin and hair during the day. Its highly-advanced formula has been designed to combat daily atmospheric, physical and mechanical damage on hair and boasts a complex of natural active ingredients that acts on more levels like protecting hair from oxidation , through the Argania spinosa and Yerba santa leaves, with their high content of phenolic compounds and glycoproteins, defending skin cells against accelerated oxidation brought on by pollutionIt restructures hair through Chia seeds, with its many properties.</p> </div> <div> <h4>Benefits:</h4> <ul> <li>Delicately removes impurities</li> <li>Strengthens the hair, without adding weight</li> <li>Perfectly cleanses the hair</li> <li>Makes hair strong, pure and all damage is reset.</li> </ul> </div> <div> <h4>How to use:</h4> <ul> <li>Apply to wet hair and massage in lightly</li> <li>Leave on for a few minutes to allow the active ingredients to perform their action fully</li> <li>Rinse thoroughly with slightly-warm water</li> </ul> </div>",55.2,100,Helan Genova,"
Helan Cosmetics",200 ML,Hair,Unisex,Y,Personal Care///Hair Care///Shampoo and Conditioner,Helan Genova Capelvenere Anti-Pollution Detoxing BioShampoo 200 mL.jpg///Helan Genova Capelvenere Anti-Pollution Detoxing BioShampoo 200 mL1.jpg,Common Vendor
HEL-OVA-259-761,Helan Genova Capelvenere Volumizing BioShampoo 200 mL,"<div> <div> <h4>Short description:</h4> <ul> <li>Revitalizing shampoo</li> <li>For smooth fine thin hair with split ends</li> <li>With illuminating and volumizing program</li> <li>Restores keratin scales and supports the hair roots</li> <li>100% of natural origin in the formulation</li> </ul> </div> </div> <div> <h4>Description:</h4> <p>Helan Genova Capelvenere Volumizing BioShampoo contains Baobab leaves, Maidenhair Fern, Rose hip and Elderberry extracts, rich in vitamins and minerals, and sweet Almond and Pea proteins, performing a powerful restructuring action, it strengthens the hair ends, increases resistance and volumizes hair, for perfect combability and shine.</p> </div> <div> <h4>Benefits:</h4> <ul> <li>Ensures extremely gentle cleansing</li> <li>Progressively compacting the cells on the hair stem and delivering exceptional lightness</li> <li>Increases hair strength and volume</li> </ul> </div> <div> <h4>How to use:</h4> <ul> <li>Apply to wet hair with a light massage</li> <li>Leave on for a few minutes before rinsing to allow the active ingredients to perform their action fully</li> <li>Rinse thoroughly with slightly-warm water</li> </ul> </div>",55.2,100,Helan Genova,Helan Cosmetics,200 ML,Hair,Unisex,Y,Personal Care///Hair Care///Shampoo and Conditioner,Helan Genova Capelvenere Volumizing BioShampoo 200 mL.jpg///Helan Genova Capelvenere Volumizing BioShampoo 200 mL1.jpg,Common Vendor
