Product Code,Package Name,Description,Price,Stock ,Brand,Net Volume,Gender,OTC,Category,Product Image,Vendor
TEA-APY-204-503,Tea Tree Therapy Vegetable Base Bar soap 3.5 oz,"<p><strong>Description</strong></p> <p>Tea Tree Therapy Vegetable Base Soap with Tea Tree Oil is the ideal face and body care bar to use on a daily basis. Tea tree oil provides antiseptic properties to naturally reduce bacteria that may aggravate skin conditions. Its gentle cleansing action can be used all over the body to leave skin clean and refreshed.</p> <p><strong>Ingredients:</strong></p> <p>Vegetable base (sodium palmate and sodium cocoate), purified water, vegetable glycerin, natural fragrance, titanium dioxide, sodium chloride, tea tree oil (oil of melaleuca alternifolia 2%), iron oxide, tetra sodium etidronate, and tetra sodium EDTA.</p>",8,1000,TEA TREE THERAPY,3.5 Oz,Unisex,Y,Personal Care///body care///Soaps and Handwash,Tea Tree Therapy Vegetable Base Bar soap 3.5 oz.jpg///Tea Tree Therapy Vegetable Base Bar soap 3.5 oz1.jpg///Tea Tree Therapy Vegetable Base Bar soap 3.5 oz2.jpg,Common Vendor
TEA-APY-205-504,Tea Tree Therapy Liquid Soap 8 Oz,"<p><strong>Description</strong></p> <p>Tea Tree Therapy Liquid Soap antiseptically cleans hands and face with antibacterial and anti-fungal action. Working gently without drying the skin, it leaves hands and face noticeably clean and feeling good.</p> <div><strong>Directions:</strong></div> <div>Wet hands and apply a small amount of soap. Work into a rich lather and gently cleanse hands and face.</div> <div> </div> <div><strong>Ingredients: </strong></div> <div>Deionized water, disodium cocoamphodiacetate, sodium hydroxypropylfulfonate/LG, coco glucoside, sodium cocoyl isethionate, allantoin, aloe vera leaf extract, extracts of: chamomile, calendula and elder flower, tea tree oil (oil of melaleuca alternifolia), citric acid, phenoxyethanol, lemongrass oil.</div> <div> </div> <div> <div><strong>Warnings:</strong></div> <div>Avoid contact with the eyes.</div> </div>",11,1000,TEA TREE THERAPY,8 Oz,Unisex,Y,Personal Care///body care///Soaps and Handwash,Tea Tree Therapy Liquid Soap 8 Oz.jpg///Tea Tree Therapy Liquid Soap 8 Oz1.jpg,Common Vendor
TEA-APY-206-505,Tea Tree Therapy Eucalyptus Soap 3.5 oz,"<p><strong>Description</strong></p> <p>The Banalasta Oil Plantation is located in New South Wales, Australia. It is the worlds largest Eucalyptus radiata plantation and uses organic farming practices. Eucalyptus radiata is a softer more pleasant antiseptic and anti-microbial eucalyptus. Eucalyptus radiata is the species of choice for aromatherapists as the medicinal eucalyptus most suitable for use on the skin. </p> <p>Tea Tree Therapy Natural Eucalyptus Soap is vegetable-based and is infused with Eucalyptus radiata Oil, Lavender Oil and Tea Tree Oil to give it anti-microbial action with aromatic deep cleansing freshness and softness. Crushed Eucalyptus leaf gently exfoliates the skin and macadamia nut oil soothes and moisturizes the skin. It is an all-over body bar suitable for daily use on all skin types.</p> <p><strong>Ingredients: </strong></p> <p>Sodium palmate, sodium palm kernelate, purified water, eucalyptus radiate oil, macadamia nut oil, glycerin (vegetable source), palm kernel acid, lavender oil, tea tree oil, crushed eucalyptus leaves, and sodium chloride.</p>",8,1000,TEA TREE THERAPY,3.5 Oz,Unisex,Y,Personal Care///body care///Soaps and Handwash,Tea Tree Therapy Eucalyptus Soap 3.5 oz.jpg///Tea Tree Therapy Eucalyptus Soap 3.5 oz1.jpg,Common Vendor
SUK-KIN-207-506,Sukin Sensitive Soap Free Body Wash 500ml,"<p>Our non-drying, Soap Free Body Wash is enriched with a blend of botanicals including Green Tea and Rosehip to gently cleanse and refresh delicate skin. Aloe Vera, Cucumber and Chamomile will leave skin feeling soothed and balanced.</p> <p><strong>Directions Of Use:</strong></p> <p>Use a small amount on a sponge in the shower or bath. Lather and rinse thoroughly.</p> <p><strong>Ingredients:</strong></p> <p>Water (Aqua), Cocamidopropyl Betaine, Decyl Glucoside, PEG-150 Pentaerythrityl Tetrastearate, Aloe Barbadensis Leaf Juice, Cucumis Sativus (Cucumber) Fruit Extract, Chamomilla Recutita (Matricaria) Flower Extract (Chamomile), Camellia Sinensis Leaf Extract (Green Tea), Rosa Canina Fruit Oil (Rosehip), Persea Gratissima (Avocado) Oil, Glycerin, Vanillin, Vanilla Planifolia Fruit Extract, Phenoxyethanol, Benzyl Alcohol.</p>",34.3,1000,SUKIN,500 ML,Unisex,Y,Personal Care///body care///Soaps and Handwash,Sukin Sensitive Soap Free Body Wash 500ml.jpg,Common Vendor
SPR-EAF-208-507,Spring Leaf Lanolin Soap 80g,"<p><strong>Decription</strong></p> <p>Spring Leaf Lanolin Soapis a luxurious, creamy soap that has a rich lather leaving your skin clean and soft to the touch. It also moisturises while cleansing the skin and is suitable for all skin types.</p>",19,1000,SPRING LEAF,80 G,Unisex,Y,Personal Care///body care///Soaps and Handwash,Spring Leaf Lanolin Soap 80g.jpg,Common Vendor
QVV-QVV-209-508,Qv Bar Soap 100gm,"<p>Refresh your skin with QV Bar, a mild, effective soap-free cleansing bar specially formulated for dry or sensitive skin. For those who prefer a cleanser that can be held in the hand like normal soap. QV Bar moisturizes as it cleanses and leaves skin feeling soft and smooth. Suitable for daily use on the face and body. pH balanced to help maintain the skins natural protection. Soaps have a higher pH, which may irritate.QV Body Bar is enriched with moisturizers and will leave your skin feeling soft and smooth.</p> <p><strong>Directions Of Use:</strong></p> <p>Wet skin, apply QV Bar to desired area. Rinse, pat skin gently dry. Do not use soap. Keep bar dry for prolonged usage.</p> <p>CAUTION: Avoid eyes, if lather enters eyes, wash out immediately with water. For external use only. Store below 30°C.</p> <p><strong>Ingredients:</strong></p> <p>Disodium Laureth Sulfosuccinate, Cetearyl Alcohol, Sodium Lauryle Sulfate, Disodium Cocamido MEA-Sulfosuccinate, PEG-150, ZEA Mays (Corn) Startch, Stearic Acid, Cocamidopropyl Betaine, Glycerin, Petrolatum, Stearyl Heptanoate, Dimethicone, Paraffin, Lactic Acid, Methylparaben.</p>",39,1000,QV,100 gm,Unisex,Y,Personal Care///body care///Soaps and Handwash,Qv Bar Soap 100gm.jpg,Common Vendor
QVV-QVV-210-509,Qv Baby Bar Soap 100gm,"<p>QV Baby Bar is suitable for use every day and for sensitive, dry and itchy skin.Refresh your baby's skin with QV Baby Bar, a mild effective soap free cleansing bar specifically formulated for delicate skin.</p> <p>¢ Suitable for sensitive, dry &amp; itchy skin</p> <p>¢ Colour, fragrance &amp; lanolin free</p> <p>¢ Moisturizing</p> <p><strong>Directions Of Use:</strong></p> <p>Wet skin, apply QV Baby Bar to desired area. Rinse, pat skin gently dry. Do not use soap.Keep bar dry for prolonged usage. For best results combine with the use of QV Baby Bath Oil and QV Baby Moisturising Cream.</p> <p><strong>Ingredients:</strong></p> <p>Disodium Laureth Sulfosuccinate, Cetearyl Alcohol, Sodium Lauryle Sulfate, Disodium Cocamido MEA-Sulfosuccinate, PEG-150, ZEA Mays (Corn) Startch, Stearic Acid, Cocamidopropyl Betaine, Glycerin, Petrolatum, Stearyl Heptanoate, Dimethicone, Paraffin, Lactic Acid, Methylparaben.</p>",31,1000,QV,100 Gm,Unisex,Y,Personal Care///body care///Soaps and Handwash,Qv Baby Bar Soap 100gm.jpg,Common Vendor
OIL-LAN-211-510,Oillan Nourishing Soap 100G,"<p>The soap is recommended to wash the face and body. It effectively cleanses irritated, dry and flaky skin of infants, children, and adults, restoring softness and smoothness to the skin. Protective formula thoroughly nourishes and moisturizes the skin and reduces the feeling of dryness.</p> <p><strong>Recommendation:</strong></p> <p>For best results, after washing, follow with Oillan face and/or body care product.</p> <p><strong>Weight:</strong></p> <p>100g</p> <p><strong>Ingredients:</strong></p> <p>Sodium Palmate, Sodium Palm Kernelate, Aqua, Parfum, Glycerin, Palm Acid, Paraffinum Liquidum, Sodium Chloride, Chamomilla (Matricaria) Recutita Flower Extract, Palm Kernel Acid, Tetrasodium EDTA, Tetrasodium Etidronate, CI 77891.</p>",12.5,1000,OILLAN,100 G,Unisex,Y,Personal Care///body care///Soaps and Handwash,Oillan Nourishing Soap 100G.jpg///Oillan Nourishing Soap 100G1.jpg///Oillan Nourishing Soap 100G2.jpg,Common Vendor
NAT-LUS-212-511,Natures Plus Vitamin E Soap 3 Oz Bars,<div> <div> <div> <p><strong>Description</strong></p> <p>Nature's Plus Vitamin E Soap is 100% Natural.</p> <p>Nature's Plus Vitamin E Soap is the highest quality Glycerin soap available on the market. It contains 100% natural ingredients. Vitamin E Soap is biodegradable and contains no detergents. Nature's Plus is committed to offering the best supplements available anywhere.</p> </div> </div> </div> <div> <div> <p><strong>Other Ingredients</strong></p> <div> <p>Contains glycerin and vitamin E.</p> </div> </div> </div>,28,1000,NATURES PLUS,3 Oz,Unisex,Y,Personal Care///body care///Soaps and Handwash,Natures Plus Vitamin E Soap 3 Oz Bars.jpg///Natures Plus Vitamin E Soap 3 Oz Bars1.jpg///Natures Plus Vitamin E Soap 3 Oz Bars2.jpg,Common Vendor
NAT-LUS-213-512,Natures Plus Aloe Vera Soap 3 Oz Bars,"<p><strong>Description</strong></p> <p>NaturesPlus vitamin-enriched Aloe Vera Soap is 100% natural and contains Glycerin, Vitamin E (1,000 IU, Vitamin A (1,000 IU) and Vitamin D (100 IU), in an Aloe Vera Gel base. Aloe Vera Soap contains no detergents and is biodegradable. This unique beauty bar has a clean and tangy lemon fragrance. NaturesPlus is committed to offering the best supplements available anywhere. Look for the NaturesPlus logo as your guarantee of quality.</p> <p><strong>Other Ingredients</strong></p> <div> <p>Contains glycerin, vitamin E 1,000 IU, vitamin A 1,000 IU and vitamin D 100 IU.</p> <p>Contains no detergent, biodegradable</p> </div>",30,1000,NATURES PLUS,3 Oz,Unisex,Y,Personal Care///body care///Soaps and Handwash,Natures Plus Aloe Vera Soap 3 Oz Bars.jpg///Natures Plus Aloe Vera Soap 3 Oz Bars2.jpg///Natures Plus Aloe Vera Soap 3 Oz Bars1.jpg,Common Vendor
LIL-ICS-214-513,Lillien Cream Soap Wild Orchid 500ml,"<p>Gentle creamy liquid soap Wild Orchid for perfect care of your hands and skin. Leaves skin beautifully soft and smooth. The composition of cream soap includes glycerin, the main task of which is to accumulate moisture in a given area of the body to make the skin soft and moist.</p>",15,1000,UNION COSMETICS,500 ML,Unisex,Y,Personal Care///body care///Soaps and Handwash,Lillien Cream Soap Wild Orchid 500ml.jpg,Common Vendor
LIL-ICS-215-514,Lillien Cream Soap Sea Minerals 500ml,"<p>Gentle creamy liquid soap with the scent of the ocean and sea minerals for perfect care of your hands and skin. Leaves skin beautifully soft and smooth. The composition of cream soap includes glycerin, the main task of which is to accumulate moisture in a given area of the body to make the skin soft and moist. In addition, thanks to sea salt, which is also contained in the soap, you can achieve a smooth skin. And, as is known, sea salt is the center of useful microelements, for example, iodine, potassium, iron.</p>",15,1000,UNION COSMETICS,500 ML,Unisex,Y,Personal Care///body care///Soaps and Handwash,Lillien Cream Soap Sea Minerals 500ml.jpg,Common Vendor
LIL-IEN-216-515,Lilien Tea Tree Oil Liquid Soap 500ml,"<p>Mild, liquid antibacterial soap with added TEA TREE OIL. Prevents the spread of infection and regenerates skin very well. Restores its natural balance after each use and leaves a pleasant feeling of freshness. The composition of cream soap includes glycerin, the main task of which is to accumulate moisture in a given area of the body to make the skin soft and moist. Soap also contains tea tree oil, which is a strong natural antiseptic, with antibacterial and antiviral properties.</p> <p><strong>Directions of Use:</strong></p> <p>Apply soap on moistened skin by hand, froth and rinse with water.</p>",15,1000,LILIEN,500 ML,Unisex,Y,Personal Care///body care///Soaps and Handwash,Lilien Tea Tree Oil Liquid Soap 500ml.jpg,Common Vendor
LIL-IEN-217-516,Lilien Exclusive Liquid Soap Honey Propolis 500 ml,"<h3><strong>Short Description</strong></h3> <ul> <li>For Everyday use</li> <li>Exclusive Honey &amp; Propolis Soap</li> <li>500ml</li> <li>Nutritious &amp; Moisturising</li> <li>Delicate Fragrance</li> </ul> <h3><strong>Description</strong></h3> <p>Gentle creamy liquid soap Honey &amp; Propolis for perfect care of your hands and skin. Leaves skin beautifully soft and smooth. The composition of cream soap includes glycerin, the main task of which is to accumulate moisture in a given area of the body to make the skin soft and moist. In addition, the soap contains propolis extract, thanks to which the skin becomes soft, velvety, supple. Propolis also has antiseptic, regenerating and anesthetic properties.</p>",15,1000,LILIEN,500 ML,Unisex,Y,Personal Care///body care///Soaps and Handwash,Lilien Exclusive Liquid Soap Honey Propolis 500 ml.jpg,Common Vendor
LIL-IEN-218-517,Lilien Exclusive Liquid Soap Cashmare 500 ml,<h3><strong>Short Description</strong></h3> <ul> <li>For Everyday use</li> <li>Exclusive Cashmere Cream Soap</li> <li>500ml</li> <li>Gentle &amp; Moisturising</li> <li>Delicate Fragrance</li> </ul> <h3><strong>Description</strong></h3> <p>Soft Cream Soap for the perfect care of your hands and skin.</p> <p>It leaves your skin perfectly soft and smooth.</p>,15,1000,LILIEN,500 ML,Unisex,Y,Personal Care///body care///Soaps and Handwash,Lilien Exclusive Liquid Soap Cashmare 500 ml.jpg,Common Vendor
JAS-SON-219-518,Jason Soothing Aloe Vera Hand Soap 16 Oz,"<h3><strong>Short Description</strong></h3> <ul> <li> <div>Hydrates with Aloe Vera</div> </li> <li> <div>Nourishes with Vitamin E and Pro-Vitamin B5</div> </li> <li> <div>No: Parabens, SLS, Petrolatum, Artificial Colors or Phthalates</div> </li> <li> <div>Cruelty-Free</div> </li> </ul> <h3><strong>Description</strong></h3> <p>This botanical wash gently cleanses and safely nourishes your skin with Vitamin E and Pro-Vitamin B5. Our blend of soothing Aloe Vera. Sunflower Seed and Wheat Germ Oils provide lipid relief to smooth and hydrate your skin.</p> <p><strong>Directions of Use:</strong></p> <p>Pump soap into hands. Wash hands as usual. Rinse thoroughly.</p> <p><strong>Ingredients:</strong></p> <p>Aqua (water), cocoamidopropyl betaine, sodium lauryl sulfoacetate, aloe barbadensis leaf juice*, glycerin, calendula officinalis flower extract, salvia officinalis (sage) leaf extract, spirulina maxima extract, helianthus annuus (sunflower) seed oil*, triticum vulgare (wheat) germ oil, allantoin, panthenol, tocopheryl acetate, lauryl glucoside, stearyl citrate, sodium sulfate, sodium chloride, citric acid, benzyl alcohol, potassium sorbate, sodium benzoate, benzyl benzoate, hexyl cinnamal, fragrance 9parfum). </p> <p>*Certified organic ingredient.</p>",42,1000,JASON,16 Oz,Unisex,Y,Personal Care///body care///Soaps and Handwash,Jason Soothing Aloe Vera Hand Soap 16 Oz.jpg,Common Vendor
ISO-ERM-220-519,Isoderm Soap Free Cleanser 250ml,"<h3><strong>Short Description</strong></h3> <p>Isoderm Liquid Cleanser 250ml is Non-alkaline and soap-free that leaves your skin soft and supple. Restores health and moisture to your skin.</p> <h3><strong>Description</strong></h3> <p>Cares and regulates the acidic barrier of the skin and prevents skin irritation Isoderm Liquid Cleanser cares and regulates the acidic protective barrier of the skin. By this, the skin is guarded to an optimum against environmental factors and bacterial infections. Good for every skin type and washes gently and pore-deep Has a pH of 5.5 and is free from the substance of animal origin.</p>",30,1000,ISODERM,250 ML,Unisex,Y,Personal Care///body care///Soaps and Handwash,Isoderm Soap Free Cleanser 250ml.jpg,Common Vendor
HEL-URE-221-520,Hello Nature Marula Oil Liquid Soap 270 ml,"<h3><strong>Description</strong></h3> <p><strong>MARULA OIL SOFTNESS &amp; TENDERNESS </strong><strong>liquid soap<br/></strong></p> <p>gives a silky  soft finish to the skin and leaves it with a nourished and velvety feel.</p> <p><strong>98,6 % of the ingredients are of natural origin.</strong></p> <p><strong>Directions for use</strong><strong>: </strong></p> <p>Apply a small amount of soap to wash your hands. Rinse thoroughly and enjoy moisturized, smooth hands with the scent of hot summer.</p>",23,1000,Hello Nature,270 ML,Unisex,Y,Personal Care///body care///Soaps and Handwash,Hello Nature Marula Oil Liquid Soap 270 ml.jpg,Common Vendor
HEL-URE-222-521,Hello Nature Coconut Oil Liquid Soap 270 ml,"<h3><strong>Description</strong></h3> <p><strong>COCONUT OIL MOISTURE &amp; REPAIR shampoo </strong>ensures a gentle cleansing and intensive hair regeneration. Gives a sense of moisture, restores the shine, and gives the hair a healthy appearance.</p> <p><strong>97,2% of the ingredients are of natural origin.</strong></p> <p><strong>Directions for use:</strong> </p> <p>Apply a small amount to wet hair, massage gently into a lather, rinse. Repeat and enjoy beautiful hair with the scent of coconut summer!</p>",23,1000,Hello Nature,270 ML,Unisex,Y,Personal Care///body care///Soaps and Handwash,Hello Nature Coconut Oil Liquid Soap 270 ml.jpg,Common Vendor
HEL-URE-223-522,Hello Nature Argan Oil Liquid Soap 270 ml,"<h3><strong>Description</strong></h3> <p><strong>ARGAN OIL SMOOTHNESS &amp; BEAUTY </strong><strong>liquid soap<br/></strong></p> <p>is a nourishing combination that firms the skin and leaves it moisturized, supple, and silky soft.</p> <p><strong>98,6 % of the ingredients are of natural origin.</strong></p> <p><strong>Directions for use</strong><strong>: </strong></p> <p>Apply a small amount of soap to wash your hands. Rinse thoroughly and enjoy moisturized, smooth hands with the scent of oriental argan oil.</p>",23,1000,Hello Nature,270 ML,Unisex,Y,Personal Care///body care///Soaps and Handwash,Hello Nature Argan Oil Liquid Soap 270 ml.jpg,Common Vendor
HEL-URE-224-523,Hello Nature Acai Berry Oil Liquid Soap 270 ml,"<h3><strong>Description</strong></h3> <p><strong>AÇAÍ BERRY OIL REGENERATION AND ANTI-AGING </strong><strong>liquid soap<br/></strong></p> <p>leaves your skin hydrated and restores its healthy and youthful radiance.</p> <p><strong>98,6 % of the ingredients are of natural origin.</strong></p> <p><strong>Directions for use</strong><strong>:</strong></p> <p>Apply a small amount of soap to wash your hands. Rinse thoroughly and enjoy moisturized, smooth hands with the scent of acai berries.</p>",23,1000,Hello Nature,270 ML,Unisex,Y,Personal Care///body care///Soaps and Handwash,Hello Nature Acai Berry Oil Liquid Soap 270 ml.jpg,Common Vendor
FAI-URE-225-524,Faith In Nature Tea Tree Soap 100 g,"<h3><strong>Description</strong></h3> <ul> <li>Made using 100% natural fragrance</li> <li>Made with essential oils</li> <li>No Parabens and SLS</li> <li>Vegan and Cruelty-Free</li> <li>100% Natural Origin</li> <li>The packaging is made of fully recycled and recyclable card</li> </ul> <p><strong>Directions:</strong></p> <p>Apply soap to wet hands, rub together to create lather and rinse off. In case of contact with eyes, rinse with clean water immediately. If irritation occurs, stop use. Keep out of reach of children</p> <p><strong>Ingredients:</strong></p> <p>Sodium palmate** Sodium cocoate* and/ or Sodium palm kernelate** Aqua (Water) Glycerin*, Melaleuca alternifolia leaf oil* Sodium chloride Sodium citrate* Limonene*<br/>* Plant-derived</p>",10.5,1000,FAITH IN NATURE,100 G,Unisex,Y,Personal Care///body care///Soaps and Handwash,Faith In Nature Tea Tree Soap 100 g.jpg,Common Vendor
FAI-URE-226-525,Faith In Nature Soap Rosemary 100 g,"<h3><strong>Description</strong></h3> <ul> <li>Made using 100% natural fragrance</li> <li>Made with essential oils</li> <li>No Parabens and SLS</li> <li>Vegan and Cruelty-Free</li> <li>100% Natural Origin</li> </ul> <p>Infused with traditional herbal aromas and the uplifting scent of organic rosemary which is known for its cleansing qualities. This natural homemade soap is has a 100% natural fragrance and is free from Parabens and SLS.</p> <h3>Directions:</h3> <p>Rub soap between wet hands, massage together to create a lather, rinse off and dry thoroughly.</p> <h3>Ingredients:</h3> <p>Sodium palmate*, Sodium cocoate*, Aqua, Glycerin, Rosmarinus officinalis leaf oil, Rosmarinus officinalis leaf extract, CI 75810, Sodium chloride, Sodium citrate, Limonene, Linalool.</p> <h3>Suitable for:</h3> <p>Vegans.</p>",10.5,1000,FAITH IN NATURE,100 G,Unisex,Y,Personal Care///body care///Soaps and Handwash,Faith In Nature Soap Rosemary 100 g.jpg///Faith In Nature Soap Rosemary 100 g1.jpg,Common Vendor
FAI-URE-227-526,Faith In Nature Orange Soap 100 g,"<h3>Description</h3> <ul> <li>Made using 100% natural fragrance</li> <li>Made with essential oils</li> <li>No Parabens and SLS</li> <li>Vegan and Cruelty-Free</li> <li>100% Natural Origin</li> </ul> <p>Made with orange oil known for its refreshing and cleansing qualities, our first vegetable soap is still a favorite. This handmade soap contains 100% natural fragrance and is free from Parabens and SLS.</p> <h3>Directions:</h3> <p>Rub soap between wet hands, massage together to create a lather, rinse off and dry thoroughly.</p> <h3>Ingredients:</h3> <p>Sodium palmate, Sodium cocoate, Aqua, Glycerin, Citrus aurantium Dulcis peel oil, Sodium chloride, Sodium citrate, Helianthus annuus seed oil, CI 40800, Limonene, Linalool.</p> <h3>Suitable for:</h3> <p>Vegans.</p>",10.5,1000,FAITH IN NATURE,100 G,Unisex,Y,Personal Care///body care///Soaps and Handwash,Faith In Nature Orange Soap 100 g.jpg///Faith In Nature Orange Soap 100 g1.jpg,Common Vendor
FAI-URE-228-527,Faith In Nature Neem Soap 100 g,"<h3>Description</h3> <p>This fresh fragranced hand-made soap is a blend of neem oil, beneficial aromatherapy oils, and natural citrus oils. For a caring, refreshing wash.</p> <p>Faith in Nature Neem Soap is fragranced 100% naturally, enriched with essential and organic oils, certified cruelty-free and vegan, and is free from parabens and SLS.</p> <h3>Directions:</h3> <p>Rub soap between wet hands, massage together to create a lather, rinse off and dry thoroughly.</p> <h3>Ingredients:</h3> <p>Sodium palmate, Sodium cocoate, Aqua, Glycerin, Melia azadirachta seed oil, Citrus aurantium amara leaf/twig oil , Litsea cubeba fruit oil, Citrus aurantium dulcis peel oil, Citrus reticulata peel oil, Cinnamomum zeylanicum leaf oil, Silica, Sodium chloride, Sodium citrate, Citral, Eugenol, Linalool, Limonene.</p> <h3>Suitable for:</h3> <p>Vegans.</p>",10.5,1000,FAITH IN NATURE,100 G,Unisex,Y,Personal Care///body care///Soaps and Handwash,Faith In Nature Neem Soap 100 g.jpg///Faith In Nature Neem Soap 100 g1.jpg,Common Vendor
FAI-URE-229-528,Faith In Nature Lavender Soap 100 g,"<h3>Description</h3> <ul> <li>Made using 100% natural fragrance</li> <li>Made with essential oils</li> <li>No Parabens and SLS</li> <li>Vegan and Cruelty-Free</li> <li>100% Natural Origin</li> </ul> <p>Lavender always brings a sense of calm to every day, and this magnificently 100% naturally fragrant pure soap made with organic lavender will do just that. This handmade soap is free from Parabens and SLS.</p> <h3>Directions:</h3> <p>Rub soap between wet hands, massage together to create a lather, rinse off and dry thoroughly.</p> <h4>Ingredients:</h4> <p>Sodium palmate** Sodium cocoate* and/ or Sodium palm kernelate** Aqua (Water) Glycerin* Lavandula angustifolia oil* Lavandula hybrid oil* Sodium chloride Sodium citrate* Linalool* Limonene*</p> <h4>Suitable for:</h4> <p>Vegans.</p>",10.5,1000,FAITH IN NATURE,100 G,Unisex,Y,Personal Care///body care///Soaps and Handwash,Faith In Nature Lavender Soap 100 g.jpg///Faith In Nature Lavender Soap 100 g1.jpg,Common Vendor
FAI-URE-230-529,Faith In Nature Hemp Soap 100 g,"<h3>Description</h3> <ul> <li>Made using 100% natural fragrance</li> <li>Made with essential oils</li> <li>No Parabens and SLS</li> <li>Vegan and Cruelty-Free</li> <li>100% Natural Origin</li> </ul> <p>Established in 1974, we believe in harnessing the power of nature without harming it in the process. Our products are made using the highest quality, naturally derived, cruelty-free ingredients, with 100% natural fragrance. Hemp is blended with natural fragrant essential oils and green tea to create this refreshing soap. </p> <p>Organic hemp is blended with natural fragrances and ethically traded green tea to create this refreshing handmade soap high in omega oils.</p> <h4>Directions:</h4> <p>Rub soap between wet hands, massage together to create a lather, rinse off and dry thoroughly.</p> <h4>Ingredients:</h4> <p>Sodium palmate, Sodium cocoate, Aqua, Glycerin, Cannabis sativa seed oil, Camellia sinensis leaf extract, Zingiber officinale root oil, Cymbopogon citratus leaf oil, Citrus paradisi peel oil, Sodium chloride, Sodium citrate, Limonene, Citral, Geraniol, Linalool.</p> <h4>Suitable for:</h4> <p>Vegans.</p>",10.5,1000,FAITH IN NATURE,100 G ,Unisex,Y,Personal Care///body care///Soaps and Handwash,Faith In Nature Hemp Soap 100 g.jpg///Faith In Nature Hemp Soap 100 g1.jpg,Common Vendor
FAI-URE-231-530,Faith In Nature Grapefruit Soap 100 g,"<h3>Description</h3> <ul> <li>Made using 100% natural fragrance</li> <li>Made with essential oils</li> <li>No Parabens and SLS</li> <li>Vegan and Cruelty-Free</li> <li>100% Natural Origin</li> </ul> <p>Established in 1974, we believe in harnessing the power of nature without harming it in the process. Our products are made using the highest quality, naturally derived, cruelty-free ingredients, with 100% natural fragrance. With a refreshing and wonderfully uplifting aroma, this pure soap is made with four essential oils including grapefruit and orange organic sweet orange.</p> <h4>Directions:</h4> <p>Rub soap between wet hands, massage together to create a lather, rinse off and dry thoroughly.</p> <h4>Ingredients:</h4> <p>Sodium palmate, Sodium cocoate, Aqua, Glycerin, Citrus paradisi peel oil, Citrus aurantium dulcis peel oil, Litsea cubeba fruit oil, Citrus reticulata peel oil, Helianthus annuus seed oil, Sodium chloride, Sodium citrate, CI 40800, Limonene, Citral, Linalool.</p> <h4>Suitable for:</h4> <p>Vegans.</p>",10.5,1000,FAITH IN NATURE,100 G,Unisex,Y,Personal Care///body care///Soaps and Handwash,Faith In Nature Grapefruit Soap 100 g.jpg///Faith In Nature Grapefruit Soap 100 g1.jpg,Common Vendor
FAI-URE-232-531,Faith In Nature Fragrance Free Soap 100 g,"<h3>Description</h3> <ul> <li>Made using 100% natural fragrance</li> <li>Made with essential oils</li> <li>No Parabens and SLS</li> <li>Vegan and Cruelty-Free</li> <li>100% Natural Origin</li> </ul> <p>Established in 1974, we believe in harnessing the power of nature without harming it in the process. Our products are made using the highest quality, naturally derived, and cruelty-free ingredients. This gentle unscented soap is made with wild-harvested seaweed known for its antioxidant qualities and rich in beneficial minerals and proteins.</p> <p><strong>Ingredients:</strong></p> <p>Sodium palmate*** Sodium cocoate* and/ or Sodium palm kernelate*** Aqua (Water) Glycerin* Ascophyllum nodosum powder** Sodium chloride Sodium citrate*</p> <p><strong>Directions:</strong></p> <p>Apply soap to wet hands, rub together to create lather and rinse off. In case of contact with eyes, rinse with clean water immediately. If irritation occurs, stop use. Keep out of reach of children</p>",10.5,1000,FAITH IN NATURE,100 G,Unisex,Y,Personal Care///body care///Soaps and Handwash,Faith In Nature Fragrance Free Soap 100 g.jpg,Common Vendor
FAI-URE-233-532,Faith In Nature Coconut Soap 100 g,"<h3>Description</h3> <ul> <li>Made using 100% natural fragrance</li> <li>Made with essential oils</li> <li>No Parabens and SLS</li> <li>Vegan and Cruelty-Free</li> <li>100% Natural Origin</li> </ul> <p>Made with Organic Coconut, this pure soap is a little dose of tropical luxury to enrich your senses. Traditionally made, pure vegetable soaps high in aromatherapy oils and with a low pH to gently cleanse, tone and refresh without drying the skin. </p> <p>This soap is Cruelty-Free International Certified &amp; Vegan Society Certified and is free from parabens and SLS.</p> <h4>Directions:</h4> <p>Rub soap between wet hands, massage together to create a lather, rinse off and dry thoroughly.</p> <h4>Ingredients:</h4> <p>Sodium palmate, Sodium cocoate, Aqua, Glycerin, Parfum, Cocos nucifera oil, Sodium chloride, Sodium citrate, Benzyl alcohol.</p> <h4>Suitable for:</h4> <p>Vegans.</p>",10.5,1000,FAITH IN NATURE,100 G,Unisex,Y,Personal Care///body care///Soaps and Handwash,Faith In Nature Coconut Soap 100 g.jpg///Faith In Nature Coconut Soap 100 g1.jpg,Common Vendor
FAI-URE-234-533,Faith In Nature Blue Cedar Soap 100 g,"<h3>Description</h3> <ul> <li>Made using 100% natural fragrance</li> <li>Made with essential oils</li> <li>No Parabens and SLS</li> <li>Vegan and Cruelty-Free</li> <li>100% Natural Origin</li> </ul> <p>Established in 1974, we believe in harnessing the power of nature without harming it in the process. Our products are made using the highest quality, naturally derived, cruelty-free ingredients, with 100% natural fragrance. Luxurious aromas of blue cedar and Swedish mountain herbs and trees to lift your day.</p> <p><strong>Directions:</strong></p> <p>Apply soap to wet hands, rub together to create lather and rinse off. In case of contact with eyes, rinse with clean water immediately. If irritation occurs, stop use. Keep out of reach of children.</p> <p><strong>Ingredients:</strong></p> <p>Sodium palmate*** Sodium cocoate* and/ or Sodium palm kernelate*** Aqua (Water) Glycerin*<br/>Parfum* Camellia sinensis leaf extract ** Tocopherol* Helianthus annuus seed oil* Sodium chloride Sodium citrate* Eugenol* Geraniol * Linalool* Curcumin CI 75300*</p>",10.5,1000,FAITH IN NATURE,100 G,Unisex,Y,Personal Care///body care///Soaps and Handwash,Faith In Nature Blue Cedar Soap 100 g.jpg,Common Vendor
FAI-URE-235-534,Faith In Nature Aloe Vera Soap 100 g,"<h3>Description</h3> <ul> <li>Made using 100% natural fragrance</li> <li>Made with essential oils</li> <li>No Parabens and SLS</li> <li>Vegan and Cruelty-Free</li> <li>100% Natural Origin</li> </ul> <p>Organic Aloe Vera is blended with aromatherapy oils of Ylang Ylang and Patchouli to create this soothing pure handmade soap. Free from Parabens and SLS, and Cruelty-Free International Certified.</p> <h3>Directions:</h3> <p>Rub soap between wet hands, massage together to create a lather, rinse off and dry thoroughly.</p> <h3>Ingredients:</h3> <p>Sodium palmate, Sodium cocoate, Aqua, Aloe barbadensis leaf juice, Glycerin, Cananga odorata flower oil, Pogostemon cablin oil, Sodium chloride, Sodium citrate, CI 75810, Linalool, Benzyl benzoate, Benzyl salicylate, Farnesol.</p> <h3>Suitable for:</h3> <p>Vegans.</p>",10.5,1000,FAITH IN NATURE,100 G,Unisex,Y,Personal Care///body care///Soaps and Handwash,Faith In Nature Aloe Vera Soap 100 g.jpg///Faith In Nature Aloe Vera Soap 100 g1.jpg,Common Vendor
BIO-ANE-236-535,Biolane Extra Rich Soap 150g,"<h3>Description</h3> <ul> <li>For the daily cleansing routine of newborns</li> <li>100 percent vegetable mild cleansing base</li> <li>Very gentle cleansing with water</li> <li>Rich in moisturizing and softening substances (wheat germ oil and sweet almond oil)</li> <li>Replenishes the skin preventing it from dryness.</li> </ul> <p><strong>Description</strong></p> <p>Gently cleanses and protects dry and delicate skin of both the face and body.</p> <p>Results: used daily it leaves your babys skin perfectly clean, soft and subtly scented.</p> <p>Specially formulated for the daily cleansing routine of newborn babies, to fully benefit from all the pleasures of washing with water without the drying effects.</p> <p>Its 100% vegetable mild cleansing base guarantees very gentle cleansing with water.</p> <p>Rich in moisturizing and softening substances (wheat germ oil and sweet almond oil), it oil-replenishes the skin by strengthening the hydrolipidic film which protects the epidermis, thus preventing it from dryness.</p> <p><strong>Directions of Use: </strong>Use for face and body, for every diaper change and for babys daily cleansing routine. Wet babys skin, lather soap using a washcloth, massage gently and rinse thoroughly.</p> <p><strong>Ingredients: </strong>Sodium palmate, sodium palm kernelate, aqua (water), parfum (fragrance), prunus amygdalus dulcis (sweet almond) oil, ci 77891, triticum vulgare (germ) oil, glycerin, sodium chloride, tetrasodium edta, tetrasodium etidronate, citral, citronellol, eugenol, hexyl cinnamal, hydroxycitronellal, limonene, linalool.</p>",17.5,1000,BIOLANE,150 G,Unisex,Y,Mother & Baby///Baby Soaps,Biolane Extra Rich Soap 150g.jpg///Biolane Extra Rich Soap 150g2.jpg///Biolane Extra Rich Soap 150g1.jpg,Common Vendor
BIO-RMA-237-536,Bioderma Sebium Pain Purifying Soap 100 g,"<h3>Description</h3> <ul> <li>Perfectly cleanses and respects the skin</li> <li>Limits sebum excess</li> <li>Purifies the skin</li> <li>Guarantees good skin and eye tolerance</li> <li>Mild soap-free cleansing base</li> <li>Apply SÃ©bium Pain on damp skin</li> </ul> <ul> <li>Sebium Pain gently cleanses and is the only cleansing bar that limits the formation of blemishes thanks to the Fluidactiv Sebo-correcting complex, which biologically regulates sebum quality.</li> <li>Enriched with purifying agents, zinc sulfate and copper sulfate, SÃ©bium Pain purifies the skin and limits sebaceous secretion.</li> </ul> <p><strong>Directions of Use:</strong></p> <ul> <li>Apply Sebium Pain on damp skin</li> <li>Lather, then rinse thoroughly</li> <li>Dry gently</li> </ul> <p><strong>Ingredients:</strong></p> <p>Disodium Lauryl Sulfosuccinate, Sodium Coco-Sulfate, Triticum Vulgare (Wheat) Starch, Cetearyl Alcohol, Paraffin, Ginkgo Biloba Leaf Extract, Dodecyl Gallate, Mannitol, Xylitol, Rhamnose, Fructooligosaccharides, Zinc Sulfate, Copper Sulfate, Aqua/Water/Eau, Propylene Glycol, Titanium Dioxide (Ci 77891), Fragrance (Parfum)</p>",29.4,1000,BIODERMA,100 G,Unisex,Y,Personal Care///body care///Soaps and Handwash,Bioderma Sebium Pain Purifying Soap 100 g.jpg,Common Vendor
BIO-RMA-238-537,Bioderma Atoderm Oil Rich Soap 150 g,"<h3><strong>Description</strong></h3> <p>Purifying, ultra-rich soap for daily use that restores natural lipids, for severe and recurrent cutaneous dryness and reactive and irritated zones.</p> <p>The Atoderm Ultra-rich soap formula based on extremely mild surfactants contains ultra-rich, soothing and softening agents.<br />- Atoderm Ultra-rich soap maintains the skins balance and avoids it becoming dehydrated and weakened. It helps to reinforce the cutaneous barrier while cleansing the skin.<br />- Atoderm Ultra-rich soap guarantees excellent tolerance.</p> <p><strong>Direction:</strong></p> <p>Lather up Atoderm Ultra-rich soap in the palm of the hands and apply to wet skin. Rinse thoroughly and gently dry. - We recommend following it with a specific moisturizing* care from the Atoderm Dry Skin range.</p> <p><strong>Ingredients:</strong></p> <p>SODIUM PALMATE, SODIUM PALM KERNELATE, WATER (AQUA), GLYCERIN, SORBITOL, PALM KERNEL ACID, CYCLOMETHICONE, ZINC PCA, CUCUMIS SATIVUS (CUCUMBER) FRUIT EXTRACT, MANNITOL, XYLITOL, RHAMNOSE, FRUCTOOLIGOSACCHARIDES, PROPYLENE GLYCOL, SODIUM CHLORIDE, POTASSIUM PALM KERNELATE, POTASSIUM PALMATE, PENTASODIUM PENTETATE, TETRASODIUM ETIDRONATE.</p>",52,1000,BIODERMA,150 G,Unisex,Y,Personal Care///body care///Soaps and Handwash,Bioderma Atoderm Oil Rich Soap 150 g.jpg,Common Vendor
AVE-ENE-239-538,Avene Cleanance Soapless Cleanser Gel 200ml,"<h3><strong>Description</strong></h3> <ul> <li>Non-comodogenic</li> <li>hypoallergenic</li> <li>paraben-free</li> </ul> <p><strong>Description</strong></p> <p>Cleanse your oily skin gently and effectively with the Avene Cleanance Soapless Gel Cleanser.</p> <p>The ultra mild gel helps to regulate oil secretion and prevent blemishes, while working to purify the skin. The soap-free gel removes all traces of make-up and oil without irritation, whilst the pH adjusted formula respects skin's natural balance to mattify and moisturise your complexion effectively.</p> <p>Apply to a damp face, lather up, and then rinse away thoroughly.</p> <p><strong>Ingredients</strong>: AVENE THERMAL SPRING WATER (AVENE AQUA). WATER (AQUA). SODIUM LAUROYL METHYL ISETHIONATE. ZINC COCETH SULFATE. POLYSORBATE 20. SODIUM COCOAMPHOACETATE. CETEARETH-60 MYRISTYL GLYCOL. PEG-40 HYDROGENATED CASTOR OIL. CITRIC ACID. DISODIUM EDTA. FRAGRANCE (PARFUM). GLYCERYL LAURATE. GREEN 5 (CI 61570). SODIUM BENZOATE. SODIUM HYDROXIDE. YELLOW 5 (CI 19140). ZINC GLUCONATE.</p>",69,1000,Avene,200 ML,Unisex,Y,Personal Care///body care///Soaps and Handwash,Avene Cleanance Soapless Cleanser Gel 200ml.jpg,Common Vendor
AVA-LON-240-539,Avalon Rosemary Liquid Soap 12 Oz,"<h3><strong>Description</strong></h3> <p>A hardworking blend of botanical cleansers, rosemary essential oil, quinoa protein and vitamin E, known for their moisturizing and purifying properties, cleanse and rejuvenate hands with every wash. Gentle enough for frequent hand washing.</p> <p><strong>Directions of Use:</strong></p> <p>Working into a rich, moisturizing lather and rinsing will provide hands with a complete clean.</p> <p><strong>Ingredients:</strong></p> <p>Aloe Barbadensis Leaf Juice, Aqua (Water), Coco-Glucoside, Glycerin, Sodium Laurylglucosides Hydroxypropylsulfonate, Sorbitan Oleate Decylglucoside Crosspolymer, Decyl Glucoside, Xanthan Gum, Cedrus Atlantica Bark Oil, Citrus Aurantium Dulcis (Orange) Peel Oil, Citrus Limon (Lemon) Peel Oil, Copaifera Officinalis (Balsam Copaiba) Resin, Coriandrum Sativum (Coriander) Fruit Oil, Geranium Maculatum Oil, Lavandula Angustifolia (Lavender) Oil, Pogostemon Cablin Oil, Rosmarinus Officinalis (Rosemary) Leaf Oil, Calendula Officinalis Flower Extract, Chamomilla Recutita (Matricaria) Flower Extract, Chenopodium Quinoa Seed, Dioscorea Villosa (Wild Yam) Root Extract, Lavandula Angustifolia (Lavender) Flower/Leaf/Stem Extract, Rosmarinus Officinalis (Rosemary) Leaf Extract, Styrax Benzoin Resin Extract, Tocopheryl Acetate, Bisabolol, Citric Acid, Inulin, Sodium Chloride, Alcohol, Benzyl Alcohol, Potassium Sorbate, Sodium Benzoate, Limonene, Linalool </p> <p><br/><strong>Certified Organic Ingredient</strong><br/>Product is preserved with Sodium Benzoate</p>",30,1000,Avalon,12 Oz,Unisex,Y,Personal Care///body care///Soaps and Handwash,Avalon Rosemary Liquid Soap 12 Oz.jpg,Common Vendor
AVA-LON-241-540,Avalon Lemon Liquid Soap 12 Oz,"<h3><strong>Description</strong></h3> <p>A hardworking blend of botanical cleansers, lemon essential oil, chamomile, and vitamin E, known for their moisturizing and natural antibacterial properties, purify and refresh hands with every wash. Gentle enough for frequent hand washing.</p>",30,1000,Avalon,12 Oz,Unisex,Y,Personal Care///body care///Soaps and Handwash,Avalon Lemon Liquid Soap 12 Oz.jpg///Avalon Lemon Liquid Soap 12 Oz1.jpg,Common Vendor
AVA-LON-242-541,Avalon Lavender Liquid soap 12 Oz,"<h3><strong>Description</strong></h3> <p>A hardworking blend of botanical cleansers, lavender essential oil, calendula, and vitamin E, known for their moisturizing and healing properties, cleanse and nourish even extra-dry hands with every wash. Gentle enough for frequent hand washing.</p> <p><strong>Directions of Use:</strong></p> <p>Working into a rich, moisturizing lather and rinsing will provide hands with a complete clean.</p> <p><strong>Ingredients:</strong> </p> <div>Aloe Barbadensis Leaf Juice, Aqua (Water), Coco-Glucoside, Glycerin, Sodium Laurylglucosides Hydroxypropylsulfonate, Heptyl Glucoside, Decyl Glucoside, Xanthan Gum, Citrus Aurantifolia (Lime) Oil, Citrus Limon (Lemon) Peel Oil, Lavandula Angustifolia (Lavender) Oil, Calendula Officinalis Flower Extract, Chamomilla Recutita (Matricaria) Flower Extract, Chenopodium Quinoa Seed, Lavendula Angustifolia (Lavender) Flower/Leaf/Stem Extract, Tocopheryl Acetate, Bisabolol, Citric Acid, Inulin, Sodium Chloride, Alcohol, Benzyl Alcohol, Potassium Sorbate, Sodium Benzoate, Coumarin, Limonene, Linalool</div> <div> </div> <div><strong>Certified Organic Ingredient</strong><br/>Product is preserved with Sodium Benzoate</div>",30,1000,Avalon,12 Oz,Unisex,Y,Personal Care///body care///Soaps and Handwash,Avalon Lavender Liquid soap 12 Oz.jpg,Common Vendor
ATT-UDE-243-542,Attitude Super Leaves Hand Soap White Tea Leaves 473ml,"<h3><strong>Description</strong></h3> <ul> <li>Moringa seed extract, with its cleansing and purifying power, decreases the adhesion of pollutants and detoxifies the skin.</li> <li>Cleanse hands without drying out the skin.</li> <li>Our surfactants are made of plant-derived glucose and fatty alcohols, free of ethoxylated bi-products contaminated with cancer-causing chemicals (1,4-dioxane and ethylene oxide), such as SLES/SLS.</li> </ul> <p>Did you know white tea leaf extract is known to delay the aging process thanks to its high antioxidant concentration? It also helps to protect your skin from daily oxidation. Harness the power of antioxidant-rich white tea leaf extract with ATTITUDE's Super leaves White Tea Leaves Hand Soap known to calm the skin. You will love its aroma that reminds us of guava and berries. EWG Verified hypoallergenic and dermatologically-tested, our hand soap includes moringa seed extract, known for its antipollution properties. Put the power of nature to work to promote clean and healthy hands!</p> <p><strong>Directions Of Use:</strong></p> <p>Pump onto hands, lather, then rinse.</p> <p><strong>Ingredients:</strong></p> <p>Aqua / water / eau, sodium coco-sulfate, sodium chloride, coco-glucoside, vegetable glycerin, decyl glucoside, glyceryl oleate, citric acid, nasturtium officinale (watercress / cresson) extract, tropaeolum magus (indian cress / capucine) extract, maltodextrin, moringa oleifera seed extract, camellia sinensis (white tea / th?© blanc) leaf extract, sodium benzoate, potassium sorbate, methyldihydrojasmonate (jasmin), hexyl salicylate (floral), pentadecalactone (fruit).</p>",49,1000,Attitude,473 ML,Unisex,Y,Personal Care///body care///Soaps and Handwash,Attitude Super Leaves Hand Soap White Tea Leaves 473ml.jpg,Common Vendor
ATT-UDE-244-543,Attitude Super Leaves Hand Soap Gel Orange Leaves 473ml,"<h3><strong>Description</strong></h3> <ul> <li>Moringa seed extract, with its cleansing and purifying power, decreases the adhesion of pollutants and detoxifies the skin.</li> <li>Cleanse hands without drying out the skin.</li> <li>Our surfactants are made of plant-derived glucose and fatty alcohols, free of ethoxylated bi-products contaminated with cancer-causing chemicals (1,4-dioxane and ethylene oxide), such as SLES/SLS.</li> </ul> <p>Did you know orange leaves are known to restore skin's luminous glow? Featuring an aroma that reminds us of orange and cardamom, ATTITUDE's Super leaves Orange Leaves Hand Soap is enriched with orange leaf extract to help refresh and restore the skin. EWG Verified hypoallergenic and dermatologically-tested, our hand soap includes moringa seed extract, known for its antipollution properties. Put the power of nature to work to promote clean and healthy hands!</p> <p><strong>Directions Of Use:</strong></p> <p>Pump onto hands, lather, then rinse.</p> <p><strong>Ingredients:</strong></p> <p>Aqua / water / eau, sodium coco-sulfate, sodium chloride, coco-glucoside, vegetable glycerin, decyl glucoside, glyceryl oleate, citric acid, nasturtium officinale (watercress / cresson) extract, tropaeolum magus (indian cress / capucine) extract, maltodextrin, moringa oleifera seed extract, citrus aurantium dulcis (orange) leaf extract, sodium benzoate, potassium sorbate, decanal (fruit), pentadecalactone (fruit), raspberry ketone.</p>",49,1000,Attitude,473 ML,Unisex,Y,Personal Care///body care///Soaps and Handwash,Attitude Super Leaves Hand Soap Gel Orange Leaves 473ml.jpg///Attitude Super Leaves Hand Soap Gel Orange Leaves 473ml1.jpg,Common Vendor
ATT-UDE-245-544,Attitude Super Leaves Hand Soap Gel Olive Leaves 473ml,"<h3><strong>Description</strong></h3> <ul> <li>Moringa seed extract, with its cleansing and purifying power, decreases the adhesion of pollutants and detoxifies the skin.</li> <li>Cleanse hands without drying out the skin.</li> <li>Our surfactants are made of plant-derived glucose and fatty alcohols, free of ethoxylated bi-products contaminated with cancer-causing chemicals (1,4-dioxane and ethylene oxide), such as SLES/SLS.</li> </ul> <p>Did you know olives are rich in healthy fats and antioxidants? As a matter of fact, olive leaves are also loaded with these healthy nutrients. With its aroma that reminds us of pear and ginger, ATTITUDEs Super leaves Olive Leaves Hand Soap is enriched with the goodness of olive leaf extract to help hydrate and soothe the skin. EWG Verified, hypoallergenic and dermatologically-tested, our hand soap includes moringa seed extract, known for its antipollution properties. Put the power of nature to work to promote clean and healthy hands! Still curious? View our Super leaves FAQ to learn more.</p> <p><strong>Directions Of Use:</strong></p> <p>Pump onto hands, lather, then rinse.<strong><br/></strong></p> <p><strong>Ingredients:</strong></p> <p>Aqua / water / eau, sodium coco-sulfate, sodium chloride, coco-glucoside, vegetable glycerin, decyl glucoside, glyceryl oleate, citric acid, nasturtium officinale (watercress / cresson) extract, tropaeolum magus (indian cress / capucine) extract, maltodextrin, moringa oleifera seed extract, olea europaea (olive) leaf extract, sodium benzoate, potassium sorbate, hexyl salicylate (floral), geranyl acetate (floral), methyldihydrojasmonate (jasmin).</p>",49,1000,Attitude,473 ML,Unisex,Y,Personal Care///body care///Soaps and Handwash,Attitude Super Leaves Hand Soap Gel Olive Leaves 473ml.jpg///Attitude Super Leaves Hand Soap Gel Olive Leaves 473ml1.jpg,Common Vendor
ATT-UDE-246-545,Attitude Super Leaves Hand Soap Gel Lemon Leaves 473 ml,"<h3><strong>Description</strong></h3> <ul> <li>Moringa seed extract, with its cleansing and purifying power, decreases the adhesion of pollutants and detoxifies the skin.</li> <li>Cleanse hands without drying out the skin.</li> <li>Our surfactants are made of plant-derived glucose and fatty alcohols, free of ethoxylated bi-products contaminated with cancer-causing chemicals (1,4-dioxane and ethylene oxide), such as SLES/SLS.</li> </ul> <p>Did you know the vitamin C contained in lemon leaves was a natural antioxidant? Antioxidants found in lemon leaves help to fight free radicals, that can cause daily damage to your skin. Featuring an aroma that reminds us of Earl Grey tea and fresh cucumber, ATTITUDE's Super leaves Lemon Leaves Hand Soap contains lemon leaf extract to help purify and regenerate the skin. EWG Verified hypoallergenic and dermatologically-tested, our hand soap includes moringa seed extract, known for its antipollution properties. Put the power of nature to work to promote clean and healthy hands!</p> <p><strong>Directions Of Use:</strong></p> <p>Pump onto hands, lather, then rinse.</p> <p><strong>Ingredients:</strong></p> <p>Aqua / water / eau, sodium coco-sulfate, sodium chloride, coco-glucoside, vegetable glycerin, decyl glucoside, glyceryl oleate, citric acid, nasturtium officinale (watercress / cresson) extract, tropaeolum magus (indian cress / capucine) extract, maltodextrin, moringa oleifera seed extract, citrus limon (lemon / citron) leaf extract, sodium benzoate, potassium sorbate, 3-hexenol (green leaves), methyl-dihydro jasmonate (jasmin), dimethyl heptenal (fruit).</p>",49,1000,Attitude,473 ML,Unisex,Y,Personal Care///body care///Soaps and Handwash,Attitude Super Leaves Hand Soap Gel Lemon Leaves 473 ml.jpg///Attitude Super Leaves Hand Soap Gel Lemon Leaves 473 ml1.jpg,Common Vendor
ATT-UDE-247-546,Attitude Super Leaves Hand Soap 473ml,"<h3><strong>Description</strong></h3> <ul> <li>Red vine leaves are recognized for their antioxidant, rejuvenating and glowing properties that promote healthy and radiant skin Moringa seed extract, with its cleansing and purifying power, decreases the adhesion of pollutants and detoxifies the skin.</li> <li>Cleanse hands without drying out the skin.</li> <li>Our surfactants are made of plant-derived glucose and fatty alcohols, free of ethoxylated bi-products contaminated with cancer-causing chemicals (1,4-dioxane and ethylene oxide), such as SLES/SLS.</li> </ul> <p>Did you know that red vine leaf extract is a powerful antioxidant? That's why we enriched our Super leaves Glowing Hand Soap with this regenerative leaf extract. You'll also love its luxurious and subtle berry fragrance. EWG Verified hypoallergenic and dermatologically tested, our Natural Hand Soap also includes moringa seed extract, recognized for its antipollution properties. Enjoy clean and soft hands, naturally!</p> <p><strong>Directions Of Use:</strong></p> <div> <div> <div> <div> <p>Pump onto hands, lather then rinse. FOR EXTERNAL USE ONLY.</p> <p><strong>Ingredients:</strong></p> </div> </div> </div> </div> <div>Aqua / water / Eau, sodium coco-sulfate, sodium chloride, coco-glucoside, vegetable glycerin, decyl glucoside, glyceryl oleate, citric acid, nasturtium officinale (watercress / cresson) extract, tropaeolum magus (Indian cress / capucine) extract, maltodextrin, moringa oleifera seed extract, Vitis vinifera (grape) leaf extract, sodium benzoate, potassium sorbate, gamma-undecalactone (fruit), allyl caproate (fruit), ionone (floral).</div>",49,1000,Attitude,473 ML,Unisex,Y,Personal Care///body care///Soaps and Handwash,Attitude Super Leaves Hand Soap 473ml.jpg,Common Vendor
ATT-UDE-248-547,Attitude Natural Hand Soap Soothing&Calming Chamomile 473 ml,"<h3><strong>Description</strong></h3> <ul> <li>Natural hand soap free of irritants, hypoallergenic and tested by dermatologists.</li> <li>Enriched with oatmeal and chamomile, known for their soothing and protective properties.</li> <li>EWG VERIFIED and top-rated hand soap in EWGs Skin Deep Cosmetics Database.</li> <li>PETA Certified: cruelty-free and never tested on animals.</li> <li>ECOLOGO Certified: biodegradable and sustainable.</li> <li>Free of Sodium Laureth Sulfate, 1,4-Dioxane and Ethylene Oxide.</li> <li>Free of PEGs, such as PEG-100 Stearate and PEG-40 Hydrogenated Castor Oil.</li> <li>Free of preservatives of concern such as Phenoxyethanol, Parabens (Propylparaben, Isopropylparapen, Butylparaben, Isobutylparaben), Formaldehyde or Formaldehyde releasers, Benzyl Alcohol, and MIT.</li> <li>Free of endocrine disruptors such as BHA, BHT, Phthalate, and Triclosan.</li> </ul> <p>Our hands play such a major role in our handiwork and day-to-day activities, so it's important to keep them happy and healthy! ATTITUDE's Soothing &amp; Calming Natural Hand Soap is a mild cleanser that is EWG VERIFIED, hypoallergenic and dermatologically tested. Our formula is extra gentle on your skin, leaving your delicate hands feeling clean and soft. And, because we know you'll want to use it over and over, our formula is enhanced with a refreshing infusion of chamomile extract to stimulate your senses and soothe your sensitive skin.</p> <p><strong>Directions Of Use:</strong></p> <p>Pump into hands, lather then rinse. FOR EXTERNAL USE ONLY.</p> <p><strong>Ingredients:</strong></p> <p>Aqua / water / Eau, sodium coco-sulfate, glycerin, sodium cocoyl isethionate, sodium chloride, coco-glucoside, citric acid, sodium benzoate, potassium sorbate, Avena sativa (oat / avoine) kernel extract, chamomilla Recutita (Matricaria) flower extract, triethyl citrate, linalyl acetate (floral), geranyl acetate (floral).</p>",49,1000,Attitude,473 ML,Unisex,Y,Personal Care///body care///Soaps and Handwash,Attitude Natural Hand Soap Soothing&Calming Chamomile 473 ml.jpg///Attitude Natural Hand Soap Soothing&Calming Chamomile 473 ml1.jpg,Common Vendor
ATT-UDE-249-548,Attitude Natural Hand Soap Moisturizing&Revitalize Argan Oil 473ml,"<h3><strong>Description</strong></h3> <ul> <li>Made for dry and sensitive skin: dermatologically tested, hypoallergenic and vegan.</li> <li>Made with natural, plant-based and mineral ingredients, in compliance with EWG standards.</li> <li>Enhanced with antioxidants, protective and nourishing argan oil to revitalize your hands.</li> <li>Enriched with soothing oatmeal to moisturize dry skin.</li> <li>EWG VERIFIED and top-rated in EWGs Skin Deep Cosmetics Database.</li> <li>ECOLOGO Certified: sustainable and biodegradable hand soap to minimize environmental impact.</li> <li>PETA Certified: vegan and never used or tested on animals.</li> <li>Free of Sodium Laureth Sulfate, an ingredient contaminated with carcinogenic byproducts such as 1,4-Dioxane and Ethylene Oxide.</li> <li>Free of PEGs such as PEG-100 Stearate and PEG-40 Hydrogenated Castor Oil, contaminated with cancer-causing chemicals.</li> <li>Free of preservatives of concern such as Phenoxyethanol, Parabens (Propylparaben, Isopropylparapen, Butylparaben, Isobutylparaben), Formaldehyde or Formaldehyde releasers, Benzyl Alcohol, and MIT.</li> <li>Free of endocrine disruptors such as BHA, BHT, Phthalate, and Triclosan.</li> </ul> <p>Your hands work hard every day, and they deserve to be pampered! Thanks to ATTITUDE's Moisturize &amp; Revitalize Natural Hand Soap, you can rest assured that your hands..are in great hands! Harnessing the power of nature to gently cleanse away germs and impurities, this natural hand soap for sensitive skin is EWG VERIFIED, hypoallergenic and dermatologically tested. It uses ingredients such as oatmeal and argan oil, known for their nourishing, regenerative and antioxidant properties. Wash and soothe your delicate hands, worry-free!</p> <p><strong>Directions Of Use:</strong></p> <p>Pump into hands, lather then rinse. FOR EXTERNAL USE ONLY.</p> <p><strong>Ingredients:</strong></p> <p>Aqua / water / eau, sodium coco-sulfate, glycerin, sodium cocoyl isethionate, coco-glucoside, sodium chloride, citric acid, sodium benzoate, potassium sorbate, argania spinosa (argan) kernel oil, avena sativa (oat / avoine) kernel extract, vanillin, pentadecalactone (fruit), linalyl acetate (floral).</p>",49,1000,Attitude,473 ML,Unisex,Y,Personal Care///body care///Soaps and Handwash,Attitude Natural Hand Soap Moisturizing&Revitalize Argan Oil 473ml.jpg///Attitude Natural Hand Soap Moisturizing&Revitalize Argan Oil 473ml1.jpg,Common Vendor
ATT-UDE-250-549,Attitude Natural Hand Soap Extra Gentle Fragrance Free 240ml,"<h3><strong>Description</strong></h3> <ul> <li>Fragrance-free natural hand soap crafted for people with odor sensitivities.</li> <li>Crafted for dry and sensitive skin: made with natural, plant and mineral-based ingredients.</li> <li>Enhanced with nourishing oatmeal to soothe itchy skin.</li> <li>Dermatologically tested, hypoallergenic and non-irritating for your hands.</li> <li>EWG VERIFIED and top-rated in EWGs Skin Deep Cosmetics Database.</li> <li>ECOLOGO Certified: sustainable and biodegradable.</li> <li>Cruelty-free: vegan and never tested on animals.</li> <li>Free of Sodium Laureth Sulfate, an ingredient contaminated with carcinogenic byproducts such as 1,4-Dioxane and Ethylene Oxide.</li> <li>Free of PEGs such as PEG-100 Stearate or PEG-40 Hydrogenated Castor Oil, contaminated with cancer-causing chemicals Free of ingredients of concern such as Phenoxyethanol, Parabens (Propylparaben, Isopropylparapen, Butylparaben, Isobutylparaben), Formaldehyde or Formaldehyde releasers, Benzyl Alcohol, and MIT.</li> <li>Free of endocrine disruptors such as BHA, BHT, Phthalate, and Triclosan.</li> </ul> <p>Did you know? Fingertips have a large number of receptors responsible for sending messages to the brain, making our fingers even more sensitive than our eyes! ATTITUDE's fragrance-free Extra Gentle Natural Hand Soap for delicate skin was crafted with this in mind. Gentle yet effective, this natural hand soap is specially formulated for people with odor sensitivities. It is made with plant- and mineral-based, hypoallergenic ingredients like oatmeal to soothe and protect your sensitive skin. The EWG VERIFIED formula will keep your skin healthy, hydrated and protected every day. Our hand soap is dermatologically tested and worry-free according to EWG. So feel free to wash away, safely!</p> <p><strong>Directions Of Use:</strong></p> <p>Pump into hands, lather then rinse. FOR EXTERNAL USE ONLY.</p> <p><strong>Ingredients:</strong></p> <p>Aqua/water/ Eau, sodium coco-sulfate, glycerin, sodium cocoyl isethionate, coco-glucoside, sodium chloride, citric acid, sodium benzoate, potassium sorbate, Vitis vinifera (grape) seed oil, Avena sativa (oat / avoine) kernel extract, triethyl citrate, raspberry ketone, allyl caproate.</p>",49,1000,Attitude,240 ML,Unisex,Y,Personal Care///body care///Soaps and Handwash,Attitude Natural Hand Soap Extra Gentle Fragrance Free 240ml.jpg///Attitude Natural Hand Soap Extra Gentle Fragrance Free 240ml1.jpg,Common Vendor
