Product Code,Package Name,Description,Price,Stock,Brand,Manufacturer,OTC,Category,Product Image,Vendor
TRI-120-ISA-100,Trisa Junior 6+ Years Toothbrush,<div> <div> <h4>Short description:</h4> <ul> <li>Smart clean</li> <li>6+ years</li> <li>Swiss made</li> </ul> </div> </div> <div> <h4>Description:</h4> <p>Trisa Junior 6+ Years Toothbrush is designed for 6 years old and above with soft gentle bristle that cleans the teeth and gum lines for fresher and healthier mouth of the child.</p> </div> <div> <h4>Benefits:</h4> <ul> <li>With soft bristle that is gentle for the child's teeth</li> <li>It helps to clean the teeth to prevent bacteria that causes bad breath</li> </ul> </div> <div> <h4>How to use:</h4> <ul> <li>Apply a small amount of toothpaste to the brush area surrounded by red filament tufts.</li> </ul> </div>,12.5,1000,Trisa,Trisa Switzerland,Y,Personal Care///Oral Care///Tooth Brushes,Trisa Junior 6+ Years Toothbrush.jpg///Trisa Junior 6+ Years Toothbrush1.jpg,Common Vendor
BUT-121-GUM-101,ButlerGum Microtip Soft Regular Toothbrush 470 M,"<div> <div> <h4>Short description:</h4> <ul> <li>Healthy gums, healthy life</li> <li>Micro-tip feathered bristles</li> <li>Designed for deep and gentle cleaning</li> </ul> </div> </div> <div> <h4>Description:</h4> <p>ButlerGum Microtip Soft Regular Toothbrush with micro-feathering of inside bristle rows increases number of bristle tips by 70% to gently gently clean over a broader surface. The interdental trim is designed to align with the tooth profile to clean in between teeth and hard to reach areas. The Dome Trim design (raised center row design) is clinically proven to remove bacterial plaque below the gumline and reduce early gum disease.</p> </div> <div> <h4>Benefits:</h4> <ul> <li>Ergonomically designed clear handle with rubber thumb grip enhances comfort and maneuverability while brushing</li> <li>70% more bristle tips to clean along the gumline</li> </ul> </div> <div> <h4>How to use:</h4> <ul> <li>Brush at least twice a day with toothpaste for at least two minutes, especially first thing in the morning and before bedtime.</li> </ul> </div>",11.25,1000,Butler Gum,Sunstar,Y,Personal Care///Oral Care///Tooth Brushes,ButlerGum Microtip Soft Regular Toothbrush 470 M.jpg,Common Vendor
BUT-122-GUM-102,Butler Gum Technique+ Compact Medium Toothbrush 493ME,<div> <div> <h4>Short description:</h4> <ul> <li>Designed for advanced brushing technique</li> <li>Patented Quad-Grip handle helps ensures the best brushing angle</li> <li>With hygiene bristle cap</li> <li>Super-tip: eliminates plaque removal between teeth</li> </ul> </div> </div> <div> <h4>Description:</h4> <p>Designed for advanced brushing with patented Quad-Grip handle helps ensure best brushing angle 45?; multi-level Dome trim design reaches below the gum line and between teeth for optimal oral care.</p> </div> <div> <h4>Benefits:</h4> <ul> <li>Dome Trim bristle design has been clinically proven to clean below the gum line where gum disease starts.</li> <li>Interdental trim design effectively removes plaque between teeth.</li> <li>Extended Super Tip eliminates plaque from hard-to-reach places.</li> </ul> </div> <div> <h4>How to use:</h4> <ul> <li>Brush your teeth at least twice daily.</li> </ul> </div>,13.75,1000,Butler Gum,Sunstar,Y,Personal Care///Oral Care///Tooth Brushes,Butler Gum Technique+ Compact Medium Toothbrush 493ME.jpg,Common Vendor
BUT-123-GUM-103,Butler Gum Technique+ Compact Soft Toothbrush 491ME,<div> <div> <h4>Short description:</h4> <ul> <li>Patented quad grip handle</li> <li>Dome trim bristle design</li> <li>Soft bristles</li> <li>Helps achieve the 45° brushing angle</li> <li>With hygienic cover</li> </ul> </div> </div> <div> <h4>Description:</h4> <p>Designed for advanced brushing with patented Quad-Grip handle helps ensure best brushing angle 45?; multi-level dome trim design reaches below the gum line and between teeth for optimal oral care.</p> </div> <div> <h4>Benefits:</h4> <ul> <li>Dome Trim bristle design has been clinically proven to clean below the gum line where gum disease starts.</li> <li>Interdental trim design effectively removes plaque between teeth.</li> <li>Extended Super Tip eliminates plaque from hard-to-reach places.</li> </ul> </div> <div> <h4>How to use:</h4> <ul> <li>Brush your teeth at least twice daily.</li> </ul> </div>,13.75,1000,Butler Gum,Sunstar,Y,Personal Care///Oral Care///Tooth Brushes,Butler Gum Technique+ Compact Soft Toothbrush 491ME.jpg,Common Vendor
BUT-124-GUM-104,Butler Gum Technique+ Medium Toothbrush 492ME,<div> <div> <h4>Short description:</h4> <ul> <li>Patented quad grip handle</li> <li>Dome trim bristle design</li> <li>With extended super tip design</li> </ul> </div> </div> <div> <h4>Description:</h4> <p>Designed for advanced brushing with patented Quad-Grip handle helps ensure best brushing angle 45?; multi-level dome trim design reaches below the gum line and between teeth for optimal oral care. The 4 thumb grips guides to the 45° angle while brushing all 4 quadrants of the mouth.</p> </div> <div> <h4>Benefits:</h4> <ul> <li>Dome Trim bristle design has been clinically proven to clean below the gum line where gum disease starts.</li> <li>Interdental trim design effectively removes plaque between teeth.</li> <li>Extended Super Tip eliminates plaque from hard-to-reach places.</li> </ul> </div> <div> <h4>How to use:</h4> <ul> <li>Brush your teeth at least twice daily.</li> </ul> </div>,13.75,1000,Butler Gum,Sunstar,Y,Personal Care///Oral Care///Tooth Brushes,Butler Gum Technique+ Medium Toothbrush 492ME.jpg,Common Vendor
BUT-125-GUM-105,Butler Gum Technique+ Soft Regular Toothbrush 490 ME,"<div> <div> <h4>Short description:</h4> <ul> <li>Dome Trim Bristle Design</li> <li>Recommended By Dental Professionals</li> <li>Handle Design Helps You Brush Like A Dental Professional</li> </ul> </div> </div> <div> <h4>Description:</h4> <p>The GUM Technique toothbrush features a unique handle designed to help position the brush so that the bristles reach under the gum line and where dental plaque can build up and cause gingival inflammation leading to gum diseases. The Quad-Grip handle has a unique design that helps you always hold the brush the way most dental professionals doat 45 degrees. Whether you are left- or right-handed, brushing upper or lower teeth, the handle intuitively helps you form the 45-degree angle that is more effective at cleaning away the dental plaque from both gums and teeth. This makes sure you have the right dental 'technique.'</p> </div> <div> <h4>Benefits:</h4> <ul> <li>Designed for advanced brushing technique</li> <li>Patented Quad-Grip handle helps ensure the best brushing angle</li> <li>Dome Trim design clinically proven to reach below the gum line and between teeth for optimal oral care Interdental trim for effective plaque removal between teeth</li> <li>Extended SuperTip eliminates plaque from hard-to-reach areas</li> <li>With hygiene cap</li> </ul> </div> <div> <h4>How to use:</h4> <ul> <li>Brush twice daily with the Gum Technique toothbrush for effective plaque removal beneath the gum line.</li> </ul> </div>",13.75,1000,Butler Gum,Sunstar,Y,Personal Care///Oral Care///Tooth Brushes,Butler Gum Technique+ Soft Regular Toothbrush 490 ME.jpg///Butler Gum Technique+ Soft Regular Toothbrush 490 ME1.jpg,Common Vendor
BUT-126-GUM-106,Butler Gum Travel Soft Toothbrush 158M,"<div> <div> <h4>Short description:</h4> <ul> <li>Anti-bacterial protected bristles</li> <li>Trifold design: Brush head conveniently folds into handle for clean and compact travel</li> <li>Comfort thumb pad and gentle tongue cleaner</li> </ul> </div> </div> <div> <h4>Description:</h4> <p>Regular size tooth brush with ergonomic handle folds into a practical travel size. Multilevel antibacterial protected bristles keep the brush cleaner between uses. Tongue cleaner helps remove odor-causing bacteria.</p> </div> <div> <h4>Benefits:</h4> <ul> <li>Anti-bacterial protected bristles to keep bristles cleaner between uses</li> <li>Trifold design: Brush head conveniently folds into handle for clean and compact travel</li> <li>Comfort thumb pad: TPE thumb grid adds comfort and control while brushing</li> </ul> </div> <div> <h4>How to use:</h4> <ul> <li>How you hold the toothbrush depends on which part of the tooth you're brushing.</li> <li>Start with outer and inner surfaces, and brush at a 45-degree angle in short, half-tooth-wide strokes against the gum line. Make sure you reach your back teeth</li> <li>Move on to chewing surfaces. Hold the brush flat and brush back and forth along these surfaces</li> <li>Once you get to the inside surfaces of your front teeth, tilt the brush vertically and use gentle up-and-down strokes with the tip of brush</li> <li>Be sure to brush gently along the gum line</li> <li>Brush your tongue in a back-to-front sweeping motion to remove food particles and help remove odor-causing bacteria to freshen your breath</li> </ul> </div>",13.25,1000,Butler Gum,Sunstar,Y,Personal Care///Oral Care///Tooth Brushes,Butler Gum Travel Soft Toothbrush 158M.jpg///Butler Gum Travel Soft Toothbrush 158M1.jpg,Common Vendor
BUT-127-GUM-107,Butler Gum Baby 0-2 Years Tooth Brush 213M,"<div> <div> <h4>Short description:</h4> <ul> <li>Ideal for 0-2 years old baby</li> <li>Healthy gums, healthy life</li> <li>Gentle plaque removal for cavity prevention</li> </ul> </div> </div> <div> <h4>Description:</h4> <p>Soft bristles thoroughly removes plaque from tooth surfaces and the gum line. Extra small head for better fit in baby's mouth. Longer handle to facilitate mother's hold of the tooth brush ensuring to remove the tiny dirt from your baby's teeth.</p> </div> <div> <h4>Benefits:</h4> <ul> <li>Extra small head for better fit in baby's mouth</li> <li>Longer handle to facilitate parent's hold of the brush</li> <li>Gentle feathered bristles thoroughly remove plaque from tooth surfaces, interdental spaces and the gum line</li> <li>Split tips reach into pits &amp; fissures, where cavities can easily start</li> </ul> </div> <div> <h4>How to use:</h4> <ul> <li>Once baby's teeth have grown in, it's time to start brushing.</li> <li>Use a small smear of toothpaste (about the size of a grain of rice) and brush those twice a day.</li> </ul> </div>",13.75,1000,Butler Gum,Sunstar,Y,Personal Care///Oral Care///Tooth Brushes,Butler Gum Baby 0-2 Years Tooth Brush 213M.jpg///Butler Gum Baby 0-2 Years Tooth Brush 213M1.jpg,Common Vendor
BUT-128-GUM-108,ButlerGum Activital Soft Toothbrush 581M,"<div> <div> <h4>Short description:</h4> <ul> <li>Compact activital soft tooth brush</li> <li>With hygiene cap and soft bristles</li> <li>Prevent gingivitis and maintain healthier gums</li> <li>Superior plaque removal for optimal gum health</li> </ul> </div> </div> <div> <h4>Description:</h4> <p>ButlerGum Activital Soft Toothbrush with the micro-thin bristles gently penetrate into all crevices - including interdental areas and below the gumline - to remove plaque without the abrasive damage of regular bristles. The unique tufting pattern is clinically designed for deeper cleaning between the teeth and along the gumline to prevent the development of gum disease. The advanced ergonomic handle design, with slender neck, absorbs excess brushing force allowing gentle brushing as recommended by dentists to preserve gums from damage.</p> </div> <div> <h4>Benefits:</h4> <ul> <li>Super thin brush head is designed to easily access all areas of the mouth</li> <li>Triangular shaped tufts to fit bristles between the teeth where gum disease originates</li> <li>Rectangular shaped tufts designed for superior gumline cleaning and massaging of the gums</li> <li>Clinically proven to reduce gingivitis</li> </ul> </div> <div> <h4>How to use:</h4> <ul> <li>Brush your teeth at least twice daily.</li> </ul> </div>",18,1000,Butler Gum,Sunstar,Y,Personal Care///Oral Care///Tooth Brushes,ButlerGum Activital Soft Toothbrush 581M.jpg,Common Vendor
BUT-129-GUM-109,Butler Gum Classic Toothbrush 411 M,"<div> <div> <h4>Short description:</h4> <ul> <li>Clinically proven to reduce early gum diseases</li> <li>Effectively removes plaque</li> <li>With hygiene cap and rubber tip stimulator for gingival massage</li> </ul> </div> </div> <div> <h4>Description:</h4> <p>Butler Gum Classic Tooth Brush effectively removes plaque, a leading cause of cavities and gum diseases.</p> </div> <div> <h4>Benefits:</h4> <ul> <li>Patented Dome-Trim bristle profile, clinically proven to provide exceptional plaque removal and reduce gingival inflammation</li> <li>Rubber tip stimulator for gingival massage</li> <li>With hygiene cap</li> </ul> </div> <div> <h4>How to use:</h4> <ul> <li>Use while brushing your teeth at least two times a day.</li> </ul> </div>",8,1000,Butler Gum,Sunstar,Y,Personal Care///Oral Care///Tooth Brushes,Butler Gum Classic Toothbrush 411 M.jpg,Common Vendor
BUT-130-GUM-110,ButlerGum Microtip Compact Soft Toothbrush 471 M,"<div> <div> <h4>Short description:</h4> <ul> <li>Healthy gums, healthy life</li> <li>Micro-tip feathered bristles</li> <li>Designed for deep and gentle cleaning</li> </ul> </div> </div> <div> <h4>Description:</h4> <p>ButlerGum Microtip Compact Soft Toothbrush with micro-feathering of inside bristle rows increases number of bristle tips by 70% to gently gently clean over a broader surface. The interdental trim is designed to align with the tooth profile to clean in between teeth and hard to reach areas. The Dome Trim design (raised center row design) is clinically proven to remove bacterial plaque below the gumline and reduce early gum disease.</p> </div> <div> <h4>Benefits:</h4> <ul> <li>Ergonomically designed clear handle with rubber thumb grip enhances comfort and maneuverability while brushing</li> <li>70% more bristle tips to clean along the gumline</li> </ul> </div> <div> <h4>How to use:</h4> <ul> <li>Brush at least twice a day with toothpaste for at least two minutes, especially first thing in the morning and before bedtime.</li> </ul> </div>",11.25,1000,Butler Gum,Sunstar,Y,Personal Care///Oral Care///Tooth Brushes,ButlerGum Microtip Compact Soft Toothbrush 471 M.jpg,Common Vendor
BUT-131-GUM-111,Butler Gum End-Tuft Tapered Tooth Brush 308 RQ,"<div> <div> <h4>Short description:</h4> <ul> <li>Small tapered brush</li> <li>Clean hard to reach problem areas</li> <li>End - tuft</li> </ul> </div> </div> <div> <h4>Description:</h4> <p>End Tuft Toothbrush is specially designed for special maintenance concerns such as orthodontics, implants, furcations, distal of the last molar and other hard-to-reach areas.</p> </div> <div> <h4>Benefits:</h4> <ul> <li>Small brush head addresses special maintenance concerns</li> <li>Tapered trim</li> </ul> </div> <div> <h4>How to use:</h4> <ul> <li>Use as often as required.</li> </ul> </div>",11.25,1000,Butler Gum,Sunstar,Y,Personal Care///Oral Care///Tooth Brushes,Butler Gum End-Tuft Tapered Tooth Brush 308 RQ.jpg,Common Vendor
BUT-132-GUM-112,Butler Gum Activital Toothbrush Medium 583M,"<div> <div> <h4>Short description:</h4> <ul> <li>Efficient cleansing</li> <li>Reduces gingivitis</li> <li>Removes the plaque, without damaging the gums</li> </ul> </div> </div> <div> <h4>Description:</h4> <p>Butler Gum Activital Toothbrush Medium eliminates dental plaque in the most difficult access areas with efficiency. The micro-thin bristles gently penetrate into all crevices - including interdental areas and below the gumLine - to remove plaque without the abrasive damage of regular bristles. The advanced ergonomic handle design, with slender neck, absorbs excess brushing force allowing gentle brushing as recommended by dentists to preserve gums from damage. The super thin brush head is designed to easily access all areas of the mouth.</p> </div> <div> <h4>Benefits:</h4> <ul> <li>Thin brush head</li> <li>Efficient cleaning</li> </ul> </div> <div> <h4>How to use:</h4> <ul> <li>Start with outer and inner surfaces, and brush at a 45-degree angle in short, half-tooth-wide strokes against the gum</li> <li>Move on to chewing surfaces, hold the brush flat and brush back and forth along these surfaces</li> <li>Once you get to the inside surfaces of your front teeth, tilt the brush vertically and use gentle up-and-down strokes with the tip of brush</li> </ul> </div>",18,1000,Butler Gum,Sunstar,Y,Personal Care///Oral Care///Tooth Brushes,Butler Gum Activital Toothbrush Medium 583M.jpg,Common Vendor
ELG-133-IUM-113,Elgydium Sensitive Soft Toothbrush,"<div> <div> <h4>Short description:</h4> <ul> <li>Soft bristles with tapered tips</li> <li>Ergonomic handle</li> <li>With head cover</li> </ul> </div> </div> <div> <h4>Description:</h4> <p>Elgydium Sensitive Soft Toothbrush is an ultra-soft, silky stranded brush designed for people whose sensitive teeth require painless and effective brushing. It has an ergonomic handle for optimal grip.</p> </div> <div> <h4>Benefits:</h4> <ul> <li>Ultra soft and silky strands for effective brushing</li> <li>Protective cap for optimal hygiene</li> <li>Flexible</li> </ul> </div> <div> <h4>How to use:</h4> <ul> <li>Brush at least two times a day after meals, with a toothpaste for sensitive teeth.</li> </ul> </div>",20.65,1000,Elgydium,Pierre Fabre,Y,Personal Care///Oral Care///Tooth Brushes,Elgydium Sensitive Soft Toothbrush.jpg,Common Vendor
BUT-134-GUM-114,Butler Gum Ortho Soft Toothbrush 4RW 124 M,"<div> <div> <h4>Short description:</h4> <ul> <li>Ortho Tooth brush</li> <li>V-trim facilitates cleaning</li> <li>With hygiene cap</li> </ul> </div> </div> <div> <h4>Description:</h4> <p>Designed to facilitate cleaning on and around orthodontic appliances with the small head with soft V trim bristle shape that fits over the wire and brackets.</p> </div> <div> <h4>Benefits:</h4> <ul> <li>?V' Bristle Structure - Helps remove food particles around orthodontics</li> <li>Comfort-Grip - For added comfort and control while brushing</li> <li>Long, narrow neck helps you reach back teeth</li> <li>Thumb grip for greater comfort and control</li> </ul> </div> <div> <h4>How to use:</h4> <ul> <li>Use as often as required. For adult use.</li> </ul> </div>",11.75,1000,Butler Gum,Sunstar,Y,Personal Care///Oral Care///Tooth Brushes,Butler Gum Ortho Soft Toothbrush 4RW 124 M.jpg,Common Vendor
BRA-135-AUN-115,Braun Oral-B 3D White Replacement Brush Heads 2's,"<div> <div> <h4>Short description:</h4> <ul> <li>Advanced cleaning and whitening</li> <li>Compatible with PRO, TriZone and vitality</li> <li>Contains 2 brush heads</li> </ul> </div> </div> <div> <h4>Description:</h4> <p>3D White toothbrush head is designed to clean tooth-by-tooth and is ideal for advanced cleaning and whitening. The specialized bristles sweep away plaque and the polishing cup whitens teeth starting from day 1 by removing surface stains.</p> </div> <div> <h4>Benefits:</h4> <ul> <li>Provides advanced cleaning and whitening results</li> <li>Polishing cup whitens teeth starting from day 1 by removing surface stains</li> <li>Bristles clean on and around teeth to help remove plaque</li> <li>Compatible with the entire lineup of Oral-B rechargeable electric toothbrush handles, except for Pulsonic toothbrushes</li> </ul> </div> <div> <h4>How to use:</h4> <ul> <li>Use as replacement brush head for Braun Oral-B PRO, TriZone and Vitality electronic tooth brushes.</li> </ul> </div>",49,1000,Braun,Braun,Y,Personal Care///Oral Care///Tooth Brushes,Braun Oral-B 3D White Replacement Brush Heads 2's.jpg,Common Vendor
BRA-136-AUN-116,Braun Oral-B Professional Care D16 513U Tooth Brush,"<div> <div> <h4>Short description:</h4> <ul> <li>Removes up to 2X more plaque than a regular manual toothbrush</li> <li>Rechargeable power toothbrush</li> <li>Tooth brush head is included</li> </ul> </div> </div> <div> <h4>Description:</h4> <p>This is an entry level electronic toothbrush with one simple cleaning mode, which is ideal for those making a transition from manual toothbrushes to electronic ones. It contains a 3D cleaning mechanism to remove twice as much plaque as a manual toothbrush. It pulsates a 20,000 times every single minute &amp; rotates 7,600 times each minute. Built-in pressure sensor protects the gums and teeth from damage, as the pressing force control during the execution of the cleaning procedures. Battery charge will last for 7 days once it is fully charged. The integrated timer ensures that the process of cleaning teeth does not exceed a time period of two minutes as recommended dentists. A toothbrush head is included with the brush.</p> </div> <div> <h4>Benefits:</h4> <ul> <li>3D cleaning (pulsates, oscillates and rotates)process removes 2 x as much plaque as a manual toothbrush</li> <li>It has an in-built 2-minute timer</li> <li>Battery charge will last for 7 days once it is fully charged.</li> <li>The precision clean brush head is included with this pack</li> <li>Also sensitive &amp; 3 D white brush head are suitable for this tooth brush</li> </ul> </div> <div> <h4>How to use:</h4> <ul> <li>Please refer the instruction manual before use for detailed instruction.</li> </ul> </div>",299,1000,Braun,Braun,Y,Personal Care///Oral Care///Tooth Brushes,Braun Oral-B Professional Care D16 513U Tooth Brush.jpg///Braun Oral-B Professional Care D16 513U Tooth Brush1.jpg,Common Vendor
BRA-137-AUN-117,Braun Oral B D12.513 Vitality Precision Clean Toothbrush,"<div> <div> <h4>Short description:</h4> <ul> <li>Removes more plaque than a regular manual toothbrush</li> <li>Rechargeable power toothbrush</li> <li>Perfectly angled brush head for deep cleaning</li> </ul> </div> </div> <div> <h4>Description:</h4> <p>The Oral-B Vitality electric toothbrush with precision clean brush head offers a deeper, more thorough clean than a manual toothbrush since it gets hard to reach areas. It helps to prevent gum disease, and keeps teeth naturally white. 2D cleaning action oscillates and rotates for better plaque removal than a regular manual toothbrush. Built-in pressure sensor protects the gums and teeth from damage, as the pressing force control during the execution of the cleaning procedures. Battery charge will last for 5 days once it is fully charged. The in-handle timer ensures that the process of cleaning teeth does not exceed a time period of two minutes as recommended by dentists.</p> </div> <div> <h4>Benefits:</h4> <ul> <li>Cleans significantly better than a regular manual toothbrush</li> <li>Helps to remove surface stains</li> <li>Deep cleaning bristles remove plaque</li> <li>Improves gum health</li> <li>2-Minute built-in timer on the handle helps to brush for 2 minute as recommended by dentists</li> <li>Perfectly angled brush head to get deep in between teeth for deep cleaning</li> </ul> </div> <div> <h4>How to use:</h4> <ul> <li>Wet brush head and apply toothpaste</li> <li>Place brush head on teeth, then switch on</li> <li>Slowly guide the brush head from tooth to tooth, first the outsides, then the insides, finally the chewing surfaces</li> <li>Do not press too hard or scrub</li> <li>After two minutes (brushing time recommended by dentists) the timer will signal by a short stutter</li> <li>During the first days of use, gums may bleed slightly and if bleeding persist after 2 weeks, contact your dentist</li> <li>Replace brush head every 3 months, when bristles are worn or when color on Indicator bristles has faded half-way down the bristles</li> <li>Always refer to the instructions manual before use</li> </ul> </div>",129,1000,Braun,Braun,Y,Personal Care///Oral Care///Tooth Brushes,Braun Oral B D12.513 Vitality Precision Clean Toothbrush.jpg///Braun Oral B D12.513 Vitality Precision Clean Toothbrush1.jpg,Common Vendor
BRA-138-AUN-118,Braun Oral B EB30-2 Trizone Brush Heads 2's,"<div> <div> <h4>Short description:</h4> <ul> <li>Dynamic angled power tip</li> <li>Non-sweeping bristles</li> <li>Sweeping, pulsating bristles</li> <li>Removes more plaque than a regular manual toothbrush</li> <li>Deep clean with triple-zone technology</li> </ul> </div> </div> <div> <h4>Description:</h4> <p>Trizone toothbrush head which provides a deep clean with triple-zone technology. Its bristles sweep in-between teeth. Three bristle zones feature a power tip for back teeth, shorter bristles to clean surfaces and longer sweeping bristles that can reach 2x deeper between teeth than a regular manual toothbrush.</p> </div> <div> <h4>Benefits:</h4> <ul> <li>For a gentle clean</li> <li>Its bristles sweep in-between teeth</li> <li>Can reach 2x deeper between teeth than a regular manual toothbrush</li> </ul> </div> <div> <h4>How to use:</h4> <ul> <li>TriZone brush heads can be used with TriZone, Triumph and Professional Care toothbrush handles</li> <li>Replace brush head every 3 months, when bristles are worn or when color on Indicator bristles has faded half-way down the bristles</li> <li>Always refer to the instructions manual before use</li> </ul> </div>",79,1000,Braun,Braun,Y,Personal Care///Oral Care///Tooth Brushes,Braun Oral B EB30-2 Trizone Brush Heads 2's.jpg///Braun Oral B EB30-2 Trizone Brush Heads 2's1.jpg,Common Vendor
BRA-139-AUN-119,Braun Oral B Pro Expert Battery Toothbrush,"<div> <div> <h4>Short description:</h4> <ul> <li>Removes more plaque than a regular manual toothbrush</li> <li>Battery powered toothbrush</li> <li>2 Duracell batteries included</li> </ul> </div> </div> <div> <h4>Description:</h4> <p>This is a battery powered tooth brush. It removes more plaque than a regular manual toothbrush. Makes your teeth beautiful &amp; improves gum health.</p> </div> <div> <h4>Benefits:</h4> <ul> <li>Removes more plaque than a regular manual toothbrush</li> <li>Improves gum health</li> </ul> </div> <div> <h4>How to use:</h4> <ul> <li>Wet brush head and apply toothpaste</li> <li>Place brush head on teeth, then switch on</li> <li>Slowly guide the brush head from tooth to tooth, first the outsides, then the insides, finally the chewing surfaces</li> <li>Do not press too hard or scrub</li> <li>After two minutes (brushing time recommended by dentists) the timer will signal by a short stutter</li> <li>During the first days of use, gums may bleed slightly and if bleeding persist after 2 weeks, contact your dentist</li> <li>Replace brush head every 3 months, when bristles are worn or when color on Indicator bristles has faded half-way down the bristles</li> <li>Always refer to the instructions manual before use</li> </ul> </div>",59.95,1000,Braun,Braun,Y,Personal Care///Oral Care///Tooth Brushes,Braun Oral B Pro Expert Battery Toothbrush.jpg///Braun Oral B Pro Expert Battery Toothbrush1.jpg,Common Vendor
BRA-140-AUN-120,Braun Oral-B Stages Power Kids Toothbrush DB4.510.K,"<div> <div> <h4>Short description:</h4> <ul> <li>Battery-operated toothbrush for children</li> <li>For children from 3 years+</li> <li>Removes more plaque than a regular manual toothbrush</li> </ul> </div> </div> <div> <h4>Description:</h4> <p>Braun Oral-B Stages Power Kids battery- operated toothbrush for children in Disney design with 2 minute timer. For children from 3 years+. 2D rendering system with 7600 rotating sideways movements per minute. Easy to hold squish grip handle (blue / red) in hard / soft technology.</p> </div> <div> <h4>Benefits:</h4> <ul> <li>Battery- operated toothbrush for children</li> <li>For children from 3 years+</li> <li>2D rendering system with 7600 rotating sideways movements per minute</li> <li>Easy to hold squish grip handle (blue / red) in hard / soft technology</li> <li>Funny Disney characters on the brush head for brushing fun</li> </ul> </div> <div> <h4>How to use:</h4> <ul> <li>Always read the labels, warnings and instructions provided with the product before using it.</li> </ul> </div>",69.95,1000,Braun,Braun,Y,Personal Care///Oral Care///Tooth Brushes,Braun Oral-B Stages Power Kids Toothbrush DB4.510.K.jpg///Braun Oral-B Stages Power Kids Toothbrush DB4.510.K1.jpg,Common Vendor
BRA-141-AUN-121,Braun Oral-B Heads EB25-2 For Electronic Brush,"<div> <div> <h4>Short description:</h4> <ul> <li>2-pack of Floss Action replacement toothbrush heads</li> <li>With advanced micro-pulse bristles</li> <li>Removes more plaque than a regular manual toothbrush</li> <li>With dentist recommended oscillate and rotate technology</li> <li>Brush heads are interchangeable with all Oral-B handles (excluding Pulsonic/Sonic)</li> </ul> </div> </div> <div> <h4>Description:</h4> <p>This oral-B replacement electric toothbrush head provides thorough floss like cleaning for teeth and gums. It has an advanced micropulse bristles that is gentle on teeth and gums &amp; provides a superior interdental clean.</p> </div> <div> <h4>Benefits:</h4> <ul> <li>For a gentle floss like clean</li> <li>Has a advanced micropulse bristles</li> <li>Provides a superior interdental clean</li> <li>Removes up to 99.7% of plaque in hard to reach in deep clean mode</li> </ul> </div> <div> <h4>How to use:</h4> <ul> <li>Replace brush head every 3 months, when bristles are worn or when color on Indicator bristles has faded half-way down the bristles</li> <li>Always refer to the instructions manual before use</li> </ul> </div>",65,1000,Braun,Braun,Y,Personal Care///Oral Care///Tooth Brushes,Braun Oral-B Heads EB25-2 For Electronic Brush.jpg///Braun Oral-B Heads EB25-2 For Electronic Brush1.jpg,Common Vendor
BRA-142-AUN-122,Braun Oral-B Oxyjet+3000 Toothbrush OC20.535.3X,"<div> <div> <h4>Short description:</h4> <ul> <li>Removes up to 2X more plaque than a regular manual toothbrush</li> <li>Rechargeable power toothbrush</li> <li>Naturally whiter teeth with polishing mode</li> </ul> </div> </div> <div> <h4>Description:</h4> <p>The Oral-B Professional Care System OxyJet +3000 using three-dimensional technology give you a clean teeth and healthy gums, and a whiter smile. The OxyJet technology enriches water with microfine bubbles of purified air for deep cleaning under the gum line to improve the gum health. The brush surrounds each tooth for a three-dimensional cleaning, making 8,800 oscillations and 40,000 pulsations per minute.</p> </div> <div> <h4>Benefits:</h4> <ul> <li>Removes up to 100% more plaque than a manual toothbrush</li> <li>Eliminates bacteria above and below the gum line</li> <li>Removes gently food debris from even the hard-to-reach areas</li> <li>Gives a naturally white teeth with polishing mode</li> <li>Helps to protect the gums and is designed to give you a fresher mouth and a feeling of increased oral hygiene</li> <li>A timer that fires every 30 seconds ensures accurate and balanced clean for the whole mouth</li> </ul> </div> <div> <h4>How to use:</h4> <ul> <li>Always refer to the instructions manual before use.</li> </ul> </div>",699,1000,Braun,Braun,Y,Personal Care///Oral Care///Tooth Brushes,Braun Oral-B Oxyjet+3000 Toothbrush OC20.535.3X.jpg///Braun Oral-B Oxyjet+3000 Toothbrush OC20.535.3X2.jpg///Braun Oral-B Oxyjet+3000 Toothbrush OC20.535.3X1.jpg,Common Vendor
CUR-143-ROX-123,Curaprox Supersoft Toothbrush 3960,"<div> <div> <h4>Short description:</h4> <ul> <li>CS 3960 supersoft (Curen 0.12mm thin!)</li> <li>Extremely soft and sensitive</li> <li>Bendable neck</li> <li>Elegant octagonal handle</li> </ul> </div> </div> <div> <h4>Description:</h4> <p>This toothbrush provides a curaprox brushing experience: 3,960 curen filaments are gentle on gums and offer superb cleaning power. 3,960 curen filaments, 0.12 mm in diameter.</p> </div> <div> <h4>Benefits:</h4> <ul> <li>Efficient cleaning surface thanks to densely arranged CUREN filaments</li> <li>Accesses all areas: compact head, slightly angled</li> <li>Octagonal ergonomic handle helps to brush at the correct angle ensuring a better clean</li> </ul> </div> <div> <h4>How to use:</h4> <ul> <li>Gently move the brush back and forth in short (tooth-wide) strokes</li> <li>Brush the outer surfaces, the inner surfaces, and the chewing surfaces of the teeth</li> </ul> </div>",31.5,1000,Curaprox,Curaden Healthcare Srl,Y,Personal Care///Oral Care///Tooth Brushes,Curaprox Supersoft Toothbrush 3960.jpg///Curaprox Supersoft Toothbrush 39601.jpg,Common Vendor
CUR-144-ROX-124,Curaprox Single CS 1006 Toothbrush,"<div> <div> <h4>Short description:</h4> <ul> <li>For fans and connoisseurs of perfect teeth cleaning methods</li> <li>Especially suited to the care of braces, isolated or poorly positioned teeth, implants and bridges</li> <li>Curen filaments with perfect round cut</li> <li>Single-tuft toothbrush</li> </ul> </div> </div> <div> <h4>Description:</h4> <p>Curaprox made a single-tuft toothbrush with curen filaments, but with a beautifully rounded bristle tuft. Trim length 6 mm long and 0.1 mm in diameter. This product is recommended in particular for braces and implants or simply for the joy of perfect teeth brushing.</p> </div> <div> <h4>Benefits:</h4> <ul> <li>Tooth after tooth, the gum line is perfectly clean without any harm to the gums.</li> <li>The filaments adapt wonderfully to the anatomy of the gum line.</li> </ul> </div> <div> <h4>How to use:</h4> <ul> <li>Use as advised by dental professionals.</li> </ul> </div>",26.25,1000,Curaprox,Curaden Healthcare Srl,Y,Personal Care///Oral Care///Tooth Brushes,Curaprox Single CS 1006 Toothbrush.jpg,Common Vendor
CUR-145-ROX-125,Curaprox Toothbrush Ultra Soft 5460,"<div> <div> <h4>Short description:</h4> <ul> <li>Ultrasoft Toothbrush</li> <li>Swiss Premium oral care</li> <li>Compact Head</li> <li>Slightly angled</li> </ul> </div> </div> <div> <h4>Description:</h4> <p>Curaprox Toothbrush Ultra Soft 5460 contains 5460 individual filaments that are so fine, we cannot call them bristles. This results in a cleansing surface that is unparalleled, ultra-compact, slightly angled head.</p> </div> <div> <h4>Benefits:</h4> <ul> <li>All parts of the mouth are easy to reach</li> <li>Effective for caries and periodontitis prophylaxis</li> </ul> </div> <div> <h4>How to use:</h4> <ul> <li>Tilt the brush at a 45-degree angle against the gumLine and sweep or roll the brush away from the gumLine</li> <li>Gently brush the outside, inside and chewing surface of each tooth using short back-and-forth strokes</li> </ul> </div>",31.5,1000,Curaprox,Curaden Healthcare Srl,Y,Personal Care///Oral Care///Tooth Brushes,Curaprox Toothbrush Ultra Soft 5460.jpg,Common Vendor
JOR-146-DAN-126,Jordan Step 0-2 years Toothbrush,"<div> <div> <h4>Short description:</h4> <ul> <li>For 0 -2 years old babies</li> <li>Toothpaste indicator</li> <li>Soft bristles</li> </ul> </div> </div> <div> <h4>Description:</h4> <p>Jordan Step 1 toothbrush is tailor-made to make the first brushing experience a good one. Designed with extra soft bristles, a soft biting ring for your baby's gums, and a handle that suits adults and babies hands. Make this the first step in establishing healthy and happy dental care routines for your baby.</p> </div> <div> <h4>Benefits:</h4> <ul> <li>Specially designed for children's first teeth</li> <li>Unique shape combines toothbrush and teething ring</li> </ul> </div> <div> <h4>How to use:</h4> <ul> <li>Can be used by both parents in brushing the milk teeth of toddlers</li> <li>Can be used by the toddler also with adult supervision</li> </ul> </div>",15.25,1000,Jordan,Lilleborg AS,Y,Personal Care///Oral Care///Tooth Brushes,Jordan Step 0-2 years Toothbrush.jpg,Common Vendor
JOR-147-DAN-127,Jordan Step By Step 3-5 Years Soft Toothbrush,"<div> <div> <h4>Short description:</h4> <ul> <li>Toothbrush for 3  5 years of age</li> <li>Exciting design</li> <li>With travel cap to protect</li> <li>Soft and sensitive bristles</li> </ul> </div> </div> <div> <h4>Description:</h4> <p>Jordan Step 2 toothbrush is tailor-made to brush children's smaller milk teeth. Designed with soft bristles, a small but wide head and a dual handle for both parents and kids, makes brushing easier. The blue bristles on the toothbrush are there to help you put the right amount of toothpaste on each time.</p> </div> <div> <h4>Benefits:</h4> <ul> <li>With its own specially designed cap - a hygienic option for travel or overnight stays</li> <li>Sensitive bristles to protect milk teeth</li> <li>Ergonomic handle gives a good grip for both parents and children</li> </ul> </div> <div> <h4>How to use:</h4> <ul> <li>Can be used by both parents in brushing the milk teeth of toddlers</li> <li>Can be used by the toddler also with adult supervision</li> </ul> </div>",15.25,1000,Jordan,Lilleborg AS,Y,Personal Care///Oral Care///Tooth Brushes,Jordan Step By Step 3-5 Years Soft Toothbrush.jpg,Common Vendor
ORA-148-L0B-128,Oral B Pro Expert Clinic Line Ortho Brush,<div> <div> <h4>Short description:</h4> <ul> <li>Comfort grip</li> <li>V-trimmed for braces</li> <li>Orthodontic toothbrush</li> </ul> </div> </div> <div> <h4>Description:</h4> <p>Oral-B manual brush for patients with fixed braces and other orthodontic appliances.</p> </div> <div> <h4>Benefits:</h4> <ul> <li>V-trimmed bristles for effective cleaning around brackets and wire</li> <li>Long narrow neck for easy access to difficult to reach areas</li> </ul> </div> <div> <h4>How to use:</h4> <ul> <li>Brush your teeth at least twice daily.</li> </ul> </div>,12.25,1000,Oral B,Procter & Gamble,Y,Personal Care///Oral Care///Tooth Brushes,Oral B Pro Expert Clinic Line Ortho Brush.jpg,Common Vendor
ORA-149-L0B-129,Oral B Pro Expert Sensitive 35XS Toothbrush,"<div> <div> <h4>Short description:</h4> <ul> <li>Extra soft bristles offer exceptional maneuvrability and comfort</li> <li>Delicate for enamel and gums</li> <li>Remove up to 90% of plaque</li> </ul> </div> </div> <div> <h4>Description:</h4> <p>Oral-B Pro Expert for sensitive gums manual toothbrush uniquely engineered for exceptional plaque removal while being gentle on enamel and gums with extra soft bristles. Innovative criss cross bristles are angled in opposing directions to lift out and sweep away plaque. Specially designed power tip bristles are extra long to help clean hard-to-reach areas. Extra soft bristles offer exceptional maneuvrability and comfort to enhance compliance.</p> </div> <div> <h4>Benefits:</h4> <ul> <li>Delicate for enamel and gums</li> <li>Extra soft bristles</li> <li>Remove up to 90% of plaque</li> <li>Ergonomic, nonslip handle provides comfortable and secure handling</li> </ul> </div> <div> <h4>How to use:</h4> <ul> <li>Place your toothbrush at a 45-degree angle to the gums</li> <li>Gently move the brush back and forth in short (tooth-wide) strokes</li> <li>Brush the outer surfaces, the inner surfaces, and the chewing surfaces of the teeth</li> </ul> </div>",24.25,1000,Oral B,Procter & Gamble,Y,Personal Care///Oral Care///Tooth Brushes,Oral B Pro Expert Sensitive 35XS Toothbrush.jpg,Common Vendor
ORA-150-L0B-130,Oral B Pro-Expert Antibacterial 35 Soft Toothbrush,"<div> <div> <h4>Short description:</h4> <ul> <li>Delicate for enamel and gums</li> <li>With antimicrobial bristle protection</li> <li>Cleans hard to reach places</li> </ul> </div> </div> <div> <h4>Description:</h4> <p>Oral-B pro-expert manual toothbrush uniquely engineered for exceptional plaque removal while being gentle on enamel and gums with soft bristles. Innovative criss cross bristles are angled in opposing directions to lift out and sweep away plaque. Soft bristles offer exceptional maneuvrability and comfort to enhance compliance.</p> </div> <div> <h4>Benefits:</h4> <ul> <li>Delicate for enamel and gums</li> <li>Extra long tip bristles to help clean hard-to-reach areas</li> </ul> </div> <div> <h4>How to use:</h4> <ul> <li>Place your toothbrush at a 45-degree angle to the gums</li> <li>Gently move the brush back and forth in short (tooth-wide) strokes</li> <li>Brush the outer surfaces, the inner surfaces, and the chewing surfaces of the teeth</li> </ul> </div>",25.75,1000,Oral B,Procter & Gamble,Y,Personal Care///Oral Care///Tooth Brushes,Oral B Pro-Expert Antibacterial 35 Soft Toothbrush.jpg,Common Vendor
ORA-151-L0B-131,Oral B Pro-Expert Antibacterial Tooth Brush 40 M,"<div> <div> <h4>Short description:</h4> <ul> <li>Antibacterial bristles protection for up to 3 months</li> <li>Reduces up to 90% plaque in hard-to-reach areas</li> <li>With 16° angled Criss Cross bristles</li> </ul> </div> </div> <div> <h4>Description:</h4> <p>Oral-B Pro-Expert Antibacterial manual toothbrush comes with Criss Cross bristles that attack plaque from a perfect 16° angle. The toothbrush cleans along the gum line, where plaque builds up easily, with its carefully polished end-rounded bristles and gently massages your gums with soft gum stimulators. It comes with antimicrobial bristle protection that helps inhibit microbial growth on your toothbrush.</p> </div> <div> <h4>Benefits:</h4> <ul> <li>Reduces up to 90% plaque in hard-to-reach areas.</li> <li>Up to 3 months Antibacterial Bristles protection to help inhibit microbial growth on bristles.</li> <li>16° angled Criss Cross bristles flex and straighten to penetrate hard-to-reach plaque in-between teeth.</li> <li>Power Tip Bristles help reach deep and clean hard-to-reach areas while still being gentle enough on your enamel.</li> </ul> </div> <div> <h4>How to use:</h4> <ul> <li>Use as often as required, please read the label information before use.</li> </ul> </div>",25.75,1000,Oral B,Procter & Gamble,Y,Personal Care///Oral Care///Tooth Brushes,Oral B Pro-Expert Antibacterial Tooth Brush 40 M.jpg,Common Vendor
ORA-152-L0B-132,Oral B Pro-Expert All In One 35 Soft Toothbrush,"<div> <div> <h4>Short description:</h4> <ul> <li>Removes up to 99% of plaque in hard-to-reach areas</li> <li>With soft bristles</li> <li>Promotes healthier and firmer gums</li> </ul> </div> </div> <div> <h4>Description:</h4> <p>Oral-B Pro-Expert All In One manual toothbrush comes with Criss Cross bristles that attack teeth plaque from a 16° angle. The toothbrush cleans along the gum line with its carefully polished end-rounded bristles and gently massages your gums with soft gum stimulators. Plus, the textured tongue cleaner helps remove germs on your tongue to leave your breath feeling fresh.</p> </div> <div> <h4>Benefits:</h4> <ul> <li>Promotes healthier, firmer gums and helps reduce gingivitis with soft gum stimulators</li> <li>16° angled Criss Cross bristles flex and straighten to penetrate hard-to-reach plaque in-between teeth</li> <li>Power Tip bristles help reach deep and clean hard-to-reach areas while still being gentle enough on your enamel</li> </ul> </div> <div> <h4>How to use:</h4> <ul> <li>Use as often as required, read the label information before use.</li> </ul> </div> <div> <h4>Key Features :</h4> </div>",25.25,1000,Oral B,Procter & Gamble,Y,Personal Care///Oral Care///Tooth Brushes,Oral B Pro-Expert All In One 35 Soft Toothbrush.jpg,Common Vendor
ORA-153-L0B-133,Oral B Pro-Expert Stage-2 (2-4 Years) Tooth Brush,"<div> <div> <h4>Short description:</h4> <ul> <li>Designed for kids 2-4 years</li> <li>With extra soft bristles</li> <li>Easy grip</li> </ul> </div> </div> <div> <h4>Description:</h4> <p>Designed specifically for kids aged 2-4, Stage 2 toothbrush features designs with disney characters to make brushing fun. At this stage, kids are learning to brush, and their baby teeth are still growing in. Because their mouths are small and their hands unsteady, it's important to choose a brush just for them. The Stage 2 brush suits their specific needs.</p> </div> <div> <h4>Benefits:</h4> <ul> <li>Helps protect tender gums</li> <li>Fits kids' small mouths</li> <li>Helps clean hard-to-reach back teeth</li> <li>Helps kids learn to brush</li> </ul> </div> <div> <h4>How to use:</h4> <ul> <li>Use as often as required, please read the label information before use.</li> </ul> </div>",12.25,1000,Oral B,Procter & Gamble,Y,Personal Care///Oral Care///Tooth Brushes,Oral B Pro-Expert Stage-2 (2-4 Years) Tooth Brush.jpg,Common Vendor
ORA-154-L0B-134,Oral B Pro-Expert Stage -1 (4-24 Months) Toothbrush,"<div> <div> <h4>Short description:</h4> <ul> <li>Baby soft bristles</li> <li>Suitable for 4-24moths old babies</li> <li>Fits babies small mouths</li> </ul> </div> </div> <div> <h4>Description:</h4> <p>Oral B Stage-1 (4-24 Months) Tooth Brush has baby-soft bristles made for tender gums and newborn teeth. The baby tooth brush is also perfectly sized for small hands, but the non-slip handle helps you brush their small mouth and take care of the most special smile.</p> </div> <div> <h4>Benefits:</h4> <ul> <li>Helps protect tender gums</li> <li>Fits babies small mouths</li> <li>Introduces babies to tooth brushing</li> </ul> </div> <div> <h4>How to use:</h4> <ul> <li>Use as often as required, please refer the label information before use.</li> </ul> </div>",12.25,1000,Oral B,Procter & Gamble,Y,Personal Care///Oral Care///Tooth Brushes,Oral B Pro-Expert Stage -1 (4-24 Months) Toothbrush.jpg,Common Vendor
ORA-155-L0B-135,Oral-B 3D Fresh 40 M Toothbrush,"<div> <div> <h4>Short description:</h4> <ul> <li>Perfectly angled bristles help lift out and sweep away plaque</li> <li>Helps whiten teeth by removing surface stains</li> <li>Soft gum massagers gently massage and stimulate gums</li> </ul> </div> </div> <div> <h4>Description:</h4> <p>Oral-B 3D Fresh provides many oral care benefits in one quality brush. The Oral-B 3D Fresh toothbrush provides complete cleaning of your mouth, including outstanding plaque removal, tongue cleaning, and gum massage.</p> </div> <div> <h4>Benefits:</h4> <ul> <li>Bristles are gentle on enamel</li> <li>Help clean hard-to-reach, high-risk areas for plaque buildup</li> <li>Control-grip handle ensures comfort and control</li> <li>Outer gingival stimulators massage and stimulate gums</li> </ul> </div> <div> <h4>How to use:</h4> <ul> <li>Place your toothbrush at a 45-degree angle to the gums</li> <li>Gently move the brush back and forth in short (tooth-wide) strokes</li> <li>Brush the outer surfaces, the inner surfaces, and the chewing surfaces of the teeth</li> </ul> </div>",17,1000,Oral B,Procter & Gamble,Y,Personal Care///Oral Care///Tooth Brushes,Oral-B 3D Fresh 40 M Toothbrush.jpg,Common Vendor
ORA-156-L0B-136,Oral-B Clinicline Proflex Toothbrush 38M,"<div> <div> <h4>Short description:</h4> <ul> <li>Helps to clean hard-to-reach areas with longer power tip bristles</li> <li>Cleans along the gum line</li> <li>Polishes away surface stains</li> <li>Stimulates gums</li> </ul> </div> </div> <div> <h4>Description:</h4> <p>Oral-B clinicline proflex toothbrush has individual pro-flex sides with crisscross bristles which adapt itself to the shape of the mouth to effectively remove plaque for a superior level of clean, while remaining gentle on teeth and gums. These Pro-Flex sides adjust to the unique contours of teeth and gums to remove more plaque than a regular manual toothbrush. The sides adapt themselves to the unique shape of the teeth, including the gum line, to achieve top cleanliness in comparison to regular toothbrushes. Positioned in opposing directions, criss cross bristles are designed to flex and then straighten, actively penetrating between the teeth and along the gum line to lift and sweep plaque away.</p> </div> <div> <h4>Benefits:</h4> <ul> <li>Ergonomic, nonslip handle provides comfortable and secure handling</li> <li>Removes odor-causing germs, significantly reducing oral malodor</li> <li>Reduces gingivitis</li> <li>Stimulates gums</li> </ul> </div> <div> <h4>How to use:</h4> <ul> <li>Place your toothbrush at a 45-degree angle to the gums</li> <li>Gently move the brush back and forth in short (tooth-wide) strokes</li> <li>Brush the outer surfaces, the inner surfaces, and the chewing surfaces of the teeth</li> </ul> </div>",26.25,1000,Oral B,Procter & Gamble,Y,Personal Care///Oral Care///Tooth Brushes,Oral-B Clinicline Proflex Toothbrush 38M.jpg,Common Vendor
PHI-157-ARE-137,Philips Sonicare C1 ProResults,<div> <div> <h4>Short description:</h4> <ul> <li>Exceptional clean for better gum health</li> <li>Fits all Philips Sonicare click-on handles</li> <li>Medium</li> <li>Full size</li> <li>With 2 heads</li> </ul> </div> </div> <div> <h4>Description:</h4> <p>Philips Sonicare C1 ProResults features a contoured profile to naturally fit the shape of your teeth and to clean hard-to-reach areas. it's safe on teeth and gums. This brush head clicks on and off your brush handle for a secure fit and easy maintenance and cleaning. It fits all Philips Sonicare toothbrush handles except: PowerUp Battery and Essence.</p> </div> <div> <h4>Benefits:</h4> <ul> <li>Removes up to 2 times more plaque than a manual toothbrush</li> <li>Brush strokes break up plaque and sweep it away for an exceptional daily clean</li> <li>Blue reminder bristles fade to white and help you recognize when it's time for a replacement</li> </ul> </div> <div> <h4>How to use:</h4> <ul> <li>Always refer to the enclosed leaflet for instructions.</li> </ul> </div>,95.5,1000,Philips Sonicare,Philips,Y,Personal Care///Oral Care///Tooth Brushes,Philips Sonicare C1 ProResults.jpg///Philips Sonicare C1 ProResults1.jpg,Common Vendor
PHI-158-ARE-138,Philips HX6311 Sonicare For Kids Tooth Brush,"<div> <div> <h4>Short description:</h4> <ul> <li>Rechargeable sonic toothbrush</li> <li>Sonic power maximizes every second</li> <li>Electric toothbrush for kids</li> <li>8 super cool designs</li> </ul> </div> </div> <div> <h4>Description:</h4> <p>Philips Sonicare For Kids is an electric power toothbrush for kids aged 4 and older. It offers maximum plaque removal, sonic technology, customizable stickers and educational tools to help make proper brushing fun for a lifetime.</p> </div> <div> <h4>Benefits:</h4> <ul> <li>Designed to help build proper brushing habits for kids</li> <li>Provides a superior clean - Removes more plaque than a children's manual toothbrush</li> <li>Safe for growing smiles - Rubberized brush head is designed to protect young teeth</li> <li>Modes - 2 Power modes</li> <li>Ease of use - Easy click-on brush heads</li> </ul> </div> <div> <h4>How to use:</h4> <ul> <li>For children under age 8, it is recommended that a parent or adult care giver perform tooth brushing</li> <li>Wet the bristles and apply a small amount of toothpaste</li> <li>Place the toothbrush bristles against the teeth at a slight angle towards the gum line</li> <li>Press the power on/off button to turn on the Sonicare</li> <li>Apply light pressure to maximize Sonicare's effectiveness and let the Sonicare toothbrush do the brushing for you</li> <li>Gently move the brush head slowly across the teeth in a small back and forth motion so the longer bristles reach between the teeth</li> <li>Continue this motion throughout the brushing cycle</li> <li>Begin brushing in section 1 (outside top teeth) a series of musical notes indicate it is time to move to section 2 (inside top teeth)</li> <li>At the next series of notes move to section 3 (outside bottom teeth)</li> <li>The next series of notes indicate it is time to move to section 4 (inside bottom teeth)</li> <li>The toothbrush will automatically turn off at end of the brushing cycle</li> <li>After you have completed the brushing cycle, you can spend additional time brushing the chewing surfaces of your teeth and areas where staining occurs</li> <li>You may also brush your tongue, with the toothbrush turned on or off, as you prefer</li> </ul> </div> <div> <h4>Key Features :</h4> </div>",445,1000,Philips Sonicare,Philips,Y,Personal Care///Oral Care///Tooth Brushes,Philips HX6311 Sonicare For Kids Tooth Brush.jpg///Philips HX6311 Sonicare For Kids Tooth Brush1.jpg,Common Vendor
PHI-159-ARE-139,Philips HX6711 Sonicare Healthy White Sonic Tooth Brush,"<div> <div> <h4>Short description:</h4> <ul> <li>Slim ergonomic design</li> <li>Rubber grip for easy handling</li> <li>Easy click-on brush heads</li> <li>Whitens teeth up to 2 shades</li> <li>Removes up to 90% of stains</li> <li>Rechargeable battery</li> </ul> </div> </div> <div> <h4>Description:</h4> <p>Sonicare Healthy White electric toothbrush removes everyday stains in just two weeks, with the use of the clean &amp; white mode. Its unique dynamic action gently and effectively reaches deep between teeth and along the gum line. The 2-minute timer on this electric toothbrush helps to ensure dental professional recommended brushing time.</p> </div> <div> <h4>Benefits:</h4> <ul> <li>Helps to remove and reduce stains on teeth for a brighter smile</li> <li>Removes up to 2 times more plaque than a manual toothbrush</li> <li>Safe on teeth and gum</li> <li>Proven to improve oral health</li> <li>Click-on design for simple brush head placement</li> </ul> </div> <div> <h4>How to use:</h4> <ul> <li>Please read the labelled instructions carefully before use</li> </ul> </div>",445,1000,Philips Sonicare,Philips,Y,Personal Care///Oral Care///Tooth Brushes,Philips HX6711 Sonicare Healthy White Sonic Tooth Brush.jpg///Philips HX6711 Sonicare Healthy White Sonic Tooth Brush1.jpg,Common Vendor
PHI-160-ARE-140,Philips Sonicare Diamond Clean Toothbrush,"<div> <div> <h4>Short description:</h4> <ul> <li>Removes up to 7x more plaque</li> <li>Improves gum health</li> <li>Whitens teeth 2x better</li> <li>Diamond clean brush head</li> <li>Sonic technology</li> </ul> </div> </div> <div> <h4>Description:</h4> <p>Philips Sonicare electric toothbrush's unique dynamic action gently and effectively reaches deep between teeth and along the gumline. Diamond Clean toothbrush heads, Philips Sonicare's best whitening brush head, have diamond shaped bristles to effectively yet gently remove surface stains and scrape away plaque. Removes stain build up from coffee, tea, red wine, cigarettes and tobacco in just 1 week.</p> </div> <div> <h4>Benefits:</h4> <ul> <li>Sonicare dynamic cleaning action drives fluid between teeth</li> <li>Dual Charging System: charging glass and travel case</li> <li>Quadpacer interval timer encourages thorough brushing</li> <li>Two-minute timer helps ensure recommended brushing time</li> </ul> </div> <div> <h4>How to use:</h4> <ul> <li>Please read the manual instructions carefully before use.</li> </ul> </div>",945,1000,Philips Sonicare,Philips,Y,Personal Care///Oral Care///Tooth Brushes,Philips Sonicare Diamond Clean Toothbrush.jpg///Philips Sonicare Diamond Clean Toothbrush1.jpg,Common Vendor
STE-161-POD-141,Steripod Clip-On Toothbrush Protector,"<div> <div> <h4>Short description:</h4> <ul> <li>Kills odor causing germs</li> <li>Lasts up to 3 months</li> <li>Lab tested</li> <li>Fits most standard and electric toothbrushes</li> </ul> </div> </div> <div> <h4>Description:</h4> <p>Steripod clip on toothbrush protector with active vapors fits any standard or electric toothbrush and keeps your toothbrush clean and fresh for up to 3 months.</p> </div> <div> <h4>Benefits:</h4> <ul> <li>Helps protect your toothbrush from odor causing airborne germs</li> <li>Formulated to maintain a suitable environment</li> </ul> </div> <div> <h4>How to use:</h4> <ul> <li>Perfect for home, gym, school or travel, steripod clips-on your toothbrush and protects. Rinse toothrbush after using and shake off excess water.</li> </ul> </div>",21,1000,Steripod,Bonfit America Inc Usa,Y,Personal Care///Oral Care///Tooth Brushes,Steripod Clip-On Toothbrush Protector.jpg,Common Vendor
BUT-162-GUM-142,Butler Gum Kids Monster 3-6 Years Toothbrush,<div> <div> <h4>Short description:</h4> <ul> <li>Soft bristles</li> <li>Ideal for kids 3-6 years old</li> <li>Cushioned head</li> <li>Hygienic cap</li> <li>Comes in 4 different colors</li> </ul> </div> </div> <div> <h4>Description:</h4> <p>Butler Gum Kids Monster 3-6 Years Toothbrush will help get rid of the bad monsters in your children's mouth. Soft bristles to gently remove plaque.</p> </div> <div> <h4>Benefits:</h4> <ul> <li>Center bristles to indicate the right dose of toothpaste.</li> <li>Cushioned head to protect the gums.</li> <li>Ergonomic handle adapted to child size.</li> </ul> </div> <div> <h4>How to use:</h4> <ul> <li>Guide your toddler in brushing at least twice daily.</li> </ul> </div>,13.25,1000,Butler Gum,Sunstar,Y,Personal Care///Oral Care///Tooth Brushes,Butler Gum Kids Monster 3-6 Years Toothbrush.jpg///Butler Gum Kids Monster 3-6 Years Toothbrush1.jpg,Common Vendor
BUT-163-GUM-143,Butler Gum Junior Monster 7-9 Years Toothbrush,<div> <div> <h4>Short description:</h4> <ul> <li>Soft bristles</li> <li>Ideal for kids 7-9 years old</li> <li>Cushioned head</li> <li>Hygienic cap</li> </ul> </div> </div> <div> <h4>Description:</h4> <p>Butler Gum Junior Monster 7-9 Years Toothbrush will help get rid of the bad monsters in your children's mouth. Soft bristles to gently remove plaque.</p> </div> <div> <h4>Benefits:</h4> <ul> <li>Center bristles to indicate the right does of toothpaste.</li> <li>Cushioned head to protect the gums.</li> <li>Ergonomic handle adapted to child size.</li> </ul> </div> <div> <h4>How to use:</h4> <ul> <li>Guide your toddler in brushing at least twice daily.</li> </ul> </div>,13.25,1000,Butler Gum,Sunstar,Y,Personal Care///Oral Care///Tooth Brushes,Butler Gum Junior Monster 7-9 Years Toothbrush.jpg///Butler Gum Junior Monster 7-9 Years Toothbrush1.jpg,Common Vendor
CUR-164-ROX-144,Curaprox Superduo Ultrasoft CS 5460 + CPS Prime Kit,"<div> <div> <h4>Short description:</h4> <ul> <li>For a completely clean teeth</li> <li>100% clean</li> <li>More effective than dental floss</li> <li>Available in green, yellow, orange, red blue and violet colors</li> </ul> </div> </div> <div> <h4>Description:</h4> <p>The CS 5460 ultra-soft combines exactly the requirements for design and function. The small, yet efficient, head when used at a slight angle ensures you reach the critical areas. The toothbrush also comes packaged with the CPS prime interdental brushthe Curaprox Superduooffering the perfect choice for everyone.</p> </div> <div> <h4>Benefits:</h4> <ul> <li>An octagonal handle facilitates the ideal angle on the teeth and gingivae for the optimal clean.</li> <li>The large cleaning surface with incredibly fine and rounded filaments ensures gentle and efficient brushing of the teeth and gingiva.</li> </ul> </div> <div> <h4>How to use:</h4> <ul> <li>Use as directed by healthcare professional.</li> </ul> </div>",40.25,1000,Curaprox,Curaden Healthcare Srl,Y,Personal Care///Oral Care///Tooth Brushes,Curaprox Superduo Ultrasoft CS 5460 + CPS Prime Kit.jpg,Common Vendor
ORA-165-10B-145,Oral B Pro-Expert Pulsar 35M Toothbrush (Battery),<div> <div> <h4>Short description:</h4> <ul> <li>Deep clean</li> <li>Strength of brush - medium</li> <li>Battery operated</li> </ul> </div> </div> <div> <h4>Description:</h4> <p>Oral B Pro-Expert Pulsart 35M Toothbrush gives control of a regular manual brush and enhanced deep cleaning power. With vibrating bristles that breaks up plaque between teeth.</p> </div> <div> <h4>Benefits:</h4> <ul> <li>It helps to clean teeth and breaks plaque</li> <li>With deep cleaning power</li> </ul> </div> <div> <h4>How to use:</h4> <ul> <li>Brush as you would with a regular manual brush</li> <li>Change tooth brush every 3 months</li> <li>Not intended for children 3 years and under</li> </ul> </div>,30,1000,Oral B,Procter & Gamble,Y,Personal Care///Oral Care///Tooth Brushes,Oral B Pro-Expert Pulsar 35M Toothbrush.jpg,Common Vendor
ORA-166-10B-146,Oral B Pro Expert Extra Clean 1+1 Toothbrush,<div> <div> <h4>Short description:</h4> <ul> <li>Angled bristles for a deeper clean</li> <li>Removes plaque for a healthier smile</li> <li>Power-tip and end-rounded bristles</li> </ul> </div> </div> <div> <h4>Description:</h4> <p>The Oral B Pro Expert Extra Clean manual toothbrush eliminates up to 90% of dental plaque in hard-to-reach places (according to a clinical study carried out on a single use). It combines 7 dental benefits for a clean and healthy mouth.</p> </div> <div> <h4>Benefits:</h4> <ul> <li>The CrissCross fibres are inclined at an optimum angle to eliminate plaque.</li> <li>Removes odor-causing germs from the tongue and stimulates gum.</li> <li>Removes plaque from larger spaces between the teeth and along the gum line.</li> </ul> </div> <div> <h4>How to use:</h4> <ul> <li>Brush your teeth at least twice daily.</li> </ul> </div>,20.5,1000,Oral B,Procter & Gamble,Y,Personal Care///Oral Care///Tooth Brushes,Oral B Pro Expert Extra Clean 1+1 Toothbrush.jpg,Common Vendor
ORA-167-10B-147,Oral B 3D White Fresh Toothbrush 40 Medium 1+1,"<div> <div> <h4>Short description:</h4> <ul> <li>3D white</li> <li>Fresh</li> <li>With power tip bristles</li> </ul> </div> </div> <div> <h4>Description:</h4> <p>Oral-B 3D White Fresh manual toothbrush features power tip bristles that help clean hard-to-reach areas while still being gentle enough on enamel. The polished, end-rounded bristles effectively clean along the gum line and the outer gingival stimulators massage gums.</p> </div> <div> <h4>Benefits:</h4> <ul> <li>Control-grip handle ensures comfort and control as you brush</li> <li>Textured tongue cleaner at the back of the head to remove odor-causing germs</li> </ul> </div> <div> <h4>How to use:</h4> <ul> <li>Brush at least twice a day with toothpaste for at least two minutes.</li> </ul> </div>",17.5,1000,Oral B,Procter & Gamble,Y,Personal Care///Oral Care///Tooth Brushes,Oral B 3D White Fresh Toothbrush 40 Medium 1+1.jpg,Common Vendor
ORA-168-10B-148,Oral B Pro-Expert Cross Action Antibacterial Tooth Brush 40 M 1+1,"<div> <div> <h4>Short description:</h4> <ul> <li>Antibacterial bristles protection for up to 3 months</li> <li>Reduces up to 90% plaque in hard-to-reach areas</li> <li>With 16° angled Criss Cross bristles</li> </ul> </div> </div> <div> <h4>Description:</h4> <p>Oral-B Pro-Expert Cross Action Antibacterial manual toothbrush comes with Criss Cross bristles that attack plaque from a perfect 16° angle. The toothbrush cleans along the gum line, where plaque builds up easily, with its carefully polished end-rounded bristles and gently massages your gums with soft gum stimulators. It comes with antimicrobial bristle protection that helps inhibit microbial growth on your toothbrush.</p> </div> <div> <h4>Benefits:</h4> <ul> <li>Reduces up to 90% plaque in hard-to-reach areas</li> <li>Up to 3 months antibacterial bristles protection to help inhibit microbial growth on bristles</li> <li>16° angled Criss Cross bristles flex and straighten to penetrate hard-to-reach plaque in-between teeth.</li> <li>Power Tip Bristles help reach deep and clean hard-to-reach areas while still being gentle enough on your enamel.</li> </ul> </div> <div> <h4>How to use:</h4> <ul> <li>Brush at least twice a day with toothpaste for at least two minutes, especially first thing in the morning and before bedtime.</li> </ul> </div>",25.75,1000,Oral B,Procter & Gamble,Y,Personal Care///Oral Care///Tooth Brushes,Oral B Pro-Expert Cross Action Antibacterial Tooth Brush 40 M 1+1.jpg,Common Vendor
ORA-169-10B-149,Oral B Complete 5 Way Clean Toothbrush 40 Medium 1+1,"<div> <div> <h4>Short description:</h4> <ul> <li>Sweeps away food and plaque from the tooth surface</li> <li>Adjusts to the contours of teeth</li> <li>Moderates the amount of pressure applied to teeth and gums</li> </ul> </div> </div> <div> <h4>Description:</h4> <p>Oral B Complete toothbrush helps to clean and whitens teeth, brighter, provides a healthy-looking smile. Effectively removes stains for neutral and a whiter smile. It helps to reach back teeth.</p> </div> <div> <h4>Benefits:</h4> <ul> <li>Sweeps away food and plaque from the tooth surface</li> <li>Provides healthy-looking smile</li> </ul> </div> <div> <h4>How to use:</h4> <ul> <li>Place your toothbrush at a 45-degree angle to the gums</li> <li>Gently move the brush back and forth in short (tooth-wide) strokes</li> <li>Brush the outer surfaces, the inner surfaces, and the chewing surfaces of the teeth</li> </ul> </div>",22.25,1000,Oral B,Procter & Gamble,Y,Personal Care///Oral Care///Tooth Brushes,Oral B Complete 5 Way Clean Toothbrush 40 Medium 1+1.jpg,Common Vendor
CUR-170-ROX-150,Curaprox Smart Ultra Soft 7600 Toothbrush,"<div> <div> <h4>Short description:</h4> <ul> <li>Ultrasoft Toothbrush</li> <li>Swiss Premium oral care</li> <li>Compact Head</li> <li>Extra small brush head for exceptionally accurate brushing</li> </ul> </div> </div> <div> <h4>Description:</h4> <p>This smart little brush has been designed with a smaller more compact head that is perfect for children and adults with smaller mouths. With an amazing 7,600 Curen filaments crammed on its tiny head it can really pack a punch yet still comes with the softness that you have come to expect from Curaprox.</p> </div> <div> <h4>Benefits:</h4> <ul> <li>7,600 Curen bristles for optimal cleaning</li> <li>Small and compact brush head</li> <li>Incredibly soft, gentle and effective</li> <li>Octagonal handle for precise cleaning angle</li> <li>0.08mm in diameter</li> </ul> </div> <div> <h4>How to use:</h4> <ul> <li>Tilt the brush at a 45-degree angle against the gumline and sweep or roll the brush away from the gumline.</li> <li>Gently brush the outside, inside and chewing surface of each tooth using short back-and-forth strokes.</li> </ul> </div>",31.5,1000,Curaprox,Curaden Healthcare Srl,Y,Personal Care///Oral Care///Tooth Brushes,Curaprox Smart Ultra Soft 7600 Toothbrush.jpg,Common Vendor
CUR-171-ROX-151,Curaprox Curakid CK 4260 Ultra Soft Children's Toothbrush,"<div> <div> <h4>Short description:</h4> <ul> <li>From the first tooth</li> <li>0  4 yrs</li> <li>Swiss Premium Oral Care</li> <li>Fun for babies and toddlers</li> </ul> </div> </div> <div> <h4>Description:</h4> <p>Curaprox Curakid CK 4260 Ultra Soft Childrens Toothbrush with its extra narrow brush head and soft plastic covering prevent any injuries to the oral mucosa. Developed in collaboration with the University of Berne. 4260 CUREN filaments, 0.1 mm in diameter. At last, babies can enjoy having their teeth cleaned.</p> </div> <div> <h4>Benefits:</h4> <ul> <li>CUREN filaments are so gentle</li> <li>No risk of injuring delicate oral mucosa</li> <li>A perfect fit for children's and parent's hands</li> <li>Rounded handle reduces pressure to a minimum</li> <li>Made of anti-slip material in fantastic colour combinations</li> </ul> </div> <div> <h4>How to use:</h4> <ul> <li>Always follow the same pattern while brushing.</li> <li>All of the outside first, then all of the inside, lower teeth first, then upper.</li> <li>Remember, this toothbrush cleans your teeth even if you apply hardly any pressure. So be very gentle.</li> </ul> </div>",25,1000,Curaprox,Curaden Healthcare Srl,Y,Personal Care///Oral Care///Tooth Brushes,Curaprox Curakid CK 4260 Ultra Soft Children's Toothbrush.jpg,Common Vendor
PHI-172-ARE-152,Philips Sonicare CleanCare+ Toothbrush,"<div> <div> <h4>Short description:</h4> <ul> <li>CleanCare+ 1 series sonic toothbrush</li> <li>Designed to clean where plaque hides</li> <li>Removes 3x more plaque</li> <li>Click-on brush head system</li> </ul> </div> </div> <div> <h4>Description:</h4> <p>Philips Sonicare CleanCare+ Toothbrush HX3215/08 is designed to be the perfect toothbrush to transition from your manual toothbrush. Until now, it feels like you've never brushed your teeth before. The EasyStart feature adjusts the power level of the toothbrush over the first 14 uses to help you get used to the Sonicare experience, streamlining the transition from a manual toothbrush. The Quadpacer interval timer indicates when it's time to move to another quadrant of the mouth, while the Smartimer helps you reach the dentist recommended brushing time of two minutes.</p> </div> <div> <h4>Benefits:</h4> <ul> <li>Helps improve gum health</li> <li>Helps maintain white teeth</li> <li>Timers to help encourage thorough brushing</li> <li>Fits all Sonicare click-on brush heads</li> </ul> </div> <div> <h4>How to use:</h4> <ul> <li>Please read the manual instructions carefully before use.</li> </ul> </div>",135.25,1000,Philips Sonicare,Philips,Y,Personal Care///Oral Care///Tooth Brushes,Philips Sonicare CleanCare+ Toothbrush.jpg///Philips Sonicare CleanCare+ Toothbrush1.jpg,Common Vendor
WOO-173-BOO-153,WooBamboo Standard Handle Super Soft Tooth Brush,"<div> <div> <h4>Short description:</h4> <ul> <li>Super cool and stylish</li> <li>Made with natural, biodegradable bamboo</li> <li>Packaged with recycled &amp; recyclable materials</li> <li>Featuring high quality dental-grade bristles</li> </ul> </div> </div> <div> <h4>Description:</h4> <p>This beautiful bamboo handle provides a wavy grip that sits in the curve of your palm and offers a natural place for your thumb. A very light coating of Chinese white wax coupled with the already anti-microbial nature of bamboo assures you that not only are you doing something healthy for your mouth, but that you are not harvesting a germ fest on the handle.</p> </div> <div> <h4>Benefits:</h4> <ul> <li>Super soft bristles for sensitive teeth</li> <li>The moso bamboo is grown naturally, without any added chemicals or pesticides of any kind</li> <li>Sustainably grown and panda-friendly</li> <li>Toothbrush handles are completely biodegradable, so they won't last forever in a landfill like every other brush</li> <li>Bamboo is actually naturally antimicrobial</li> <li>Stylish and unique</li> </ul> </div> <div> <h4>How to use:</h4> <ul> <li>Follow the routine of brushing twice daily.</li> </ul> </div>",23,1000,Woobamboo,Ecolife Innovations LLC,Y,Personal Care///Oral Care///Tooth Brushes,WooBamboo Standard Handle Super Soft Tooth Brush.jpg,Common Vendor
WOO-174-BOO-154,WooBamboo Standard Handle Soft Tooth Brush,"<div> <div> <h4>Short description:</h4> <ul> <li>Super cool and stylish</li> <li>Made with natural, biodegradable bamboo</li> <li>Packaged with recycled &amp; recyclable materials</li> <li>Featuring high quality dental-grade bristles</li> </ul> </div> </div> <div> <h4>Description:</h4> <p>This beautiful bamboo handle provides a wavy grip that sits in the curve of your palm and offers a natural place for your thumb. A very light coating of Chinese white wax coupled with the already anti-microbial nature of bamboo assures you that not only are you doing something healthy for your mouth, but that you are not harvesting a germ fest on the handle.</p> </div> <div> <h4>Benefits:</h4> <ul> <li>Soft bristles</li> <li>The moso bamboo is grown naturally, without any added chemicals or pesticides of any kind</li> <li>Sustainably grown and panda-friendly</li> <li>Toothbrush handles are completely biodegradable, so they won't last forever in a landfill like every other brush</li> <li>Bamboo is actually naturally antimicrobial</li> <li>Stylish and unique</li> </ul> </div> <div> <h4>How to use:</h4> <ul> <li>Follow the routine of brushing twice daily.</li> </ul> </div>",23,1000,Woobamboo,Ecolife Innovations LLC,Y,Personal Care///Oral Care///Tooth Brushes,WooBamboo Standard Handle Soft Tooth Brush.jpg///WooBamboo Standard Handle Soft Tooth Brush1.jpg,Common Vendor
BUT-175-GUM-155,Butler Gum Original White Medium Toothbrush,"<div> <div> <h4>Short description:</h4> <ul> <li>Easily removes dental colorations</li> <li>Helps the teeth to recover their natural whiteness</li> <li>Efficiently removes plaque and colorations at the surface of the teeth</li> </ul> </div> </div> <div> <h4>Description:</h4> <p>Butler Gum Original White Medium toothbrush contains strands covered with a special elastomer that helps to restore the natural whiteness of the teeth, gently and effectively eliminates the plaque . These strands remove all colorations from the surface of the tooth and promote oral health.</p> </div> <div> <h4>Benefits:</h4> <ul> <li>Suitable for removing stains better than that achieved with other conventional brush</li> <li>Eliminates plaque</li> </ul> </div> <div> <h4>How to use:</h4> <ul> <li>Brush atleast three times daily.</li> </ul> </div>",18,1000,Butler Gum,Sunstar,Y,Personal Care///Oral Care///Tooth Brushes,Butler Gum Original White Medium Toothbrush.jpg,Common Vendor
ORA-176-L0B-156,Oral B Complete Deep Clean 40M ToothBrush,<div> <div> <h4>Short description:</h4> <ul> <li>Removes more plaque than a regular manual toothbrush</li> <li>Massages and stimulates gums</li> <li>Helps clean along the gum line</li> <li>Helps you reach your back teeth</li> </ul> </div> </div> <div> <h4>Description:</h4> <p>Oral-B Complete Deep Clean Toothbrush removes significantly more plaque than a regular manual brush. It also features longer gum-massaging bristles that gently clean and stimulate the gum line.</p> </div> <div> <h4>Benefits:</h4> <ul> <li>Removes more plaque than a regular manual toothbrush.</li> <li>Massages and stimulates gums.</li> <li>Helps clean along the gum line.</li> <li>Helps you reach your back teeth.</li> </ul> </div> <div> <h4>How to use:</h4> <ul> <li>Brush your teeth at least twice daily.</li> </ul> </div>,14.25,1000,Oral B,Procter & Gamble,Y,Personal Care///Oral Care///Tooth Brushes,Oral B Complete Deep Clean 40M ToothBrush.jpg,Common Vendor
VIT-177-TIS-157,Vitis Orthodontic Toothbrush,"<div> <div> <h4>Short description:</h4> <ul> <li>Specifically, for cleaning braces</li> <li>Ergonomic and flexible handle</li> <li>Rounded head</li> <li>With protective cap</li> </ul> </div> </div> <div> <h4>Description:</h4> <p>Vitis Orthodontic toothbrush is a daily use toothbrush with a small brush head that facilitates access to the backmost portions of the mouth, to teeth that are undergoing the process of eruption, to mispositioned teeth, etc. Besides cleaning hard-to-reach areas of orthodontic braces, where bacteria build up more easily, it also efficiently cleans the gum area. The neck of the brush is flexible, and can be bent to the best position for your mouth, to improve brushing access. Its protective cap keeps filaments grouped together in optimally hygienic conditions.</p> </div> <div> <h4>Benefits:</h4> <ul> <li>Its ergonomic handle offers anti-slip grooves for easy use and a comfortable grip during brushing</li> <li>Combination of soft and medium strength filament results in dual cleaning effect</li> </ul> </div> <div> <h4>How to use:</h4> <ul> <li>Brush teeth three times per day (after every meal)</li> <li>Make circular strokes from the gums towards the teeth</li> </ul> </div>",32.25,1000,Vitis,Dentaid,Y,Personal Care///Oral Care///Tooth Brushes,Vitis Orthodontic Toothbrush.jpg,Common Vendor
JOR-178-DAN-158,Jordan Clinic Gum Protector Toothbrush Soft,"<div> <div> <h4>Short description:</h4> <ul> <li>Healthy beautiful teeth</li> <li>For optimal oral hygiene and fresh breath</li> <li>Handle click system stops you from brushing too hard</li> </ul> </div> </div> <div> <h4>Description:</h4> <p>The Jordan gum protector toothbrush is with deep clean bristle technology and pressure control, protects teeth and gums against damage. To combat the problem of brushing too hard the toothbrush will bend and give way with a noticeable 'click'. The mechanism sits in a joint in the handle and will be felt as a click under your thumb when you brush too hard. When that happens, you will automatically ease the pressure and treat your teeth more gently.</p> </div> <div> <h4>Benefits:</h4> <ul> <li>Gentle cleaning</li> <li>Cleaning reach</li> <li>Unique feedback system in the handle</li> </ul> </div> <div> <h4>How to use:</h4> <ul> <li>Brush your teeth at least twice daily.</li> </ul> </div>",18,1000,Jordan,Lilleborg AS,Y,Personal Care///Oral Care///Tooth Brushes,Jordan Clinic Gum Protector Toothbrush Soft.jpg,Common Vendor
ORA-179-L0B-159,Oral B Proflex 3D White 38S TB 30028,"<div> <div> <h4>Short description:</h4> <ul> <li>White pro-flex tooth brush</li> <li>With dual-flexing head design</li> <li>Helps in removing 90% of surface teeth stains</li> </ul> </div> </div> <div> <h4>Description:</h4> <p>Oral B Proflex 3D White 38S Tooth Brush gives you a whiter smile with its dual-flexing head design with unique stain eraser that works together to remove up to 90% of surface teeth stains and reveal a more dazzling white smile.</p> </div> <div> <h4>Benefits:</h4> <ul> <li>With dual-flexing head design</li> <li>Helps in removing 90% of surface teeth stains</li> <li>Gentle on gums, but tough on stains</li> </ul> </div> <div> <h4>How to use:</h4> <ul> <li>Brush daily twice, preferably after meal and before bed. Please refer the label information before use.</li> </ul> </div>",28.5,1000,Oral B,Procter & Gamble,Y,Personal Care///Oral Care///Tooth Brushes,Oral B Proflex 3D White 38S TB 30028.jpg,Common Vendor
BUT-180-GUM-160,Butler Gum Junior Monster Light-Up Toothbrush 903M,"<div> <div> <h4>Short description:</h4> <ul> <li>1-minute light timer</li> <li>Soft tooth brush</li> <li>Gentle plaque removal for cavity protection</li> </ul> </div> </div> <div> <h4>Description:</h4> <p>Butler Gum Junior Monster Light-Up Toothbrush flashes colorful Monster for 1 minute to help you brush longer. Brush top row of teeth until the light stops flashing and repeat for bottom teeth. With fun suction cup to keep bristles clean.</p> </div> <div> <h4>Benefits:</h4> <ul> <li>Gentle feathered bristles thoroughly remove plaque from tooth surfaces, interdental spaces and the gum line</li> <li>Split tips reach into pits and fissures where cavities can easily start</li> <li>Child will enjoy brushing their teeth, because of the colorful flashing lights</li> </ul> </div> <div> <h4>How to use:</h4> <ul> <li>Use a small smear of toothpaste (about the size of a grain) and brush twice a day.</li> </ul> </div>",21,1000,Butler Gum,Sunstar,Y,Personal Care///Oral Care///Tooth Brushes,Butler Gum Junior Monster Light-Up Toothbrush 903M.jpg///Butler Gum Junior Monster Light-Up Toothbrush 903M1.jpg,Common Vendor
BUT-181-GUM-161,Butler Gum Teens 10+ Toothbrush 904M,"<div> <div> <h4>Short description:</h4> <ul> <li>Gently remove plaque from teeth and gums</li> <li>Soft bristles</li> <li>For 10 + years old</li> </ul> </div> </div> <div> <h4>Description:</h4> <p>Butler Gum Teens 10+ Toothbrush with trendy colors especially designed for the people wants soft bristles, it gently removes plaque from the teeth and gums. Ergonomic handle with thumbpad for good grip.</p> </div> <div> <h4>Benefits:</h4> <ul> <li>Gives protection against plaque</li> <li>Soft and gentle bristles</li> <li>Ergonomic handle with thumbpad for good grip</li> </ul> </div> <div> <h4>How to use:</h4> <ul> <li>Place your toothbrush at a 45-degree angle to the gums</li> <li>Gently move the brush back and forth in short (tooth-wide) strokes</li> <li>Brush the outer surfaces, the inner surfaces, and the chewing surfaces of the teeth</li> <li>To clean the inside surfaces of the front teeth, tilt the brush vertically and make several up- and-down strokes</li> </ul> </div>",12.75,1000,Butler Gum,Sunstar,Y,Personal Care///Oral Care///Tooth Brushes,Butler Gum Teens 10+ Toothbrush 904M.jpg///Butler Gum Teens 10+ Toothbrush 904M1.jpg,Common Vendor
TRI-182-ISA-162,Trisa Pro Clean Impluse Kid 3+ Years Electric Toothbrush,<div> <div> <h4>Short description:</h4> <ul> <li>Smart performance cleaning</li> <li>Swiss made professional toothbrush</li> <li>For easy all-around cleaning</li> </ul> </div> </div> <div> <h4>Description:</h4> <p>Trisa Pro Clean Impluse Kid 3+ Years Electric Toothbrush ideally adapts to the natural shape of the tooth. The flexible brush head with its unique cushioning element equalizes contact pressure. It cleans teeth and gums gently and efficiently.</p> </div> <div> <h4>Benefits:</h4> <ul> <li>For sensitive and delicate gums</li> <li>It cleans teeth and gums gently and efficiently</li> <li>With care zone guide for proper positioning and cleaning of the teeth and gums</li> </ul> </div> <div> <h4>How to use:</h4> <ul> <li>See package manual for instructions.</li> </ul> </div>,120.75,1000,Trisa,N/A,Y,Personal Care///Oral Care///Tooth Brushes,Trisa Pro Clean Impluse Kid 3+ Years Electric Toothbrush.jpg///Trisa Pro Clean Impluse Kid 3+ Years Electric Toothbrush1.jpg,Common Vendor
PAR-183-TAX-163,Parodontax Complete Soft Toothbrush,"<div> <div> <h4>Short description:</h4> <ul> <li>With tongue cleaner</li> <li>Ergonomic handle</li> <li>Gentle on gums and enamel</li> <li>Interdental cleaning</li> </ul> </div> </div> <div> <h4>Description:</h4> <p>Parodontax Complete Soft Toothbrush is a new range of paradontax toothbrushes which are specially designed for people with bleeding gums. It provides gentle and effective cleaning to help protect your gums and teeth.</p> </div> <div> <h4>Benefits:</h4> <ul> <li>Helps restore natural whiteness</li> <li>Helps in hard to reach areas</li> <li>Cleans along the gum line</li> <li>Plaque removal</li> </ul> </div> <div> <h4>How to use:</h4> <ul> <li>Brush teeth as normal. To clean the tongue, use the cleaning grooves on the back of the brush head</li> <li>Move the grooves backwards and forwards over the tongue surface</li> <li>Choking hazard if placed too far back into the mouth</li> <li>It is recommended that toothbrushes are replaced every 3 months</li> </ul> </div>",23,1000,Parodontax,"Schiffer and Menezes, India",Y,Personal Care///Oral Care///Tooth Brushes,Parodontax Complete Soft Toothbrush.jpg,Common Vendor
VIT-184-TIS-164,Vitis Kids Toothbrush 56237 1's,"<div> <div> <h4>Short description:</h4> <ul> <li>Very small brush head</li> <li>With soft bristle strength</li> <li>With protective cap</li> <li>+3 Years</li> </ul> </div> </div> <div> <h4>Description:</h4> <p>Vitis Kids Toothbrush is a daily use toothbrush especially suitable for daily oral hygiene in children from 3 years of age. Its very soft, comes with non-slip grooves and has colored filaments that indicate the amount of gel recommended.</p> </div> <div> <h4>Benefits:</h4> <ul> <li>Narrow neck allows you to reach the entire oral cavity without causing any discomfort to the child</li> <li>Thick, ergonomic handle with non-slip grooves is adapted to the child's hand, offering an optimum design that improves maneuverability when they begin to develop their motor skills</li> <li>Small head, with rounded end allows a better precision during the brushing</li> <li>Filaments are soft and Tynex® for effective hygiene protecting teeth and gums</li> </ul> </div> <div> <h4>How to use:</h4> <ul> <li>Carefully brush teeth with the VITIS kids toothbrush twice per day, for at least 2 minutes, preferably after eating and before bedtime.</li> </ul> </div>",26.25,1000,Vitis,Dentaid,Y,Personal Care///Oral Care///Tooth Brushes,Vitis Kids Toothbrush 56237 1's.jpg///Vitis Kids Toothbrush 56237 1's1.jpg,Common Vendor
VIT-185-TIS-165,Vitis Junior Toothbrush 56238 1's,"<div> <div> <h4>Short description:</h4> <ul> <li>Small brush head</li> <li>With soft bristle strength</li> <li>With protective cap</li> <li>+6 Years</li> </ul> </div> </div> <div> <h4>Description:</h4> <p>Vitis Junior Toothbrush is designed to remove dental plaque in children and young. Its soft and has filaments with monotip that attack zones that disrupts bacterial plaque.</p> </div> <div> <h4>Benefits:</h4> <ul> <li>Filaments specific head and circular arrangement, to disorganize the most resistant plaque in those hard to reach places</li> <li>Filaments rounded and textured specially to care for the enamel and gums</li> <li>The profile of the filaments undulating shape is designed to facilitate a perfect access to interdental spaces</li> <li>Specially designed to fit perfectly in hand and mouth shape</li> </ul> </div> <div> <h4>How to use:</h4> <ul> <li>Brush teeth carefully at least 3 times per day, for at least 2 minutes, preferably after eating and before bedtime.</li> </ul> </div>",26.25,1000,Vitis,Dentaid,Y,Personal Care///Oral Care///Tooth Brushes,Vitis Junior Toothbrush 56238 1's.jpg///Vitis Junior Toothbrush 56238 1's1.jpg,Common Vendor
VIT-186-TIS-166,Vitis Baby Toothbrush 1's,"<div> <div> <h4>Short description:</h4> <ul> <li>Gentle cleaning of babys first teeth and gums</li> <li>+0 years</li> <li>With extra soft bristles</li> </ul> </div> </div> <div> <h4>Description:</h4> <p>Vitis Baby Toothbrush is designed to fit adults hand, comes with non-slip grooves and has colored bristles that indicate the amount of gel recommended.</p> </div> <div> <h4>Benefits:</h4> <ul> <li>Extra soft bristles for gently cleaning babys first teeth and gums</li> <li>Small, rounded head to clean all the sides of tooth at the same time</li> </ul> </div> <div> <h4>How to use:</h4> <ul> <li>Brushing should be done by an adult.</li> </ul> </div>",26.25,1000,Vitis,Dentaid,Y,Personal Care///Oral Care///Tooth Brushes,Vitis Baby Toothbrush 1's.jpg///Vitis Baby Toothbrush 1's1.jpg,Common Vendor
MER-187-DOL-167,Meridol Soft Toothbrush 3130 1's,<div> <div> <h4>Short description:</h4> <ul> <li>Toothbrush with soft-coated head</li> <li>With microfine brsitles</li> <li>For Gum protection</li> <li>Compact head</li> <li>Ergonomically shaped handle</li> </ul> </div> </div> <div> <h4>Description:</h4> <p>Meridol Soft Toothbrush has microfine bristle ends that remove deposits thoroughly and gently.</p> </div> <div> <h4>Benefits:</h4> <ul> <li>Provides gentle care for already irritated gum</li> <li>Helps protect from gum problems</li> </ul> </div> <div> <h4>How to use:</h4> <ul> <li>Its recommended to use in combination with Meridol toothpaste and Meridol mouthwash.</li> </ul> </div>,31.25,1000,Meridol,Colgate-Palmolive,Y,Personal Care///Oral Care///Tooth Brushes,Meridol Soft Toothbrush 3130 1's.jpg///Meridol Soft Toothbrush 3130 1's1.jpg,Common Vendor
THE-188-COB-168,The Humble Co. Interdental Bamboo Brush,"<div> <div> <h4>Short description:</h4> <ul> <li>Interdental bamboo brush</li> <li>Size: 5-0.80 mm</li> <li>Professionally developed by Dentist</li> <li>Green Color</li> </ul> </div> </div> <div> <h4>Description:</h4> <p>The Humble Co. Interdental Bamboo Brush has BPA free bristles on the interdental brush gently capture and remove nasties hiding between the teeth. The bamboo handle ensures steady handling.</p> </div> <div> <h4>Benefits:</h4> <ul> <li>Eco friendly and socially responsible</li> <li>Removes pieces of food and plaque from between the teeth</li> <li>Vegan certified no animal products</li> <li>Cruelty-free certified never tested on animals</li> </ul> </div> <div> <h4>How to use:</h4> <ul> <li>Use gentle in and out motions in the spaces between teeth and implants and around crowns and bridges to remove dental plaque and food particles</li> <li>Never force the brush into tight spaces, do not bend or twist wires during use</li> <li>Rinse the brush and handle after each use</li> </ul> </div>",33.5,1000,The Humble Co.,N/A,Y,Personal Care///Oral Care///Tooth Brushes,The Humble Co. Interdental Bamboo Brush.jpg,Common Vendor
THE-189-COB-169,The Humble Co. Humble Brush Adult Toothbrush,"<div> <div> <h4>Short description:</h4> <ul> <li>Medium bristles</li> <li>For adult</li> <li>Professionally developed by dentist</li> <li>Purple color</li> </ul> </div> </div> <div> <h4>Description:</h4> <p>The Humble Co. Humble Brush Adult Toothbrush cleans just as well as a plastic toothbrush but made from mother earths best invention, bamboo. Equipped with the highest quality nylon bristles to ensure dentist approved results.</p> </div> <div> <h4>Benefits:</h4> <ul> <li>Eco friendly and socially responsible</li> <li>Removes food particles from the teeth</li> <li>High quality bristles with end rounded tips</li> <li>Vegan certified no animal products</li> </ul> </div> <div> <h4>How to use:</h4> <ul> <li>Brush your teeth at least twice daily.</li> </ul> </div>",24,1000,The Humble Co.,N/A,Y,Personal Care///Oral Care///Tooth Brushes,The Humble Co. Humble Brush Adult Toothbrush.jpg,Common Vendor
THE-190-COB-170,The Humble Co. Humble Brush Kids Purple Ultrasoft Toothbrush,"<div> <div> <h4>Short description:</h4> <ul> <li>Ultra-soft bristles</li> <li>For Kids</li> <li>Professionally developed by dentist</li> <li>Purple color</li> </ul> </div> </div> <div> <h4>Description:</h4> <p>The Humble Co. Humble Brush Kids Toothbrush cleans just as well as a plastic toothbrush but made from mother earths best invention, bamboo. Equipped with the highest quality nylon bristles to ensure dentist approved results.</p> </div> <div> <h4>Benefits:</h4> <ul> <li>Eco friendly and socially responsible</li> <li>Removes food particles from the teeth</li> <li>High quality bristles with end rounded tips</li> <li>Vegan certified no animal products</li> </ul> </div> <div> <h4>How to use:</h4> <ul> <li>Brush your teeth at least twice daily.</li> </ul> </div>",24,1000,The Humble Co.,N/A,Y,Personal Care///Oral Care///Tooth Brushes,The Humble Co. Humble Brush Kids Purple Ultrasoft Toothbrush.jpg,Common Vendor
