Drug Code,Greenrain Code,Insurance Plan,Package Name,Generic Code,Generic Name,Strength,Dosage Form,Package Size,Dispense Mode,Package Price to Public,Package Price to Pharmacy,Image,Agent Name,Manufacturer Name,product code,OTC Product,stock,Vendor
I28-3110-00123-01,1116-5533-001,NA,MARNYS ACTICOL,123,"Activated charcoal,Anise Oil,Mint Oil","145 mg,50 mg,40 mg",Capsules,60 (20's x 3) Blisters,,66,49.5,MARNYS ACTICOL CAP.jpg,Al Multaqa Drugs and Pharmaceutical,"Martinez Nieto S.A, SPAIN",cure-1,N,1,First Cure Drug Store Sole Proprietorship L.L.C
C81-3424-00264-01,2251-3099-002,NA,MUCOSOLVAN L.A,264,Ambroxol Hydrochloride,75 mg,Capsules,10's Blister,,16.5,13.34,MUCOSOLVAN L.A CAP.jpg,Gulf Drug Est.,"Boehringer Ingelheim International GmbH, GERMANY",cure-2,N,1,First Cure Drug Store Sole Proprietorship L.L.C
G93-0268-00289-01,1464-1173-001,AD Basic Plan,AMVASC,289,Amlodipine Besilate,10 mg,Capsules,30's (10's Blister x 3),,71.5,57.82,amvasc 10mg.jpg,New Medical Centre,"Jamjoom Pharmaceuticals, SAUDI ARABIA",cure-3,N,1,First Cure Drug Store Sole Proprietorship L.L.C
G93-0268-00291-01,1464-1173-002,AD Basic Plan,AMVASC,291,Amlodipine Besilate,2.5 mg,Capsules,30's (10's Blister x 3),,25.5,20.8,amvasc 2.5mg.jpg,New Medical Centre,"Jamjoom Pharmaceuticals, SAUDI ARABIA",cure-4,N,1,First Cure Drug Store Sole Proprietorship L.L.C
K37-3713-00293-01,1587-3302-001,AD Basic Plan,NORVASC,293,Amlodipine Besilate,5 mg,Capsules,30's (10's Blister x 3),,89,71.75,NORVASC 5 MG.jpg,Al Baker Trading Est.,"Pfizer Laboratories, FRANCE",cure-5,N,1,First Cure Drug Store Sole Proprietorship L.L.C
G93-0268-00293-01,1464-1173-003,AD Basic Plan,AMVASC,293,Amlodipine Besilate,5 mg,Capsules,30's (10's Blister x 3),,43.5,35.24,amvasc 10mg.jpg,New Medical Centre,"Jamjoom Pharmaceuticals, SAUDI ARABIA",cure-6,N,1,First Cure Drug Store Sole Proprietorship L.L.C
H21-2687-00334-03,1472-2688-012,NA,JULPHAMOX,334,Amoxicillin Trihydrate,500 mg,Capsules,20's (10's Blister x 2),,39,31.45,JULPHAMOX 500 MG CAP.jpg,Julphar,"Julphar (Gulf Pharmaceutical Industries), U.A.E",cure-7,N,1,First Cure Drug Store Sole Proprietorship L.L.C
L53-4665-00375-01,1629-3861-002,AD Basic Plan,ROWATINEX,375,"Anethol,Borneol,Camphene,Cineol,Fenchone,Pinene (? + ?)","4 mg,10 mg,15 mg,3 mg,4 mg,31 mg",Capsules,50's,,14,11.6,ROWATINEX CAP.jpg,Pharmatrade,"Rowa Pharmaceuticals, IRELAND",cure-8,N,1,First Cure Drug Store Sole Proprietorship L.L.C
L42-4430-00382-01,1622-3693-001,NA,PYRALVEX,382,"Anthraquinone Glycosides of Rhubarb,Salicylic Acid","50 mg/ml,10 mg/ml",Buccal Solution,10ml Glass Bottle with Brush,,10.5,8.44,PYRALVEX.jpg,Gulf Drug Est.,"Riyadh Pharma (Medical and Cosmetic Products Company Ltd.), SAUDI ARABIA",cure-9,N,1,First Cure Drug Store Sole Proprietorship L.L.C
N01-5770-00576-01,1680-4541-003,AD Basic Plan,ZIMAX,576,Azithromycin (Dihydrate),250 mg,Capsules,6's Blister,,50,40.51,ZIMAX 250 MG CAP.jpg,City Pharmacy Co.,"SPIMACO (Al Qassim Pharmaceutical Plant), SAUDI ARABIA",cure-10,N,1,First Cure Drug Store Sole Proprietorship L.L.C
K35-5787-00576-02,1584-4549-008,AD Basic Plan,ZITHROMAX,576,Azithromycin (Dihydrate),250 mg,Capsules,6's Blister,,81,65.42,zithromax 250mg CAP.jpg,Al Baker Trading Est.,"Pfizer Italia S.r.l., ITALY",cure-11,N,1,First Cure Drug Store Sole Proprietorship L.L.C
H21-0506-00576-01,1472-1319-003,AD Basic Plan,AZOMYCIN,576,Azithromycin (Dihydrate),250 mg,Capsules,6's Blister,,68.5,55.48,AZOMYCIN 250MG CAP.jpg,Julphar,"Julphar (Gulf Pharmaceutical Industries), U.A.E",cure-12,N,1,First Cure Drug Store Sole Proprietorship L.L.C
J44-3930-00638-01,1552-3431-001,NA,OROFAR,638,"Benzoxonium Chloride,Lidocaine Chlorohydrate","0.02 %,0.015 %",Buccal Spray,30ml,,19,15.66,orofar spray.jpg,City Pharmacy Co.,"Novartis Consumer Health SA, SWITZERLAND",cure-13,N,1,First Cure Drug Store Sole Proprietorship L.L.C
L53-4664-00745-01,1629-3858-002,AD Basic Plan,ROWACHOL,745,"Borneol,Camphene,Cineol,Levomenthol,Menthone,Pinene (? + ?)","5 mg,5 mg,2 mg,32 mg,6 mg,17 mg",Capsules,50's,,20.5,16.88,ROWACHOL CAP.jpg,Pharmatrade,"Rowa Pharmaceuticals, IRELAND",cure-14,N,1,First Cure Drug Store Sole Proprietorship L.L.C
J63-3738-00906-01,1118-5550-001,NA,NOW CALCIUM & MAGNESIUM WITH VITAMIN D AND ZINC,906,"Calcium,Magnesium,Vitamin D,Zinc","333.33 mg,166.7 mg,200 IU,3.4 mg",Capsules,120's,,85,59.5,NOW CALCIUM & MAGNESIUM WITH VITAMIN D AND ZINC 120CAP.jpg,New Country Medical Supplies,"Now International, U.S.A",cure-15,N,1,First Cure Drug Store Sole Proprietorship L.L.C
I28-3111-00997-01,1116-7030-001,NA,MARNYS CASTOR OIL,997,"Castor Oil,Vitamin E","500 mg,10 mg",Capsules,60's (3 x 20's Blister),,60,45,MARNYS CASTOR OIL CAP.jpg,Al Multaqa Drugs and Pharmaceutical,"Martinez Nieto S.A, SPAIN",cure-16,N,1,First Cure Drug Store Sole Proprietorship L.L.C
A54-3862-01028-01,1250-3388-003,AD Basic Plan,OMNICEF,1028,Cefdinir,300 mg,Capsules,10's Plastic Bottle,,137,110.49,OMNICEF CAP.jpg,Al Hayat Pharmaceuticals,"Al Hikma Pharmaceuticals, JORDAN",cure-17,N,1,First Cure Drug Store Sole Proprietorship L.L.C
N37-5657-01037-01,1697-4432-001,AD Basic Plan,WINEX,1037,Cefixime,400 mg,Capsules,6's Blister,,78,63.1,WINEX 400MG CAP.jpg,Alphamed Co. (AUH) Ltd.,"Tabuk Pharmaceutical Manufacturing Co., SAUDI ARABIA",cure-18,N,1,First Cure Drug Store Sole Proprietorship L.L.C
L21-3084-01037-01,1615-2904-004,AD Basic Plan,MAGNACEF,1037,Cefixime,400 mg,Capsules,6's Blister,,68.5,55.45,MAGNACEF 400MG CAP.jpg,Al Mazroui Medical & Chemical Supplies,"Ram Pharmaceutical Industries Co. Ltd., JORDAN",cure-19,N,1,First Cure Drug Store Sole Proprietorship L.L.C
K54-0851-01037-02,1592-1540-005,NA,CEFIX,1037,Cefixime,400 mg,Capsules,6's Blister,,68.5,55.45,"CEFIX 400MG, 6CAP.jpg",Modern Pharmaceutical Co.,"Pharma International Co., JORDAN",cure-20,N,1,First Cure Drug Store Sole Proprietorship L.L.C
A54-5030-01037-01,1250-4098-004,AD Basic Plan,SUPRAX,1037,Cefixime,400 mg,Capsules,6's Blister,,83.5,67.19,SUPRAX 400M CAP.jpg,Al Hayat Pharmaceuticals,"Al Hikma Pharmaceuticals, JORDAN",cure-21,N,1,First Cure Drug Store Sole Proprietorship L.L.C
K34-0869-01106-02,1583-1553-003,NA,CELEBREX,1106,Celecoxib,200 mg,Capsules,30's (10's Blister x 3),,123,99.1,Celebrex-200mg-30Caps.jpg,Al Baker Trading Est.,"Pfizer Inc., U.S.A",cure-22,N,1,First Cure Drug Store Sole Proprietorship L.L.C
K34-0869-01106-01,1583-1553-002,AD Basic Plan,CELEBREX,1106,Celecoxib,200 mg,Capsules,10's Blister,,46.5,37.52,celebrex 200mg-10CAPS.jpg,Al Baker Trading Est.,"Pfizer Inc., U.S.A",cure-23,N,1,First Cure Drug Store Sole Proprietorship L.L.C
K41-1243-01316-01,1589-1805-008,AD Basic Plan,DALACIN C,1316,Clindamycin Hydrochloride,150 mg,Capsules,16's (8's Blister x 2),,18,14.78,DALACIN-C-150-MG-CAP.jpg,Modern Pharmaceutical Co.,"Pfizer Pgm, FRANCE",cure-24,N,1,First Cure Drug Store Sole Proprietorship L.L.C
K41-1243-01317-01,1589-1805-009,AD Basic Plan,DALACIN C,1317,Clindamycin Hydrochloride,300 mg,Capsules,16's (8's Blister x 2),,33,26.76,dalacin-c-300mg-16-capsule.jpg,Modern Pharmaceutical Co.,"Pfizer Pgm, FRANCE",cure-25,N,1,First Cure Drug Store Sole Proprietorship L.L.C
K60-1245-01319-01,1597-1804-001,AD Basic Plan,DALACIN VAGINAL OVULE,1319,Clindamycin Phosphate,100 mg,Vaginal Ovules,3's Strip + Applicator,,77,62.04,dalacin ovule.jpg,Modern Pharmaceutical Co.,"Pharmacia & Upjohn Company, U.S.A",cure-26,N,1,First Cure Drug Store Sole Proprietorship L.L.C
K60-1242-01323-01,1597-1802-001,NA,DALACIN,1323,Clindamycin Phosphate,20 mg/g,Vaginal Cream,40g Tube + 7 Applicators,,58.5,47.14,1783_1_Dalacin.png,Modern Pharmaceutical Co.,"Pharmacia & Upjohn Company, U.S.A",cure-27,N,1,First Cure Drug Store Sole Proprietorship L.L.C
C07-0784-01356-01,1747-1499-005,NA,CANESTEN,1356,Clotrimazole,100 mg,Vaginal Tablets,6's,,19.5,16.08,Canesten-100mg-Pessary.jpg,Alphamed Sharjah Est.,"Bayer Consumer Care AG, GERMANY",cure-28,N,1,First Cure Drug Store Sole Proprietorship L.L.C
C07-0784-01361-01,1747-1499-006,AD Basic Plan,CANESTEN,1361,Clotrimazole,500 mg,Vaginal Tablets,1's Strip + Applicator,,18,14.64,canesten 500mg 1 tab.jpg,Alphamed Sharjah Est.,"Bayer Consumer Care AG, GERMANY",cure-29,N,1,First Cure Drug Store Sole Proprietorship L.L.C
N37-5076-01974-01,1697-4125-001,AD Basic Plan,TABOCINE,1974,Doxycycline Hyclate,100 mg,Capsules,10's Blister,,30,24.23,TABOCINE CAP.jpg,Alphamed Co. (AUH) Ltd.,"Tabuk Pharmaceutical Manufacturing Co., SAUDI ARABIA",cure-30,N,1,First Cure Drug Store Sole Proprietorship L.L.C
H75-0483-01992-01,1487-1307-001,AD Basic Plan,AVODART,1992,Dutasteride,0.5 mg,Capsules,30's (10's Blister x 3),,150.5,121.13,AVODART CAP.jpg,Al Baker Trading Est.,"Labratoire Glaxosmithkline, FRANCE",cure-31,N,1,First Cure Drug Store Sole Proprietorship L.L.C
F73-1525-01993-01,2226-7088-003,AD Basic Plan,DUODART,1993,"Dutasteride,Tamsulosin Hydrochloride","0.5 mg,0.4 mg",Capsules,30's HDPE Bottle,,143,115.22,Duodart CAP.jpg,Al Ittihad Drug Store,"GlaxoSmithKline GmbH & Co. KG., GERMANY",cure-32,N,1,First Cure Drug Store Sole Proprietorship L.L.C
G98-2279-02004-01,1465-2438-003,NA,GYNO-PEVARYL,2004,Econazole Nitrate,10 mg/g,Vaginal Cream,78g Tube + 16 Disposable Applicators,,40.5,32.8,GN-PEVARYLCREAM.jpg,Modern Pharmaceutical Co.,"Janssen Pharmaceutica N.V., BELGIUM",cure-33,N,1,First Cure Drug Store Sole Proprietorship L.L.C
H01-2279-02005-01,1466-2438-005,NA,GYNO-PEVARYL,2005,Econazole Nitrate,150 mg,Vaginal Ovules,3's Blister,,20,16.2,gyno-pevaryl-150mg-3-ovules.jpg,Modern Pharmaceutical Co.,"Janssen-Cilag AG, SWITZERLAND",cure-34,N,1,First Cure Drug Store Sole Proprietorship L.L.C
O36-1863-02021-01,1732-2204-002,AD Basic Plan,FEROGLOBIN B12,2021,Elemental Iron& Folic Acid,Combination,Capsules,30's,,39,31.2,FEROGLOBIN B12 CAP.jpg,New Country Medical Supplies,"Vitabiotics Ltd., UNITED KINGDOM",cure-35,N,1,First Cure Drug Store Sole Proprietorship L.L.C
A18-3843-02051-01,2269-3376-002,NA,OMACOR,2051,"DHA (Docosahexaenoic Acid),EPA (Eicosapentaenoic Acid)","38 %,46 %",Capsules,28's Bottle,,142.5,114.97,omacor_3-acid_1000mg_28caps.jpg,Alphamed Co. (AUH) Ltd.,"Abbott Laboratories GmbH, GERMANY",cure-36,N,1,First Cure Drug Store Sole Proprietorship L.L.C
E64-1344-02099-01,2423-5283-002,NA,D-FORTE,2099,Ergocalciferol (Vitamin D2),50000 IU,Capsules,100's HDPE Bottle,,472,390.78,D-FORTE -100 CAPS.jpg,Pharmalink,"Euro-Pharma International Canada Inc., CANADA",cure-37,N,1,First Cure Drug Store Sole Proprietorship L.L.C
F38-4286-02242-01,1106-5628-001,NA,PRIMOSA,2242,Evening Primrose Oil,1000 mg,Capsules,30 Capsules,,45,33.75,PRIMOSA CAP.jpg,New Medical Centre,"Geltec Private Limited, INDIA",cure-38,N,1,First Cure Drug Store Sole Proprietorship L.L.C
H58-2951-02286-01,1752-2821-002,NA,LIPANTHYL,2286,Fenofibrate,300 mg,Capsules,30's,,40.5,32.63,Lipanthyl Penta cap.jpg,Alphamed Co. (AUH) Ltd.,"Laboratoires Fournier S.A., FRANCE",cure-39,N,1,First Cure Drug Store Sole Proprietorship L.L.C
A68-3004-02300-01,1256-2856-001,NA,LOMEXIN T,2300,Fenticonazole Nitrate,1 g,Vaginal Ovules,1's Blister,,34,27.44,lomexin-t-ovules-1000mg.png,City Pharmacy Co.,"Algorithm S.A.L., LEBANON",cure-40,N,1,First Cure Drug Store Sole Proprietorship L.L.C
A68-3003-02306-01,1256-2855-006,NA,LOMEXIN,2306,Fenticonazole Nitrate,600 mg,Vaginal Ovules,1's Blister,,21.5,17.64,lomexin 600 ovule.jpg,City Pharmacy Co.,"Algorithm S.A.L., LEBANON",cure-41,N,1,First Cure Drug Store Sole Proprietorship L.L.C
I38-1828-02324-01,2460-2185-002,AD Basic Plan,FEFOL SPANSULES,2324,"Ferrous Sulfate,Folic Acid","150 mg,500 mcg",Capsules,30's (15's Blister x 2),,28,23.75,FEFOL SPANSULES CAP.jpg,Gulf Drug Est.,"Meda AB, SWEDEN",cure-42,N,1,First Cure Drug Store Sole Proprietorship L.L.C
J63-6707-02342-01,,NA,NOW ULTRA OMEGA-3 500 EPA/ 250 DHA,2342,Fish Oil (EPA (Eicosapentaenoic Acid)& DHA (Docosahexaenoic Acid),1000 mg,Capsules,90s,Pharmacy Only,159,127.2,NOW ULTRA OMEGA.jpg,New Country Healthcare L.L.C.,"Now International, U.S.A",cure-43,Y,1,First Cure Drug Store Sole Proprietorship L.L.C
J63-3754-02348-01,1118-6836-001,NA,NOW SUPEROMEGA,2348,Flax Seed Oil Combination,Combination,Capsules,90 Capsules Plastic Bottle,,119,83.3,NOW SUPEROMEGA.jpg,New Country Medical Supplies,"Now International, U.S.A",cure-44,N,1,First Cure Drug Store Sole Proprietorship L.L.C
K38-1385-02357-01,,AD Basic Plan,DIFLUCAN,2357,Fluconazole,150 mg,Capsules,1s,POM,39,31.36,Diflucan 150MG- 1CAP.png,Al Baker Trading Est.,"Pfizer Limited, UNITED KINGDOM",cure-45,Y,1,First Cure Drug Store Sole Proprietorship L.L.C
J23-3050-02357-01,1544-6356-001,AD Basic Plan,LUCONA,2357,Fluconazole,150 mg,Capsules,1's Blister,,29,23.32,Lucona-150mg-1CAP.jpg,New Medical Centre,"Neopharma, U.A.E",cure-46,N,1,First Cure Drug Store Sole Proprietorship L.L.C
P15-1385-02362-01,2890-1914-012,NA,DIFLUCAN,2362,Fluconazole,50 mg,Capsules,7s Blister,POM,71,57.44,DIFLUCAN 50MG-7CAPS.jpg,Al Baker Trading Est.,"Pfizer Holding France, FRANCE",cure-47,Y,1,First Cure Drug Store Sole Proprietorship L.L.C
J63-3753-02517-02,1118-7288-004,NA,NOW SUPER PRIMROSE,2517,"Evening Primrose Oil,Gamma Linoleic Acid","1300 mg,120 mg",Capsules,60 Capsules,,110,77,NOW SUPER PRIMROSE 60 CAPS.jpg,New Country Healthcare L.L.C.,"Now International, U.S.A",cure-48,N,1,First Cure Drug Store Sole Proprietorship L.L.C
K74-2158-02559-01,1602-2375-001,NA,GINCOSAN,2559,"Ginkgo Biloba Extract,Panax Ginseng Extract","60 mg,100 mg",Capsules,30's Bottle,,94,75.64,GINCOSAN CAP.jpg,New Medical Centre,"Pharmaton SA, SWITZERLAND",cure-49,N,1,First Cure Drug Store Sole Proprietorship L.L.C
O36-2674-02587-01,1732-5607-001,NA,JOINTACE,2587,Glucosamine Omega 3& others supplements,Combination,Capsules,30 Capsules,,55,44.55,JOINTACE CAP.jpg,Al Manarah Medicine Store L.L.C.,"Vitabiotics Ltd., UNITED KINGDOM",cure-50,N,1,First Cure Drug Store Sole Proprietorship L.L.C
J63-3746-02596-01,1118-5552-001,NA,NOW GLUCOSOMINE & CHONDRIOTIN PLUS MSM,2596,"Chondroitin,Glucosamine,Methylsulfonylmethane (MSM)","400 mg,366.67 mg,100 mg",Capsules,90's Bottle,,169,118.3,NOW GLUCOSOMINE & CHONDRIOTIN PLUS MSM 90'caps.jpg,New Country Medical Supplies,"Now International, U.S.A",cure-51,N,1,First Cure Drug Store Sole Proprietorship L.L.C
I06-1474-02598-01,1110-5522-001,NA,DOROFEN,2598,"Ginko Flavonoids,Glucosamine","50 mg,500 mg",Capsules,40 (10's Strip x 10),,123,100,dorofen cap.jpg,Arabian Ethicals Co.,"Liptis Pharmaceuticals, U.S.A",cure-52,N,1,First Cure Drug Store Sole Proprietorship L.L.C
N67-5141-02745-01,1700-4169-001,NA,TENTEX ROYAL,2745,Herbal-Combination,Combination,Capsules,10's Blister,,29,23.55,TENTEX ROYAL CAP.jpg,Arabian Ethicals Co.,"The Himalaya Drug Company, INDIA",cure-53,N,1,First Cure Drug Store Sole Proprietorship L.L.C
B17-0915-02745-01,1274-1589-001,NA,CHITOCAL,2745,Herbal-Combination,Combination,Capsules,60's (10's Blister x 6),,134,107.84,Chitocal CAP.jpg,Health Gate,"Arab Company For Gelatin & Pharmaceutical Products, EGYPT",cure-54,N,1,First Cure Drug Store Sole Proprietorship L.L.C
K15-4023-02787-01,2794-7929-002,NA,PARADOX OMEGA,2787,"Extra Virgin Olive Oil,High Omega Fish Oil Blend,Organic Lemon Oil","120 mg,870 mg,10 mg",Capsules,30's (3 x 10's Blisters),,67,56.95,PARADOX OMEGA CAP.jpg,Delta Medical Est.,"Paradox Omega Oils Ltd, IRELAND",cure-55,N,1,First Cure Drug Store Sole Proprietorship L.L.C
K29-0135-02906-01,1228-1077-005,AD Basic Plan,ADVIL LIQUI-GELS,2906,Ibuprofen,200 mg,Capsules,32's Bottle,,18,14.61,ADVIL LIQUI-GELS CAP.jpg,Pharmatrade,"Pfizer Canada Inc., CANADA",cure-56,N,1,First Cure Drug Store Sole Proprietorship L.L.C
M08-2641-03203-01,1641-6204-001,AD Basic Plan,ITRAZOL,3203,Itraconazole,100 mg,Capsules,4's Blister,,35,28.2,Itrazol CAP.jpg,City Pharmacy Co.,"Saudi Arabian Japanese Pharmaceutical Co. Ltd (SAJA), SAUDI ARABIA",cure-57,N,1,First Cure Drug Store Sole Proprietorship L.L.C
G98-4954-03203-02,1465-4053-002,AD Basic Plan,SPORANOX,3203,Itraconazole,100 mg,Capsules,4's Blister,,34,27.47,sporanox-100mg-4caps.jpg,City Pharmacy Co.,"Janssen Pharmaceutica N.V., BELGIUM",cure-58,N,1,First Cure Drug Store Sole Proprietorship L.L.C
G98-4954-03203-01,1465-4053-001,NA,SPORANOX,3203,Itraconazole,100 mg,Capsules,15's (5's Blister x 3),,111.5,89.72,sporanox 15 CAPS.jpg,City Pharmacy Co.,"Janssen Pharmaceutica N.V., BELGIUM",cure-59,N,1,First Cure Drug Store Sole Proprietorship L.L.C
N65-5085-03290-01,1699-4128-001,NA,TAKEPRON,3290,Lansoprazole,15 mg,Capsules,14's Bottle,,43.5,35.16,Takepron 15 MG CAP.jpg,Modern Pharmaceutical Co.,"The Arab Pharm.Mfg.Co (A.P.M.), JORDAN",cure-60,N,1,First Cure Drug Store Sole Proprietorship L.L.C
N01-4081-03293-02,,NA,PEPTAZOL,3293,Lansoprazole,30 mg,Capsules,28s,POM,107,86.43,PEPTAZOL 30MG 28CAPS.jpg,City Pharmacy Co.,"SPIMACO (Al Qassim Pharmaceutical Plant), SAUDI ARABIA",cure-61,Y,1,First Cure Drug Store Sole Proprietorship L.L.C
N65-5085-03293-01,1699-4128-002,AD Basic Plan,TAKEPRON,3293,Lansoprazole,30 mg,Capsules,14's Bottle,,83.5,67.15,TAKEPRON 30MG CAP.jpg,Modern Pharmaceutical Co.,"The Arab Pharm.Mfg.Co (A.P.M.), JORDAN",cure-62,N,1,First Cure Drug Store Sole Proprietorship L.L.C
J63-3748-03303-01,1118-7507-001,NA,NOW -L- CARNITINE,3303,L-Carnitine,500 mg,Capsules,60's Plastic Bottle,,160,112,NOW -L- CARNITINE 500MG 60CAPS.jpg,New Country Medical Supplies,"Now International, U.S.A",cure-63,N,1,First Cure Drug Store Sole Proprietorship L.L.C
J23-3005-03493-01,1544-6175-001,AD Basic Plan,LOMIDEX,3493,Loperamide Hydrochloride,2 mg,Capsules,10's Blister,,9.5,7.76,LOMIDEX 10CAPS.jpg,New Medical Centre,"Neopharma, U.A.E",cure-64,N,1,First Cure Drug Store Sole Proprietorship L.L.C
G98-2508-03493-02,1465-2586-004,AD Basic Plan,IMODIUM,3493,Loperamide Hydrochloride,2 mg,Capsules,6's Blister,POM,6.5,5.28,imodium 2MG -6CAPS.jpg,GULF INTERNATIONAL,"Janssen Pharmaceutica N.V., BELGIUM",cure-65,Y,1,First Cure Drug Store Sole Proprietorship L.L.C
F26-5156-03525-01,2246-6193-003,AD Basic Plan,TETRALYSAL,3525,Lymecycline,300 mg,Capsules,16's (4's Blister x 4),,31.5,25.53,TETRALYSAL 300MG-16CAPS.jpg,Modern Pharmaceutical Co.,"Galderma International, FRANCE",cure-66,N,1,First Cure Drug Store Sole Proprietorship L.L.C
F92-2145-03527-01,2440-6654-001,NA,GENTAPLEX,3527,"Ginkgo Biloba Extract,Lyophilized Fish Roe","30 mg,570 mg",Capsules,36 Capsules (3 Blisters of 12 Capsules),,164,137,gentaplex CAP.png,Arabian Ethicals Co.,"GMP Laboratories, U.S.A",cure-67,N,1,First Cure Drug Store Sole Proprietorship L.L.C
J81-5393-03528-01,1566-4343-001,NA,URO-VAXOM,3528,Lyophilized lysate of E. coli,6 mg,Capsules,30's (10's Blister x 3),,105,84.46,uro-vaxom cap.png,Pharmatrade,"Om Pharma, SWITZERLAND",cure-68,N,1,First Cure Drug Store Sole Proprietorship L.L.C
G28-6287-03552-01,,NA,BIOLECTRA MAGNESIUM 400MG ULTRA,3552,Magnesium Oxide,400 mg,Capsules,20s (10s Blister x 2),Pharmacy Only,49,39.2,BIOLECTRA MAGNESIUM 400MG ULTRA-20CAPS.jpg,Pharmalink,"Hermes Arzneimittel GmbH, GERMANY",cure-69,Y,1,First Cure Drug Store Sole Proprietorship L.L.C
M89-1545-03582-01,1129-2012-002,AD Basic Plan,DUSPATALIN RETARD,3582,Mebeverine Hydrochloride,200 mg,Capsules,30's (15's Blister x 2),,52.5,42.5,Duspatalin Retard 2OOMG-30CAPS.jpg,Alphamed Co. (AUH) Ltd.,"Solvay Pharmaceuticals, FRANCE",cure-70,N,1,First Cure Drug Store Sole Proprietorship L.L.C
G35-4706-03646-01,2150-6062-003,NA,SALONPAS,3646,"Menthol,Methyl salicylate","31.5 mg,105 mg",Transdermal Patches,5 Patches,,24,20,SALONPAS 5 patches.jpg,Delta Medical Est.,"Hisamitsu Pharmaceutical Co., JAPAN",cure-71,N,1,First Cure Drug Store Sole Proprietorship L.L.C
G35-4706-03731-01,2150-6062-002,NA,SALONPAS,3731,"Camphor,Menthol,Methyl salicylate,Tocopherol acetate","1.24 g/100g,5.71 g/100g,6.29 g/100g,2 g/100g",Transdermal Patches,20 Patches,,12,10.2,SALONPAS 20 patches.jpg,Delta Medical Est.,"Hisamitsu Pharmaceutical Co., JAPAN",cure-72,N,1,First Cure Drug Store Sole Proprietorship L.L.C
H21-2278-03797-01,1472-2437-002,AD Basic Plan,GYNO-MIKOZAL,3797,Miconazole Nitrate,200 mg,Vaginal Ovules,7's Strip,,29,23.68,GYNO-MIKOZAL 200 ovule.jpg,Julphar,"Julphar (Gulf Pharmaceutical Industries), U.A.E",cure-73,N,1,First Cure Drug Store Sole Proprietorship L.L.C
G98-2274-03797-01,1465-2435-002,AD Basic Plan,GYNO-DAKTARIN,3797,Miconazole Nitrate,200 mg,Vaginal Ovules,7's Blister,,34,27.35,gyno-daktarin 200 ovule.jpg,City Pharmacy Co.,"Janssen Pharmaceutica N.V., BELGIUM",cure-74,N,1,First Cure Drug Store Sole Proprietorship L.L.C
D86-3449-03798-01,1360-3121-002,NA,MYCOHEAL,3798,Miconazole Nitrate,200 mg,Vaginal Pessaries,7's,,18,14.78,mycoheal supp 200.jpg,Al Mufid Pharmaceuticals,"Dar Al Dawa Development & Investment Co. Ltd., JORDAN",cure-75,N,1,First Cure Drug Store Sole Proprietorship L.L.C
G98-2274-03803-01,1465-2435-001,NA,GYNO-DAKTARIN,3803,Miconazole Nitrate,20 mg/g,Vaginal Cream,78g Tube + 16 Disposable Applicators,,34,27.35,gyno-daktarin vaginal cream.png,City Pharmacy Co.,"Janssen Pharmaceutica N.V., BELGIUM",cure-76,N,1,First Cure Drug Store Sole Proprietorship L.L.C
D86-3449-03803-01,1360-3121-005,AD Basic Plan,MYCOHEAL,3803,Miconazole Nitrate,20 mg/g,Vaginal Cream,50g Tube + Applicator,,20,16.25,Mycoheal vaginal cream.jpg,Al Mufid Pharmaceuticals,"Dar Al Dawa Development & Investment Co. Ltd., JORDAN",cure-77,N,1,First Cure Drug Store Sole Proprietorship L.L.C
H21-2278-03805-01,1472-2437-003,NA,GYNO-MIKOZAL,3805,Miconazole Nitrate,400 mg,Vaginal Ovules,3's Strip,,17.5,14.2,gyno-mikozal 400 ovule.jpg,Julphar,"Julphar (Gulf Pharmaceutical Industries), U.A.E",cure-78,N,1,First Cure Drug Store Sole Proprietorship L.L.C
G98-2274-03805-01,1465-2435-003,NA,GYNO-DAKTARIN,3805,Miconazole Nitrate,400 mg,Vaginal Ovules,3's Blister,,20.5,16.63,gyno-daktarin 400ovules.jpg,City Pharmacy Co.,"Janssen Pharmaceutica N.V., BELGIUM",cure-79,N,1,First Cure Drug Store Sole Proprietorship L.L.C
D86-3449-03806-01,1360-3121-001,NA,MYCOHEAL,3806,Miconazole Nitrate,400 mg,Vaginal Pessaries,3's Blister,,13.5,11.19,mycoheal supp 400.jpg,Al Mufid Pharmaceuticals,"Dar Al Dawa Development & Investment Co. Ltd., JORDAN",cure-80,N,1,First Cure Drug Store Sole Proprietorship L.L.C
H21-2168-03894-01,1472-5525-001,NA,GINSAVIT,3894,Multivitamin,Combination,Capsules,24's (12's Blister x 2),,30,22.5,GINSAVIT CAP.jpg,Julphar,"Julphar (Gulf Pharmaceutical Industries), U.A.E",cure-81,N,1,First Cure Drug Store Sole Proprietorship L.L.C
F56-4114-03928-02,2446-3535-005,NA,PHARMATON,3928,Multivitamin& Minerals,Combination,Capsules,30's Bottle,,49,41.31,PHARMATON 30CAPS.jpg,New Medical Centre,"Ginsana SA, SWITZERLAND",cure-82,N,1,First Cure Drug Store Sole Proprietorship L.L.C
F56-4114-03928-01,2446-3535-004,NA,PHARMATON,3928,Multivitamin& Minerals,Combination,Capsules,100's Bottle,Pharmacy Only,148,119.6,Pharmaton 100 CAPS.png,New Medical Centre,"Ginsana SA, SWITZERLAND",cure-83,Y,1,First Cure Drug Store Sole Proprietorship L.L.C
M90-4917-03928-01,2086-7944-001,NA,SONA MULTIPLUS,3928,Multivitamin& Minerals,Combination,Capsules,30's,,80,64,Sona multiplus 30CAPS.jpeg,Experts Drug Store,"Sona Nutrition Ltd., IRELAND",cure-84,N,1,First Cure Drug Store Sole Proprietorship L.L.C
O36-1348-03928-01,1732-5583-001,NA,DIABETONE,3928,Multivitamin& Minerals,Combination,Capsules,30's (15's Blister x 2),,47,37.6,DIABETONE 30CAPS.jpg,New Country Medical Supplies,"Vitabiotics Ltd., UNITED KINGDOM",cure-85,N,1,First Cure Drug Store Sole Proprietorship L.L.C
O36-3197-03928-01,1732-2961-001,NA,MENOPACE,3928,Multivitamin& Minerals,Combination,Capsules,30's (15's Blister x 2),,43,34.4,MENOPACE 30CAPS.jpg,New Country Healthcare L.L.C.,"Vitabiotics Ltd., UNITED KINGDOM",cure-86,N,1,First Cure Drug Store Sole Proprietorship L.L.C
O47-4905-03940-01,2450-8317-001,NA,SOLIS,3940,Multivitamin& Minerals (Solis Softgel),Combination,Capsules,90's,,348.5,279,SOLIS 90CAPS.jpg,Pharmatrade,"Viva Pharmaceutical Inc., CANADA",cure-87,N,1,First Cure Drug Store Sole Proprietorship L.L.C
J63-3750-04000-01,1118-7035-001,NA,NOW OMEGA-3,4000,"EPA (Eicosapentaenoic Acid),Natural Fish Oil,Omega 3 Fatty Acids","180 mg,1000 mg,380 mg",Capsules,100's Bottle,,85,59.5,NOW OMEGA 3- 100CAPS.jpg,New Country Medical Supplies,"Now International, U.S.A",cure-88,N,1,First Cure Drug Store Sole Proprietorship L.L.C
J44-3645-04041-01,1552-3240-004,NA,NICOTINELL TTS,4041,"Eudragit,Nicotine","12.5 mg,17.5 mg",Transdermal Patches,7 Sachets,,60.5,49,"NICOTINELL TTS10 step3, 7patch.jpg",City Pharmacy Co.,"Novartis Consumer Health SA, SWITZERLAND",cure-89,N,1,First Cure Drug Store Sole Proprietorship L.L.C
D56-3645-04041-01,1344-3240-002,NA,NICOTINELL TTS,4041,"Eudragit,Nicotine","12.5 mg,17.5 mg",Transdermal Patches,28 Sachets,,243.5,196.09,"NICOTINELL TTS10 step3, 28patch.jpg",City Pharmacy Co.,"Ciba Geigy, SWITZERLAND",cure-90,N,1,First Cure Drug Store Sole Proprietorship L.L.C
J44-3645-04042-01,1552-3240-006,NA,NICOTINELL TTS,4042,"Eudragit,Nicotine","25 mg,35 mg",Transdermal Patches,7 Sachets,,60.5,49,"NICOTINELL TTS20 step2, 7patch.jpg",City Pharmacy Co.,"Novartis Consumer Health SA, SWITZERLAND",cure-91,N,1,First Cure Drug Store Sole Proprietorship L.L.C
D56-3645-04042-01,1344-3240-003,NA,NICOTINELL TTS,4042,"Eudragit,Nicotine","25 mg,35 mg",Transdermal Patches,28 Sachets,,243.5,196.09,"NICOTINELL TTS20 step2, 28patch.jpg",City Pharmacy Co.,"Ciba Geigy, SWITZERLAND",cure-92,N,1,First Cure Drug Store Sole Proprietorship L.L.C
J44-3645-04043-01,1552-3240-005,NA,NICOTINELL TTS,4043,"Eudragit,Nicotine","37.5 mg,52.5 mg",Transdermal Patches,7 Sachets,,60.5,49,"NICOTINELL TTS30 step1, 7patch.jpg",City Pharmacy Co.,"Novartis Consumer Health SA, SWITZERLAND",cure-93,N,1,First Cure Drug Store Sole Proprietorship L.L.C
D56-3645-04043-01,1344-3240-001,NA,NICOTINELL TTS,4043,"Eudragit,Nicotine","37.5 mg,52.5 mg",Transdermal Patches,28 Sachets,,243.5,196.09,"NICOTINELL TTS30 step1, 28patch.jpg",City Pharmacy Co.,"Ciba Geigy, SWITZERLAND",cure-94,N,1,First Cure Drug Store Sole Proprietorship L.L.C
G93-1919-04068-01,1464-2227-001,AD Basic Plan,FIXIT,4068,Nizatidine,150 mg,Capsules,14's (7's Blister x 2),,33,26.67,FIXIT 150MG-14CAPS.jpg,New Medical Centre,"Jamjoom Pharmaceuticals, SAUDI ARABIA",cure-95,N,1,First Cure Drug Store Sole Proprietorship L.L.C
G93-1919-04070-01,1464-2227-002,NA,FIXIT,4070,Nizatidine,300 mg,Capsules,14's (7's Blister x 2),,59,47.69,FIXIT 300MG-14CAPS.jpg,New Medical Centre,"Jamjoom Pharmaceuticals, SAUDI ARABIA",cure-96,N,1,First Cure Drug Store Sole Proprietorship L.L.C
J01-0582-04634-01,1847-4702-009,NA,BETADINE,4634,Povidone Iodine,4%,Antiseptic Solution,Plastic Dropper Bottle,,54,45,betadine skin cleanser.jpeg,City Pharmacy Co.,"Mundipharma Pharmaceuticals Ltd., CYPRUS",cure-97,N,1,First Cure Drug Store Sole Proprietorship L.L.C
J01-0582-04640-02,1937-4702-015,NA,BETADINE,4640,Povidone Iodine,10%,Antiseptic Solution,500ml Plastic Dropper Bottle,,69,57.5,betadine antiseptic 500ml.jpg,City Pharmacy Co.,"Mundipharma Pharmaceuticals Ltd., CYPRUS",cure-98,N,1,First Cure Drug Store Sole Proprietorship L.L.C
J01-0582-04640-01,1847-4702-002,NA,BETADINE,4640,Povidone Iodine,10%,Antiseptic Solution,120ml/bottle x 1,,34,28.3,betadine antiseptic 120ml.jpg,N/A,"Mundipharma Pharmaceuticals Ltd., CYPRUS",cure-99,N,1,First Cure Drug Store Sole Proprietorship L.L.C
J01-0582-04643-02,1937-4702-017,NA,BETADINE,4643,Povidone Iodine,10%,Vaginal Douche,250ml Plastic Bottle,,64,53.3,betadine vaginal douche 250.webp,City Pharmacy Co.,"Mundipharma Pharmaceuticals Ltd., CYPRUS",cure-100,N,1,First Cure Drug Store Sole Proprietorship L.L.C
J01-0582-04643-01,1847-4702-001,NA,BETADINE,4643,Povidone Iodine,10%,Vaginal Douche,250ml / V. Douche kit x 1,,74,61.7,betadine vaginal douche kit 250.jpeg,N/A,"Mundipharma Pharmaceuticals Ltd., CYPRUS",cure-101,N,1,First Cure Drug Store Sole Proprietorship L.L.C
J01-0582-04644-01,1937-4702-013,NA,BETADINE,4644,Povidone Iodine,10%,Vaginal Gel,100g Tube,,76,61,Betadine Vaginal Gel.jpg,City Pharmacy Co.,"Mundipharma Pharmaceuticals Ltd., CYPRUS",cure-102,N,1,First Cure Drug Store Sole Proprietorship L.L.C
J01-0582-04645-01,1937-4702-006,AD Basic Plan,BETADINE,4645,Povidone Iodine,10%,Vaginal Pessaries,Pack x 14 Vaginal Pessaries,,60,48.5,Betadine Vaginal Pessari.jpg,City Pharmacy Co.,"Mundipharma Pharmaceuticals Ltd., CYPRUS",cure-103,N,1,First Cure Drug Store Sole Proprietorship L.L.C
M90-4919-04697-01,2086-6658-001,NA,SONA PREGNAPLAN G MORNING SICKNESS G,4697,Pregnancy Multivitamin,Combination,Capsules,30 Capsules,,120,96,SONA PREGNAPLAN G MORNING SICKNESS 30CAPS.png,Experts Drug Store,"Sona Nutrition Ltd., IRELAND",cure-104,N,1,First Cure Drug Store Sole Proprietorship L.L.C
M90-4254-04697-01,2086-5559-001,NA,PREGNA PLAN,4697,Pregnancy Multivitamin,Combination,Capsules,30's Bottle,,110,88,SONA PREGNAPLAN 30CAPS.jpg,Experts Drug Store,"Sona Nutrition Ltd., IRELAND",cure-105,N,1,First Cure Drug Store Sole Proprietorship L.L.C
O37-2790-04715-01,2552-8011-001,NA,KORDEL'S PROBIOTICA P3,4715,"Bifidobacterium Bifidum,Lactobacillus Gassen,Probiotics- Bifidobacterium Longum","200 MCFU,2600 MCFU,200 MCFU",Capsules,30's Bottle,,160,120,kordels probiotic 30CAPS.jpg,City Pharmacy Co.,"Vitaco Health (NZ) Limited, NEW ZEALAND",cure-106,N,1,First Cure Drug Store Sole Proprietorship L.L.C
I18-2871-05091-01,2238-2787-002,NA,LEGALON,5091,Silymarin (Silybum marianum),140 mg,Capsules,100's (10's Blister x 10),,166.5,134.09,LEGALON 100CAPS.jpg,Pharmatrade,"Madaus GmbH, GERMANY",cure-107,N,1,First Cure Drug Store Sole Proprietorship L.L.C
J81-0690-05307-01,1566-1455-004,NA,BRONCHOVAXOM,5307,Standardised lyophilisate of bacterial lysates,20 mg,Capsules,30's (10's Blister x 3),,81,65.33,"BRONCHOVAXOM 20MG ,30CAPS.jpg",Pharmatrade,"Om Pharma, SWITZERLAND",cure-108,N,1,First Cure Drug Store Sole Proprietorship L.L.C
B24-4149-05309-01,2783-7932-001,NA,PHYTO SOYA,5309,Standardized Soya Extract,175 mg,Capsules,60's (3 x 20's Blisters),,109,92.65,PHYTO SOYA 60CAPS.jpg,Delta Medical Est.,"Arkopharma Ltd., FRANCE",cure-109,N,1,First Cure Drug Store Sole Proprietorship L.L.C
I82-4010-05495-01,1534-6146-001,NA,PANTOGAR,5495,"Calcium Pantothenate,Keratin,L-Cysteine,Medicinal Yeast,p-Aminobenzoic acid,Thiamine Nitrate (Vitamin B1)","60 mg,20 mg,20 mg,100 mg,20 mg,60 mg",Capsules,90's (15's Blister x 6),,130,95,PANTOGAR 90CAPS.jpg,Lunatus Drug Store,"Merz Pharmaceuticals GmbH, GERMANY",cure-110,N,1,First Cure Drug Store Sole Proprietorship L.L.C
J63-3755-05897-01,1118-8127-001,NA,NOW VITAMIN D-3,5897,Vitamin D3 (Cholecalciferol),400 IU,Capsules,180's Bottle,,50,35,NOW VITAMIN D-3 180CAPS.jpg,New Country Healthcare L.L.C.,"Now International, U.S.A",cure-111,N,1,First Cure Drug Store Sole Proprietorship L.L.C
K15-5831-06045-01,2794-7929-004,NA,PARADOX OMEGA 3 CARDIO TG 1165MG,6045,"Extra Virgin Olive Oil,Omega 3 Fish Oil,Organic Lemon Oil,Vitamin D3 (Cholecalciferol)","250.332 mg,902.78 mg,11.648 mg,0.24 mg",Capsules,30s (10s Blister x3),Pharmacy Only,97,77.6,PARADOX OMEGA 3 CARDIO TG 1165MG 30CAPS.jpg,Delta Medical Est.,"Paradox Omega Oils Ltd, IRELAND",cure-112,Y,1,First Cure Drug Store Sole Proprietorship L.L.C
K15-5921-06117-01,2794-7929-005,NA,PARADOX OMEGA MUMS 1000 MG,6117,"Organic Lemon Oil,High Omega Fish Oil Blend,Extra Virgin Olive Oil","10 mg,900 mg,90 mg",Capsules,30s (10s Blister x3),,67,53.6,PARADOX OMEGA MUMS 1000 MG 30CAPS.jpg,Delta Medical Est.,"Paradox Omega Oils Ltd, IRELAND",cure-113,N,1,First Cure Drug Store Sole Proprietorship L.L.C
O44-5931-06126-01,2573-8459-001,NA,IROVIT,6126,"Iron (Ferrous Sulfate),Folic Acid","43.52 mg,0.5 mg",Capsules,30s ( 15s x 2),,28,22.68,IROVIT 30CAPS.jpg,Al Manarah Medicine Store L.L.C.,"Vitane Pharmaceuticals Inc., U.S.A",cure-114,N,1,First Cure Drug Store Sole Proprietorship L.L.C
F26-6156-06348-01,,NA,CETAPHIL RESTRADERM BODY WASH,6348,Combination (CETAPHIL RESTRADERM BODY WASH),Combination,Topical Wash,295 ml Bottle,Pharmacy Only,117,93.47,CETAPHIL RESTRADERM BODY WASH.png,Modern Pharmaceutical Co.,"Galderma International, FRANCE",cure-115,Y,1,First Cure Drug Store Sole Proprietorship L.L.C
G95-6232-06404-01,,NA,EVRA,6404,"Norelgestromin,Ethinylestradiol","6 mg,600 mcg",Transdermal Patches,3s,POM,42.5,34.48,EVRA.jpg,Modern Pharmaceutical Co.,"Janssen Cilag International N.V., BELGIUM",cure-116,Y,1,First Cure Drug Store Sole Proprietorship L.L.C
A18-2369-06446-01,,NA,HIDRASEC,6446,Racecadotril,100 mg,Capsules,10s,PhOM,28.5,23.05,HIDRASEC 100MG-10CAPS.jpg,Alphamed Co. (AUH) Ltd.,"Abbott Laboratories GmbH, GERMANY",cure-117,Y,1,First Cure Drug Store Sole Proprietorship L.L.C
I28-6295-06463-01,,NA,MARNYS PROPOLIS 1000 MG WITH ECHINACEA,6463,"Purified Propolis,Echinacea Purpurea","400 mg,30 mg",Capsules,30s Tube,Pharmacy Only,145,108.75,MARNYS PROPOLIS 1000 MG WITH ECHINACEA 30CAPS.jpg,Al Multaqa Drugs and Pharmaceutical,"Martinez Nieto S.A, SPAIN",cure-118,Y,1,First Cure Drug Store Sole Proprietorship L.L.C
I28-6296-06464-01,,NA,MARNYS GINSENG 1000 MG WITH LECITHIN,6464,Ginseng (Panax),200 mg,Capsules,30s Tube,Pharmacy Only,145,116,MARNYS GINSENG 1000 MG WITH LECITHIN 30CAPS.jpg,Al Multaqa Drugs and Pharmaceutical,"Martinez Nieto S.A, SPAIN",cure-119,Y,1,First Cure Drug Store Sole Proprietorship L.L.C
F27-6299-06467-01,,NA,CETAPHIL DERMACONTROL FOAM WASH (BPO FREE),6467,Combination (CETAPHIL DERMACONTROL FOAM WASH),Combination,Topical Wash,235 ml,Pharmacy Only,105,84.03,CETAPHIL DERMACONTROL FOAM WASH (BPO FREE).png,Modern Pharmaceutical Co.,"Galderma Laboratories, FRANCE",cure-120,Y,1,First Cure Drug Store Sole Proprietorship L.L.C
G35-6305-06471-01,,NA,SALONPAS HOT CAPSICUM,6471,"Capsicum,Glycol Salicylate","0.28 g,3 g",Transdermal Patches,1 Patch,Pharmacy Only,8.75,7.44,SALONPAS HOT CAPSICUM.jpg,Delta Medical Est.,"Hisamitsu Pharmaceutical Co., JAPAN",cure-121,Y,1,First Cure Drug Store Sole Proprietorship L.L.C
P18-6354-06521-01,,NA,LINEX FORTE,6521,Probiotic Blend (Bifidobacterium Lactis+Lactobacillus Acidophilus),60 mg,Capsules,14s (7s Blister x 2),Pharmacy Only,80,64.4,LINEX FORTE 14CAPS.jpg,Alphamed Co. (AUH) Ltd.,"Lek Pharmaceuticals d.d., SLOVENIA",cure-122,Y,1,First Cure Drug Store Sole Proprietorship L.L.C
O36-6652-06756-01,,NA,PREGNACARE BREAST FEEDING DUAL PACK,6756,Multivitamin& Minerals& Omega 3 Fish Oil (PREGNACARE BREAST FEEDING DUAL PACK),Combination,Capsules& Tablets,84s,Pharmacy Only,115,92,PREGNACARE BREAST FEEDING DUAL PACK cap and tab.jpg,New Country Healthcare L.L.C.,"Vitabiotics Ltd., UNITED KINGDOM",cure-123,Y,1,First Cure Drug Store Sole Proprietorship L.L.C
J63-6704-06805-01,,NA,NOW MAGNESIUM,6805,Magnesium,400 mg,Capsules (Vegetable Origin),180s,Pharmacy Only,99,79.2,NOW MAGNESIUM 400MG 180CAPS.jpg,New Country Healthcare L.L.C.,"Now International, U.S.A",cure-124,Y,1,First Cure Drug Store Sole Proprietorship L.L.C
J63-6706-06807-01,,NA,NOW PROBIOTIC-10,6807,Probiotic Combination (NOW PROBIOTIC-10),25 BillionCFU,Capsules (Vegetable Origin),50s,Pharmacy Only,179,143.2,NOW PROBIOTIC-10-25BILLION-50VEG CAPS.jpg,New Country Healthcare L.L.C.,"Now International, U.S.A",cure-125,Y,1,First Cure Drug Store Sole Proprietorship L.L.C
J63-6855-06935-01,,NA,NOW B-50,6935,Vitamin B Complex Combination (NOW B-50),Combination,Capsules (Vegetable Origin),100s,Pharmacy Only,105,84,NOW B-50-100 VEG CAPS.jpg,New Country Healthcare L.L.C.,"Now International, U.S.A",cure-126,Y,1,First Cure Drug Store Sole Proprietorship L.L.C
O98-6427-06941-01,,NA,BIO GLEE ROYALE FORTE,6941,Royal Jelly,334 mg,Capsules,30s,Pharmacy Only,95,80.75,BIO GLEE ROYALE FORTE 30CAPS.jpg,Delta Medical Est.,"Medex D.O.O., SLOVENIA",cure-127,Y,1,First Cure Drug Store Sole Proprietorship L.L.C
