Product code,Language,Price,Quantity,Product name,Description,Taxes,Secondary categories,Status,Vendor,Detailed image URL,Category,List price,Product id,OTC Product
0Q3-W1O-46G-IUA,en,50,12,Shampoo for normal and greasy hair CALENDULA,,VAT INCLUDED,,A,DW-WGP-S01,https://www.dwaae.com/images/detailed/19/GP_Shampoo_-_Calendula.jpg,Beauty Care///Offers,55,49289,Y
1WT-VO3-DHD-5VI,en,50,12,Shampoo for normal hair NETTLE,,VAT INCLUDED,,A,DW-WGP-S01,https://www.dwaae.com/images/detailed/19/GP_Shampoo_-_Nettle.jpg,Beauty Care///Offers,55,49290,Y
U5J-14N-LNC-LZC,en,50,12,Shampoo against hair loss  GREATER BURDOCK,,VAT INCLUDED,,A,DW-WGP-S01,https://www.dwaae.com/images/detailed/19/GP_Shampoo_-_Greater_Burdock.jpg,Beauty Care///Offers,55,49291,Y
2U6-XXQ-FOJ-K8A,en,50,12,Shampoo for weak and damaged hair CHAMOMILE,,VAT INCLUDED,,A,DW-WGP-S01,https://www.dwaae.com/images/detailed/19/GP_Shampoo_-Chamomile.jpg,Beauty Care///Offers,55,49292,Y
WRR-EI8-SNU-D26,en,50,12,Shampoo for oily scalp and dry ends GINSENG,,VAT INCLUDED,,A,DW-WGP-S01,https://www.dwaae.com/images/detailed/19/GP_Shampoo_-_Ginseng.jpeg,Beauty Care///Offers,55,49293,Y
A2U-10A-E6Q-N9F,en,50,12,Shampoo anti-dandruff BIRCH TAR ZINC,,VAT INCLUDED,,A,DW-WGP-S01,https://www.dwaae.com/images/detailed/19/GP_Shampoo_-BIRCH_TAR_ZINC.jpg,Beauty Care///Offers,55,49294,Y
0GQ-D46-5QB-5PQ,en,50,12,Shampoo for dry hair ARGAN OIL POMEGRANATE,,VAT INCLUDED,,A,DW-WGP-S01,https://www.dwaae.com/images/detailed/19/GP_Shampoo_-_ARGAN_OIL_POMEGRANATE.jpg,Beauty Care///Offers,55,49295,Y
DPZ-5HP-NMI-2XK,en,50,11,Balm against hair loss BURDOCK OIL,,VAT INCLUDED,,A,DW-WGP-S01,https://www.dwaae.com/images/detailed/19/GP_Balm_-_Burdock_Oil.JPG,Beauty Care///Offers,55,49296,Y
8HW-K88-T2H-S7D,en,50,11,"Balm for damaged, brittle and weak hair STINGING NETTLE",,VAT INCLUDED,,A,DW-WGP-S01,https://www.dwaae.com/images/detailed/19/GP_Balm_-_Stinging_Nettle.jpg,Beauty Care///Offers,55,49297,Y
MJH-RH0-BLA-P87,en,50,11,Balm for dry and damaged hair ARGAN OIL POMEGRANATE,,VAT INCLUDED,,A,DW-WGP-S01,https://www.dwaae.com/images/detailed/19/GP_Balm_-_ARGAN_OIL_POMEGRANATE.jpg,Beauty Care///Offers,55,49298,Y
085-TTG-Z3T-299,en,50,12,Burdock Oil Argan oil 100ml,,VAT INCLUDED,,A,DW-WGP-S01,https://www.dwaae.com/images/detailed/19/Burdock_Oil_Argan_oil_100ml.jpg,Beauty Care///Offers,55,49299,Y
J65-XM4-66O-08O,en,50,12,Burdock Oil Horsetale 100ml,,VAT INCLUDED,,A,DW-WGP-S01,https://www.dwaae.com/images/detailed/19/Burdock_Oil_Horsetale_100ml.jpg,Beauty Care///Offers,55,49300,Y
10V-RDH-J7H-JS7,en,50,12,Burdock Oil Red Pipper,,VAT INCLUDED,,A,DW-WGP-S01,https://www.dwaae.com/images/detailed/19/Burdock_Oil_Red_Pipper.jpg,Beauty Care///Offers,55,49301,Y
9U2-FCS-3Q9-MRT,en,70,12,"Bath oil TANGERINE , CINNAMON",,VAT INCLUDED,,A,DW-WGP-S01,"https://www.dwaae.com/images/detailed/19/GP_Bath_oil_TANGERINE_,_CINNAMON.jpg",Beauty Care///Offers,77,49302,Y
BGR-VEO-5B0-5HS,en,70,12,"Bath oil CLOVE, LEMON",,VAT INCLUDED,,A,DW-WGP-S01,"https://www.dwaae.com/images/detailed/19/GP_Bath_oil_CLOVE,_LEMON.jpg",Beauty Care///Offers,77,49303,Y
K39-8HJ-VTU-O2M,en,70,12,"Bath oil CEDAR, CYPRESS, ALGAE",,VAT INCLUDED,,A,DW-WGP-S01,"https://www.dwaae.com/images/detailed/19/GP_Bath_oil_CEDAR,_CYPRESS,_ALGAE.jpg",Beauty Care///Offers,77,49304,Y
OUM-KTR-MJT-826,en,70,12,"Bath oil BERGAMOT, LIME",,VAT INCLUDED,,A,DW-WGP-S01,"https://www.dwaae.com/images/detailed/19/GP_Bath_oil_BERGAMOT,_LIME.jpg",Beauty Care///Offers,77,49305,Y
FWD-ELJ-BYB-AYN,en,70,12,"Bath oil SANDALWOOD, NEROLI ,ROSE",,VAT INCLUDED,,A,DW-WGP-S01,"https://www.dwaae.com/images/detailed/19/GP_Bath_oil_SANDALWOOD,_NEROLI_,ROSE.jpg",Beauty Care///Offers,77,49306,Y
JXH-0BK-H3Z-IKS,en,70,12,Shower gel ARGAN and FIGS,,VAT INCLUDED,,A,DW-WGP-S01,https://www.dwaae.com/images/detailed/19/GP_Shower_gel_ARGAN_and_FIGS.jpg,Beauty Care///Offers,77,49307,Y
XWD-HTS-UD9-430,en,70,12,Shower gel LOTUS and JASMINE ,,VAT INCLUDED,,A,DW-WGP-S01,https://www.dwaae.com/images/detailed/19/GP_Shower_gel_LOTUS_and_JASMINE.jpg,Beauty Care///Offers,77,49308,Y
SJX-FEX-QWP-MSK,en,70,12,Shower gel OLIVE and RICE MILK,,VAT INCLUDED,,A,DW-WGP-S01,https://www.dwaae.com/images/detailed/19/GP_Shower_gel_OLIVE_and_RICE_MILK.jpg,Beauty Care///Offers,77,49309,Y
TMI-IWM-193-J11,en,70,12,Shower gel ROSEMARY and LAVENDER,,VAT INCLUDED,,A,DW-WGP-S01,https://www.dwaae.com/images/detailed/19/GP_Shower_gel_ROSEMARY_and_LAVENDER.jpg,Beauty Care///Offers,77,49310,Y
60V-2YX-V0W-UEA,en,70,12,Shower gel MUSCAT ROSE and GREEN TEA,,VAT INCLUDED,,A,DW-WGP-S01,https://www.dwaae.com/images/detailed/19/GP_Shower_gel_MUSCAT_ROSE_and_GREEN_TEA.jpg,Beauty Care///Offers,77,49311,Y
3ID-MJ1-TTP-19B,en,70,12,Shower gel SHEA BUTTER and GREEN COFFEE,,VAT INCLUDED,,A,DW-WGP-S01,https://www.dwaae.com/images/detailed/19/GP_Shower_gel_SHEA_BUTTER_and_GREEN_COFFEE.jpg,Beauty Care///Offers,77,49312,Y
92I-FOJ-59C-64A,en,70,12,Body lotion ROSE GINGER regenerating with firming effect,,VAT INCLUDED,,A,DW-WGP-S01,https://www.dwaae.com/images/detailed/19/Body_lotion_ROSE_GINGER.jpg,Beauty Care///Offers,77,49313,Y
8LX-E7Z-LS9-0VP,en,70,12,Body lotion OAT MACADAMIA OIL  soothing with mosturizing effect ,,VAT INCLUDED,,A,DW-WGP-S01,https://www.dwaae.com/images/detailed/19/GP_Body_lotion_OAT_MACADAMIA_OIL.jpg,Beauty Care///Offers,77,49314,Y
AQB-6PU-CLR-TR3,en,70,12,Body lotion CALENDULA GREEN TEA rejuvenating with strengthening effect,,VAT INCLUDED,,A,DW-WGP-S01,https://www.dwaae.com/images/detailed/19/GP_Body_lotion_CALENDULA_GREEN_TEA.jpg,Beauty Care///Offers,77,49315,Y
CVO-UQT-CEO-87R,en,70,12,Body lotion OLIVE ARGAN OIL nourishing with moisturizing effect,,VAT INCLUDED,,A,DW-WGP-S01,https://www.dwaae.com/images/detailed/19/GP_Body_lotion_OLIVE_ARGAN_OIL.jpg,Beauty Care///Offers,77,49316,Y
LCV-YWB-TRW-CTK,en,70,12,Body lotion ALOE RICE MILK moisturizing with nutritious effect,,VAT INCLUDED,,A,DW-WGP-S01,https://www.dwaae.com/images/detailed/19/GP_Body_lotion_ALOE_RICE_MILK.jpg,Beauty Care///Offers,77,49317,Y
822-Y68-YM9-SQU,en,100,11,Bath milk ARGAN and FIGS,,VAT INCLUDED,,A,DW-WGP-S01,https://www.dwaae.com/images/detailed/19/GP_Bath_milk_ARGAN_and_FIGS.jpg,Beauty Care///Offers,110,49318,Y
RIA-YRR-UQC-FZG,en,100,11,Bath milk OLIVE and RICE MILK,,VAT INCLUDED,,A,DW-WGP-S01,https://www.dwaae.com/images/detailed/19/GP_Bath_milk_OLIVE_and_RICE_MILK.jpg,Beauty Care///Offers,110,49319,Y
IXD-NGK-OQ8-STW,en,100,11,Bath foam OLIVE and RICE MILK ,,VAT INCLUDED,,A,DW-WGP-S01,https://www.dwaae.com/images/detailed/19/GP_Bath_foam_OLIVE_and_RICE_MILK.jpg,Beauty Care///Offers,110,49320,Y
3TC-1M8-Y7Q-R5M,en,100,11,Bath foam MUSCAT ROSE and GREEN TEA ,,VAT INCLUDED,,A,DW-WGP-S01,https://www.dwaae.com/images/detailed/19/GP_Bath_foam_MUSCAT_ROSE_and_GREEN_TEA.jpg,Beauty Care///Offers,110,49321,Y
W00-EOM-SWP-EW6,en,60,12,Bath salt ARGAN OIL and FIGS,,VAT INCLUDED,,A,DW-WGP-S01,https://www.dwaae.com/images/detailed/19/GP_Bath_salt_ARGAN_OIL_and_FIGS.jpg,Beauty Care///Offers,66,49322,Y
QW1-XXC-20A-3XX,en,60,12,Bath salt ROSEMARY and LAVENDER,,VAT INCLUDED,,A,DW-WGP-S01,https://www.dwaae.com/images/detailed/19/GP_Bath_salt_ROSEMARY_and_LAVENDER.jpg,Beauty Care///Offers,66,49323,Y
FAB-RGA-KO5-GVG,en,60,12,Bath salt MUSCAT ROSE and  GREEN TEA,,VAT INCLUDED,,A,DW-WGP-S01,https://www.dwaae.com/images/detailed/19/GP_Bath_salt_MUSCAT_ROSE_and__GREEN_TEA.jpg,Beauty Care///Offers,66,49324,Y
JU3-Q2K-GQH-RGP,en,70,12,Massage oil ANTI-CELLULITE,,VAT INCLUDED,,A,DW-WGP-S01,https://www.dwaae.com/images/detailed/19/GP_Massage_oil_ANTI-CELLULITE.jpg,Beauty Care///Offers,77,49325,Y
SR0-1U1-G69-WB0,en,70,12,Massage oil WARMING,,VAT INCLUDED,,A,DW-WGP-S01,https://www.dwaae.com/images/detailed/19/GP_Massage_oil_WARMING.jpg,Beauty Care///Offers,77,49326,Y
F44-TSP-CZ7-6P9,en,90,12,Sugar and salt scrub SHEA BUTTER and GREEN COFFEE,,VAT INCLUDED,,A,DW-WGP-S01,https://www.dwaae.com/images/detailed/19/GP_Sugar_and_salt_scrub_SHEA_BUTTER_and_GREEN_COFFEE.jpg,Beauty Care///Offers,99,49327,Y
9RV-KBO-PWZ-7PH,en,90,12,Sugar scrub MUSCAT ROSE and  GREEN TEA,,VAT INCLUDED,,A,DW-WGP-S01,https://www.dwaae.com/images/detailed/19/GP_Sugar_scrub_MUSCAT_ROSE_and__GREEN_TEA.jpg,Beauty Care///Offers,99,49328,Y
BIB-42Q-MKL-K0U,en,90,12,Sugar and salt scrub ARGAN OIL and FIGS,,VAT INCLUDED,,A,DW-WGP-S01,https://www.dwaae.com/images/detailed/19/GP_Sugar_and_salt_scrub_ARGAN_OIL_and_FIGS.jpg,Beauty Care///Offers,99,49329,Y
1XD-HMR-MC8-XW3,en,90,12,Sugar and salt scrub CRANBERRY and CLOUDBERRY,,VAT INCLUDED,,A,DW-WGP-S01,https://www.dwaae.com/images/detailed/19/GP_Sugar_and_salt_scrub_CRANBERRY_and_CLOUDBERRY.jpg,Beauty Care///Offers,99,49330,Y
OQ2-CDX-4UQ-1PC,en,90,12,Body butter SHEA BUTTER and GREEN COFFEE,,VAT INCLUDED,,A,DW-WGP-S01,https://www.dwaae.com/images/detailed/19/GP_Body_butter_SHEA_BUTTER_and_GREEN_COFFEE.jpg,Beauty Care///Offers,99,49331,Y
8A1-AWK-H7U-WOR,en,90,12,Body butter MUSCAT ROSE and  GREEN TEA,,VAT INCLUDED,,A,DW-WGP-S01,https://www.dwaae.com/images/detailed/19/GP_Body_butter_MUSCAT_ROSE_and__GREEN_TEA.jpg,Beauty Care///Offers,99,49332,Y
TGZ-JVC-24E-EOG,en,90,12,Body butter ARGAN OIL and FIGS,,VAT INCLUDED,,A,DW-WGP-S01,https://www.dwaae.com/images/detailed/19/GP_Body_butter_ARGAN_OIL_and_FIGS.jpg,Beauty Care///Offers,99,49333,Y
SH9-YU0-IEP-296,en,90,12,Body butter CRANBERRY AND CLOUDBERRY ,,VAT INCLUDED,,A,DW-WGP-S01,https://www.dwaae.com/images/detailed/19/Body_butter_CRANBERRY_AND_CLOUDBERRY.jpg,Beauty Care///Offers,99,49334,Y
YZA-MIN-K1J-G1W,en,80,12,"Soothing gel for intimate hygiene OAK BARK, CHAMOMILE",,VAT INCLUDED,,A,DW-WGP-S01,"https://www.dwaae.com/images/detailed/19/GP_Soothing_gel_for_intimate_hygiene_OAK_BARK,SAGE.jpg",Beauty Care///Offers,88,49335,Y
PNJ-C09-VDD-44A,en,80,12,"Protective gel for intimate hygiene OAK BARK, CRANBERRY",,VAT INCLUDED,,A,DW-WGP-S01,"https://www.dwaae.com/images/detailed/19/GP_Protective_gel_for_intimate_hygiene_OAK_BARK,_CRANBERRY.jpg",Beauty Care///Offers,88,49336,Y
UQT-9N8-8W5-609,en,80,12,"Normalising gel for intimate hygiene OAK BARK, TEA TREE",,VAT INCLUDED,,A,DW-WGP-S01,"https://www.dwaae.com/images/detailed/19/GP_Normalising_gel_for_intimate_hygiene_OAK_BARK,_TEA_TREE.jpg",Beauty Care///Offers,88,49337,Y
VQS-AAR-145-0AY,en,80,12,"Soothing gel for intimate hygiene OAK BARK,SAGE",,VAT INCLUDED,,A,DW-WGP-S01,"https://www.dwaae.com/images/detailed/19/GP_Soothing_gel_for_intimate_hygiene_OAK_BARK,SAGE_2aii-m8.jpg",Beauty Care///Offers,88,49338,Y
HRP-VRO-N34-RMJ,en,60,12,Gel for intimate hygiene for sensitive skin CHAMOMILE and ALLANTOIN,,VAT INCLUDED,,A,DW-WGP-S01,https://www.dwaae.com/images/detailed/19/GP_Gel_for_intimate_hygiene_for_sensitive_skin_CHAMOMILE_and_ALLANTOIN.jpg,Beauty Care///Offers,66,49339,Y
D0W-8YW-I0F-0WK,en,60,12,Gel for intimate hygiene normalizing TEA TREE and CALENDULA,,VAT INCLUDED,,A,DW-WGP-S01,https://www.dwaae.com/images/detailed/19/GP_Gel_for_intimate_hygiene_normalizing_TEA_TREE_and_CALENDULA.jpg,Beauty Care///Offers,66,49340,Y
TOL-TIJ-0SV-VHS,en,60,12,Gel for intimate hygiene soothing SAGE and ALLANTOIN ,,VAT INCLUDED,,A,DW-WGP-S01,https://www.dwaae.com/images/detailed/19/GP_Gel_for_intimate_hygiene_soothing_SAGE_and_ALLANTOIN.jpg,Beauty Care///Offers,66,49341,Y
85V-XPO-05C-USX,en,60,12,Micellar solution 3 in 1 CHAMOMILE  250ml,,VAT INCLUDED,Beauty Care///Face Care///Firming & Toning,A,DW-WGP-S01,https://www.dwaae.com/images/detailed/19/GP_Micellar_solution_3_in_1_CHAMOMILE__250ml.jpg,Beauty Care///Offers,66,49342,Y
P5Q-EZR-CH1-1BR,en,60,12,Micellar solution 3 in 1 OAT  250ml,,VAT INCLUDED,,A,DW-WGP-S01,https://www.dwaae.com/images/detailed/19/GP_Micellar_solution_3_in_1_OAT__250ml.jpg,Beauty Care///Offers,66,49343,Y
4HK-AXZ-0F8-KIN,en,40,12,Hand and nail cream ALOE moisturizing and softening,,VAT INCLUDED,,A,DW-WGP-S01,https://www.dwaae.com/images/detailed/19/GP_Hand_and_nail_cream_ALOE_moisturizing_and_softening.jpg,Beauty Care///Offers,44,49344,Y
MXE-OFH-JRI-MRE,en,40,12,Hand and nail cream CELANDINE moisturizing and protective,,VAT INCLUDED,,A,DW-WGP-S01,https://www.dwaae.com/images/detailed/19/GP_Hand_and_nail_cream_CELANDINE_moisturizing_and_protective.JPG,Beauty Care///Offers,44,49345,Y
KJP-P5U-XNR-14L,en,40,12,Hand and nail cream OLIVE nourishing and protective,,VAT INCLUDED,,A,DW-WGP-S01,https://www.dwaae.com/images/detailed/19/GP_Hand_and_nail_cream_OLIVE_nourishing_and_protective.jpg,Beauty Care///Offers,44,49346,Y
OWD-WEM-HDH-G4C,en,40,12,Hand and nail cream CHAMOMILE regenerating and soothing,,VAT INCLUDED,,A,DW-WGP-S01,https://www.dwaae.com/images/detailed/19/GP_Hand_and_nail_cream_CHAMOMILE_regenerating_and_soothing.jpg,Beauty Care///Offers,44,49347,Y
FTR-TN3-P9E-TRH,en,40,12,Hand and nail cream ROSE nourishing and mosturizing,,VAT INCLUDED,,A,DW-WGP-S01,https://www.dwaae.com/images/detailed/19/GP_Hand_and_nail_cream_ROSE_nourishing_and_mosturizing.jpg,Beauty Care///Offers,44,49348,Y
R5F-E2B-PQH-T50,en,40,12,Hand and nail cream ARGAN nourishing and protective,,VAT INCLUDED,,A,DW-WGP-S01,https://www.dwaae.com/images/detailed/19/GP_Hand_and_nail_cream_ARGAN_nourishing_and_protective.jpg,Beauty Care///Offers,44,49349,Y
MS3-8EG-OGV-A77,en,40,12,Hand and nail cream CRANBERRY moisturizing with lightening effect ,,VAT INCLUDED,,A,DW-WGP-S01,https://www.dwaae.com/images/detailed/19/GP_Hand_and_nail_cream_CRANBERRY_moisturizing_with_lightening_effect.jpeg,Beauty Care///Offers,44,49350,Y
207-3NL-U4T-6GG,en,40,12,Foot repair cream against cracking WALNUT OIL BROADLEAF PLANTAIN EXTRACT,,VAT INCLUDED,,A,DW-WGP-S01,https://www.dwaae.com/images/detailed/19/WALNUT_OIL_BROADLEAF_PLANTAIN_EXTRACT.jpg,Beauty Care///Offers,44,49351,Y
EDW-IBG-LT7-HO7,en,40,12,Foot relaxing cream for tired feet and legs prone to swelling CHESTNUT FRUIT EXTRACT FROM THE LEAVES OF RED GRAPES,,VAT INCLUDED,,A,DW-WGP-S01,https://www.dwaae.com/images/detailed/19/CHESTNUT_FRUIT_EXTRACT_FROM_THE_LEAVES_OF_RED_GRAPES.jpg,Beauty Care///Offers,44,49352,Y
ZVL-IEQ-LSH-DDP,en,90,11,Anti-wrinkle nourishing cream ROSE,,VAT INCLUDED,Beauty Care///Face Care///Face Cream,A,DW-WGP-S01,https://www.dwaae.com/images/detailed/19/GP_Anti-wrinkle_nourishing_cream_ROSE.jpg,Beauty Care///Offers,99,49353,Y
572-4WI-LVO-IFA,en,90,12,Soothing vanishing cream CHAMOMILE,,VAT INCLUDED,,A,DW-WGP-S01,https://www.dwaae.com/images/detailed/19/GP_Soothing_vanishing_cream_CHAMOMILE.jpg,Beauty Care///Offers,99,49354,Y
BIV-2OF-8M3-4IL,en,90,12,Refreshing moisturizing cream CALENDULA,,VAT INCLUDED,Beauty Care///Face Care///Face Cream,A,DW-WGP-S01,https://www.dwaae.com/images/detailed/19/GP_Refreshing_moisturizing_cream_CALENDULA.jpg,Beauty Care///Offers,99,49355,Y
BWE-XY8-PB1-MCL,en,90,12,Strengthening nourishing cream ALOE,,VAT INCLUDED,,A,DW-WGP-S01,https://www.dwaae.com/images/detailed/19/GP_Strengthening_nourishing_cream_ALOE.jpeg,Beauty Care///Offers,99,49356,Y
95Y-8ZU-U4B-DSV,en,90,11,Anti-wrinkle ultra rich cream ARGAN,,VAT INCLUDED,Beauty Care///Face Care///Face Cream,A,DW-WGP-S01,https://www.dwaae.com/images/detailed/19/GP_Anti-wrinkle_ultra_rich_cream_ARGAN.jpg,Beauty Care///Offers,99,49357,Y
YCO-3J1-52P-YTP,en,90,12,Normalizing matting cream GREEN TEA,,VAT INCLUDED,Beauty Care///Face Care///Face Cream,A,DW-WGP-S01,https://www.dwaae.com/images/detailed/19/GP_Normalizing_matting_cream_GREEN_TEA.jpg,Beauty Care///Offers,99,49358,Y
P0V-5YK-ZJ0-98C,en,90,11,Anti-aging nourishing cream CRANBERRY,,VAT INCLUDED,Beauty Care///Face Care///Face Cream,A,DW-WGP-S01,https://www.dwaae.com/images/detailed/19/GP_Anti-aging_nourishing_cream_CRANBERRY.jpg,Beauty Care///Offers,99,49359,Y
2O2-CR9-L0M-XK0,en,50,12,Gentle facial wash gel ALOE for dry and sensitive skin,,VAT INCLUDED,,A,DW-WGP-S01,https://www.dwaae.com/images/detailed/19/GP_Gentle_facial_wash_gel_ALOE_for_dry_and_sensitive_skin.jpg,Beauty Care///Offers,55,49360,Y
HT2-FFU-SFX-OMY,en,50,12,Gentle facial wash gel GREEN TEA for combination and oily skin,,VAT INCLUDED,Beauty Care///Face Care///Face Wash,A,DW-WGP-S01,https://www.dwaae.com/images/detailed/19/GP_Gentle_facial_wash_gel_GREEN_TEA_for_combination_and_oily_skin.jpg,Beauty Care///Offers,55,49361,Y
AS3-FTD-I7J-LF4,en,50,12,Gentle facial wash gel SAGE for skin prone to irritation,,VAT INCLUDED,Beauty Care///Face Care///Face Wash,A,DW-WGP-S01,https://www.dwaae.com/images/detailed/19/GP_Gentle_facial_wash_gel_SAGE_for_skin_prone_to_irritation.jpg,Beauty Care///Offers,55,49362,Y
