Product code,Language,Product id,Category,List price,Price,Weight,Quantity,Min quantity,Shipping freight,Date added,Downloadable,Files,Ship downloadable,Inventory tracking,Free shipping,Zero price action,Thumbnail,Detailed image,Product name,Description,Meta keywords,Meta description,Search words,Page title,Taxes,Features,Options,Secondary categories,SEO name,Short description,Status,Popularity,Vendor,Package Size (Variation feature),Strength (Variation feature),Detailed image URL
"A01-21S-TAB-126","en","17597","Medications","0.00","69.00","0.000","5","0","0.00","25 Oct 2020 10:11:26","N","","N","B","N","R","","exim/backup/images/21ST_CENTURY_CALCIUM_PLUS75.jpg#{[ar]:;[en]:;}","21ST CENTURY ACE ANTI OXIDANT","","","","","","","Insurance Plan: M[NA]; Generic Code: S[03936]; Generic Name: S[Multivitamin& Minerals]; Strength: S[Combination]; Dosage Form: S[Tablets]; Package Size: S[75's Bottle]; Brands: E[21st Century Health Care, U.S.A]; Drug Code: S[A01-0010-03936-01]; Greenrain Code: S[1101-5507-001]; Agent Name: T[New Country Medical Supplies]","","Vitamins & Nutrition///Nutrition; Vitamins & Nutrition///Nutrition///Antioxidants","","","A","39","Ali Pharmacy","75's Bottle","Combination","https://www.dwaae.com/images/detailed/4/21ST_CENTURY_CALCIUM_PLUS75.jpg"
"E09-ADD-EFF-735","en","30675","Medications","0.00","10.00","0.000","5","0","0.00","01 Nov 2020 08:09:09","N","","N","B","N","R","","exim/backup/images/cv_additiva_vitamin_c.jpg#{[ar]:;[en]:;}","ADDITIVA VITAMIN C","","","","","","","Insurance Plan: M[NA]; Generic Code: S[00461]; Generic Name: S[Ascorbic Acid (Vitamin C)]; Strength: S[225 mg]; Dosage Form: S[Effervescent Tablets]; Package Size: S[10's Plastic Tube]; Brands: E[Dr. B. Scheffler Nachf. GmbH & Co., GERMANY]; Drug Code: S[E09-0099-00461-01]; Greenrain Code: S[1827-5515-001]; Agent Name: T[Metropolitan Medical Marketing]","","","","","A","","Ali Pharmacy","10's Plastic Tube","225 mg","https://www.dwaae.com/images/detailed/3/cv_additiva_vitamin_c.jpg"
"cv_nature's_bounty_pure_vitamin_c_500_0003","en","30676","Medications","0.00","60.00","0.000","5","0","0.00","01 Nov 2020 08:10:13","N","","N","B","N","R","","exim/backup/images/cv_nature's_bounty_pure_vitamin_c_500_0003.jpg#{[ar]:;[en]:;}","NATURE'S BOUNTY PURE VITAMIN C 500","","","","","","","Insurance Plan: M[NA]; Generic Code: S[00464]; Generic Name: S[Ascorbic Acid (Vitamin C)]; Strength: S[500 mg]; Dosage Form: S[Tablets]; Package Size: S[100s]; Brands: E[NBTY Inc., U.S.A]; Drug Code: S[J19-6385-00464-01]; Agent Name: T[Vitavision Medical Supplies]","","","","","A","","Ali Pharmacy","100s","500 mg","https://www.dwaae.com/images/detailed/3/cv_nature's_bounty_pure_vitamin_c_500_0003.jpg"
