Product Code,Product Name,Quantity,Price,UOM,Category,Taxes,OTC,Product Image
DWE-BJP-OFF-101,PURITAN'S PRIDE DELICIOUS CHEWABLE C-500 MG  90'S,3,80,BOT,Vitamins & Nutrition///Offers///Puritans Pride,VAT INCLUDED,Y,PURITAN'S PRIDE DELICIOUS CHEWABLE C-500 MG  90'S.jpg
DWE-BJP-OFF-102,PURITAN'S PRIDE HIGH POTENCY DIABETIC SUPPORT FORMULA 60'S,2,156.45,BOT,Vitamins & Nutrition///Offers///Puritans Pride,VAT INCLUDED,Y,PURITAN'S PRIDE HIGH POTENCY DIABETIC SUPPORT FORMULA 60'S.jpg
DWE-BJP-OFF-103,PURITAN'S PRIDE VITAMIN E-1000 IU 50'S,7,105,BOT,Vitamins & Nutrition///Offers///Puritans Pride,VAT INCLUDED,Y,PURITAN'S PRIDE VITAMIN E-1000 IU 50'S.jpg
