Product Code,Product Name,Expiry Date,UOM,Quantity,Price,OTC,Category,Product Image
000061076,LYNAE FOLIC ACID 400mcg TAB 90'S,31-03-2022,BOT,3.0,35.5,Y,Vitamins & Nutrition///Nutrition///A to Z Vitamins,LYNAE FOLIC ACID 400mcg TAB 90'S.jpeg
000050553,LYNAE GLUCOSAMINE + CHONDROITIN CAP 60'S,30-03-2022,BOT,3.0,179.0,Y,Vitamins & Nutrition///Nutrition///A to Z Vitamins,LYNAE GLUCOSAMINE + CHONDROITIN CAP 60'S.jpg
000055115,LYNAE L-CARNITINE 500MG CAP 30'S,31-03-2022,BOT,3.0,79.0,Y,Vitamins & Nutrition///Nutrition///A to Z Vitamins,LYNAE L-CARNITINE 500MG CAP 30'S.jpg
000050549,LYNAE ROYAL JELLY 1000MG CAP 30'S,30-12-2021,BOT,2.0,95.0,Y,Vitamins & Nutrition///Nutrition///A to Z Vitamins,LYNAE ROYAL JELLY 1000MG CAP 30'S.jpg
000073462,LYNAE ZINC 50MG TAB 100'S,30-09-2023,BOT,8.0,63.0,Y,Vitamins & Nutrition///Nutrition///A to Z Vitamins,LYNAE ZINC 50MG TAB 100'S.jpg
000070046,MARNYS L-CARNITINE 2000MG VIALS 20 X 11ML = 220ML,30-11-2022,BOX,1.0,210.0,Y,Vitamins & Nutrition///Nutrition///A to Z Vitamins,MARNYS L-CARNITINE 2000MG VIALS 20 X 11ML = 220ML.jpeg
000063850,MARNYS PROTECT JUNIOR 20*10ML,31-03-2023,BOX,11.0,87.0,Y,Vitamins & Nutrition///Nutrition///A to Z Vitamins,MARNYS PROTECT JUNIOR 20 10ML.jpg
000064403,MEDCOLL NATURAL COLLAGEN BOOSTING SUPPLEMENT CAP 60,01-02-2023,BOX,2.0,309.75,Y,Vitamins & Nutrition///Nutrition///A to Z Vitamins,MEDCOLL NATURAL COLLAGEN BOOSTING SUPPLEMENT CAP 60.jpg
000071504,MEDEX OMEGA-3 JUNIOR SYRUP 140ML,01-05-2022,BOX,3.0,85.0,Y,Vitamins & Nutrition///Nutrition///A to Z Vitamins,MEDEX OMEGA-3 JUNIOR SYRUP 140ML.jpg
000079308,MIGLIORIN TRICOX CAP 20S,30-06-2024,BOX,1.0,285.0,Y,Vitamins & Nutrition///Nutrition///A to Z Vitamins,MIGLIORIN TRICOX CAP 20S.jpg
000074597,MR.TUMEE ECHINACEA + VIT.C + ZINC 60 GUMEE,30-10-2023,BOT,5.0,75.0,Y,Vitamins & Nutrition///Nutrition///A to Z Vitamins,MR.TUMEE ECHINACEA + VIT.C + ZINC 60 GUMEE.jpg
000060677,MULTISURE MEN 50+ CAP 60,31-10-2021,BOX,3.0,104.0,Y,Vitamins & Nutrition///Nutrition///A to Z Vitamins,MULTISURE MEN 50+ CAP 60.jpg
000060104,MULTISURE WOMEN CAP 60,30-08-2022,BOX,1.0,104.0,Y,Vitamins & Nutrition///Nutrition///A to Z Vitamins,MULTISURE WOMEN CAP 60.jpg
000078698,MUSCLE CORE L-CARNITINE 3000MG SHOTS,01-12-2021,BOT,1.0,11.5,Y,Vitamins & Nutrition///Nutrition///A to Z Vitamins,MUSCLE CORE L-CARNITINE 3000MG SHOTS.jpg
000074677,MUSCLE CORE L-CARNITINE 4500MCG SHOTS,12-12-2022,BOT,1.0,13.5,Y,Vitamins & Nutrition///Nutrition///A to Z Vitamins,MUSCLE CORE L-CARNITINE 4500MCG SHOTS.jpg
000063742,NATROL BIOTIN 10000MCG  100S,31-10-2022,BOX,1.0,65.0,Y,Vitamins & Nutrition///Nutrition///A to Z Vitamins,NATROL BIOTIN 10000MCG  100S.jpg
000068086,NATROL MAGNESIUM 250MG CRANBERRY CHEWABLE TAB 60,30-06-2021,BOX,1.0,85.0,Y,Vitamins & Nutrition///Nutrition///A to Z Vitamins,NATROL MAGNESIUM 250MG CRANBERRY CHEWABLE TAB 60.jpeg
000062051,NATURE'S BOUNTY TURMERIC 450MG CAP 60'S,30-12-2023,BOT,2.0,100.0,Y,Vitamins & Nutrition///Nutrition///A to Z Vitamins,NATURE'S BOUNTY TURMERIC 450MG CAP 60'S.jpg
000078646,NATURELO OMEGA-3 TRIGLYCERIDE FISH OIL 60 SOFTGELS,01-10-2024,BOT,8.0,120.0,Y,Vitamins & Nutrition///Nutrition///A to Z Vitamins,NATURELO OMEGA-3 TRIGLYCERIDE FISH OIL 60 SOFTGELS.jpeg
000078645,NATURELO ONE DAILY MULTIVITAMIN FOR MEN 60 VEGE.CAPS,01-11-2024,BOT,5.0,125.0,Y,Vitamins & Nutrition///Nutrition///A to Z Vitamins,NATURELO ONE DAILY MULTIVITAMIN FOR MEN 60 VEGE.CAPS.jpg
000064064,NATURES AID L-ARGININE 750MG TAB 90S,30-04-2022,BOT,1.0,65.0,Y,Vitamins & Nutrition///Nutrition///A to Z Vitamins,NATURES AID L-ARGININE 750MG TAB 90S.jpg
000079560,NATURES PLUS ST JOHNS WORT 450MG ,01-02-2024,BOT,1.0,165.0,Y,Vitamins & Nutrition///Nutrition///A to Z Vitamins,NATURES PLUS ST JOHNS WORT 450MG.jpg
80492,NATURES WAY CRANRX GUMMY 60S,31-07-2019,BOT,6.0,169.0,Y,Vitamins & Nutrition///Nutrition///A to Z Vitamins,NATURES WAY CRANRX GUMMY 60S.jpg
000062050,NB B-COMPLEX WITH FOLIC ACID PLUS VIT C TAB 125,30-01-2022,BOT,1.0,85.0,Y,Vitamins & Nutrition///Nutrition///A to Z Vitamins,NB B-COMPLEX WITH FOLIC ACID PLUS VIT C TAB 125.jpg
000074990,NB BIOTIN 5000mcg 150SOFTGELS,30-04-2023,BOT,1.0,140.0,Y,Vitamins & Nutrition///Nutrition///A to Z Vitamins,NB BIOTIN 5000mcg 150SOFTGELS.jpg
000074989,NB BIOTIN 5000MCG TAB 60,30-10-2022,BOT,2.0,82.0,Y,Vitamins & Nutrition///Nutrition///A to Z Vitamins,NB BIOTIN 5000MCG TAB 60.jpg
000074996,NB C - 500mg tab 100's,30-06-2023,BOT,7.0,60.0,Y,Vitamins & Nutrition///Nutrition///A to Z Vitamins,NB C - 500mg tab 100's.jpg
000076507,NB C 500MG 90'S,30-05-2023,BOT,2.0,80.0,Y,Vitamins & Nutrition///Nutrition///A to Z Vitamins,NB C 500MG 90'S.jpg
000071721,NB C&E WITH ROSEHIPS 50S,30-06-2023,BOT,1.0,75.0,Y,Vitamins & Nutrition///Nutrition///A to Z Vitamins,NB C&E WITH ROSEHIPS 50S.jpg
000066754,NB C-1000 MG 100S,30-06-2022,BOX,4.0,100.0,Y,Vitamins & Nutrition///Nutrition///A to Z Vitamins,NB C-1000 MG 100S.jpg
000076508,NB CALCIUM 600 PLUS VITAMIN D TAB 60'S,31-05-2023,BOT,1.0,45.0,Y,Vitamins & Nutrition///Nutrition///A to Z Vitamins,NB CALCIUM 600 PLUS VITAMIN D TAB 60'S.jpg
000074992,NB CALCIUM MAGNESIUM ZINC 100'S,30-04-2023,BOT,2.0,60.0,Y,Vitamins & Nutrition///Nutrition///A to Z Vitamins,NB CALCIUM MAGNESIUM ZINC 100'S.jpg
000077045,NB CALCIUM600+VIT-D 30S,30-12-2022,BOT,2.0,30.0,Y,Vitamins & Nutrition///Nutrition///A to Z Vitamins,NB CALCIUM600+VIT-D 30S.jpg
000079472,NB CO Q-10 50MG 50 SOFTGELS,30-04-2022,BOT,1.0,95.0,Y,Vitamins & Nutrition///Nutrition///A to Z Vitamins,NB CO Q-10 50MG 50 SOFTGELS.jpg
000081195,NB CRANBERRY TAB 60S,30-03-2022,BOX,1.0,120.0,Y,Vitamins & Nutrition///Nutrition///A to Z Vitamins,NB CRANBERRY TAB 60S.jpg
000060232,NB D3-1000 100TABS,30-09-2022,BOX,2.0,66.0,Y,Vitamins & Nutrition///Nutrition///A to Z Vitamins,NB D3-1000 100TABS.jpg
000060239,NB E-1000 SOFTGEL 50'S,30-07-2022,BOT,1.0,105.0,Y,Vitamins & Nutrition///Nutrition///A to Z Vitamins,NB E-1000 SOFTGEL 50'S.jpg
000061445,NB E-400 100S,30-12-2023,BOT,2.0,90.0,Y,Vitamins & Nutrition///Nutrition///A to Z Vitamins,NB E-400 100S.jpeg
000061444,NB E-400IU SELENIUM 50 MCG,30-11-2022,BOT,2.0,48.0,Y,Vitamins & Nutrition///Nutrition///A to Z Vitamins,NB E-400IU SELENIUM 50 MCG.jpg
000078778,"NB E-OIL 30,000iu 74ML",01-03-2022,BOT,1.0,65.0,Y,Vitamins & Nutrition///Nutrition///A to Z Vitamins,"NB E-OIL 30,000iu 74ML.jpg"
000074988,NB EASY IRON 28mg CAP 90'S,30-03-2023,BOT,2.0,58.0,Y,Vitamins & Nutrition///Nutrition///A to Z Vitamins,NB EASY IRON 28mg CAP 90'S.jpg
000081194,NB EVENING PRIMROSE OIL 1000mg 60 SOFTGEL,30-10-2023,BOT,1.0,90.0,Y,Vitamins & Nutrition///Nutrition///A to Z Vitamins,NB EVENING PRIMROSE OIL 1000mg 60 SOFTGEL.jpg
000075000,NB FISH OIL + D3 90 SOFTGELS,30-10-2021,BOT,1.0,125.0,Y,Vitamins & Nutrition///Nutrition///A to Z Vitamins,NB FISH OIL + D3 90 SOFTGELS.jpg
000066759,NB FISH OIL 1000MG TAB 60,30-11-2021,BOX,2.0,63.0,Y,Vitamins & Nutrition///Nutrition///A to Z Vitamins,NB FISH OIL 1000MG TAB 60.jpg
000080220,NB FLEX-A-MIN TAB 60+20,01-01-2023,BOX,3.0,210.0,Y,Vitamins & Nutrition///Nutrition///A to Z Vitamins,NB FLEX-A-MIN TAB 60+20.jpg
000074985,NB FOLIC ACID 400MCG,31-03-2024,BOX,2.0,40.0,Y,Vitamins & Nutrition///Nutrition///A to Z Vitamins,NB FOLIC ACID 400MCG.jpg
000074991,NB GARLIC OIL 1000MG,28-02-2022,BOT,2.0,45.0,Y,Vitamins & Nutrition///Nutrition///A to Z Vitamins,NB GARLIC OIL 1000MG.jpg
000065187,NB GINGER ROOT 550 MG 100 'S,30-03-2022,BOT,1.0,115.5,Y,Vitamins & Nutrition///Nutrition///A to Z Vitamins,NB GINGER ROOT 550 MG 100 'S.jpg
000048448,NB L-CARITINE 500MG CAP 30,30-05-2021,BOX,1.0,105.0,Y,Vitamins & Nutrition///Nutrition///A to Z Vitamins,NB L-CARITINE 500MG CAP 30.jpg
000081193,NB MAGNESIUM 500MG 100s,30-08-2023,BOX,6.0,55.0,Y,Vitamins & Nutrition///Nutrition///A to Z Vitamins,NB MAGNESIUM 500MG 100s.jpeg
000074994,NB MILK THISTLE 1000MG 50 SOFTGELS,30-06-2023,BOT,1.0,75.0,Y,Vitamins & Nutrition///Nutrition///A to Z Vitamins,NB MILK THISTLE 1000MG 50 SOFTGELS.jpg
000076511,NB OMEGA-3 COD LIVER OIL 100 SOFTGELS,30-08-2021,BOT,1.0,40.0,Y,Vitamins & Nutrition///Nutrition///A to Z Vitamins,NB OMEGA-3 COD LIVER OIL 100 SOFTGELS.jpg
000071713,NB POTASSIUM 99MG 100 CAPLETS,30-10-2022,BOX,3.0,50.0,Y,Vitamins & Nutrition///Nutrition///A to Z Vitamins,NB POTASSIUM 99MG 100 CAPLETS.jpg
000071714,NB PROBIOTIC ACIDOPHILUS 3 BILLION CAP 100'S,30-08-2021,BOT,1.0,135.0,Y,Vitamins & Nutrition///Nutrition///A to Z Vitamins,NB PROBIOTIC ACIDOPHILUS 3 BILLION CAP 100'S.jpg
000074993,NB SALMON OIL 1000MG 120 SOFTGELS,30-11-2021,BOX,1.0,95.0,Y,Vitamins & Nutrition///Nutrition///A to Z Vitamins,NB SALMON OIL 1000MG 120 SOFTGELS.jpg
000060230,NB THERAVIM M TAB 30,30-12-2022,BOX,2.0,41.0,Y,Vitamins & Nutrition///Nutrition///A to Z Vitamins,NB THERAVIM M TAB 30.jpg
000063768,NEOCELL GLOW MATRIX 90 CAPS,30-06-2021,BOX,1.0,249.0,Y,Vitamins & Nutrition///Nutrition///A to Z Vitamins,NEOCELL GLOW MATRIX 90 CAPS.jpg
000065304,NEUROZAN CAPS 30,01-06-2021,PCS,1.0,104.0,Y,Vitamins & Nutrition///Nutrition///A to Z Vitamins,NEUROZAN CAPS 30.jpg
000060223,NF 5-HTP 50MG CAP 60,01-05-2022,BOT,2.0,107.0,Y,Vitamins & Nutrition///Nutrition///A to Z Vitamins,NF 5-HTP 50MG CAP 60.jpg
000057930,NF ACIDOPHILUS& BIFIDUS 90'S CAP,01-11-2021,BOX,3.0,115.0,Y,Vitamins & Nutrition///Nutrition///A to Z Vitamins,NF ACIDOPHILUS& BIFIDUS 90'S CAP.jpg
000076645,NF ACTIVE B-COMPLEX 60 VEG CAPS,31-03-2023,BOT,2.0,129.0,Y,Vitamins & Nutrition///Nutrition///A to Z Vitamins,NF ACTIVE B-COMPLEX 60 VEG CAPS.jpg
000076647,NF ALPHA-LIPOC ACID 200MG 60'S,01-02-2023,BOT,1.0,162.0,Y,Vitamins & Nutrition///Nutrition///A to Z Vitamins,NF ALPHA-LIPOC ACID 200MG 60'S.jpg
000076648,NF ALPHA-LIPOIC ACID 400MG 60'S,30-08-2023,BOT,1.0,280.0,Y,Vitamins & Nutrition///Nutrition///A to Z Vitamins,NF ALPHA-LIPOIC ACID 400MG 60'S.jpg
000076650,NF BIGFRIENDS VITA C 250MG 90'S,30-07-2023,BOT,1.0,81.0,Y,Vitamins & Nutrition///Nutrition///A to Z Vitamins,NF BIGFRIENDS VITA C 250MG 90'S.jpg
000076651,NF BIGFRIENDS VITA D3 400IU 250'S,30-10-2023,BOT,2.0,76.0,Y,Vitamins & Nutrition///Nutrition///A to Z Vitamins,NF BIGFRIENDS VITA D3 400IU 250'S.jpg
000057933,NF BIOCOENZYMATED PANTETHINE B5 450MG 60'S CAP,01-08-2022,BOX,2.0,141.0,Y,Vitamins & Nutrition///Nutrition///A to Z Vitamins,NF BIOCOENZYMATED PANTETHINE B5 450MG 60'S CAP.jpg
000043915,NF BIOTIN 5000 mcg 60 VEGE.CAPS,01-04-2022,BOT,1.0,155.0,Y,Vitamins & Nutrition///Nutrition///A to Z Vitamins,NF BIOTIN 5000 mcg 60 VEGE.CAPS.jpg
000015853,NF BLACK COHOSH 40MG 90VC,30-03-2022,BOT,1.0,78.0,Y,Vitamins & Nutrition///Nutrition///A to Z Vitamins,NF BLACK COHOSH 40MG 90VC.jpg
000072747,NF C EXTRA 500MG 90 TAB,01-04-2024,BOX,3.0,89.0,Y,Vitamins & Nutrition///Nutrition///A to Z Vitamins,NF C EXTRA 500MG 90 TAB.jpg
000076652,NF CALCIUM & MAGNESIUM 2;1 90'S,30-07-2024,BOT,1.0,84.0,Y,Vitamins & Nutrition///Nutrition///A to Z Vitamins,NF CALCIUM & MAGNESIUM 90'S.jpg
000076653,NF CHERRY CONENTRATA 500MG 90'S,30-09-2023,BOT,3.0,114.0,Y,Vitamins & Nutrition///Nutrition///A to Z Vitamins,NF CHERRY CONENTRATA 500MG 90'S.jpg
000076654,NF CHEWABLE GINGER 500MG 90'S,01-02-2023,BOT,1.0,114.0,Y,Vitamins & Nutrition///Nutrition///A to Z Vitamins,NF CHEWABLE GINGER 500MG 90'S.jpg
000064906,NF CHROMIUIM GTF 500MCG 90S,01-08-2024,BOX,1.0,204.0,Y,Vitamins & Nutrition///Nutrition///A to Z Vitamins,NF CHROMIUIM GTF 500MCG 90S.jpg
000076655,NF CHROMIUM PICOLINATE 250MCG TAB 90'S,30-03-2023,BOT,2.0,204.0,Y,Vitamins & Nutrition///Nutrition///A to Z Vitamins,NF CHROMIUM PICOLINATE 250MCG TAB 90'S.jpg
000064898,NF COENZYME Q10 100MG 60 SOFTGELS,01-07-2023,BOT,1.0,156.0,Y,Vitamins & Nutrition///Nutrition///A to Z Vitamins,NF COENZYME Q10 100MG 60 SOFTGELS.jpg
000030426,NF COENZYME Q10 200MG 60 SOFTGELS,30-10-2022,BOT,1.0,222.0,Y,Vitamins & Nutrition///Nutrition///A to Z Vitamins,NF COENZYME Q10 200MG 60 SOFTGELS.jpg
000046199,NF COENZYME Q10 400MG 60 SOFTGELS,01-03-2022,BOT,1.0,420.0,Y,Vitamins & Nutrition///Nutrition///A to Z Vitamins,NF COENZYME Q10 400MG 60 SOFTGELS.jpg
000076664,NF CRITICAL CARE PROBIOTIC 30S,30-08-2022,BOX,1.0,264.0,Y,Vitamins & Nutrition///Nutrition///A to Z Vitamins,NF CRITICAL CARE PROBIOTIC 30S.jpg
000076666,NF DANDELION ROOT 90'S,30-03-2024,BOT,1.0,108.0,Y,Vitamins & Nutrition///Nutrition///A to Z Vitamins,NF DANDELION ROOT 90'S.jpg
000048298,NF DGL 400MG 90 CHEWABLE TAB,01-10-2022,BOT,1.0,89.0,Y,Vitamins & Nutrition///Nutrition///A to Z Vitamins,NF DGL 400MG 90 CHEWABLE TAB.jpg
000076665,NF DIURETIC FORMULA 90'S,30-11-2023,BOT,1.0,168.0,Y,Vitamins & Nutrition///Nutrition///A to Z Vitamins,NF DIURETIC FORMULA 90'S.jpg
000076667,NF FENUGREEK SEED 500G CAP 90'S,30-09-2023,BOT,1.0,210.0,Y,Vitamins & Nutrition///Nutrition///A to Z Vitamins,NF FENUGREEK SEED 500G CAP 90'S.jpg
000076668,NF FOLIC ACID 1MG 90TABS,30-07-2024,BOT,6.0,50.0,Y,Vitamins & Nutrition///Nutrition///A to Z Vitamins,NF FOLIC ACID 1MG 90TABS.jpg
000063541,NF GINKGO BILOBA 60MG CAP 120'S,01-08-2022,BOT,1.0,113.0,Y,Vitamins & Nutrition///Nutrition///A to Z Vitamins,NF GINKGO BILOBA 60MG CAP 120'S.jpg
000030434,NF GREEN TEA 50MG CAP 60'S,30-03-2022,BOT,1.0,144.0,Y,Vitamins & Nutrition///Nutrition///A to Z Vitamins,NF GREEN TEA 50MG CAP 60'S.jpg
000064895,NF HI POTENCY BCOMPLEX 60'S CAP,01-11-2022,BOX,1.0,65.0,Y,Vitamins & Nutrition///Nutrition///A to Z Vitamins,NF HI POTENCY BCOMPLEX 60'S CAP.jpg
000064907,NF KAVA KAVA 400MG 60'S CAP,01-11-2021,BOX,2.0,209.0,Y,Vitamins & Nutrition///Nutrition///A to Z Vitamins,NF KAVA KAVA 400MG 60'S CAP.jpg
000048300,NF L-ARGININE 500MG VEG.CAPS 90,01-02-2022,BOT,3.0,107.0,Y,Vitamins & Nutrition///Nutrition///A to Z Vitamins,NF L-ARGININE 500MG VEG.CAPS 90.jpg
000041607,NF L-CARNITINE 500MG 60'S CAP,01-01-2022,BOX,1.0,288.0,Y,Vitamins & Nutrition///Nutrition///A to Z Vitamins,NF L-CARNITINE 500MG 60'S CAP.jpg
000064908,NF LACTASE ENZYME 60'S CAP,01-08-2022,BOX,2.0,108.0,Y,Vitamins & Nutrition///Nutrition///A to Z Vitamins,NF LACTASE ENZYME 60'S CAP.jpg
000041621,NF LUTEIN 40MG 60 SOFTGELS,30-03-2022,BOT,1.0,120.0,Y,Vitamins & Nutrition///Nutrition///A to Z Vitamins,NF LUTEIN 40MG 60 SOFTGELS.jpg
000076670,NF LYCOPENE 10MG 60'S,30-08-2023,BOT,2.0,192.0,Y,Vitamins & Nutrition///Nutrition///A to Z Vitamins,NF LYCOPENE 10MG 60'S.jpg
000076675,NF MAGNESIUM CITRATE 300MG 250G,30-08-2024,BOT,3.0,160.0,Y,Vitamins & Nutrition///Nutrition///A to Z Vitamins,NF MAGNESIUM CITRATE 300MG 250G.jpg
000076661,NF MEGAZYMES 90'S,30-07-2023,BOT,1.0,82.0,Y,Vitamins & Nutrition///Nutrition///A to Z Vitamins,NF MEGAZYMES 90'S.jpg
000076676,NF MILK THISTLE 250MG 90S,30-03-2024,BOX,2.0,114.0,Y,Vitamins & Nutrition///Nutrition///A to Z Vitamins,NF MILK THISTLE 250MG 90S.jpg
000048301,NF MULTIFACTORS WOMEN 90'S,01-10-2021,BOX,1.0,210.0,Y,Vitamins & Nutrition///Nutrition///A to Z Vitamins,NF MULTIFACTORS WOMEN 90'S.jpg
000076677,NF N-ACETYL-L-CYSTEINE 500MG 90'S,30-06-2025,BOT,1.0,102.0,Y,Vitamins & Nutrition///Nutrition///A to Z Vitamins,NF N-ACETYL-L-CYSTEINE 500MG 90'S.jpg
000043916,NF OSTEOMOVE JOINT CARE W/ PAIN REDUCING 120TABS,01-03-2022,BOT,1.0,300.0,Y,Vitamins & Nutrition///Nutrition///A to Z Vitamins,NF OSTEOMOVE JOINT CARE W PAIN REDUCING 120TABS.jpg
000064909,NF PANTOTHENIC ACID 250MG 90'S CAP,01-02-2023,BOX,1.0,75.0,Y,Vitamins & Nutrition///Nutrition///A to Z Vitamins,NF PANTOTHENIC ACID 250MG 90'S CAP.jpg
000064910,NF POTASSIUM CITRATE 90S,01-05-2024,BOX,1.0,72.0,Y,Vitamins & Nutrition///Nutrition///A to Z Vitamins,NF POTASSIUM CITRATE 90S.jpg
000041622,NF POTASSIUM CITRATE 99MG TAB 180'S,30-01-2024,BOT,1.0,126.0,Y,Vitamins & Nutrition///Nutrition///A to Z Vitamins,NF POTASSIUM CITRATE 99MG TAB 180'S.jpg
000076680,NF PS-IQ MEMORY 60'S,30-07-2023,BOT,2.0,96.0,Y,Vitamins & Nutrition///Nutrition///A to Z Vitamins,NF PS-IQ MEMARY 60'S.jpg
000076649,NF PYRIDOXAL 5 PHOSPHATE 50MG VEGCAP 30S,30-03-2023,BOT,2.0,54.0,Y,Vitamins & Nutrition///Nutrition///A to Z Vitamins,NF PYRIDOXAL 5 PHOSPHATE 50MG VEGCAP 30S.jpg
000064900,NF RHODIOLA 150MG 60'S CAP,01-08-2022,BOX,1.0,60.0,Y,Vitamins & Nutrition///Nutrition///A to Z Vitamins,NF RHODIOLA 150MG 60'S CAP.jpg
000076681,NF SAW PALMETTO  90'S SOFTGELS,30-03-2023,BOX,1.0,162.0,Y,Vitamins & Nutrition///Nutrition///A to Z Vitamins,NF SAW PALMETTO  90'S SOFTGELS.jpg
000057937,NF SORE THROAT RELIEF 60'S LOZE,01-04-2022,BOX,2.0,71.0,Y,Vitamins & Nutrition///Nutrition///A to Z Vitamins,NF SORE THROAT RELIEF 60'S LOZE.jpg
000076682,NF ST.JOHN S WORT 300MG 90'S,30-07-2024,BOT,1.0,150.0,Y,Vitamins & Nutrition///Nutrition///A to Z Vitamins,NF ST.JOHN S WORT 300MG 90'S.jpg
000076683,NF STRESS B 90S,01-02-2023,BOX,2.0,95.0,Y,Vitamins & Nutrition///Nutrition///A to Z Vitamins,NF STRESS B 90S.jpg
000076685,NF TRANQUIL SLEEP TROPICAL FRUIT 60'S,30-06-2023,BOT,7.0,180.0,Y,Vitamins & Nutrition///Nutrition///A to Z Vitamins,NF TRANQUIL SLEEP TROPICAL FRUIT 60'S.jpg
000076699,NF ULTRA PRIM 100MG 90'S,30-03-2023,BOT,2.0,150.0,Y,Vitamins & Nutrition///Nutrition///A to Z Vitamins,NF ULTRA PRIM 100MG 90'S.jpg
000076689,NF VITAMIN B1 100MG TAB 90'S,30-09-2023,BOT,2.0,65.0,Y,Vitamins & Nutrition///Nutrition///A to Z Vitamins,NF VITAMIN B1 100MG TAB 90'S.jpg
000076690,NF VITAMIN B6 100MG 90S,30-09-2023,BOX,1.0,119.0,Y,Vitamins & Nutrition///Nutrition///A to Z Vitamins,NF VITAMIN B6 100MG 90S.jpg
000076691,NF VITAMIN E 400IU 90 SOFTGELS,30-11-2023,BOT,4.0,144.0,Y,Vitamins & Nutrition///Nutrition///A to Z Vitamins,NF VITAMIN E 400IU 90 SOFTGELS.jpg
000076692,NF VITAMIN K2 100MC 60S,30-06-2023,BOX,2.0,161.0,Y,Vitamins & Nutrition///Nutrition///A to Z Vitamins,NF VITAMIN K2 100MC 60S.jpg
000076687,NF VITAMINE B2 100MG 90'S,30-08-2023,BOT,1.0,77.0,Y,Vitamins & Nutrition///Nutrition///A to Z Vitamins,NF VITAMINE B2 100MG 90'S.jpg
000076693,NF ZINC 25MG TAB 90,30-07-2025,BOT,2.0,72.0,Y,Vitamins & Nutrition///Nutrition///A to Z Vitamins,NF ZINC 25MG TAB 90.jpg
000056495,NOOR VITAMINS ENERGY +60'S,01-07-2021,BOX,3.0,230.0,Y,Vitamins & Nutrition///Nutrition///A to Z Vitamins,NOOR VITAMINS ENERGY +60'S.jpg
000066021,NOOR VITAMINS HAIR+ 90 CAP,01-07-2021,BOX,1.0,350.0,Y,Vitamins & Nutrition///Nutrition///A to Z Vitamins,NOOR VITAMINS HAIR+ 90 CAP.jpg
000056499,NOOR VITAMINS JOINT+90 TAB,01-07-2021,BOX,1.0,260.0,Y,Vitamins & Nutrition///Nutrition///A to Z Vitamins,NOOR VITAMINS JOINT+90 TAB.jpg
000056497,NOOR VITAMINS MULTI-VIT 60'S TAB,01-07-2021,BOX,4.0,150.0,Y,Vitamins & Nutrition///Nutrition///A to Z Vitamins,NOOR VITAMINS MULTI-VIT 60'S TAB.jpg
000056500,NOOR VITAMINS ULTRA-OMEGA 120SOFTGELS,01-08-2021,BOX,1.0,165.0,Y,Vitamins & Nutrition///Nutrition///A to Z Vitamins,NOOR VITAMINS ULTRA-OMEGA 120SOFTGELS.jpg
000080253,NOURKRIN MAN 60 TABLETS,01-11-2022,BOX,1.0,299.0,Y,Vitamins & Nutrition///Nutrition///A to Z Vitamins,NOURKRIN MAN 60 TABLETS.jpg
000074923,NOW  BIOTIN 10MG 10000 MCG 120'S,30-11-2021,BOX,1.0,209.0,Y,Vitamins & Nutrition///Nutrition///A to Z Vitamins,NOW  BIOTIN 10MG 10000 MCG 120'S.jpg
000069019,NOW B -50 (100)'S,01-08-2022,BOT,1.0,105.0,Y,Vitamins & Nutrition///Nutrition///A to Z Vitamins,NOW B -50 (100)'S.jpg
000070879,NOW B-12 1000MCG LOZ 100S,30-10-2022,BOT,1.0,75.0,Y,Vitamins & Nutrition///Nutrition///A to Z Vitamins,NOW B-12 1000MCG LOZ 100S.jpg
000069021,NOW BIOTIN 5000MCG CAP 60'S,01-04-2023,BOT,1.0,129.0,Y,Vitamins & Nutrition///Nutrition///A to Z Vitamins,NOW BIOTIN 5000MCG CAP 60'S.jpg
000079169,NOW BREWERS YEAST 10 GRAINS 200'S,30-05-2023,BOX,1.0,64.0,Y,Vitamins & Nutrition///Nutrition///A to Z Vitamins,NOW BREWERS YEAST 10 GRAINS 200'S.jpg
000074926,NOW CLA EXTREME 90 SOFTGELS,02-03-2021,BOT,1.0,199.0,Y,Vitamins & Nutrition///Nutrition///A to Z Vitamins,NOW CLA EXTREME 90 SOFTGELS.jpg
000074927,NOW COD LIVER OIL 90 SOFTGELS,30-10-2021,BOT,1.0,92.0,Y,Vitamins & Nutrition///Nutrition///A to Z Vitamins,NOW COD LIVER OIL 90 SOFTGELS.jpg
000074664,NOW CURCUMIN 60 CAPS,01-01-2023,BOT,1.0,159.0,Y,Vitamins & Nutrition///Nutrition///A to Z Vitamins,NOW CURCUMIN 60 CAPS.jpg
000078280,NOW E-400 SOFTGEL 50S,01-08-2023,BOT,1.0,69.0,Y,Vitamins & Nutrition///Nutrition///A to Z Vitamins,NOW E-400 SOFTGEL 50S.jpg
000076549,NOW FENUGREEK 500MG 100S,01-01-2023,BOT,2.0,59.0,Y,Vitamins & Nutrition///Nutrition///A to Z Vitamins,NOW FENUGREEK 500MG 100S.jpg
000059754,NOW FOLIC ACID WITH VIT. B-12 TAB 250'S,01-03-2022,BOT,1.0,69.0,Y,Vitamins & Nutrition///Nutrition///A to Z Vitamins,NOW FOLIC ACID WITH VIT. B-12 TAB 250'S.jpg
000066959,NOW GINKGO BILOBA 60mg 60'S,01-11-2022,BOT,1.0,105.0,Y,Vitamins & Nutrition///Nutrition///A to Z Vitamins,NOW GINKGO BILOBA 60mg 60'S.jpg
000074924,NOW L-CARNITINE LIQUID 3000MG  CITRUS 473ML,30-01-2022,BOT,1.0,255.0,Y,Vitamins & Nutrition///Nutrition///A to Z Vitamins,NOW L-CARNITINE LIQUID 3000MG  CITRUS 473ML.jpg
000069018,NOW LIQUID VITAMIN D 3  59ML,09-01-2022,BOT,1.0,94.0,Y,Vitamins & Nutrition///Nutrition///A to Z Vitamins,NOW LIQUID VITAMIN D 3  59ML.jpg
000074929,NOW MCT OIL 1000MG 150'S,30-10-2022,BOX,1.0,119.0,Y,Vitamins & Nutrition///Nutrition///A to Z Vitamins,NOW MCT OIL 1000MG 150'S.jpg
000070878,NOW ODORLESS GARLIC 100S,30-07-2022,BOX,1.0,75.0,Y,Vitamins & Nutrition///Nutrition///A to Z Vitamins,NOW ODORLESS GARLIC 100S.jpg
000074671,NOW SAMBUCUS ZINC-C 60'S LOZEN,01-07-2022,BOX,1.0,79.0,Y,Vitamins & Nutrition///Nutrition///A to Z Vitamins,NOW SAMBUCUS ZINC-C 60'S LOZEN.jpg
000077817,NOW SELENIUM 200MCG 90'S,01-05-2023,BOX,1.0,69.0,Y,Vitamins & Nutrition///Nutrition///A to Z Vitamins,NOW SELENIUM 200MCG 90'S.jpg
000072560,NOW SPIRULINA 500MG TAB 200'S,01-12-2021,BOT,1.0,119.0,Y,Vitamins & Nutrition///Nutrition///A to Z Vitamins,NOW SPIRULINA 500MG TAB 200'S.jpg
000078301,NOW TRI-3D OMEGA 90S,01-11-2022,BOX,1.0,159.0,Y,Vitamins & Nutrition///Nutrition///A to Z Vitamins,NOW TRI-3D OMEGA 90S.jpg
000017993,NOW VITAMIN D-3 1000 IU SOFTGEL 180'S,01-04-2023,BOT,1.0,95.0,Y,Vitamins & Nutrition///Nutrition///A to Z Vitamins,NOW VITAMIN D-3 1000 IU SOFTGEL 180'S.jpg
000078285,NOW VITAMIN-D3 2000IU 120 SOFTGELS,01-06-2024,BOT,1.0,139.0,Y,Vitamins & Nutrition///Nutrition///A to Z Vitamins,NOW VITAMIN-D3 2000IU 120 SOFTGELS.jpg
000076206,NUTRITIONL CRANBERRY 60'S,30-08-2022,BOT,1.0,65.0,Y,Vitamins & Nutrition///Nutrition///A to Z Vitamins,NUTRITIONL CRANBERRY 60'S.jpg
000077021,NZHEALTH NATURALLY UMF MANUKA HONEY MGO 263+ 250G,30-03-2023,BOT,1.0,185.0,Y,Vitamins & Nutrition///Nutrition///A to Z Vitamins,NZHEALTH NATURALLY UMF MANUKA HONEY MGO 263+ 250G.jpg
000081700,O.R.S HYDRATION TABLETS BLACKCURRANT 24'S,30-11-2023,BOX,7.0,28.0,Y,Vitamins & Nutrition///Nutrition///A to Z Vitamins,O.R.S HYDRATION TABLETS BLACKCURRANT 24'S.jpg
000081701,O.R.S HYDRATION TABLETS LEMON 24'S,31-10-2022,BOX,7.0,28.0,Y,Vitamins & Nutrition///Nutrition///A to Z Vitamins,O.R.S HYDRATION TABLETS LEMON 24'S.jpg
000071824,ORAMIN-F CAP 30,02-07-2022,BOX,1.0,85.0,Y,Vitamins & Nutrition///Nutrition///A to Z Vitamins,ORAMIN-F CAP 30.jpg
000072951,ORGANIC TRADITIONS PROBIOTIQUES 200G MEN,02-03-2022,BOX,1.0,59.0,Y,Vitamins & Nutrition///Nutrition///A to Z Vitamins,ORGANIC TRADITIONS PROBIOTIQUES 200G MEN.jpg
000072952,ORGANIC TRADITIONS WOMEN PROBIOTIQUES 200G,02-03-2022,BOX,1.0,59.0,Y,Vitamins & Nutrition///Nutrition///A to Z Vitamins,ORGANIC TRADITIONS WOMEN PROBIOTIQUES 200G.jpg
000076811,ORTHOMOL AMD EXTRA 120CAPS,26-05-2023,BOX,1.0,235.0,Y,Vitamins & Nutrition///Nutrition///A to Z Vitamins,ORTHOMOL AMD EXTRA 120CAPS.jpeg
000071492,OVAFERT TAB 60'S,01-01-2023,BOT,1.0,320.0,Y,Vitamins & Nutrition///Nutrition///A to Z Vitamins,OVAFERT TAB 60'S.jpg
000076970,PARADOX OMEGA 1000MG CAPS 30,30-05-2023,BOX,1.0,67.0,Y,Vitamins & Nutrition///Nutrition///A to Z Vitamins,PARADOX OMEGA 1000MG CAPS 30.jpg
000076973,PARADOX OMEGA SPORT 30CAPS,30-06-2023,BOX,1.0,67.0,Y,Vitamins & Nutrition///Nutrition///A to Z Vitamins,PARADOX OMEGA SPORT 30CAPS.jpg
000078730,PEDIAVIT FORTIFIED 50ML,01-07-2022,BOX,1.0,40.0,Y,Vitamins & Nutrition///Nutrition///A to Z Vitamins,PEDIAVIT FORTIFIED 50ML.jpg
000064557,PHL 5-HTP CAP 60'S,31-07-2022,BOT,1.0,205.0,Y,Vitamins & Nutrition///Nutrition///A to Z Vitamins,PHL 5-HTP CAP 60'S.jpg
000053569,PHL VITAMIN E-1000 60 SOFTGELS,28-02-2022,BOT,1.0,190.0,Y,Vitamins & Nutrition///Nutrition///A to Z Vitamins,PHL VITAMIN E-1000 60 SOFTGELS.jpg
000078338,PHYSIOSENS CHROME COMPLEXE 90 GEL,01-09-2022,BOT,3.0,200.0,Y,Vitamins & Nutrition///Nutrition///A to Z Vitamins,PHYSIOSENS CHROME COMPLEXE 90 GEL.jpg
000077430,PHYSIOSENS EXTRAFLOR'IN 90 GELS,01-06-2022,BOT,3.0,150.0,Y,Vitamins & Nutrition///Nutrition///A to Z Vitamins,PHYSIOSENS EXTRAFLOR'IN 90 GELS.jpg
000076879,PHYSIOSENS MAGNESIUM COMPLEXE 90 GEL,01-11-2021,BOT,1.0,200.0,Y,Vitamins & Nutrition///Nutrition///A to Z Vitamins,PHYSIOSENS MAGNESIUM COMPLEXE 90 GEL.jpg
000078334,PHYSIOSENS MAGNESTARTER SACHETS 30'S,01-07-2022,BOX,6.0,220.0,Y,Vitamins & Nutrition///Nutrition///A to Z Vitamins,PHYSIOSENS MAGNESTARTER SACHETS 30'S.jpg
000078335,PHYSIOSENS PH BALANC'IN 30 SACHETS,01-07-2023,BOX,3.0,231.0,Y,Vitamins & Nutrition///Nutrition///A to Z Vitamins,PHYSIOSENS PH BALANC'IN 30 SACHETS.jpg
000081112,PHYSIOSENS PHYCOSENS 10 VIALS,01-03-2023,BOX,9.0,250.0,Y,Vitamins & Nutrition///Nutrition///A to Z Vitamins,PHYSIOSENS PHYCOSENS 10 VIALS.jpg
000077428,PHYSIOSENS PUR'OMEGA 3 CAP 60'S,01-08-2021,BOT,1.0,220.0,Y,Vitamins & Nutrition///Nutrition///A to Z Vitamins,PHYSIOSENS PUR'OMEGA 3 CAP 60'S.jpg
000079785,PHYSIOSENS SILICIUM ORGANIQUE 1LITRE,01-11-2022,BOT,6.0,220.0,Y,Vitamins & Nutrition///Nutrition///A to Z Vitamins,PHYSIOSENS SILICIUM ORGANIQUE 1LITRE.jpg
000078339,PHYSIOSENS VITAMINE D3-K2 LIPOSOME 150ML,01-11-2021,BOT,3.0,262.5,Y,Vitamins & Nutrition///Nutrition///A to Z Vitamins,PHYSIOSENS VITAMINE D3-K2 LIPOSOME 150ML.jpg
000069320,PP BONE CARE CAP 120'S,01-10-2021,BOT,3.0,103.95,Y,Vitamins & Nutrition///Nutrition///A to Z Vitamins,PP BONE CARE CAP 120'S.jpg
000077670,PP C-500MG W/ BIOFLAVONOIDS & WILD ROSE HIPS CAP 100,01-06-2023,BOT,6.0,60.0,Y,Vitamins & Nutrition///Nutrition///A to Z Vitamins,PP C-500MG W BIOFLAVONOIDS & WILD ROSE HIPS CAP 100.jpg
000077662,PP CALCIUM 600+VIT D3 60TAB,01-06-2022,BOX,6.0,53.0,Y,Vitamins & Nutrition///Nutrition///A to Z Vitamins,PP CALCIUM 600+VIT D3 60TAB.jpg
000079473,"PP CALCIUM, MAG&ZINC 100S",29-06-2023,BOX,2.0,58.0,Y,Vitamins & Nutrition///Nutrition///A to Z Vitamins,"PP CALCIUM, MAG&ZINC 100S.jpg"
000079480,PP CHROMIUM PICLONATE 200mcg,28-02-2023,BOX,2.0,70.0,Y,Vitamins & Nutrition///Nutrition///A to Z Vitamins,PP CHROMIUM PICLONATE 200mcg.jpg
000062440,PP CO Q-10 100MG 30 SOFTGELS,10-01-2023,BOT,2.0,120.75,Y,Vitamins & Nutrition///Nutrition///A to Z Vitamins,PP CO Q-10 100MG 30 SOFTGELS.jpg
000069322,PP COD LIVER OIL 100'S,01-01-2022,BOT,1.0,42.0,Y,Vitamins & Nutrition///Nutrition///A to Z Vitamins,PP COD LIVER OIL 100'S.jpg
000059173,PP COMPLETE B COMPLEX TAB 100,01-09-2022,BOT,6.0,75.0,Y,Vitamins & Nutrition///Nutrition///A to Z Vitamins,PP COMPLETE B COMPLEX TAB 100.jpg
000059176,PP FOLIC ACID 400 mcg TAB 250,01-01-2024,BOT,1.0,42.0,Y,Vitamins & Nutrition///Nutrition///A to Z Vitamins,PP FOLIC ACID 400 mcg TAB 250.jpg
000077666,PP L-CARNITINE 500MG 60 CAPLETS,01-03-2023,BOT,3.0,150.0,Y,Vitamins & Nutrition///Nutrition///A to Z Vitamins,PP L-CARNITINE 500MG 60 CAPLETS.jpg
000073398,PP MAGNESIUM OXIDE 500MG 100'S,01-03-2023,BOT,5.0,55.0,Y,Vitamins & Nutrition///Nutrition///A to Z Vitamins,PP MAGNESIUM OXIDE 500MG 100'S.jpg
000075507,PP OMEGA-3 FISH OIL 1360MG 60'S,30-05-2022,BOT,6.0,178.5,Y,Vitamins & Nutrition///Nutrition///A to Z Vitamins,PP OMEGA-3 FISH OIL 1360MG 60'S.jpg
000059179,PP STRESS B COMPLEX,01-08-2021,BOT,1.0,55.0,Y,Vitamins & Nutrition///Nutrition///A to Z Vitamins,PP STRESS B COMPLEX.jpg
000069319,PP SUPER BIOTIN 5000MCG SOFTGEL 60S,01-12-2022,BOT,2.0,95.0,Y,Vitamins & Nutrition///Nutrition///A to Z Vitamins,PP SUPER BIOTIN 5000MCG SOFTGEL 60S.jpg
000065911,PP VITAMIN B-1 100 MG 100 'S,01-09-2021,BOT,2.0,55.0,Y,Vitamins & Nutrition///Nutrition///A to Z Vitamins,PP VITAMIN B-1 100 MG 100 'S.jpg
000059180,PP VITAMIN D 1000 IU 100,01-01-2023,BOT,1.0,73.5,Y,Vitamins & Nutrition///Nutrition///A to Z Vitamins,PP VITAMIN D 1000 IU 100.jpg
000062442,PP VITAMIN E-400IU 100'Softgels,10-01-2024,BOT,3.0,95.0,Y,Vitamins & Nutrition///Nutrition///A to Z Vitamins,PP VITAMIN E-400IU 100'Softgels.jpg
000065909,PP VITAMINS FOR HAIR  60TAB,01-07-2022,BOT,2.0,70.0,Y,Vitamins & Nutrition///Nutrition///A to Z Vitamins,PP VITAMINS FOR HAIR  60TAB.jpg
000078129,PREGNACARE BREAST FEEDING 84S,30-12-2022,BOX,1.0,115.0,Y,Vitamins & Nutrition///Nutrition///A to Z Vitamins,PREGNACARE BREAST FEEDING 84S.jpg
000077768,PREGNACARE PLUS OMEGA-3 DUAL PACK,01-03-2023,BOX,1.0,109.0,Y,Vitamins & Nutrition///Nutrition///A to Z Vitamins,PREGNACARE PLUS OMEGA-3 DUAL PACK.jpg
000072243,PRESCRIPTIVE CoQ FORTE CAP 30'S,30-08-2023,BOX,1.0,120.0,Y,Vitamins & Nutrition///Nutrition///A to Z Vitamins,PRESCRIPTIVE CoQ FORTE CAP 30'S.jpg
000081275,PRESCRIPTIVES EVIT 400 CAP 30,06-07-2023,BOX,6.0,30.0,Y,Vitamins & Nutrition///Nutrition///A to Z Vitamins,PRESCRIPTIVES EVIT 400 CAP 30.jpg
000059491,Prescriptives N'rgy+ 30 softgels,30-06-2022,BOX,2.0,45.0,Y,Vitamins & Nutrition///Nutrition///A to Z Vitamins,Prescriptives N'rgy+ 30 softgels.jpg
000080415,Priorin N 90 capsules ,01-05-2022,BOX,1.0,299.0,Y,Vitamins & Nutrition///Nutrition///A to Z Vitamins,Priorin N 90 capsules.jpg
000069323,PURITAN'S PRIDE HIGH POTENCY DIABETIC SUPPORT FORMULA 60'S,01-03-2023,BOT,2.0,156.45,Y,Vitamins & Nutrition///Nutrition///A to Z Vitamins,PURITAN'S PRIDE HIGH POTENCY DIABETIC SUPPORT FORMULA 60'S.jpg
000059174,PURITAN'S PRIDE VITAMIN E-1000 IU 50'S,01-07-2023,BOT,2.0,105.0,Y,Vitamins & Nutrition///Nutrition///A to Z Vitamins,PURITAN'S PRIDE VITAMIN E-1000 IU 50'S.jpg
000042896,QUEST ONCE A DAY OSTEO TAB 30,30-06-2021,BOX,3.0,40.95,Y,Vitamins & Nutrition///Nutrition///A to Z Vitamins,QUEST ONCE A DAY OSTEO TAB 30.jpg
000080522,RAUSCH SWISS HERBAL VITALITY CAPSULES 30'S,01-12-2023,BOX,1.0,266.0,Y,Vitamins & Nutrition///Nutrition///A to Z Vitamins,RAUSCH SWISS HERBAL VITALITY CAPSULES 30'S.jpeg
000073621,REVITAL CAP  30,01-08-2022,BOT,1.0,47.0,Y,Vitamins & Nutrition///Nutrition///A to Z Vitamins,REVITAL CAP  30.jpg
000076329,S N VITAMIN C 1500MG 100'S,30-10-2023,BOT,1.0,194.0,Y,Vitamins & Nutrition///Nutrition///A to Z Vitamins,S N VITAMIN C 1500MG 100'S.jpg
000078946,SAMBUCOL LIQ KIDS+VITAMIN C 1-12Y 120ML,30-04-2023,BOX,2.0,80.0,Y,Vitamins & Nutrition///Nutrition///A to Z Vitamins,SAMBUCOL LIQ KIDS+VITAMIN C 1-12Y 120ML.jpg
000081197,SANO VIT MULTI VIT EFF,30-11-2023,BOX,5.0,20.0,Y,Vitamins & Nutrition///Nutrition///A to Z Vitamins,SANO VIT MULTI VIT EFF.jpg
000074997,SANOVIT VITAMIN C-1000MG,30-07-2023,BOX,3.0,30.0,Y,Vitamins & Nutrition///Nutrition///A to Z Vitamins,SANOVIT VITAMIN C-1000MG.jpg
000057610,SEACOD KIDS ACTIV OMEGA 60 BURSLETS,01-09-2021,BOX,3.0,45.0,Y,Vitamins & Nutrition///Nutrition///A to Z Vitamins,SEACOD KIDS ACTIV OMEGA 60 BURSLETS.jpg
000064244,SIRUS VITAMIN D GAMMIES 60 'S,30-05-2022,BOX,10.0,72.0,Y,Vitamins & Nutrition///Nutrition///A to Z Vitamins,SIRUS VITAMIN D GAMMIES 60 'S.jpg
000064801,SOLGAR 5-HTP 100MG 90 VEG.CAPS,30-05-2022,BOT,1.0,245.0,Y,Vitamins & Nutrition///Nutrition///A to Z Vitamins,SOLGAR 5-HTP 100MG 90 VEG.CAPS.jpg
000061948,SOLGAR BIOTIN 10000 MCG 60S,01-11-2021,BOT,1.0,150.0,Y,Vitamins & Nutrition///Nutrition///A to Z Vitamins,SOLGAR BIOTIN 10000 MCG 60S.jpg
000071805,SOLGAR CALCIUM CITRATE VIT D 3 60'S,30-01-2022,BOX,1.0,58.0,Y,Vitamins & Nutrition///Nutrition///A to Z Vitamins,SOLGAR CALCIUM CITRATE VIT D 3 60'S.jpg
000074343,SOLGAR CHELATED IRON  100'S,01-11-2022,BOX,1.0,79.0,Y,Vitamins & Nutrition///Nutrition///A to Z Vitamins,SOLGAR CHELATED IRON  100'S.jpg
000066278,SOLGAR CHELATED MAGNESIUM TAB 100,30-08-2022,BOT,1.0,117.0,Y,Vitamins & Nutrition///Nutrition///A to Z Vitamins,SOLGAR CHELATED MAGNESIUM TAB 100.jpg
000077700,SOLGAR CHOMIUM PICOLINATE 500MCG 60'S CAP,01-03-2022,BOX,1.0,94.5,Y,Vitamins & Nutrition///Nutrition///A to Z Vitamins,SOLGAR CHOMIUM PICOLINATE 500MCG 60'S CAP.jpg
000077249,SOLGAR CHROMIUM PICOLINATE 200MCG 90 CAP,30-07-2022,BOT,1.0,92.0,Y,Vitamins & Nutrition///Nutrition///A to Z Vitamins,SOLGAR CHROMIUM PICOLINATE 200MCG 90 VEGE.jpg
000078748,SOLGAR CINNAMON 100 VEG.CAPS ,01-03-2022,BOT,1.0,95.0,Y,Vitamins & Nutrition///Nutrition///A to Z Vitamins,SOLGAR CINNAMON 100 VEG.CAPS.jpg
000066970,SOLGAR COD LIVER OIL VITAMIN A&D 100 SOFTGELS,30-11-2021,BOT,1.0,59.0,Y,Vitamins & Nutrition///Nutrition///A to Z Vitamins,SOLGAR COD LIVER OIL VITAMIN A&D 100 SOFTGELS.jpg
000072948,SOLGAR COMFORT ZONE DIGESTIVE 90'S,30-06-2022,BOX,1.0,160.0,Y,Vitamins & Nutrition///Nutrition///A to Z Vitamins,SOLGAR COMFORT ZONE DIGESTIVE 90'S.jpg
000078744,SOLGAR ECHINACEA 60S,05-05-2022,BOT,1.0,120.0,Y,Vitamins & Nutrition///Nutrition///A to Z Vitamins,SOLGAR ECHINACEA 60S.jpg
000062320,SOLGAR EVENING PRIMROSE OIL 1300MG 60 SOFTGELS ,01-04-2023,BOT,1.0,135.0,Y,Vitamins & Nutrition///Nutrition///A to Z Vitamins,SOLGAR EVENING PRIMROSE OIL 1300MG 60 SOFTGELS.jpg
000074353,SOLGAR FOLATE 133MCG DFE METAFOLIN 50'S,01-01-2023,BOX,1.0,76.0,Y,Vitamins & Nutrition///Nutrition///A to Z Vitamins,SOLGAR FOLATE 133MCG DFE METAFOLIN 50'S.jpg
000075402,SOLGAR FOLATE 666MCG DFE  TAB 100'S,01-12-2022,BOT,1.0,58.0,Y,Vitamins & Nutrition///Nutrition///A to Z Vitamins,SOLGAR FOLATE 666MCG DFE  TAB 100'S.jpg
000050446,SOLGAR GARLIC OIL PERLES 100 SOFTGELS,30-12-2021,BOT,1.0,50.0,Y,Vitamins & Nutrition///Nutrition///A to Z Vitamins,SOLGAR GARLIC OIL PERLES 100 SOFTGELS.jpg
000064798,SOLGAR GENTLE IRON 25MG VEGE.CAPSULES 90'S,01-10-2022,BOT,1.0,90.0,Y,Vitamins & Nutrition///Nutrition///A to Z Vitamins,SOLGAR GENTLE IRON 25MG VEGE.CAPSULES.jpg
000071811,SOLGAR HEMATINIC FORMULA 100S,30-06-2022,BOX,1.0,98.0,Y,Vitamins & Nutrition///Nutrition///A to Z Vitamins,SOLGAR HEMATINIC FORMULA 100S.jpg
000065705,SOLGAR L-ARGININE 1000MG TAB 90S,01-08-2023,BOT,1.0,175.0,Y,Vitamins & Nutrition///Nutrition///A to Z Vitamins,SOLGAR L-ARGININE 1000MG TAB 90S.jpg
000074332,SOLGAR L-GLUTATHION 250MG CAP60,01-03-2022,BOT,1.0,309.5,Y,Vitamins & Nutrition///Nutrition///A to Z Vitamins,SOLGAR L-GLUTATHION 250MG CAP60.jpg
000074333,SOLGAR MAGNESIUM WITH B6 100TAB,01-09-2022,BOT,1.0,65.0,Y,Vitamins & Nutrition///Nutrition///A to Z Vitamins,SOLGAR MAGNESIUM WITH B6 100TAB.jpg
000066974,SOLGAR METHYCOBALAMIN (VITAMIN B12) 5000MCG 30 NUGGETS,30-04-2022,BOT,1.0,108.0,Y,Vitamins & Nutrition///Nutrition///A to Z Vitamins,SOLGAR METHYCOBALAMIN (VITAMIN B12) 5000MCG 30 NUGGETS.jpg
000066973,SOLGAR METHYLCOBALAMIN 1000MCG 60NUGGETS,30-12-2022,BOT,1.0,79.0,Y,Vitamins & Nutrition///Nutrition///A to Z Vitamins,SOLGAR METHYLCOBALAMIN 1000MCG 60NUGGETS.jpg
000077699,SOLGAR MSM 1000MG 60'S,01-06-2023,BOX,2.0,79.0,Y,Vitamins & Nutrition///Nutrition///A to Z Vitamins,SOLGAR MSM 1000MG 60'S.jpg
000071077,SOLGAR RHODIOLA 60'S,30-12-2021,BOT,1.0,140.0,Y,Vitamins & Nutrition///Nutrition///A to Z Vitamins,SOLGAR RHODIOLA 60'S.jpg
000081418,SOLGAR SWEETEST DREAMS 30 CAPS,01-06-2023,BOT,1.0,85.0,Y,Vitamins & Nutrition///Nutrition///A to Z Vitamins,SOLGAR SWEETEST DREAMS 30 CAPS.jpg
000078750,SOLGAR TONALIN CLA 1300MG 60 SOFTGELS,01-03-2023,BOT,1.0,194.0,Y,Vitamins & Nutrition///Nutrition///A to Z Vitamins,SOLGAR TONALIN CLA 1300MG 60 SOFTGELS.jpg
000066982,SOLGAR VITAMIN A 1500 MCG 5000IU 100'S,30-11-2022,BOT,1.0,70.0,Y,Vitamins & Nutrition///Nutrition///A to Z Vitamins,SOLGAR VITAMIN A 1500 MCG 5000IU 100'S.jpg
000074341,SOLGAR VITAMIN C 500MG 100S,01-05-2023,BOX,1.0,88.0,Y,Vitamins & Nutrition///Nutrition///A to Z Vitamins,SOLGAR VITAMIN C 500MG 100S.jpg
000077247,SOLGAR VITAMIN C 500MG W/ ROSE HIPS TAB 100'S,30-04-2024,BOT,1.0,76.0,Y,Vitamins & Nutrition///Nutrition///A to Z Vitamins,SOLGAR VITAMIN C 500MG W ROSE HIPS TAB 100'S.jpg
000077245,"SOLGAR VITAMIN D3 250MCG (10,000 IU) 120 SOFTGELS",30-12-2022,BOT,1.0,198.0,Y,Vitamins & Nutrition///Nutrition///A to Z Vitamins,"SOLGAR VITAMIN D3 250MCG (10,000 IU) 120 SOFTGELS.jpg"
000071067,SOLGAR VITAMIN D3 25MCG (1000IU) 100 SOFTGELS,30-05-2024,BOT,2.0,58.0,Y,Vitamins & Nutrition///Nutrition///A to Z Vitamins,SOLGAR VITAMIN D3 25MCG (1000IU) 100 SOFTGELS.jpg
000066971,SOLGAR VITAMIN D3 55MCG 2200IU 100'S,02-02-2023,BOT,1.0,110.0,Y,Vitamins & Nutrition///Nutrition///A to Z Vitamins,SOLGAR VITAMIN D3 55MCG 2200IU 100'S.jpg
000074340,SOLGAR VITAMIN E 400 IU 100'S,01-01-2023,BOX,1.0,148.0,Y,Vitamins & Nutrition///Nutrition///A to Z Vitamins,SOLGAR VITAMIN E 400 IU 100'S.jpg
000071076,SOLGAR VITAMIN K2 100 MCG 50 'S,02-03-2022,BOX,1.0,181.0,Y,Vitamins & Nutrition///Nutrition///A to Z Vitamins,SOLGAR VITAMIN K2 100 MCG 50 'S.jpg
000077243,SOLGAR ZINC CITRATE 30MG 100'S,30-06-2023,BOX,1.0,82.0,Y,Vitamins & Nutrition///Nutrition///A to Z Vitamins,SOLGAR ZINC CITRATE 30MG 100'S.jpg
000078262,SPERMADOL TAB 30'S,31-01-2023,BOX,1.0,90.0,Y,Vitamins & Nutrition///Nutrition///A to Z Vitamins,SPERMADOL TAB 30'S.jpg
000074768,SUNSHINE B-COMPLEX 20'S TAB EFFERV,03-08-2022,BOX,1.0,35.0,Y,Vitamins & Nutrition///Nutrition///A to Z Vitamins,SUNSHINE B-COMPLEX 20'S TAB EFFERV.jpg
000079104,SUNSHINE NUTRITION BIOTIN 5000MG CAP 100S,30-05-2022,BOT,1.0,160.0,Y,Vitamins & Nutrition///Nutrition///A to Z Vitamins,SUNSHINE NUTRITION BIOTIN 5000MG CAP 100S.jpg
000056952,SUNVIT ODORLESS GARLIC 1000MG 60 SOFTEGELS,10-05-2022,BOT,1.0,50.0,Y,Vitamins & Nutrition///Nutrition///A to Z Vitamins,SUNVIT ODORLESS GARLIC 1000MG 60 SOFTEGELS.jpg
000079425,SWISS ENERGY HERBS BLACK GARLIC W/ VIT. B CAP 20'S,01-05-2023,BOX,2.0,65.0,Y,Vitamins & Nutrition///Nutrition///A to Z Vitamins,SWISS ENERGY HERBS BLACK GARLIC W VIT. B CAP 20'S.jpg
000076874,SWISS ENERGY MAGNESIUM + B-COMPLEX 20 EFF.TAB,01-09-2023,TUBE,4.0,35.0,Y,Vitamins & Nutrition///Nutrition///A to Z Vitamins,SWISS ENERGY MAGNESIUM + B-COMPLEX 20 EFF.jpg
000076873,SWISS ENERGY VITAMIN C-1000mg  EFFERVESCENT TAB 20'S,01-08-2023,TUBE,20.0,35.0,Y,Vitamins & Nutrition///Nutrition///A to Z Vitamins,SWISS ENERGY VITAMIN C-1000mg  EFFERVESCENT TAB 20'S.jpg
000063076,TALYA PROPOLIS EXTRACT 60 VEGE.CAPS,10-11-2021,BOT,9.0,97.5,Y,Vitamins & Nutrition///Nutrition///A to Z Vitamins,TALYA PROPOLIS EXTRACT 60 VEGE.CAPS.jpg
000045495,THE GUMMIES KIDS PROPOLIS & ECHINACEA 100S,30-07-2022,BOT,1.0,105.0,Y,Vitamins & Nutrition///Nutrition///A to Z Vitamins,THE GUMMIES KIDS PROPOLIS & ECHINACEA 100S.jpg
000078779,THE GUMMIES MULTI-VIT FOR KIDS,30-11-2023,BOX,1.0,105.0,Y,Vitamins & Nutrition///Nutrition///A to Z Vitamins,THE GUMMIES MULTI-VIT FOR KIDS.jpg
000078780,THE GUMMIES VITAMIN-C ORANGE,30-10-2023,BOX,2.0,105.0,Y,Vitamins & Nutrition///Nutrition///A to Z Vitamins,THE GUMMIES VITAMIN-C ORANGE.jpg
000077765,ULTRA CRANBERRY 750MG 30S VITABIOTICS,01-01-2023,BOX,1.0,69.0,Y,Vitamins & Nutrition///Nutrition///A to Z Vitamins,ULTRA CRANBERRY 750MG 30S VITABIOTICS.jpg
000080657,UNIVIT E400 40'S,28-02-2022,BOT,18.0,50.0,Y,Vitamins & Nutrition///Nutrition///A to Z Vitamins,UNIVIT E400 40'S.jpeg
000078015,VITA GESTAT PRENATAL COMBINATION CAP 60s,30-07-2023,BOX,1.0,129.0,Y,Vitamins & Nutrition///Nutrition///A to Z Vitamins,VITA GESTAT PRENATAL COMBINATION CAP 60s.jpg
000078782,VITA HEALTH VITA C ZING IMMUNE ORANGE 20'S,30-09-2022,PAK,3.0,28.0,Y,Vitamins & Nutrition///Nutrition///A to Z Vitamins,VITA HEALTH VITA C ZING IMMUNE ORANGE 20'S.jpg
000077898,VITABIOTICS PERFECTIL PLATINUM TAB 60,01-02-2023,BOX,1.0,244.0,Y,Vitamins & Nutrition///Nutrition///A to Z Vitamins,VITABIOTICS PERFECTIL PLATINUM TAB 60.jpg
000079718,VITABIOTICS WELLMAN 30TABS,01-08-2023,BOX,1.0,49.5,Y,Vitamins & Nutrition///Nutrition///A to Z Vitamins,VITABIOTICS WELLMAN 30TABS.jpg
000074662,VITABIOTICS WELLTEEN HER 30TABS,01-01-2023,BOX,1.0,54.0,Y,Vitamins & Nutrition///Nutrition///A to Z Vitamins,VITABIOTICS WELLTEEN HER 30TABS.jpg
000069562,VITABIOTICS WELLTEEN HIM 30TABS,30-12-2022,BOX,1.0,49.0,Y,Vitamins & Nutrition///Nutrition///A to Z Vitamins,VITABIOTICS WELLTEEN HIM 30TABS.jpg
000065702,VITABIOTICS WELLWOMAN 50 PLUS 30TABS,01-09-2022,BOX,4.0,69.0,Y,Vitamins & Nutrition///Nutrition///A to Z Vitamins,VITABIOTICS WELLWOMAN 50 PLUS 30TABS.jpg
000072841,VOMICURE CAP 20S,31-07-2022,BOX,1.0,68.0,Y,Vitamins & Nutrition///Nutrition///A to Z Vitamins,VOMICURE CAP 20S.jpg
000078117,WELEDA ORGANIC BIRCH JUICE 250ML,28-02-2024,BOT,2.0,85.0,Y,Vitamins & Nutrition///Nutrition///A to Z Vitamins,WELEDA ORGANIC BIRCH JUICE 250ML.jpg
000034529,WELLMAN 50+ TAB 30,01-06-2021,BOX,1.0,69.0,Y,Vitamins & Nutrition///Nutrition///A to Z Vitamins,WELLMAN 50+ TAB 30.jpg
000066721,WELLMAN CONCEPTION,30-05-2022,BOX,1.0,89.0,Y,Vitamins & Nutrition///Nutrition///A to Z Vitamins,WELLMAN CONCEPTION.jpg
000074670,WELLMAN SPORT TAB 30'S,01-02-2023,BOX,1.0,64.0,Y,Vitamins & Nutrition///Nutrition///A to Z Vitamins,WELLMAN SPORT TAB 30'S.jpg
000074669,WELLWOMAN SPORT 30'S,01-07-2022,BOX,1.0,69.0,Y,Vitamins & Nutrition///Nutrition///A to Z Vitamins,WELLWOMAN SPORT 30'S.jpg
000074999,Z-TAMIN ZINC 50MG 60S,30-08-2023,BOT,7.0,45.0,Y,Vitamins & Nutrition///Nutrition///A to Z Vitamins,Z-TAMIN ZINC 50MG 60S.jpg
000041588,ZUCCARI SLIM METABOL 888ML,01-03-2022,BOT,1.0,240.0,Y,Vitamins & Nutrition///Nutrition///A to Z Vitamins,ZUCCARI SLIM METABOL 888ML.jpg
