Product Code,Product Name,Price,OTC ,Category,Product Images
DWE-BBY-WPS-001,Cetaphil Baby Gentle Wipes,28.5,Y,Mother & Baby///Baby Wipes,Cetaphil Baby Gentle Wipes.jpg
DWE-BBY-WPS-002,ZIVA Baby Wipes Sensitive Premium Wipes 72's,10,Y,Mother & Baby///Baby Wipes,ZIVA Baby Wipes Sensitive Premium Wipes 72's.jpg
DWE-BBY-WPS-003,ZIVA Baby Wipes Extra Gentle Premium Wipes 80's,10,Y,Mother & Baby///Baby Wipes,ZIVA Baby Wipes Extra Gentle Premium Wipes 80's.jpg
DWE-BBY-WPS-004,Sebamed Baby Cleansing Wipes,9.5,Y,Mother & Baby///Baby Wipes,Sebamed Baby Cleansing Wipes.jpg
DWE-BBY-WPS-005,Pampers Sensitive Baby Wipes 56's,17,Y,Mother & Baby///Baby Wipes,Pampers Sensitive Baby Wipes 56's.jpg
DWE-BBY-WPS-006,Pampers Baby Fresh Clean Wipes 64's,17,Y,Mother & Baby///Baby Wipes,Pampers Baby Fresh Clean Wipes 64's.jpg
DWE-BBY-WPS-007,Nivea Baby Soft & Cream Wipes 63's,20,Y,Mother & Baby///Baby Wipes,Nivea Baby Soft & Cream Wipes 63's.jpg
DWE-BBY-WPS-008,Nuby Baby Wipes 0+ month 80's,32,Y,Mother & Baby///Baby Wipes,Nuby Baby Wipes 0+ month 80's.jpg
DWE-BBY-WPS-009,Nivea Baby Fresh and Pure Aloe Vera Wipes 63's,20,Y,Mother & Baby///Baby Wipes,Nivea Baby Fresh and Pure Aloe Vera Wipes 63's.jpg
DWE-BBY-WPS-010,Pure Born Pure Wipes Grapefruit 10's,7.5,Y,Mother & Baby///Baby Wipes,Pure Born Pure Wipes Grapefruit 10's.jpg
DWE-BBY-WPS-011,Bioderma ABCDerm H2O Wipes 60's,41,Y,Mother & Baby///Baby Wipes,Bioderma ABCDerm H2O Wipes 60's.jpg
DWE-BBY-WPS-012,Mustela Cleansing Wipes 25's,36.75,Y,Mother & Baby///Baby Wipes,Mustela Cleansing Wipes 25's.jpg
