Product Code,Product Name,Quantity,Price,Description,Product Images,OTC,Category
DWE-BIO-001-001,BDM PHOTODERM MAX TINTED LIGHT CREAM 40ML,2,129.15,"BIODERMA PHOTODERM MAX TINTED AQUAFLUID SPF50+ IS INDICATED FOR COMBINATION TO OILY SKIN, WITH A TRIPLE MATTIFYING ACTION THAT CONTROLS EXCESS SHINE AND OIL AND AN ULTRA-FLUID TEXTURE THAT IS QUICKLY ABSORBED TO PROVIDE A DRY TOUCH AND A LIGHT COVERAGE. THE CELLULAR BIOPROTECTION EXCLUSIVE PATENT BOOSTS THE SKIN'S DEFENSES AGAINST THE HARMFUL RADIATIONS BY BETTER PROTECTING DNA",BDM PHOTODERM MAX TINTED LIGHT CREAM 40ML.JPG,Y,Beauty Care
DWE-BIO-001-002,BDM SEBIUM HYDRA CREAM 40 ML,2,96.6,"BIODERMA SÉBIUM HYDRA - A MOISTURISING AND SOOTHING COMPENSATING TREATMENT FOR SKIN THAT HAS BEEN WEAKENED, DRIED AND/OR IRRITATED BY DERMATOLOGICAL TREATMENTS.BIODERMA SÉBIUM HYDRA - A MOISTURISING AND THE MOISTURISING (GLYCERINE) AND RESTRUCTURING (CERAMIDES) AGENTS IN SÉBIUM HYDRA COMBAT DESQUAMATION. POWERFUL SOOTHING AGENTS (ENOXOLONE, ALLANTOIN) REDUCE REDNESS AND SOOTHE THE SKIN.",BDM SEBIUM HYDRA CREAM 40 ML.JPG,Y,Beauty Care
DWE-BIO-001-003,BIODERMA PHOTODERM AKN MAT 40ML,2,124.95,"HIGH PROTECTION,ANTI BLEMISH EFFICACY.",BIODERMA PHOTODERM AKN MAT 40ML.JPG,Y,Beauty Care
DWE-BIO-001-004,BIODERMA PHOTODERM ANTI AGE 30ML,2,132.3,HIGH PHOTOPROTECTION THAT OFFERS SPECIFIC TRIPLE ANTI-AGEING PROTECTION.,BIODERMA PHOTODERM ANTI AGE 30ML.JPG,Y,Beauty Care
DWE-BIO-001-005,BIODERMA SEBIUM GEL MOUSSANT FOAMING GEL 200ML,2,103.95,PURIFYING CLEANSING FOAMING GEL THAT GENTLY CLEANSES AND PREVENTS BLEMISHES FROM THE CLEANING STAGE.,BIODERMA SEBIUM GEL MOUSSANT FOAMING GEL 200ML.jpg,Y,Beauty Care
DWE-BIO-001-006,BIODERMA SENSIBIO DEO ANTI-TRANSPIRANT 50ML,2,68.25,SENSIBIO FRESHNESS DEODORANT WITHOUT WHITE TRACES AND WITHOUT ALUMINIUM SALTS BY BIODERMA.,BIODERMA SENSIBIO DEO ANTI-TRANSPIRANT 50ML.JPG,Y,Beauty Care
DWE-BIO-001-007,BIODERMA ABC DERM BABY SQUAM 2028,2,52.5,"SAFELY USED GEL FOR BABY CRADLE CAP,

BABY HEAD IS CLEAN AMD MOIST.

DOES NOT STING THE EYES.",BIODERMA ABC DERM BABY SQUAM 2028.JPG,Y,Beauty Care
DWE-BIO-001-008,BIODERMA ABC DERM CHANGE INTENSIF,2,54.6," A WATER-BASED PASTE THAT REPAIRS NAPPY RASH. ABCDERM BABY CARE PRODUCT FOR NAPPY AREA IRRITATION, REDNESS - PARABEN-FREE",BIODERMA ABC DERM CHANGE INTENSIF.JPG,Y,Beauty Care
DWE-BIO-001-009,BIODERMA ABC DERM COLD CREAM VISAGE,2,48.3,"NOURISHING FACE CREAM,NOURISHES, SOFTENS AND PROTECTS SKIN,PROTECTIVE FACIAL CARE WITH COLD CREAM.",BIODERMA ABC DERM COLD CREAM VISAGE.jpg,Y,Beauty Care
DWE-BIO-001-010,BIODERMA ABC DERM CREME HYDRATANTE 200ML,2,46.2,BIODERMA ABCDERM MOISTURIZING MILK MOISTURIZES THE BABY'S SENSITIVE SKIN IN A VERY GENTLE FORMULA THAT RESPECTS THE DERMATOLOGICAL SAFETY COMMITMENT,BIODERMA ABC DERM CREME HYDRATANTE 200ML.jpg,Y,Beauty Care
DWE-BIO-001-011,BIODERMA ABC DERM H20 100 ML,2,27.3,"100% HIGH-SAFETY AND HIGH-TOLERANCE PRODUCTS TAILORED TO THE DELICATE SKIN OF BABIES,SOAP-FREE,SOOTHING FRAGRANCE,DOES NOT STING THE EYES.",BIODERMA ABC DERM H20 100 ML.JPG,Y,Beauty Care
DWE-BIO-001-012,BIODERMA ABC DERM HUILE RELAXANTE 200ML,2,72.45,"BIODERMA ABCDERM RELAXING AND NOURISHING OIL, BODY MASSAGE AND BATH FOR BABY & CHILDREN.",BIODERMA ABC DERM HUILE RELAXANTE 200ML.JPG,Y,Beauty Care
DWE-BIO-001-013,BIODERMA ABC DERM MOUSSANT 1 liter,2,103.95,ABCDERM MOUSSANT IS IDEAL FOR THE DAILY CLEANSING OF DELICATE SKIN AND THE FRAGILE SCALP OF BABIES AND CHILDREN.,BIODERMA ABC DERM MOUSSANT 1 liter.jpg,Y,Beauty Care
DWE-BIO-001-014,BIODERMA ABC DERM PERI ORAL,2,61.95,"PÉRI-ORAL. THE SKINCARE THAT SOOTHES, REPAIRS AND PREVENTS IRRITATIONS OF THE MOUTH CONTOUR. BABY TREATMENT - MOUTH IRRITATION, REDNESS",BIODERMA ABC DERM PERI ORAL.JPG,Y,Beauty Care
DWE-BIO-001-015,BIODERMA ABC DERM SHAMPOO DOUCEUR,2,50.4,BIODERMA ABCDERM SHAMPOOING GENTLY WASHES THE THIN AND FRAGILE HAIR OF THE BABY WITH A FORMULATION THAT RESPECTS THE DERMATOLOGICAL SAFETY COMMITMENT ABCDERM.,BIODERMA ABC DERM SHAMPOO DOUCEUR.jpg,Y,Beauty Care
DWE-BIO-001-016,BIODERMA ABC DERM WIPES 60S,2,40.95,GENTLE CLEANSING H2O WIPES.,BIODERMA ABC DERM WIPES 60S.JPG,Y,Beauty Care
DWE-BIO-001-017,BIODERMA ATODERM CREAM PUMP 200ML,2,78.75,ULTRA NOURISHING AND PROECTIVE DAILY CARE,BIODERMA ATODERM CREAM PUMP 200ML.JPG,Y,Beauty Care
DWE-BIO-001-018,BIODERMA ATODERM LIP BALM 15ML,2,59.85,"INTENSIVE REPAIR FOR SEVERLY DRY,CHAPPED LIPS.",BIODERMA ATODERM LIP BALM 15ML.jpg,Y,Beauty Care
DWE-BIO-001-019,BIODERMA ATODERM OIL RICH SOAP 150 G,2,54.6,"BIODERMA ATODERM OIL RICH SOAP CLEANS AND PROTECTS VERY DRY AND ATOPIC SKIN,MOISTURIZING AND NOURISHING INTENSELY.ATODERM ULTRA RICH SOAP LIMITS THE PROFILERATION OF MICRO ORGANISMS THAT AGGRAVATE CUTANEOUS DRYNESS.",BIODERMA ATODERM OIL RICH SOAP 150 G.JPG,Y,Beauty Care
DWE-BIO-001-020,BIODERMA HYDRABIO CREAM 50ML,2,117.6,"BIODERMA  HYDRABIO  CREAM , OPTIMUM FACE MOISTURIZER , PROVIDES RADIANCE ,FOR DRY TO VERY DRY SENSITIVE SKIN .",BIODERMA HYDRABIO CREAM 50ML.JPG,Y,Beauty Care
DWE-BIO-001-021,BIODERMA HYDRABIO H20 250ML,2,78.75,BIODERMA HYDRABIO H2O MICELLE SOLUTION FOR SENSITIVE DEHYDRATED SKIN,BIODERMA HYDRABIO H20 250ML.jpg,Y,Beauty Care
DWE-BIO-001-022,BIODERMA HYDRABIO PERFECTOR 40ML,2,138.6,"BIODERMA HYDRABIO PERFECTEUR SPF 30 40ML IS A SMOOTHING,MOISTURISING CARE AND RADIANCE BOOSTER, SPECIALLY FORMULATED FOR THE DEHYDRATED SENSITIVE SKIN.",BIODERMA HYDRABIO PERFECTOR 40ML.jpeg,Y,Beauty Care
DWE-BIO-001-023,BIODERMA NODE DS SHAMPOO F 125ML,2,91.35,"IT IS AN ANTI RECCURRENCE SHAMPOO FOR SEVERE DANDRUFF ,MAINLY FOR THE TREATMNET OF SCALP PSORIASIS AND ITCHINF SCALP.",BIODERMA NODE DS SHAMPOO F 125ML.JPG,Y,Beauty Care
DWE-BIO-001-024,BIODERMA PHOTODERM AFTER SUN MILK FACE&BODY 200ML,2,107,"BIODERMA PHOTODERM REFRESHING AFTER-SUN MILK 200ML FACE AND BODY SUITS TO THE SENSITIVE SKINS, DEHYDRATED SKINS AND ALLEVIATES SUNBURNS.",BIODERMA PHOTODERM AFTER SUN MILK FACE&BODY 200ML.JPG,Y,Beauty Care
DWE-BIO-001-025,BIODERMA PHOTODERM AR SPF 50+30ML,2,129.15,"PROTECT AGAINST UV DAMAGE: COMBINATION OF ANTI-UVA/UVB (EXTERNAL PROTECTION) DERMATOLOGICAL FILTERS ,FOR SENSITIVE AND REACTIVE SKINS.VERY HIGH ANTI REDNESS PHOTOPROTECTION.",BIODERMA PHOTODERM AR SPF 50+30ML.JPG,Y,Beauty Care
DWE-BIO-001-026,BIODERMA PHOTODERM BRONZ SPF 50 SPRAY 200ML,2,112.35,VERY HIGH PHOTOPROTECTION THAT BIOLOGICALLY ACTIVATES THE NATURAL TANNING PROCESS.,BIODERMA PHOTODERM BRONZ SPF 50 SPRAY 200ML.JPG,Y,Beauty Care
DWE-BIO-001-027,BIODERMA PHOTODERM KIDS SPF 50+200ML,2,159.6,BIODERMA PHOTODERM SUN SPRAY FOR CHILDREN. A DERMATOLOGICAL PRODUCT WITH VERY HIGH PROTECTION: FACTOR 50,BIODERMA PHOTODERM KIDS SPF 50+200ML.jpg,Y,Beauty Care
DWE-BIO-001-028,BIODERMA PHOTODERM MAX MILK 100ML,2,144.9,"PHOTODERM MAX MILK PROVIDES MAX UVA,UVB PROTECTION.IT IS WATER RESISTANT,NON COMODEGENIC AND PHOTOSTABLE.IT IS FRAGRANCE FREE,EXTRA TOLERANCE,LEAVES THE SKIN EXTRA SOFT",BIODERMA PHOTODERM MAX MILK 100ML.jpg,Y,Beauty Care
DWE-BIO-001-029,BIODERMA PHOTODERM NUDE TOUCH LIGHT SPF50+ 40ML,2,145.95,"BIODERMA PHOTODERM NUDE TOUCH IS A SUNSCREEN FOR OILY TO COMBINATION SKIN THAT EVENS THE SKIN TONE AND MATTIFIES THE SKIN, WITH 100% MINERAL FILTERS",BIODERMA PHOTODERM NUDE TOUCH LIGHT SPF50+ 40ML.JPG,Y,Beauty Care
DWE-BIO-001-030,BIODERMA SEBIUM H2O 500ML,2,110.25,GENTLY CLEANSES AND REMOVES MAKE UP .PURIFY AND CLEANSES THE EPIDERMIS.REGULATES SEBUM SECRETION ESPECIALLY IN ACNE PRONE SKIN,BIODERMA SEBIUM H2O 500ML.JPG,Y,Beauty Care
DWE-BIO-001-031,BIODERMA SENSIBIO H2O FACIAL WIPES 25S,2,56.7,STRONG CLEANSING AND MAKE-UP REMOVING WIPES.. SPECIALLY DESIGNED FOR SENSITIVE SKIN,BIODERMA SENSIBIO H2O FACIAL WIPES 25S.JPG,Y,Beauty Care
DWE-BIO-001-032,BIODERMA ATODERM INTENSIVE BAUME 200ml,2,84,,BIODERMA ATODERM INTENSIVE BAUME 200ml.jpg,Y,Beauty Care
DWE-BIO-001-033,BIODERMA ATODERM INTENSIVE BAUME 500ml,2,142,,BIODERMA ATODERM INTENSIVE BAUME.jpg,Y,Beauty Care
