Product Code,Product Name ,Price,Stock,OTC,Category,Product image
DPH-001-ACT-CEL,ACT CELLS CHLORELLA 200G,361.9,3,Y,Medications///Self Medications,ACT CELLS CHLORELLA 200G.jpg
DPH-002-ACT-30G,ACT CELLS CHLORELLA 30G,93.33,3,Y,Medications///Self Medications,ACT CELLS CHLORELLA 30G.jpg
DPH-003-ADD-MAG,ADDITIVA MAGNESIUM EFF/TAB 10'S,15,5,Y,Medications///Self Medications,ADDITIVA MAGNESIUM EFF TAB 10'S.jpg
DPH-004-ADL-250,ADOL 250MG SUPP. 10'S,7.5,4,Y,Medications///Self Medications,ADOL 250MG SUPP. 10'S.jpg
DPH-005-ADL-500,ADOL500MG SUPP.10'S,10,4,Y,Medications///Self Medications,ADOL500MG SUPP.10'S.jpg
DPH-005-ADV-12H,ADVIL 12 HOURS TAB 30'S,33,3,Y,Medications///Self Medications,ADVIL 12 HOURS TAB 30'S.jpg
DPH-006-ALR-TAB,ALERACT TAB 30'S,140,8,Y,Medications///Self Medications,ALERACT TAB 30'S.jpg
DPH-007-ART-TAB,ARTHRIX 100MG TAB 30'S,50,4,N,Medications///Prescription Medicines,ARTHRIX 100MG TAB 30'S.jpg
DPH-008-ASP-TAB,ASPRIN C EFFERVESCENT TAB 10'S ,17,3,Y,Medications///Self Medications,ASPRIN C EFFERVESCENT TAB 10'S.jpg
DPH-009-AYU-RHO,AYU RHOIDS CAP 60'S,38,2,Y,Medications///Self Medications,AYU RHOIDS CAP 60'S.jpg
DPH-010-BPR-CHO,B-PROTIN CHOCOLATE FLAVOUR,45,5,Y,Medications///Self Medications,B-PROTIN CHOCOLATE FLAVOUR.jpg
DPH-011-BPR-MAN,B-PROTIN MANGO FLAVOUR 400GM,45,5,Y,Medications///Self Medications,B-PROTIN MANGO FLAVOUR 400GM.jpg
DPH-012-BAB-LYT,BABYLYTE 240ML GLASS BOTTLE,13,4,Y,Medications///Self Medications,BABYLYTE 240ML GLASS BOTTLE.jpg
DPH-013-BEN-SOP,BENZ-OX SOAP 100GM,29,5,Y,Medications///Self Medications,BENZ-OX SOAP 100GM.jpg
DPH-014-CEL-CAP,CELEBREX 100MG CAP 20'S,55.5,4,N,Medications///Prescription Medicines,CELEBREX 100MG CAP 20'S.jpg
DPH-015-CLA-TAB,CLARITINE 10MG TAB 30'S,50,4,Y,Medications///Self Medications,CLARITINE 10MG TAB 30'S.jpg
DPH-016-CLD-SYP,COLDIFED-P SYRUP 120ML,10,4,Y,Medications///Self Medications,COLDIFED-P SYRUP 120ML.jpg
DPH-017-CRN-BOT,CRANBIOTIX CAP 30'S,109,6,Y,Medications///Self Medications,CRANBIOTIX CAP 30'S.jpg
DPH-018- DPR-CHO,D-PROTIN CHOCOLATE FLAVOUR,49,6,Y,Medications///Self Medications,D-PROTIN CHOCOLATE FLAVOUR.jpg
DPH-019-DMN-VIT,DAMINE D VIT D 14000 IU TAB 15'S,100,3,Y,Medications///Self Medications,DAMINE D VIT D 14000 IU TAB 15'S.jpg
DPH-020-DER-SOP,DERMATAR SOAP 100GM,34,6,Y,Medications///Self Medications,DERMATAR SOAP 100GM.jpg
DPH-021-DRM-WSH,DERMIKUE INTIMATE WASH PH5,28,3,Y,Medications///Self Medications,DERMIKUE INTIMATE WASH PH5.jpg
DPH-022-DIC-TAB,DICLO 150 ID TAB 10'S,55.5,5,Y,Medications///Self Medications,DICLO 150 ID TAB 10'S.jpg
DPH-023-DIC-RET,DICLOGESIC RETARD 100MG TAB 10'S ,13,5,Y,Medications///Self Medications,DICLOGESIC RETARD 100MG TAB 10'S.jpg
DPH-024-DIO-TAB,DIOVAN 80MG TAB 28'S,138,3,N,Medications///Prescription Medicines,DIOVAN 80MG TAB 28'S.jpg
DPH-025-DOL-GIT,DOLGIT 600MG TABLETS,250.5,4,Y,Medications///Self Medications,DOLGIT 600MG TABLETS.jpg
DPH-026-FAC-SHL,FACE SHIELD LYX-A01,13,5,Y,Medications///Self Medications,FACE SHIELD LYX-A01.jpg
DPH-027-FER-SYP,FEROSE 50MG/5ML SYRUP,14.5,4,Y,Medications///Self Medications,FEROSE 50MG 5ML SYRUP.jpg
DPH-028-FER-5GM,FERTOOVA 5GM×30 SACHETS,450,8,Y,Medications///Self Medications,FERTOOVA 5GM×30 SACHETS.jpg
DPH-029-FER-SAC,FERTOOX 5GM×30SACHETS,345,8,Y,Medications///Self Medications,FERTOOX 5GM×30SACHETS.jpg
DPH-030-GAL-MET,GALVUSMET 50/500MG TAB 60'S,204.5,6,N,Medications///Prescription Medicines,GALVUSMET 50-500MG TAB 60'S.jpg
DPH-031-GEN-SYP,GENCET 5MG/5ML SYRUP 100ML,12.5,4,Y,Medications///Self Medications,GENCET 5MG 5ML SYRUP 100ML.jpg
DPH-032-HEX-SAC,HEXBIO GRANULES SACHETS,45,3,Y,Medications///Self Medications,HEXBIO GRANULES SACHETS.jpg
DPH-033-HIM-BWL,HIM BOSWELLIA (SHALLAKI)CAP 60'S,85,4,Y,Medications///Self Medications,HIM BOSWELLIA (SHALLAKI)CAP 60'S.jpg
DPH-034-IVY-SYP,IVYLIN SYRUP 100ML,20,5,Y,Medications///Self Medications,IVYLIN SYRUP 100ML.jpg
DPH-035-KHZ-SYP,KHASCEEZE SYRUP 100ML,25,4,Y,Medications///Self Medications,KHASCEEZE SYRUP 100ML.jpg
DPH-036-KIN-WHT,KIN WHITENING TOOTHPASTE 75ML,32,3,Y,Medications///Self Medications,KIN WHITENING TOOTHPASTE 75ML.jpg
DPH-037-LAC-ADD,LACTOBACT ADD CAP 20'S,130,5,Y,Medications///Self Medications,LACTOBACT ADD CAP 20'S.jpg
DPH-038-LAC-BAB,LACTOBACT BABY+ 60GM POWDER,140,5,Y,Medications///Self Medications,LACTOBACT BABY+ 60GM POWDER.jpg
DPH-039-LAC-JUN,LACTOBACT JUNIOR+ 60GM POWDER,185.71,5,Y,Medications///Self Medications,LACTOBACT JUNIOR+ 60GM POWDER.jpg
DPH-040-LAC-PRE,LACTOBACT PREMIUM CAP 60'S,185.71,5,Y,Medications///Self Medications,LACTOBACT PREMIUM CAP 60'S.jpg
DPH-041-LEM-EFF,LEMOMAG EFF/POWDER FOR ORAL SOLUTION,9.5,4,Y,Medications///Self Medications,LEMOMAG EFF POWDER FOR ORAL SOLUTION.jpg
DPH-042-LVT-VIT,LEVIT VIT C 1500 TAB 20'S,44.1,3,Y,Medications///Self Medications,LEVIT VIT C 1500 TAB 20'S.jpg
DPH-043-LIN-FOR,LINEX FORTE PLUS TAB 14'S,80,4,Y,Medications///Self Medications,LINEX FORTE PLUS TAB 14'S.jpg
DPH-044-LOR-TAB,LORINE FM TAB 10'S,14.5,1,Y,Medications///Self Medications,LORINE FM TAB 10'S.jpg
DPH-045-MEB-OIN,MEBO OINTMENT 30GM,66,4,Y,Medications///Self Medications,MEBO OINTMENT 30GM.jpg
DPH-046-IBT-TAB,I-BOOSTER TAB 30'S,49,4,Y,Medications///Self Medications,I-BOOSTER TAB 30'S.jpg
DPH-047-MEB-SCA,MEBO SCAR OINTMENT 30GM,72,4,Y,Medications///Self Medications,MEBO SCAR OINTMENT 30GM.jpg
DPH-048-MEG-POW,MEGAPOWER SX CAP 30'S,100,4,Y,Medications///Self Medications,MEGAPOWER SX CAP 30'S.jpg
DPH-049-MET-SYP,METALOR 2.5MG/5ML SYRUP,23,4,Y,Medications///Self Medications,METALOR 2.5MG 5ML SYRUP.jpg
DPH-050-MET-OIN,METANIUM EVERYDAY OINTMENT 40GM,40.62,3,Y,Medications///Self Medications,METANIUM EVERYDAY OINTMENT 40GM.jpg
DPH-051-MET-NAP,METANIUM NAPPY RASH OINTMENT,45.5,3,Y,Medications///Self Medications,METANIUM NAPPY RASH OINTMENT.jpg
DPH-052-MOV-CAP,MOVEN 7.5MG CAP 10'S ,9.5,2,Y,Medications///Self Medications,MOVEN 7.5MG CAP 10'S.jpg
DPH-053-MSU-MEN,MULTISURE MEN50+ CAP 60'S,104,4,Y,Medications///Self Medications,MULTISURE MEN50+ CAP 60'S.jpg
DPH-054-MSU-WMN,MULTISURE WOMEN CAP 60'S,104,4,Y,Medications///Self Medications,MULTISURE WOMEN CAP 60'S.jpg
DPH-055-NTL-CRE,NATALCARE TAB 60'S,75,4,Y,Medications///Self Medications,NATALCARE TAB 60'S.jpg
DPH-056-NCE-CHE,NICE CHERRY 24 LOZENGES,22,4,Y,Medications///Self Medications,NICE CHERRY 24 LOZENGES.jpg
DPH-057-NCE-LEM,NICE HONEY LEMON 24 LOZENGES,22,4,Y,Medications///Self Medications,NICE HONEY LEMON 24 LOZENGES.jpg
DPH-058-NST-SPR,NISITA NASAL SPRAY,27.5,4,Y,Medications///Self Medications,NISITA NASAL SPRAY.jpg
DPH-059-NOF-SAC,NOSIFOL D 4GM SACHETS,350,5,Y,Medications///Self Medications,NOSIFOL D 4GM SACHETS.jpg
DPH-060-NUR-SYP,NUROFEN 100MG/ML SUSPENSION 100ML,14,4,Y,Medications///Self Medications,NUROFEN 100MG-ML SUSPENSION 100ML.jpg
DPH-061-OBS-OIL,OLBAS OIL 10ML,12.75,4,Y,Medications///Self Medications,OLBAS OIL 10ML.jpg
DPH-062-OMR-BBM,OMRON BLOOD PRESSURE MONITOR RS3 WRIST,325,5,Y,Medications///Self Medications,OMRON BLOOD PRESSURE MONITOR RS3 WRIST.jpg
DPH-063-OMR-NEB,OMRON NEBULIZER C28 PLUS,249,5,Y,Medications///Self Medications,OMRON NEBULIZER C28 PLUS.jpg
DPH-064-ONC-LAN,ON CALL LANCETS 100'S,23,3,Y,Medications///Self Medications,ON CALL LANCETS 100'S.jpg
DPH-065-OPT-LOT,OPTREX EYE LOTION 110ML,25.47,4,Y,Medications///Self Medications,OPTREX EYE LOTION 110ML.jpg
DPH-066-OTR-SPR,OTRIVIN COMPLETE NASAL SPRAY,30.5,4,Y,Medications///Self Medications,OTRIVIN COMPLETE NASAL SPRAY.jpg
DPH-067-PAN-SYP,PANALIFE 250MG/5ML SYRUP,6,4,Y,Medications///Self Medications,PANALIFE 250MG-5ML SYRUP.jpg
DPH-068-PPA-SEL,PP ABSORBABLE SELENIUM 200MCG CAP100'S,65,3,Y,Medications///Self Medications,PP ABSORBABLE SELENIUM 200MCG CAP100'S.jpg
DPH-069-PPC-Q10,PP CO Q-10 100MG CAP 30'S,115,3,Y,Medications///Self Medications,PP CO Q-10 100MG CAP 30'S.jpg
DPH-070-PPG-OIL,PP GARLIC OIL 100MG CAP 100'S,45,3,Y,Medications///Self Medications,PP GARLIC OIL 100MG CAP 100'S.jpg
DPH-071-PPL-CAR,PP L-CARNITINE 500MG CAP 60'S,150,2,Y,Medications///Self Medications,PP L-CARNITINE 500MG CAP 60'S.jpg
DPH-072-PPV-CAP,PP VIT E 450MG CAP 50'S,105,3,Y,Medications///Self Medications,PP VIT E 450MG CAP 50'S.jpg
DPH-073-PPV-TAB,PP VIT E 400 IU TAB 100'S,95,3,Y,Medications///Self Medications,PP VIT E 400 IU TAB 100'S.jpg
DPH-074-PPV-DTB,PP VITAMIN D-1000 IU TAB 100'S,70,3,Y,Medications///Self Medications,PP VITAMIN D-1000 IU TAB 100'S.jpg
DPH-075-PPV-HAR,PP VITAMINFOR HAIR TAB 60'S ,70,3,Y,Medications///Self Medications,PP VITAMINFOR HAIR TAB 60'S.jpg
DPH-076-PRO-RJE,PROCAMIL ROYAL JELLY 1500+GARLIC,160,2,Y,Medications///Self Medications,PROCAMIL ROYAL JELLY 1500+GARLIC.jpg
DPH-077-PRO-ORS,PROLYTE ORS LEMON 40 SACHETS,80,3,Y,Medications///Self Medications,PROLYTE ORS LEMON 40 SACHETS.jpg
DPH-078-PRO-ORN,PROLYTE ORS ORANGE 40 SACHETS,80,3,Y,Medications///Self Medications,PROLYTE ORS ORANGE 40 SACHETS.jpg
DPH-079-PRX-TAB,PROXEN 250MG TAB 20'S,26,4,Y,Medications///Self Medications,PROXEN 250MG TAB 20'S.jpg
DPH-080-REN-TAB,RENNIE TAB 96'S,13.5,3,Y,Medications///Self Medications,RENNIE TAB 96'S.jpg
DPH-081-REP-GEL,REPARIL GEL-N 40GM TUBE,19.5,4,Y,Medications///Self Medications,REPARIL GEL-N 40GM TUBE.jpg
DPH-082-SEP-SYP,SEPTILIN SYRUP 200ML,14,4,Y,Medications///Self Medications,SEPTILIN SYRUP 200ML.jpg
DPH-083-SIR-VIT,SIRUS VITAMIN D 60  GUMMIES ,72,6,Y,Medications///Self Medications,SIRUS VITAMIN D 60  GUMMIES.jpg
DPH-084-SEM-CRM,SM MOISTURISING CREAM ADULT,43,3,Y,Medications///Self Medications,SM MOISTURISING CREAM ADULT.jpg
DPH-085-SEM-HAR,SM ANTI HAIR LOSS FOAM 70ML,67,3,Y,Medications///Self Medications,SM ANTI HAIR LOSS FOAM 70ML.jpg
DPH-086-SEM-BAB,SM BABY EAU DE COLOGNE 250ML,36,3,Y,Medications///Self Medications,SM BABY EAU DE COLOGNE 250ML.jpg
DPH-087-STR-SPR,STERIMAR HYGIENE NASAL SPRAY,44,3,Y,Medications///Self Medications,STERIMAR HYGIENE NASAL SPRAY.jpg
DPH-088-SRP-HOL,STREPSILS HONEY&LEMON 24 LOZENGES,19.39,4,Y,Medications///Self Medications,STREPSILS HONEY&LEMON 24 LOZENGES.jpg
DPH-089-STR-COL,STREPSILS COOL 16 LOZENGES,19.39,4,Y,Medications///Self Medications,STREPSILS COOL 16 LOZENGES.jpg
DPH-090-STR-HLE,STREPSILS HONEY&LEMON 36 LOZENGES,24.93,4,Y,Medications///Self Medications,STREPSILS HONEY&LEMON 36 LOZENGES.jpg
DPH-091-STR-LEM,STREPSILS LEMON SUGAR FREE 36 LOZENGES,24.39,4,Y,Medications///Self Medications,STREPSILS LEMON SUGAR FREE 36 LOZENGES.jpg
DPH-092-STR-VIT,STREPSILS WITH VITAMIN C ,19.39,4,Y,Medications///Self Medications,STREPSILS WITH VITAMIN C.jpg
DPH-093-SUN-LYT,SUNLYTE ORS 21.8G SACHETS,35,3,Y,Medications///Self Medications,SUNLYTE ORS 21.8G SACHETS.jpg
DPH-094-SYS-DRP,SYSTANE ULTRA U.D 30×0.7ML,54,5,Y,Medications///Self Medications,SYSTANE ULTRA U.D 30×0.7ML.jpg
DPH-095-TMA-CAP,TESTOMAN CAP 30'S,280,5,Y,Medications///Self Medications,TESTOMAN CAP 30'S.jpg
DPH-096-TON-SPR,TONIMER SOFT SPRAY,44,4,Y,Medications///Self Medications,TONIMER SOFT SPRAY.jpg
DPH-097-TOU-SYP,TOULARYNX COUGH SYRUP,38,4,Y,Medications///Self Medications,TOULARYNX COUGH SYRUP.jpg
DPH-098-UNI-TAB,UNIZINK 50MG TAB 50'S,131.43,5,Y,Medications///Self Medications,UNIZINK 50MG TAB 50'S.jpg
DPH-099-UNI-LOZ,UNIZINK LOZENGES 10'S,41.9,5,Y,Medications///Self Medications,UNIZINK LOZENGES 10'S.jpg
DPH-100-URA-SAC,URAL 4GM SACHETS,29.5,3,Y,Medications///Self Medications,URAL 4GM SACHETS.jpg
DPH-101-VIC-DAY,VICHY 7 DAYS ANTI PER CREAM,73,3,Y,Medications///Self Medications,VICHY 7 DAYS ANTI PER CREAM.jpg
DPH-102-VIC-DRY,VICHY DEODORANT DRY TOUCH SENSITIVE SKIN,73,3,Y,Medications///Self Medications,VICHY DEODORANT DRY TOUCH SENSITIVE SKIN.jpg
DPH-103-VIC-DER,VICHY DERCOS DENSI- SOLUTION ,95,3,Y,Medications///Self Medications,VICHY DERCOS DENSI- SOLUTION.jpg
DPH-104-VIC-NUT,VICHY DERCOS NOURISHING RICH MASK,130,3,Y,Medications///Self Medications,VICHY DERCOS NOURISHING RICH MASK.jpg
DPH-105-VIT-DIU,VITA D 50000 IU TAB 15'S,76.5,8,Y,Medications///Self Medications,VITA D 50000 IU TAB 15'S.jpg
DPH-106-VIT-CED,VITACED MULTIVITAMIN 20 EFF/TAB,29,8,Y,Medications///Self Medications,VITACED MULTIVITAMIN 20 EFF TAB.jpg
DPH-107-VOC-EZE,VOCAL EZE THROAT SPRAY,49,4,Y,Medications///Self Medications,VOCAL EZE THROAT SPRAY.jpg
DPH-108-VOL-25M,VOLTAREN 25MG SUPP. 10'S,16.5,4,Y,Medications///Self Medications,VOLTAREN 25MG SUPP. 10'S.jpg
DPH-109-VOL-125,VOLTAREN 12.5MG SUPP.10'S,8,3,Y,Medications///Self Medications,VOLTAREN 12.5MG SUPP.10'S.jpg
DPH-110-VOT-100,VOLTAREN 100MG SUPP. 5'S ADULT,30,4,Y,Medications///Self Medications,VOLTAREN 100MG SUPP. 5'S ADULT.jpg
DPH-111-WAX-SOL,WAXSOLEAR DROPS 10ML,15,4,Y,Medications///Self Medications,WAXSOLEAR DROPS 10ML.jpg
DPH-112-ZEL-SYP,ZEAL SUGAR FREE COUGH SYRUP,20,4,Y,Medications///Self Medications,ZEAL SUGAR FREE COUGH SYRUP.jpg
DPH-113- ZEC-LOZ,ZECUF LEMON 24 LOZENGES,24,4,Y,Medications///Self Medications,ZECUF LEMON 24 LOZENGES.jpg
DPH-114-ZIV-SWB,ZIVA ALCOHOL SWABS 200'S,15,5,Y,Medications///Self Medications,ZIVA ALCOHOL SWABS 200'S.jpg
DPH-115-FAC-MSK,FACE MASK WASHABLE COTTON ,40,2,Y,Covid 19 (PPE),FACE MASK WASHABLE COTTON.jpg
DPH-116-AME-LIQ,AME LIQUID PARAFFIN 200ML,13,4,Y,Medications///Self Medications,AME LIQUID PARAFFIN 200ML.jpg
