Product code,Language,Price,Quantity,Product name,Taxes,Status,Vendor,Category,Detailed image,Product id,OTC Product
"DPH-001-ACT-CEL","en","361.90","1","ACT CELLS CHLORELLA 200G","VAT INCLUDED","A","DWAAE Pharmacy","Vitamins & Nutrition///Nutrition///Specialty Supplements","exim/backup/images/ACT_CELLS_CHLORELLA_200G.jpg#{[ar]:;[en]:;}","47058","Y"
"DPH-002-ACT-30G","en","93.33","0","ACT CELLS CHLORELLA 30G","VAT Exclude","A","DWAAE Pharmacy","Vitamins & Nutrition///Nutrition///Specialty Supplements","exim/backup/images/ACT_CELLS_CHLORELLA_30G.jpg#{[ar]:;[en]:;}","47059","Y"
"DPH-003-ADD-MAG","en","15.00","5","ADDITIVA MAGNESIUM EFF/TAB 10'S","VAT Medicines 0%","A","DWAAE Pharmacy","Vitamins & Nutrition///Nutrition///Minerals","exim/backup/images/ADDITIVA_MAGNESIUM_EFF-TAB_10'S.jpg#{[ar]:;[en]:;}","47060","Y"
