Product code,Language,Price,Quantity,Product name,Taxes,Status,Vendor,Category,List price,Product id,OTC Product
"WES-985-185-LAB","en","58.00","1","Westlab Recover Bath Salt With Epsom Salt 1Kg","","A","DWAAE Pharmacy","Personal Care///Personal Hygiene///Bath & Shower","0.00","53905","Y"
"WES-987-187-LAB","en","24.00","1","Westlab Relaxing Bath Fizzer With Dead Sea Salt 150 g","","A","DWAAE Pharmacy","Personal Care///Personal Hygiene///Bath & Shower","0.00","53906","Y"
"WES-928-128-LAB","en","65.00","1","Westlab Relaxing Magnesium Flakes 1Kg","","A","DWAAE Pharmacy","Personal Care///Personal Hygiene///Bath & Shower","0.00","53907","Y"
"WES-971-171-LAB","en","24.00","1","Westlab Reviving Shower Wash With Epsom Salt 400 ml","","A","DWAAE Pharmacy","Personal Care///Personal Hygiene///Bath & Shower","0.00","53908","Y"
"WES-952-152-LAB","en","58.00","1","Westlab Sleep Bath Salt With Epsom & Dead Sea Salts 1Kg","","A","DWAAE Pharmacy","Personal Care///Personal Hygiene///Bath & Shower","0.00","53909","Y"
"WES-973-173-LAB","en","24.00","1","Westlab Soothing Shower Wash With Dead Sea Salt 400 ml","","A","DWAAE Pharmacy","Personal Care///Personal Hygiene///Bath & Shower","0.00","53910","Y"
"WOO-174-BOO-154","en","23.00","1","WooBamboo Standard Handle Soft Tooth Brush","","A","DWAAE Pharmacy","Personal Care///Oral Care///Tooth Brushes","0.00","53912","Y"
"WOO-173-BOO-153","en","23.00","1","WooBamboo Standard Handle Super Soft Tooth Brush","","A","DWAAE Pharmacy","Personal Care///Oral Care///Tooth Brushes","0.00","53913","Y"
"ML_XENICAL120MG","en","491.50","1","XENICAL 120mg 84'S","","A","DWAAE Pharmacy","Medications","0.00","53916","Y"
"cv_xpel_01","en","7.50","1","XPEL SYRUP 15MG/5ML 100ML","","A","DWAAE Pharmacy","Medications///Self Medications///Cough, Allergy and Expectorants. ","0.00","53917","Y"
"cv_xylo-acino_6183","en","294.00","1","XYLO-ACINO 0.1% NASAL SPRAY 10ML","","A","DWAAE Pharmacy","Medications","0.00","53920","Y"
"cv_xylolin_6178","en","11.00","1","XYLOLIN NASAL SPRAY ADULT 10ml","","A","DWAAE Pharmacy","Medications","0.00","53922","Y"
"cv_xylolin_6187","en","9.50","1","XYLOLIN NASAL SPRAY ADULT 10ml","","A","DWAAE Pharmacy","Medications///Self Medications///Nasal Drops & Sprays ","0.00","53923","Y"
"MP_XYZAL_5MG","en","15.50","1","XYZAL TAB 5 MG - 30 S","","A","DWAAE Pharmacy","Medications","0.00","53926","Y"
"cv_yaya_omega_3704","en","11.00","1","YAYA BEAR OMEGA-3 60'S","","A","DWAAE Pharmacy","Vitamins & Nutrition///Children Supplements","0.00","53929","Y"
"cv_yaya_vita_-c_6235","en","58.50","1","YAYA BEAR VITA-C 60'S","","A","DWAAE Pharmacy","Vitamins & Nutrition///Children Supplements","0.00","53930","Y"
"ML_YAYA_MULTI60","en","28.50","1","YAYA MULTI 60 GUMMIES","","A","DWAAE Pharmacy","Vitamins & Nutrition///Children Supplements","0.00","53932","Y"
"MX_ZECOOL02","en","24.00","1","ZECOOL","","A","DWAAE Pharmacy","Medications","0.00","53944","Y"
"cv_zecuf_herbal_cough_lozenges_(lemon)_6239","en","24.00","1","ZECUF HERBAL COUGH LOZENGES (LEMON) 24'S","","A","DWAAE Pharmacy","Medications///Self Medications///Cough, Allergy and Expectorants. ","0.00","53945","Y"
"cv_zecuf_herbal_cough_lozenges_(orange)_6238","en","24.00","1","ZECUF HERBAL COUGH LOZENGES (ORANGE) 24'S","","A","DWAAE Pharmacy","Medications///Self Medications///Cough, Allergy and Expectorants. ","0.00","53946","Y"
"cv_zecuf_herbal_cough_lozenges_(sugar_free)_6241","en","24.00","1","ZECUF HERBAL COUGH LOZENGES (SUGAR FREE) 24'S","","A","DWAAE Pharmacy","Medications///Self Medications///Cough, Allergy and Expectorants. ","0.00","53947","Y"
"cv_zecuf_herbal_cough_lozenges_6240","en","24.00","1","ZECUF HERBAL COUGH LOZENGES 24'S","","A","DWAAE Pharmacy","Medications///Self Medications///Cough, Allergy and Expectorants. ","0.00","53948","Y"
"cv_zecuf_herbal_lozenges_(honey_lemon)_6237","en","69.00","1","ZECUF HERBAL LOZENGES (HONEY LEMON) 24'S","","A","DWAAE Pharmacy","Medications///Self Medications///Cough, Allergy and Expectorants. ","0.00","53949","Y"
"cv_zecuf_herbal_cough_remedy_4432","en","26.00","1","ZECUF SYRUP 100ML","","A","DWAAE Pharmacy","Medications///Self Medications///Cough, Allergy and Expectorants. ","0.00","53950","Y"
"cv_zecuf_herbal_cough_remedy_4433","en","28.00","1","ZECUF SYRUP SUGAR FREE 100 ML","","A","DWAAE Pharmacy","Medications///Self Medications///Cough, Allergy and Expectorants. ","0.00","53951","Y"
"ZWI-ING-614-314","en","99.75","1","Zwilling Twinox Tweezer Slanted 80 mm","","A","DWAAE Pharmacy","Personal Care///Skin Care///Skin Care & Accessories","0.00","53967","Y"
"cv_zyrtec_1447","en","26.00","1","ZYRTEC 10 mg TAB 20'S","","A","DWAAE Pharmacy","Medications///Self Medications///Allergy","0.00","53971","Y"
"cv_zyrtec_1463","en","22.00","1","ZYRTEC DROPS 10 ml BOTTLE","","A","DWAAE Pharmacy","Medications///Self Medications///Allergy","0.00","53972","Y"
"cv_zyrtec_1465","en","41.50","1","ZYRTEC SOLN.75ml BOTTLE","","A","DWAAE Pharmacy","Medications///Self Medications///Allergy","0.00","53973","Y"
"cv_vidermina_intimate_5015","en","12.00","1","VIDERMINA INTIMATE GEL 30ML","","A","DWAAE Pharmacy","Daily Essentials///Feminine Care///Intimate Care & Hygiene","0.00","54088","Y"
"cv_vigormax","en","211.50","1","VIGORMAX","","A","DWAAE Pharmacy","Medications","0.00","54089","N"
"cv_vigranon_b_5449","en","10.00","1","VIGRANON B","","A","DWAAE Pharmacy","Medications","0.00","54090","Y"
"cv_vigrx_for_men_4453","en","250.00","1","VIGRX FOR MEN","","A","DWAAE Pharmacy","Medications","0.00","54091","N"
"cv_viscodril","en","33.50","1","VISCODRIL EXPECT.SY 100ML","","A","DWAAE Pharmacy","Medications///Self Medications///Cough, Allergy and Expectorants. ","0.00","54093","Y"
"cv_visine_5405","en","9.00","1","VISINE","","A","DWAAE Pharmacy","Medications","0.00","54094","N"
"cv_vismed_4991","en","40.50","1","VISMED","","A","DWAAE Pharmacy","Medications","0.00","54095","N"
"cv_vita_d_6041","en","76.50","1","VITA D","","A","DWAAE Pharmacy","Medications","0.00","54097","N"
"ML_VITA_GESTAT60","en","129.00","1","VITA GESTAT PRENATAL","","A","DWAAE Pharmacy","Medications","0.00","54098","N"
"cv_vita_orthocal-dk_6055","en","109.00","1","VITA ORTHOCAL-DK","","A","DWAAE Pharmacy","Medications","0.00","54099","N"
"cv_vita-d_6019","en","127.50","1","VITA-D","","A","DWAAE Pharmacy","Medications","0.00","54100","N"
"ML_VITAVIGOR_OSTEOPOREX","en","88.20","1","VITA-VIGOR OSTEOPOREX","","A","DWAAE Pharmacy","Medications","0.00","54101","N"
"VIT-ICS-630-334","en","32.90","1","Vitabiotics Pregnacare Stretch Cream 100 mL","","A","DWAAE Pharmacy","Personal Care///Skin Care///Scars & Stretchmarks","0.00","54102","Y"
"cv_vitamin_b12_forte_hevert_2235","en","59.00","1","VITAMIN B12 FORTE HEVERT INJ 10'S","","A","DWAAE Pharmacy","Vitamins & Nutrition","0.00","54108","Y"
"cv_vitamin_b12_forte_hevert_2235","en","59.00","1","VITAMIN B12 FORTE HEVERT INJ 10'S","","A","DWAAE Pharmacy","Vitamins & Nutrition","0.00","54108","Y"
"mp_vitamin_b2_32","en","63.00","1","VITAMIN B2","","A","DWAAE Pharmacy","Medications","0.00","54109","N"
"mp_vitamin_b6_202","en","8.05","1","VITAMIN B6","","A","DWAAE Pharmacy","Medications","0.00","54110","N"
"cv_vitamin_e_6063","en","11.50","1","VITAMIN E","","A","DWAAE Pharmacy","Medications","0.00","54111","N"
"cv_vitamin_e_6071","en","90.00","1","VITAMIN E","","A","DWAAE Pharmacy","Medications","0.00","54112","N"
"cv_vitamin_e_6072","en","30.00","1","VITAMIN E","","A","DWAAE Pharmacy","Medications","0.00","54113","N"
"ML_VITAMOUNT_OXI","en","40.00","1","VITAMOUNT WITH ANTI OXIDANT","","A","DWAAE Pharmacy","Medications","0.00","54114","N"
"cv_vitan's_nature_omegavyte_3705","en","115.00","1","VITAN'S NATURE OMEGAVYTE","","A","DWAAE Pharmacy","Medications","0.00","54115","N"
"cv_vitane_calcicare_941","en","33.00","1","VITANE CALCICARE","","A","DWAAE Pharmacy","Medications","0.00","54116","N"
"cv_vitane_calcicare_6054","en","35.00","1","VITANE CALCICARE","","A","DWAAE Pharmacy","Medications","0.00","54117","N"
"cv_vitane_covitan_2110","en","72.00","1","VITANE COVITAN","","A","DWAAE Pharmacy","Medications","0.00","54118","N"
"ML_VITANE_DROPS30ML","en","23.00","1","VITANE DROPS","","A","DWAAE Pharmacy","Medications","0.00","54119","Y"
"cv_vitane_irovit_3649","en","23.00","1","VITANE IROVIT","","A","DWAAE Pharmacy","Medications","0.00","54120","Y"
"ML_VITANE_LIQUID200ML","en","35.00","1","VITANE LIQUID 200ML","","A","DWAAE Pharmacy","Vitamins & Nutrition///Nutrition///Minerals","0.00","54121","Y"
"ML_VITANE_VITAGLOBIN","en","35.00","1","VITANE VITAGLOBIN","","A","DWAAE Pharmacy","Medications","0.00","54122","Y"
"cv_vitane_vitajoint_6045","en","66.00","1","VITANE VITAJOINT","","A","DWAAE Pharmacy","Medications","0.00","54123","N"
"cv__nature_ferro001","en","50.00","1","VITANE'S NATURE FERRO","","A","DWAAE Pharmacy","Medications","0.00","54124","N"
"ML_VITANE_NATURE ","en","165.00","1","VITANE'S NATURE JOINTFREE TRIPLE ACTION","","A","DWAAE Pharmacy","Medications","0.00","54125","N"
"mp_vitane's_royal_jelly_188","en","72.00","1","VITANE'S ROYAL JELLY","","A","DWAAE Pharmacy","Medications","0.00","54127","N"
"cv_vitanes_calcivyte_5065","en","33.00","1","VITANES CALCIVYTE","","A","DWAAE Pharmacy","Medications","0.00","54128","N"
"VIT-186-TIS-166","en","26.25","1","Vitis Baby Toothbrush 1's","","A","DWAAE Pharmacy","Personal Care///Oral Care///Tooth Brushes","0.00","54140","Y"
"VIT-185-TIS-165","en","25.00","1","VITIS JUNIOR BRUSH","","A","DWAAE Pharmacy","Personal Care///Oral Care///Tooth Brushes","0.00","54141","Y"
"VIT-184-TIS-164","en","26.25","1","Vitis Kids Toothbrush 56237 1's","","A","DWAAE Pharmacy","Personal Care///Oral Care///Tooth Brushes","0.00","54142","Y"
"VIT-IS -713-417","en","32.25","1","Vitis Orthodontic Toothbrush","","A","DWAAE Pharmacy","Personal Care///Oral Care///Orthodontics Care","0.00","54143","Y"
"VIT-177-TIS-157","en","32.25","1","Vitis Orthodontic Toothbrush","","A","DWAAE Pharmacy","Personal Care///Oral Care///Tooth Brushes","0.00","54144","Y"
"VIT-IS -711-415","en","43.00","1","Vitis Orthodontic Toothpaste 100 mL","","A","DWAAE Pharmacy","Personal Care///Oral Care///Orthodontics Care","0.00","54145","Y"
"877-VIT-MOU-AID","en","45.00","1","VITIS SENSITIVE MOUTHWASH 500ML","","A","DWAAE Pharmacy","Personal Care///Oral Care///Mouthwash","0.00","54146","Y"
"ACM-ACM-612-316","en","199.00","1","VITIX GEL 50ML","","A","DWAAE Pharmacy","Beauty Care///Face Care///Pigmentation","0.00","54147","Y"
"VIT-950-150-TRY","en","49.00","1","Vitry Dry Shampoo 200 ml","","A","DWAAE Pharmacy","Personal Care///Personal Hygiene///Bath & Shower","0.00","54149","Y"
"VIV-301-LET-CAL","en","200.00","1","Viviscal Advanced Hair Health Supplements For Women 1 month supply, 60 tabs","","A","DWAAE Pharmacy","Personal Care///Hair Care///Hair Supplement","0.00","54150","Y"
"VIV-302-LET-CAL","en","448.00","1","Viviscal Advanced Hair Health Supplements For Women 3 month supply, 180 tabs","","A","DWAAE Pharmacy","Personal Care///Hair Care///Hair Supplement","0.00","54151","Y"
"VIV-311-LET-CAL","en","235.00","1","Viviscal Extra Strenth Dietary Supplement","","A","DWAAE Pharmacy","Personal Care///Hair Care///Hair Supplement","0.00","54152","Y"
"VIV-304-UID-CAL","en","95.00","1","Viviscal Gorgeous Growth Densifying Elixir 1.7 oz , 50 ml","","A","DWAAE Pharmacy","Personal Care///Hair Care///Hair Supplement","0.00","54153","Y"
"VIV-305-POO-CAL","en","40.00","1","Viviscal Gorgeous Growth Densifying Shampoo, 250ml","","A","DWAAE Pharmacy","Personal Care///Hair Care///Hair Supplement","0.00","54154","Y"
"VIV-308-POO-CAL","en","50.00","1","Viviscal Man Full Force Fortifying Shampoo","","A","DWAAE Pharmacy","Personal Care///Hair Care///Hair Supplement","0.00","54155","Y"
"VIV-307-LET-CAL","en","200.00","1","Viviscal Man Maximum Strength Hair Nourishment System, 1 month supply, 60 Tablets","","A","DWAAE Pharmacy","Personal Care///Hair Care///Hair Supplement","0.00","54156","Y"
"VIV-303-LET-CAL","en","448.00","1","Viviscal Man Maximum Strength Hair Nourishment System, 3 month supply, 180 Tablets","","A","DWAAE Pharmacy","Personal Care///Hair Care///Hair Supplement","0.00","54157","Y"
"VIV-306-LET-CAL","en","537.76","1","Viviscal Professional Dietary Supplement for Hair Growth - 180 Tablets","","A","DWAAE Pharmacy","Personal Care///Hair Care///Hair Supplement","0.00","54158","Y"
"VIV-309-LET-CAL","en","244.00","1","Viviscal Professional Dietary Supplement, 1-month supply - (60 Tablets)","","A","DWAAE Pharmacy","Personal Care///Hair Care///Hair Supplement","0.00","54159","Y"
"VIV-310-LET-CAL","en","199.00","1","Viviscal Professional Hair Growth 60 Tab","","A","DWAAE Pharmacy","Personal Care///Hair Care///Hair Supplement","0.00","54160","Y"
"cv_vocal_eze01","en","49.00","1","VOCAL EZE SPRAY 30ML","","A","DWAAE Pharmacy","Medications///Self Medications///Cold and Flu///Sore Throat","0.00","54161","Y"
"cv_voltaren_2679","en","60.00","1","VOLTAREN 12.5mg SUPP. 10'S","","A","DWAAE Pharmacy","Medications///Self Medications///pain and fever relief ","0.00","54175","Y"
"cv_voltaren_2693","en","16.50","1","VOLTAREN 25 SUPP. 10'S","","A","DWAAE Pharmacy","Medications///Self Medications///pain and fever relief ","0.00","54176","Y"
"cv_voltaren_2724","en","33.00","1","VOLTAREN 50mg SUPP. 10'S","","A","DWAAE Pharmacy","Medications///Self Medications///pain and fever relief ","0.00","54177","Y"
"cv_voltaren_2717","en","60.00","1","VOLTAREN 50mg TAB 20'S","","A","DWAAE Pharmacy","Medications///Self Medications///pain and fever relief ","0.00","54178","Y"
"cv_voltaren_2756","en","45.00","1","VOLTAREN 75mg AMPULE 5'S INJ","","A","DWAAE Pharmacy","Medications///Self Medications///pain and fever relief ","0.00","54179","Y"
"cv_voltaren_2773","en","53.00","1","VOLTAREN EMULGEL 75 ML","","A","DWAAE Pharmacy","Medications///Self Medications///Skin Treatments///local analgesics ","0.00","54181","Y"
"cv_voltaren_retard_2668","en","63.50","1","VOLTAREN RETARD 100mg TAB 30'S","","A","DWAAE Pharmacy","Medications///Self Medications///pain and fever relief ","0.00","54183","Y"
"cv_voltaren_retard_2667","en","33.00","1","VOLTAREN RETARD 100mg TABS 10'S","","A","DWAAE Pharmacy","Medications///Self Medications///pain and fever relief ","0.00","54184","Y"
"cv_voltaren_sr_2751","en","51.00","1","VOLTAREN SR 75MG TAB 10'S","","A","DWAAE Pharmacy","Medications///Self Medications///pain and fever relief ","0.00","54186","Y"
"cv_voltaren_sr_2752","en","127.50","1","VOLTAREN SR 75mg TAB 30'S","","A","DWAAE Pharmacy","Medications///Self Medications///pain and fever relief ","0.00","54187","Y"
"cv_voltaren_2658","en","30.00","1","VOLTAREN SUPP. 100mg","","A","DWAAE Pharmacy","Medications///Self Medications///pain and fever relief ","0.00","54188","Y"
"cv_voltfast_2628","en","46.50","1","VOLTFAST 50MG SACHETS 30'S","","A","DWAAE Pharmacy","Medications///Self Medications///pain and fever relief ","0.00","54191","Y"
"cv_voltic_2700","en","19.00","1","VOLTIC","","A","DWAAE Pharmacy","Medications","0.00","54193","Y"
"cv_voltic_2738","en","23.00","1","VOLTIC","","A","DWAAE Pharmacy","Medications","0.00","54194","Y"
"cv_votrex_2702","en","11.00","1","VOTREX","","A","DWAAE Pharmacy","Medications","0.00","54197","Y"
"cv_votrex_2742","en","13.50","1","VOTREX","","A","DWAAE Pharmacy","Medications","0.00","54199","Y"
"cv_votrex_retard_2653","en","13.00","1","VOTREX RETARD","","A","DWAAE Pharmacy","Medications","0.00","54200","Y"
"cv_waxsol_2952","en","398.00","1","WAXSOL EAR DROPS","","A","DWAAE Pharmacy","Medications///Self Medications///Ear Medicine","0.00","54205","Y"
"WEL-S.A-628-724","en","588.00","1","Welch Allyn Dura Shock Aneroid Sphygmomanometer","","A","DWAAE Pharmacy","Medical Equipment's///Health Monitors///Blood Pressure Monitors","0.00","54206","Y"
"WEL-LLA-218-341","en","42.00","1","Wella Koleston Color Cream","","A","DWAAE Pharmacy","Personal Care///Hair Care///Hair Color","0.00","54207","Y"
"WEL-LLA-224-347","en","20.50","1","Wella Koleston Hair Color Cream Deer Brown 307/7","","A","DWAAE Pharmacy","Personal Care///Hair Care///Hair Color","0.00","54208","Y"
"WEL-LLA-225-348","en","20.50","1","Wella Koleston Hair Color Cream Grenadine 30645","","A","DWAAE Pharmacy","Personal Care///Hair Care///Hair Color","0.00","54209","Y"
"WEL-LLA-215-338","en","6.00","1","Wella Welloxon Herbal 9% 60 mL","","A","DWAAE Pharmacy","Personal Care///Hair Care///Hair Color","0.00","54210","Y"
"ML_WELLKID_BABY150ML","en","59.00","1","WELLKID BABY AND INFANT","","A","DWAAE Pharmacy","Medications","0.00","54211","Y"
"ML_WELLKID_SMART30","en","48.00","1","WELLKID SMART","","A","DWAAE Pharmacy","Medications","0.00","54212","Y"
"mx_wellpar_65","en","5.00","1","WELLPAR","","A","DWAAE Pharmacy","Medications","0.00","54214","Y"
"mx_wellpar_69","en","12.00","1","WELLPAR","","A","DWAAE Pharmacy","Medications","0.00","54215","Y"
"WES-953-153-LAB","en","35.00","1","Westlab 100% Pure Cleansing Himalayan Salt 1Kg","","A","DWAAE Pharmacy","Personal Care///Personal Hygiene///Bath & Shower","0.00","54218","Y"
"WES-911-111-LAB","en","35.00","1","Westlab 100% Pure Reviving Epsom Salt 1 Kg","","A","DWAAE Pharmacy","Personal Care///Personal Hygiene///Bath & Shower","0.00","54219","Y"
"WES-937-137-LAB","en","35.00","1","Westlab 100% Pure Soothing Dead Sea Salt 1Kg","","A","DWAAE Pharmacy","Personal Care///Personal Hygiene///Bath & Shower","0.00","54220","Y"
"WES-954-154-LAB","en","24.00","1","Westlab Cleansing Shower Wash With Himalayan Salt 400 ml","","A","DWAAE Pharmacy","Personal Care///Personal Hygiene///Bath & Shower","0.00","54221","Y"
"WES-984-184-LAB","en","22.00","1","Westlab Kids Dead Sea Bath Salt 500 g","","A","DWAAE Pharmacy","Personal Care///Personal Hygiene///Bath & Shower","0.00","54222","Y"
"WES-980-180-LAB","en","58.00","1","Westlab Mindful Bath Salt With Epsom & Himalayan Salts 1Kg","","A","DWAAE Pharmacy","Personal Care///Personal Hygiene///Bath & Shower","0.00","54223","Y"
