Product Code,Product Name ,Price,Quantity,OTC,Category,Images
DWE-VHY-DEO-001,Vichy 7 Days Anti Perspirant Cream Treatment 30 Ml,80.48,5,Y,Beauty Care///General Items///Vichy Deodorant,Vichy 7 Days Anti Perspirant Cream Treatment 30 Ml.jpg
DWE-VHY-DEO-002,Vichy Deodorant Anti Transparent 48Hr Spray 125 Ml,73.5,5,Y,Beauty Care///General Items///Vichy Deodorant,Vichy Deodorant Anti Transparent 48Hr Spray 125 Ml.jpg
DWE-VHY-DEO-003,Vichy Deodorant Anti Transparent 48Hr Beauty Deo Roll On 50 Ml,78.75,5,Y,Beauty Care///General Items///Vichy Deodorant,Vichy Deodorant Anti Transparent 48Hr Beauty Deo Roll On 50 Ml.jpg
DWE-VHY-DEO-004,Vichy Deodorant Homme Anti-Transpirant 72H Triple Diffusion 150 Ml,75.6,5,Y,Beauty Care///General Items///Vichy Deodorant,Vichy Deodorant Homme Anti-Transpirant 72H Triple Diffusion 150 Ml.jpg
DWE-VHY-DEO-005,Vichy Deodorant 24H 40ml,80.85,5,Y,Beauty Care///General Items///Vichy Deodorant,Vichy Deodorant 24H 40ml.jpg
DWE-VHY-DEO-006,Vichy Deodorant Homme Anti-Transpirant Extreme Control 72H Roll On 50ml,76.65,5,Y,Beauty Care///General Items///Vichy Deodorant,Vichy Deodorant Homme Anti-Transpirant Extreme Control 72H Roll On 50ml.jpg
DWE-VHY-DEO-007,Vichy Deodorant Mineral 48H Roll On 50ml,76.65,5,Y,Beauty Care///General Items///Vichy Deodorant,Vichy Deodorant Mineral 48H Roll On 50ml.jpg
DWE-VHY-DEO-008,Vichy Deodorant Mineral 48H Aluminum Free Spray 125ml,76.65,5,Y,Beauty Care///General Items///Vichy Deodorant,Vichy Deodorant Mineral 48H Aluminum Free Spray 125ml.jpg
DWE-VHY-DEO-009,Vichy Deodorant Stress Resist 72Hr Anti-Perspirant Treatment Roll On 50ml,76.65,5,Y,Beauty Care///General Items///Vichy Deodorant,Vichy Deodorant Stress Resist 72Hr Anti-Perspirant Treatment Roll On 50ml.jpg
DWE-VHY-DEO-010,Vichy Deodorant 48Hr Soothing Anti-Perspirant Roll On 50ml,76.65,5,Y,Beauty Care///General Items///Vichy Deodorant,Vichy Deodorant 48Hr Soohing Anti-Perspirant Roll On 50ml.jpg
