Product Code,Product Name,Description,Price,Stock,OTC,Category,Product Image
ALC-001-BMB-KN1,Bblonde Max Blonding Kit No. 1,"<p><strong>Description</strong></p> <p>Works best on light to dark brown hair. Permanent Lightener.&lt;br/&gt;Lifts up to 8-9 shades. For ultimate blonde salon quality hair,&lt;br/&gt;use Bblonde Maximum Blonding Kit No.1. Formulated to work best on light brown to dark brown hair,&lt;br/&gt; this easy-to-use kit also has a conditioning shampoo to cleanse and condition,&lt;br/&gt; leaving hair vibrant, shiny and looking fabulous! &lt;br/&gt;Benefits &amp; Features A professional lightening salon formula Flexible blonding Professional salon formula&lt;br/&gt; Flexible blonding Easy to use Leaves hair lustrously soft and shiny&lt;br/&gt; Formulated with avocado oil for enhanced hydration and shine. Blonding kit</p>",52.8,3,Y,BEAUTY CARE///Hair Care,1Maximum Blonding Kit No.1.jpg
ALC-002-BMB-KN2,Bblonde Max Blonding Kit No. 2,"<p><strong>Description</strong></p> <p>Works best on blonde to medium brown hair. &lt;br/&gt;Permanent Lightener. Lifts up to 6-7 shades.&lt;br/&gt; For ultimate blonde salon quality hair,&lt;br/&gt; use Bblonde Maximum Blonding Kit No.2. Formulated to work best on light brown to dark brown hair, &lt;br/&gt;this easy-to-use kit also has a conditioning shampoo to cleanse and condition,&lt;br/&gt; leaving hair vibrant, shiny and looking fabulous. Blonding kit</p>",52.8,3,Y,BEAUTY CARE///Hair Care,2Maximum Blonding Kit No.2.jpg
ALC-003-BPC-COR,Bblonde Platinum Colour Corrector,<p><strong>Description</strong></p> <p>Non permanent. No ammonia or peroxide. &lt;br/&gt;Refreshes and improves shade and condition of blonde hair whilst neutralising yellow and brassy tones.&lt;br/&gt; Platinum blonde adds subtle cool blonde shades that last up to 8 washes.</p>,49.9,3,Y,BEAUTY CARE///Hair Care,3Bblonde Platinum Blonde Toner.jpg
ALC-004-BAB-CCR,Bblonde Atomic Blonde Colour Corrector,"<p><strong>Description</strong></p> <p>Non permanent. No ammonia or peroxide.&lt;br/&gt; Professionally formulated to create a stylish and &lt;br/&gt;vibrant atomic blonde shade whilst protecting and conditioning the hair. &lt;br/&gt;This on trend toner will add vibrant colour to pre-lightened and naturally blonde hair,&lt;br/&gt; lasting up to 8 washes.</p>",49.9,3,Y,BEAUTY CARE///Hair Care,4JR_Toner_front_AtomicBlonde.jpg
ALC-005-BSC-COR,Bblonde Silver Colour Corrector,"<p><strong>Description</strong></p> <p>The Silver hair toner colour corrector has a purple liquid that will correct the bright yellow&lt;br/&gt; shades of your hair. Refreshes and improves shade and condition of &lt;br/&gt;coloured hair whilst neutralising yellow and brassy tones, its necessary for you to &lt;br/&gt;correct or personalise your colour to get the exact shade youre looking for.&lt;br/&gt; Is a toner only for blondes?&lt;br/&gt;Contrary to popular belief, toners are not just used for achieving blonde shades,&lt;br/&gt; but are also a must for redheads and brunettes who want to banish unwanted brassy tones.&lt;br/&gt; Its also possible to use a toner if they want to personalize their hair colour by making it warmer or cooler.&lt;br/&gt; Jerome Russell Bblonde Colour Corrector / Hair Toner is non-permanent,&lt;br/&gt; no ammonia or peroxide.</p>",49.9,3,Y,BEAUTY CARE///Hair Care,5Bblonde Colour Toner Silver.jpg
ALC-006-BLC-TON,Bblonde Lilac Colour Toner,"<p><strong>Description</strong></p> <p>For use on pre-lightened and naturally blonde hair&lt;br/&gt;Non permanent. No ammonia or peroxide.&lt;br/&gt;Professionally formulated to create a stylish and vibrant lilac shade whilst&lt;br/&gt; protecting and conditioning the hair. &lt;br/&gt;This on trend lilac toner will add &lt;br/&gt;vibrant colour to pre-lightened and naturally blonde hair, lasting up to 8 washes.</p>",45.9,3,Y,BEAUTY CARE///Hair Care,6Bblonde Colour Toner Lilac box.jpg
ALC-007-BRG-CTN,Bblonde Rose Gold Colour Toner,"<p><strong>Description</strong></p> <p>Non permanent. No ammonia or peroxide. &lt;br/&gt;Professionally formulated to create a stylish and vibrant rose gold shade whilst&lt;br/&gt; protecting and conditioning the hair. This on trend rose gold toner will &lt;br/&gt;add vibrant colour to pre-lightened and naturally blonde hair,&lt;br/&gt; lasting up to 8 washes.</p>",45.9,3,Y,BEAUTY CARE///Hair Care,7Bblonde Colour Toner Rose Gold.JPG
ALC-008-BLP-SPO,Bblonde Purple Shampoo,<p><strong>Description</strong></p> <p>This sulphate free brightening shampoo contains a violet toning complex to treat brassy&lt;br/&gt; tones and dullness in both lightened and treated blonde hair.&lt;br/&gt;Enhanced with Lavender and English Poppy Seed Oil this shampoo&lt;br/&gt; will help to nourish and condition the hair. The result is healthy salon quality hair. &lt;br/&gt;Benefits &amp; Features Enhance Colour For Blondes Sulphate Free with&lt;br/&gt;Bright Colour Complex Neutralizes brassy tones UV Filter</p>,50.35,3,Y,BEAUTY CARE///Hair Care,8Silverising Shampoo.JPG
ALC-009-BLP-CON,Bblonde Purple Conditioner,"<p><strong>Description</strong></p> <p>Enhanced with a combination of naturally derived oils, Lavender and English Poppy&lt;br/&gt; Seed, this hydrating and moisturising conditioner nourishes and revives hair for long lasting colour. &lt;br/&gt;The result is healthy salon quality hair.&lt;br/&gt;Benefits &amp; Features Enhance Colour For Blondes Sulphate Free with&lt;br/&gt; Bright Colour Complex Neutralizes brassy tones UV Filter.</p>",52.35,3,Y,BEAUTY CARE///Hair Care,9Silverising Conditioner.JPG
ALC-010-BCP-SPO,Bblonde Colour Protect Shampoo (Sulphate Free),<p><strong>Description</strong></p> <p>This sulphate free highly nourishing and gentle cleansing shampoo formulated with&lt;br/&gt;colour Protect Complex helps to prevent fading and is suitable for &lt;br/&gt;all shades of coloured hair. &lt;br/&gt;Enhanced with a combination of Chamomile and English Poppy Seed Oil&lt;br/&gt; this shampoo provides deep nourishment for vibrant colour results.&lt;br/&gt;The result is healthy salon quality hair. &lt;br/&gt;Benefits &amp; Features Long lasting colour results For colour treated hair &lt;br/&gt;Sulphate Free with Colour Protect Complex Gentle formulation UV Filter.</p>,50.35,3,Y,BEAUTY CARE///Hair Care,10Colour Protect Shampoo.JPG
ALC-011-BCP-CON,Bblonde Colour Protect Conditioner (Sulphate Free),"<p><strong>Description</strong></p> <p>&lt;p&gt;This luxurious and hydrating conditioner revitalises coloured hair from root to tip. &lt;br/&gt;Enhanced with a combination id naturally derived oils, Camomile and English Poppy Seed, &lt;br/&gt;this conditioner nourishes and revives hair for vibrant colour.&lt;br/&gt; The result is healthy salon quality hair.&lt;/p&gt;</p> <p>&lt;p&gt;&lt;strong&gt;Benefits &amp; Features&lt;/strong&gt;&lt;/p&gt;</p> <p>Long lasting colour results for colour treated hair.&lt;br/&gt;<br/>Gentle formulation with Colour Protect Complex.&lt;br/&gt;<br/>Nourishes and revives hair for vibrant colour.&lt;br/&gt;<br/>100 % Sulphate Free&lt;br/&gt;<br/>100% Paraben Free&lt;br/&gt;<br/>100% Pro Result&lt;br/&gt;</p>",52.35,3,Y,BEAUTY CARE///Hair Care,11Colour Protect Conditioner.JPG
ALC-012-BPC-REP,Bblonde Pro Color Renew - Platinum   (2 in 1 Hair Treatment and Colour Revival)                                  ,"<p><strong>Description</strong></p> <p>Colour conditioning treatment for grey, silver and ash blonde tones.&lt;br/&gt; Revive your colour treated hair. Non permanent. No ammonia, peroxide or PPD.&lt;br/&gt; Jerome Russell Pro Colour Renew is a gentle colour condition treatment with no ammonia,&lt;br/&gt; peroxide or PPD. It gives superb colour results and adds extra shine to hair.&lt;br/&gt; Its ideal for refreshing colour between colour services and offers 8 colour tones&lt;br/&gt; to suit most shades. Pro Colour Renew colour reviving treatment is formulated with&lt;br/&gt; the perfect combination of colour pigments and cosmetic agents.&lt;br/&gt; Enriched with English Poppy Seed Oil and camomile, Pro Colour Renew nourishes&lt;br/&gt; the hair leaving it softer, more manageable,&lt;br/&gt; with high shine and increased colour vibrancy.</p>",54.5,3,Y,BEAUTY CARE///Hair Care,12PCR Platinum.jpg
ALC-013-BPC-REG,Bblonde Pro Color Renew - Gold (2 in 1 Hair Treatment and Colour Revival)                                          ,"<p><strong>Description</strong></p> <p>Colour Conditioning Treatment. Non permanent. &lt;br/&gt;No ammonia, peroxide or PPD. Jerome Russell Pro Colour Renew is a gentle colour condition&lt;br/&gt; treatment with no ammonia, peroxide or PPD. &lt;br/&gt;It gives superb colour results and adds extra shine to hair.&lt;br/&gt; Its ideal for refreshing colour between colour services and offers 8 colour tones&lt;br/&gt; to suit most shades. Pro Colour Renew colour reviving treatment is &lt;br/&gt;formulated with the perfect combination of colour pigments and cosmetic agents. &lt;br/&gt;Enriched with English Poppy Seed Oil and camomile,&lt;br/&gt; Pro Colour Renew nourishes the hair leaving it softer,&lt;br/&gt; more manageable, with high shine and increased colour vibrancy.&lt;br/&gt; Benefits &amp; Features Instant results and easy to use Adds &lt;br/&gt;depth and tone Perfect for in-between salon visits Ideal for use in-between your &lt;br/&gt;home colour Free from ammonia, peroxide and PPD Brilliant shine</p>",54.5,3,Y,BEAUTY CARE///Hair Care,13PCR Gold.jpg
ALC-014-BPC-REL,Bblonde Pro Color Renew - Plum   (2 in 1 Hair Treatment and Colour Revival)                                       ,"<p><strong>Description</strong></p> <p>Revive your colour treated hair for all plum Tones.&lt;br/&gt; Colour Conditioning Treatment. Non permanent. No ammonia, peroxide or PPD. &lt;br/&gt;Jerome Russell Pro Colour Renew is a gentle colour condition treatment with no ammonia,&lt;br/&gt; peroxide or PPD. It gives superb colour results and adds extra shine to hair. &lt;br/&gt;Its ideal for refreshing colour between colour services and offers 8 colour tones to suit most shades.&lt;br/&gt; Pro Colour Renew colour reviving treatment is formulated with the perfect combination&lt;br/&gt; of colour pigments and cosmetic agents.&lt;br/&gt; Enriched with English Poppy Seed Oil and camomile,&lt;br/&gt; Pro Colour Renew nourishes the hair leaving it softer, more manageable,&lt;br/&gt; with high shine and increased colour vibrancy.</p>",54.5,3,Y,BEAUTY CARE///Hair Care,14PCR Plum.jpg
ALC-015-BPC-REC,Bblonde Pro Color Renew - Chestnut (2 in 1 Hair Treatment and Colour Revival)                                  ,"<p><strong>Description</strong></p> <p>Revive your colour treated hair for warm brown tones. Colour Conditioning Treatment.&lt;br/&gt; Non permanent. No ammonia, peroxide or PPD.&lt;br/&gt; Jerome Russell Pro Colour Renew is a gentle colour condition treatment with no ammonia, peroxide or PPD.&lt;br/&gt; It gives superb colour results and adds extra shine to hair.&lt;br/&gt; Its ideal for refreshing colour between colour services and offers 8 colour tones to suit most shades. &lt;br/&gt;Pro Colour Renew colour reviving treatment is formulated with the perfect combination of &lt;br/&gt;colour pigments and cosmetic agents. &lt;br/&gt;Enriched with English Poppy Seed Oil and chamomile,&lt;br/&gt; Pro Colour Renew nourishes the hair leaving it softer,&lt;br/&gt; more manageable, with high shine and increased colour vibrancy.</p>",54.5,3,Y,BEAUTY CARE///Hair Care,15PCR Chestnut.jpg
ALC-016-BLB-MTN,Bblonde Bond Maintainer (Intensive Hair Treatment),"<p><strong>Description</strong></p> <p>Jplex Bond Maintainer is a deep conditioning treatment formulated to strengthen&lt;br/&gt;bleached and coloured hair. Used regularly, this nourishing treatment &lt;br/&gt;smooths and seals the hair shaft for strong, vibrant and healthy-looking coloured &lt;br/&gt;hair. A salon-quality treatment that saves your time and money. </p>",70.6,3,Y,BEAUTY CARE///Hair Care,16Jplex Bond Maintainer.jpg
ALC-017-BLB-KIT,Bblonde Bond Kit (Hair Protector from coloring Process),"<p><strong>Description</strong></p> <p>Discover the unique Jplex 2 step system for strong, smooth and healthy-looking hair. &lt;br/&gt;Incredible bond technology protects the hair throughout the chemical process to &lt;br/&gt;minimize damage. Step 1: Jplex Bond Builder - reinforces damaged bonds for &lt;br/&gt;maximum strength when mixed with the Jerome Russell BBlonde Blonding Kit or &lt;br/&gt;any color or brand of your choice. Step 2: Jplex Bond Maintainer - is applied after &lt;br/&gt;the coloring or bleaching process to maximize hair strength and maintain the bond &lt;br/&gt;building results. Can also be used as a once a week treatment. &lt;br/&gt;JPLEx kit can be used up to two times.</p>",82.65,3,Y,BEAUTY CARE///Hair Care,17Jplex Bond Kit.jpg
ALC-018-BNY-SPO,Bblonde No Yellow Shampoo,"<p><strong>Description</strong></p> <p>Banish the brass and get beautiful platinum and cool blonde hair using the Jerome &lt;br/&gt;Russell No Yellow Shampoo. Salon strength and sulphate free, this professionally &lt;br/&gt;formulated product will take your yellow/orange tones and transform them into your&lt;br/&gt; dream hair colour. Enriched with English Poppy Seed Oil and infused with a &lt;br/&gt;fruity herbal fragrance this salon strength treatment will help banish the challenges &lt;br/&gt;of brassiness and fading blondes. Further enriched with UVA &amp; UVB filters to &lt;br/&gt;protect your amazing colour.</p>",68,3,Y,BEAUTY CARE///Hair Care,18Mask (2).jpg
ALC-019-BNY-MSK,Bblonde No Yellow Mask,"<p><strong>Description</strong></p> <p>Banish the brass and get beautiful platinum and cool blonde hair using the Jerome &lt;br/&gt;Russell No Yellow Shampoo and Mask. Salon strength and sulphate free, this &lt;br/&gt;professionally formulated product will take your yellow/orange tones and transform &lt;br/&gt;them into your dream hair colour. Professionally formulated for use on bleached, grey or super lightened hair. &lt;br/&gt;Enriched with Poppy Seed oil this deep conditioning mask has been designed&lt;br/&gt; to hydrate and nurture dry and damaged hair. &lt;br/&gt;Infused with bright violet pigments to help neutralise unwanted yellow tones. &lt;br/&gt;Further enriched with UVA &amp; UVB filters for further protection.</p>",71,3,Y,BEAUTY CARE///Hair Care,19Mask (1).jpg
