Product code,Language,Product id,Category,List price,Price,Weight,Quantity,Min quantity,Shipping freight,Date added,Downloadable,Files,Ship downloadable,Inventory tracking,Free shipping,Zero price action,Thumbnail,Detailed image,Product name,Description,Meta keywords,Meta description,Search words,Page title,Taxes,Features,Options,Secondary categories,SEO name,Short description,Status,Popularity,Vendor,Package Size (Variation feature),Strength (Variation feature),Detailed image URL
"JOR-NER-DAN-100","en","14379","PERSONAL CARE","0.00","21.00","0.000","0","0","0.00","25 Jun 2020 11:09:15","N","","N","B","N","R","","exim/backup/images/Jordan_Tongue_Cleaner_732i-c7.jpg#{[ar]:;[en]:;}","Jordan Tongue Cleaner","Short description:Tongue cleanerEffective in cleaningWith comfortable gripDescription:Jordan Tongue Cleaner helps to maintain fresh and healthy breath, it effectively removes bacteria on the tongue which is the cause of bad breath, periodontitis and other gum diseases.Benefits:It removes bacteria at the back of the tongueHelps to maintain clean and fresh breathHow to use:For adult use after brushing.","","","","","","Brands: E[Jordan]; Product Type: S[Flossing & Dental Hygiene]; Color: S[N/A]; Age Group: S[Adult]; Manufacturer: S[Lilleborg AS]","","","jordan-tongue-cleaner-ar-2-en","","A","0","Common Vendor","","","https://www.dwaae.com/images/detailed/9/Jordan_Tongue_Cleaner_732i-c7.jpg"
"JOR-NER-DAN-100","en","14400","PERSONAL CARE","0.00","21.00","0.000","0","0","0.00","25 Jun 2020 13:57:56","N","","N","B","N","R","","exim/backup/images/Jordan_Tongue_Cleaner_wff7-eg.jpg#{[ar]:;[en]:;}","Jordan Tongue Cleaner","Short description:Tongue cleanerEffective in cleaningWith comfortable gripDescription:Jordan Tongue Cleaner helps to maintain fresh and healthy breath, it effectively removes bacteria on the tongue which is the cause of bad breath, periodontitis and other gum diseases.Benefits:It removes bacteria at the back of the tongueHelps to maintain clean and fresh breathHow to use:For adult use after brushing.","","","","","","Brands: E[Jordan]; Product Type: S[Flossing & Dental Hygiene]; Color: S[N/A]; Age Group: S[Adult]; Manufacturer: S[Lilleborg AS]","","","jordan-tongue-cleaner-ar-3-en","","A","0","Common Vendor","","","https://www.dwaae.com/images/detailed/9/Jordan_Tongue_Cleaner_wff7-eg.jpg"
