State,Code,Country code,Language
"Umm Al Quwain","Umm Al Quwain","AE","en"
"Umm Al Quwain","","","ar"
"Sharjah","sharjiah","AE","en"
"Sharjah","","","ar"
"Ras Al Khaimah","Rak","AE","en"
"Ras Al Khaimah","","","ar"
"Fujairah","fujairah","AE","en"
"Fujairah","","","ar"
"Ajman","ajman","AE","en"
"Ajman","","","ar"
"Dubai","dubai","AE","en"
"Dubai","","","ar"
"Abu Dhabi","abudhabi","AE","en"
"Abu Dhabi","","","ar"
"Ain","01","FR","en"
"Ain","","","ar"
"Aisne","02","FR","en"
"Aisne","","","ar"
"Allier","03","FR","en"
"Allier","","","ar"
"Alpes-de-Haute-Provence","04","FR","en"
"Alpes-de-Haute-Provence","","","ar"
"Alpes-Maritimes","06","FR","en"
"Alpes-Maritimes","","","ar"
"Ardèche","07","FR","en"
"Ardèche","","","ar"
"Ardennes","08","FR","en"
"Ardennes","","","ar"
"Ariège","09","FR","en"
"Ariège","","","ar"
"Aube","10","FR","en"
"Aube","","","ar"
"Aude","11","FR","en"
"Aude","","","ar"
"Aveyron","12","FR","en"
"Aveyron","","","ar"
"Bouches-du-Rhône","13","FR","en"
"Bouches-du-Rhône","","","ar"
"Calvados","14","FR","en"
"Calvados","","","ar"
"Cantal","15","FR","en"
"Cantal","","","ar"
"Charente","16","FR","en"
"Charente","","","ar"
"Charente-Maritime","17","FR","en"
"Charente-Maritime","","","ar"
"Cher","18","FR","en"
"Cher","","","ar"
"Corrèze","19","FR","en"
"Corrèze","","","ar"
"Corse-du-Sud","2A","FR","en"
"Corse-du-Sud","","","ar"
"Côte-d'Or","21","FR","en"
"Côte-d'Or","","","ar"
"Côtes-d'Armor","22","FR","en"
"Côtes-d'Armor","","","ar"
"Creuse","23","FR","en"
"Creuse","","","ar"
"Dordogne","24","FR","en"
"Dordogne","","","ar"
"Doubs","25","FR","en"
"Doubs","","","ar"
"Drôme","26","FR","en"
"Drôme","","","ar"
"Essonne","91","FR","en"
"Essonne","","","ar"
"Eure","27","FR","en"
"Eure","","","ar"
"Eure-et-Loir","28","FR","en"
"Eure-et-Loir","","","ar"
"Finistère","29","FR","en"
"Finistère","","","ar"
"Gard","30","FR","en"
"Gard","","","ar"
"Gers","32","FR","en"
"Gers","","","ar"
"Gironde","33","FR","en"
"Gironde","","","ar"
"Haute-Corse","2B","FR","en"
"Haute-Corse","","","ar"
"Haute-Garonne","31","FR","en"
"Haute-Garonne","","","ar"
"Haute-Loire","43","FR","en"
"Haute-Loire","","","ar"
"Haute-Marne","52","FR","en"
"Haute-Marne","","","ar"
"Haute-Vienne","87","FR","en"
"Haute-Vienne","","","ar"
"Hautes-Alpes","05","FR","en"
"Hautes-Alpes","","","ar"
"Hauts-de-Seine","92","FR","en"
"Hauts-de-Seine","","","ar"
"Hérault","34","FR","en"
"Hérault","","","ar"
"Ille-et-Vilaine","35","FR","en"
"Ille-et-Vilaine","","","ar"
"Indre","36","FR","en"
"Indre","","","ar"
"Indre-et-Loire","37","FR","en"
"Indre-et-Loire","","","ar"
"Isère","38","FR","en"
"Isère","","","ar"
"Jura","39","FR","en"
"Jura","","","ar"
"Landes","40","FR","en"
"Landes","","","ar"
"Loir-et-Cher","41","FR","en"
"Loir-et-Cher","","","ar"
"Loire","42","FR","en"
"Loire","","","ar"
"Loire-Atlantique","44","FR","en"
"Loire-Atlantique","","","ar"
"Loiret","45","FR","en"
"Loiret","","","ar"
"Lot","46","FR","en"
"Lot","","","ar"
"Lot-et-Garonne","47","FR","en"
"Lot-et-Garonne","","","ar"
"Lozère","48","FR","en"
"Lozère","","","ar"
"Maine-et-Loire","49","FR","en"
"Maine-et-Loire","","","ar"
"Manche","50","FR","en"
"Manche","","","ar"
"Marne","51","FR","en"
"Marne","","","ar"
"Paris","75","FR","en"
"Paris","","","ar"
"Seine-Saint-Denis","93","FR","en"
"Seine-Saint-Denis","","","ar"
"Somme","80","FR","en"
"Somme","","","ar"
"Tarn","81","FR","en"
"Tarn","","","ar"
"Tarn-et-Garonne","82","FR","en"
"Tarn-et-Garonne","","","ar"
"Territoire de Belfort","90","FR","en"
"Territoire de Belfort","","","ar"
"Val-d'Oise","95","FR","en"
"Val-d'Oise","","","ar"
"Val-de-Marne","94","FR","en"
"Val-de-Marne","","","ar"
"Var","83","FR","en"
"Var","","","ar"
"Vaucluse","84","FR","en"
"Vaucluse","","","ar"
"Vendée","85","FR","en"
"Vendée","","","ar"
"Vienne","86","FR","en"
"Vienne","","","ar"
"Vosges","88","FR","en"
"Vosges","","","ar"
"Yonne","89","FR","en"
"Yonne","","","ar"
"Alberta","AB","CA","en"
"Alberta","","","ar"
"British Columbia","BC","CA","en"
"British Columbia","","","ar"
"Manitoba","MB","CA","en"
"Manitoba","","","ar"
"New Brunswick","NB","CA","en"
"New Brunswick","","","ar"
"Newfoundland and Labrador","NL","CA","en"
"Newfoundland and Labrador","","","ar"
"Northwest Territories","NT","CA","en"
"Northwest Territories","","","ar"
"Nova Scotia","NS","CA","en"
"Nova Scotia","","","ar"
"Nunavut","NU","CA","en"
"Nunavut","","","ar"
"Ontario","ON","CA","en"
"Ontario","","","ar"
"Prince Edward Island","PE","CA","en"
"Prince Edward Island","","","ar"
"Quebec","QC","CA","en"
"Quebec","","","ar"
"Saskatchewan","SK","CA","en"
"Saskatchewan","","","ar"
"Yukon","YT","CA","en"
"Yukon","","","ar"
"Australian Capital Territory","ACT","AU","en"
"Australian Capital Territory","","","ar"
"New South Wales","NSW","AU","en"
"New South Wales","","","ar"
"Northern Territory","NT","AU","en"
"Northern Territory","","","ar"
"Queensland","QLD","AU","en"
"Queensland","","","ar"
"South Australia","SA","AU","en"
"South Australia","","","ar"
"Tasmania","TAS","AU","en"
"Tasmania","","","ar"
"Victoria","VIC","AU","en"
"Victoria","","","ar"
"Western Australia","WA","AU","en"
"Western Australia","","","ar"
"Drenthe","DR","NL","en"
"Drenthe","","","ar"
"Flevoland","FL","NL","en"
"Flevoland","","","ar"
"Friesland","FR","NL","en"
"Friesland","","","ar"
"Gelderland","GE","NL","en"
"Gelderland","","","ar"
"Groningen","GR","NL","en"
"Groningen","","","ar"
"Limburg","LI","NL","en"
"Limburg","","","ar"
"Noord Brabant","NB","NL","en"
"Noord Brabant","","","ar"
"Noord Holland","NH","NL","en"
"Noord Holland","","","ar"
"Overijssel","OV","NL","en"
"Overijssel","","","ar"
"Utrecht","UT","NL","en"
"Utrecht","","","ar"
"Zeeland","ZE","NL","en"
"Zeeland","","","ar"
"Zuid Holland","ZH","NL","en"
"Zuid Holland","","","ar"
"Baden-Württemberg","BAW","DE","en"
"Baden-Württemberg","","","ar"
"Bayern","BAY","DE","en"
"Bayern","","","ar"
"Berlin","BER","DE","en"
"Berlin","","","ar"
"Branderburg","BRG","DE","en"
"Branderburg","","","ar"
"Bremen","BRE","DE","en"
"Bremen","","","ar"
"Hamburg","HAM","DE","en"
"Hamburg","","","ar"
"Hessen","HES","DE","en"
"Hessen","","","ar"
"Mecklenburg-Vorpommern","MEC","DE","en"
"Mecklenburg-Vorpommern","","","ar"
"Niedersachsen","NDS","DE","en"
"Niedersachsen","","","ar"
"Nordrhein-Westfalen","NRW","DE","en"
"Nordrhein-Westfalen","","","ar"
"Rheinland-Pfalz","RHE","DE","en"
"Rheinland-Pfalz","","","ar"
"Saarland","SAR","DE","en"
"Saarland","","","ar"
"Sachsen","SAS","DE","en"
"Sachsen","","","ar"
"Sachsen-Anhalt","SAC","DE","en"
"Sachsen-Anhalt","","","ar"
"Schleswig-Holstein","SCN","DE","en"
"Schleswig-Holstein","","","ar"
"Thüringen","THE","DE","en"
"Thüringen","","","ar"
"Aberdeen","ABN","GB","en"
"Aberdeen","","","ar"
"Aberdeenshire","ABNS","GB","en"
"Aberdeenshire","","","ar"
"Anglesey","ANG","GB","en"
"Anglesey","","","ar"
"Angus","AGS","GB","en"
"Angus","","","ar"
"Argyll and Bute","ARY","GB","en"
"Argyll and Bute","","","ar"
"Bedfordshire","BEDS","GB","en"
"Bedfordshire","","","ar"
"Berkshire","BERKS","GB","en"
"Berkshire","","","ar"
"Blaenau Gwent","BLA","GB","en"
"Blaenau Gwent","","","ar"
"Bridgend","BRI","GB","en"
"Bridgend","","","ar"
"Bristol","BSTL","GB","en"
"Bristol","","","ar"
"Buckinghamshire","BUCKS","GB","en"
"Buckinghamshire","","","ar"
"Caerphilly","CAE","GB","en"
"Caerphilly","","","ar"
"Cambridgeshire","CAMBS","GB","en"
"Cambridgeshire","","","ar"
"Cardiff","CDF","GB","en"
"Cardiff","","","ar"
"Carmarthenshire","CARM","GB","en"
"Carmarthenshire","","","ar"
"Ceredigion","CDGN","GB","en"
"Ceredigion","","","ar"
"Cheshire","CHES","GB","en"
"Cheshire","","","ar"
"Clackmannanshire","CLACK","GB","en"
"Clackmannanshire","","","ar"
"Conwy","CON","GB","en"
"Conwy","","","ar"
"Cornwall","CORN","GB","en"
"Cornwall","","","ar"
"Denbighshire","DNBG","GB","en"
"Denbighshire","","","ar"
"Derbyshire","DERBY","GB","en"
"Derbyshire","","","ar"
"Devon","DVN","GB","en"
"Devon","","","ar"
"Dorset","DOR","GB","en"
"Dorset","","","ar"
"Dumfries and Galloway","DGL","GB","en"
"Dumfries and Galloway","","","ar"
"Dundee","DUND","GB","en"
"Dundee","","","ar"
"Durham","DHM","GB","en"
"Durham","","","ar"
"East Ayrshire","ARYE","GB","en"
"East Ayrshire","","","ar"
"East Dunbartonshire","DUNBE","GB","en"
"East Dunbartonshire","","","ar"
"East Lothian","LOTE","GB","en"
"East Lothian","","","ar"
"East Renfrewshire","RENE","GB","en"
"East Renfrewshire","","","ar"
"East Riding of Yorkshire","ERYS","GB","en"
"East Riding of Yorkshire","","","ar"
"East Sussex","SXE","GB","en"
"East Sussex","","","ar"
"Edinburgh","EDIN","GB","en"
"Edinburgh","","","ar"
"Essex","ESX","GB","en"
"Essex","","","ar"
"Falkirk","FALK","GB","en"
"Falkirk","","","ar"
"Fife","FFE","GB","en"
"Fife","","","ar"
"Flintshire","FLINT","GB","en"
"Flintshire","","","ar"
"Glasgow","GLAS","GB","en"
"Glasgow","","","ar"
"Gloucestershire","GLOS","GB","en"
"Gloucestershire","","","ar"
"Greater London","LDN","GB","en"
"Greater London","","","ar"
"Greater Manchester","MCH","GB","en"
"Greater Manchester","","","ar"
"Gwynedd","GDD","GB","en"
"Gwynedd","","","ar"
"Hampshire","HANTS","GB","en"
"Hampshire","","","ar"
"Herefordshire","HWR","GB","en"
"Herefordshire","","","ar"
"Hertfordshire","HERTS","GB","en"
"Hertfordshire","","","ar"
"Highlands","HLD","GB","en"
"Highlands","","","ar"
"Inverclyde","IVER","GB","en"
"Inverclyde","","","ar"
"Isle of Wight","IOW","GB","en"
"Isle of Wight","","","ar"
"Kent","KNT","GB","en"
"Kent","","","ar"
"Lancashire","LANCS","GB","en"
"Lancashire","","","ar"
"Leicestershire","LEICS","GB","en"
"Leicestershire","","","ar"
"Lincolnshire","LINCS","GB","en"
"Lincolnshire","","","ar"
"Merseyside","MSY","GB","en"
"Merseyside","","","ar"
"Merthyr Tydfil","MERT","GB","en"
"Merthyr Tydfil","","","ar"
"Midlothian","MLOT","GB","en"
"Midlothian","","","ar"
"Monmouthshire","MMOUTH","GB","en"
"Monmouthshire","","","ar"
"Moray","MORAY","GB","en"
"Moray","","","ar"
"Neath Port Talbot","NPRTAL","GB","en"
"Neath Port Talbot","","","ar"
"Newport","NEWPT","GB","en"
"Newport","","","ar"
"Norfolk","NOR","GB","en"
"Norfolk","","","ar"
"North Ayrshire","ARYN","GB","en"
"North Ayrshire","","","ar"
"North Lanarkshire","LANN","GB","en"
"North Lanarkshire","","","ar"
"North Yorkshire","YSN","GB","en"
"North Yorkshire","","","ar"
"Northamptonshire","NHM","GB","en"
"Northamptonshire","","","ar"
"Northumberland","NLD","GB","en"
"Northumberland","","","ar"
"Nottinghamshire","NOT","GB","en"
"Nottinghamshire","","","ar"
"Orkney Islands","ORK","GB","en"
"Orkney Islands","","","ar"
"Oxfordshire","OFE","GB","en"
"Oxfordshire","","","ar"
"Pembrokeshire","PEM","GB","en"
"Pembrokeshire","","","ar"
"Perth and Kinross","PERTH","GB","en"
"Perth and Kinross","","","ar"
"Powys","PWS","GB","en"
"Powys","","","ar"
"Renfrewshire","REN","GB","en"
"Renfrewshire","","","ar"
"Rhondda Cynon Taff","RHON","GB","en"
"Rhondda Cynon Taff","","","ar"
"Rutland","RUT","GB","en"
"Rutland","","","ar"
"Scottish Borders","BOR","GB","en"
"Scottish Borders","","","ar"
"Shetland Islands","SHET","GB","en"
"Shetland Islands","","","ar"
"Shropshire","SPE","GB","en"
"Shropshire","","","ar"
"Somerset","SOM","GB","en"
"Somerset","","","ar"
"South Ayrshire","ARYS","GB","en"
"South Ayrshire","","","ar"
"South Lanarkshire","LANS","GB","en"
"South Lanarkshire","","","ar"
"Yorkshire","YKS","GB","en"
"Yorkshire","","","ar"
"Staffordshire","SFD","GB","en"
"Staffordshire","","","ar"
"Stirling","STIR","GB","en"
"Stirling","","","ar"
"Suffolk","SFK","GB","en"
"Suffolk","","","ar"
"Surrey","SRY","GB","en"
"Surrey","","","ar"
"Swansea","SWAN","GB","en"
"Swansea","","","ar"
"Torfaen","TORF","GB","en"
"Torfaen","","","ar"
"Tyne and Wear","TWR","GB","en"
"Tyne and Wear","","","ar"
"Vale of Glamorgan","VGLAM","GB","en"
"Vale of Glamorgan","","","ar"
"Warwickshire","WARKS","GB","en"
"Warwickshire","","","ar"
"West Dunbartonshire","WDUN","GB","en"
"West Dunbartonshire","","","ar"
"West Lothian","WLOT","GB","en"
"West Lothian","","","ar"
"West Midlands","WMD","GB","en"
"West Midlands","","","ar"
"West Sussex","SXW","GB","en"
"West Sussex","","","ar"
"West Yorkshire","YSW","GB","en"
"West Yorkshire","","","ar"
"Western Isles","WIL","GB","en"
"Western Isles","","","ar"
"Wiltshire","WLT","GB","en"
"Wiltshire","","","ar"
"Worcestershire","WORCS","GB","en"
"Worcestershire","","","ar"
"Wrexham","WRX","GB","en"
"Wrexham","","","ar"
"Grisons","GR","CH","en"
"Grisons","","","ar"
"Berne","BE","CH","en"
"Berne","","","ar"
"Valais","VS","CH","en"
"Valais","","","ar"
"Vaud","VD","CH","en"
"Vaud","","","ar"
"Tessin","TI","CH","en"
"Tessin","","","ar"
"Saint-Gall","SG","CH","en"
"Saint-Gall","","","ar"
"Zurich","ZH","CH","en"
"Zurich","","","ar"
"Fribourg","FR","CH","en"
"Fribourg","","","ar"
"Lucerne","LU","CH","en"
"Lucerne","","","ar"
"Argovie","AG","CH","en"
"Argovie","","","ar"
"Uri","UR","CH","en"
"Uri","","","ar"
"Thurgovie","TG","CH","en"
"Thurgovie","","","ar"
"Schwytz","SZ","CH","en"
"Schwytz","","","ar"
"Jura","JU","CH","en"
"Jura","","","ar"
"Neuchâtel","NE","CH","en"
"Neuchâtel","","","ar"
"Soleure","SO","CH","en"
"Soleure","","","ar"
"Glaris","GL","CH","en"
"Glaris","","","ar"
"Bâle-Campagne","BL","CH","en"
"Bâle-Campagne","","","ar"
"Obwald","OW","CH","en"
"Obwald","","","ar"
"Schaffhouse","SH","CH","en"
"Schaffhouse","","","ar"
"Genève","GE","CH","en"
"Genève","","","ar"
"Nidwald","NW","CH","en"
"Nidwald","","","ar"
"Appenzell Rhodes-Extérieures","AR","CH","en"
"Appenzell Rhodes-Extérieures","","","ar"
"Zoug","ZG","CH","en"
"Zoug","","","ar"
"Appenzell Rhodes-Intérieures","AI","CH","en"
"Appenzell Rhodes-Intérieures","","","ar"
"Bâle-Ville","BS","CH","en"
"Bâle-Ville","","","ar"
"Agrigento","AG","IT","en"
"Agrigento","","","ar"
"Alessandria","AL","IT","en"
"Alessandria","","","ar"
"Ancona","AN","IT","en"
"Ancona","","","ar"
"Aosta","AO","IT","en"
"Aosta","","","ar"
"Arezzo","AR","IT","en"
"Arezzo","","","ar"
"Ascoli Piceno","AP","IT","en"
"Ascoli Piceno","","","ar"
"Asti","AT","IT","en"
"Asti","","","ar"
"Avellino","AV","IT","en"
"Avellino","","","ar"
"Bari","BA","IT","en"
"Bari","","","ar"
"Belluno","BL","IT","en"
"Belluno","","","ar"
"Benevento","BN","IT","en"
"Benevento","","","ar"
"Bergamo","BG","IT","en"
"Bergamo","","","ar"
"Biella","BI","IT","en"
"Biella","","","ar"
"Bologna","BO","IT","en"
"Bologna","","","ar"
"Bolzano","BZ","IT","en"
"Bolzano","","","ar"
"Brescia","BS","IT","en"
"Brescia","","","ar"
"Brindisi","BR","IT","en"
"Brindisi","","","ar"
"Cagliari","CA","IT","en"
"Cagliari","","","ar"
"Caltanissetta","CL","IT","en"
"Caltanissetta","","","ar"
"Campobasso","CB","IT","en"
"Campobasso","","","ar"
"Carbonia-Iglesias","CI","IT","en"
"Carbonia-Iglesias","","","ar"
"Caserta","CE","IT","en"
"Caserta","","","ar"
"Catania","CT","IT","en"
"Catania","","","ar"
"Catanzaro","CZ","IT","en"
"Catanzaro","","","ar"
"Chieti","CH","IT","en"
"Chieti","","","ar"
"Como","CO","IT","en"
"Como","","","ar"
"Cosenza","CS","IT","en"
"Cosenza","","","ar"
"Cremona","CR","IT","en"
"Cremona","","","ar"
"Crotone","KR","IT","en"
"Crotone","","","ar"
"Cuneo","CN","IT","en"
"Cuneo","","","ar"
"Enna","EN","IT","en"
"Enna","","","ar"
"Ferrara","FE","IT","en"
"Ferrara","","","ar"
"Firenze","FI","IT","en"
"Firenze","","","ar"
"Foggia","FG","IT","en"
"Foggia","","","ar"
"Forli-Cesena","FC","IT","en"
"Forli-Cesena","","","ar"
"Frosinone","FR","IT","en"
"Frosinone","","","ar"
"Genova","GE","IT","en"
"Genova","","","ar"
"Gorizia","GO","IT","en"
"Gorizia","","","ar"
"Grosseto","GR","IT","en"
"Grosseto","","","ar"
"Imperia","IM","IT","en"
"Imperia","","","ar"
"Isernia","IS","IT","en"
"Isernia","","","ar"
"La Spezia","SP","IT","en"
"La Spezia","","","ar"
"L'Aquila","AQ","IT","en"
"L'Aquila","","","ar"
"Latina","LT","IT","en"
"Latina","","","ar"
"Lecce","LE","IT","en"
"Lecce","","","ar"
"Lecco","LC","IT","en"
"Lecco","","","ar"
"Livorno","LI","IT","en"
"Livorno","","","ar"
"Lodi","LO","IT","en"
"Lodi","","","ar"
"Lucca","LU","IT","en"
"Lucca","","","ar"
"Macerata","MC","IT","en"
"Macerata","","","ar"
"Mantova","MN","IT","en"
"Mantova","","","ar"
"Massa-Carrara","MS","IT","en"
"Massa-Carrara","","","ar"
"Matera","MT","IT","en"
"Matera","","","ar"
"Messina","ME","IT","en"
"Messina","","","ar"
"Milano","MI","IT","en"
"Milano","","","ar"
"Modena","MO","IT","en"
"Modena","","","ar"
"Napoli","NA","IT","en"
"Napoli","","","ar"
"Novara","NO","IT","en"
"Novara","","","ar"
"Nuoro","NU","IT","en"
"Nuoro","","","ar"
"Olbia-Tempio","OT","IT","en"
"Olbia-Tempio","","","ar"
"Oristano","OR","IT","en"
"Oristano","","","ar"
"Padova","PD","IT","en"
"Padova","","","ar"
"Palermo","PA","IT","en"
"Palermo","","","ar"
"Parma","PR","IT","en"
"Parma","","","ar"
"Pavia","PV","IT","en"
"Pavia","","","ar"
"Perugia","PG","IT","en"
"Perugia","","","ar"
"Pesaro e Urbino","PU","IT","en"
"Pesaro e Urbino","","","ar"
"Pescara","PE","IT","en"
"Pescara","","","ar"
"Piacenza","PC","IT","en"
"Piacenza","","","ar"
"Pisa","PI","IT","en"
"Pisa","","","ar"
"Pistoia","PT","IT","en"
"Pistoia","","","ar"
"Pordenone","PN","IT","en"
"Pordenone","","","ar"
"Potenza","PZ","IT","en"
"Potenza","","","ar"
"Prato","PO","IT","en"
"Prato","","","ar"
"Ragusa","RG","IT","en"
"Ragusa","","","ar"
"Ravenna","RA","IT","en"
"Ravenna","","","ar"
"Reggio Calabria","RC","IT","en"
"Reggio Calabria","","","ar"
"Reggio Emilia","RE","IT","en"
"Reggio Emilia","","","ar"
"Rieti","RI","IT","en"
"Rieti","","","ar"
"Rimini","RN","IT","en"
"Rimini","","","ar"
"Roma","RM","IT","en"
"Roma","","","ar"
"Rovigo","RO","IT","en"
"Rovigo","","","ar"
"Salerno","SA","IT","en"
"Salerno","","","ar"
"Medio Campidano","VS","IT","en"
"Medio Campidano","","","ar"
"Sassari","SS","IT","en"
"Sassari","","","ar"
"Savona","SV","IT","en"
"Savona","","","ar"
"Siena","SI","IT","en"
"Siena","","","ar"
"Siracusa","SR","IT","en"
"Siracusa","","","ar"
"Sondrio","SO","IT","en"
"Sondrio","","","ar"
"Taranto","TA","IT","en"
"Taranto","","","ar"
"Teramo","TE","IT","en"
"Teramo","","","ar"
"Terni","TR","IT","en"
"Terni","","","ar"
"Torino","TO","IT","en"
"Torino","","","ar"
"Ogliastra","OG","IT","en"
"Ogliastra","","","ar"
"Trapani","TP","IT","en"
"Trapani","","","ar"
"Trento","TN","IT","en"
"Trento","","","ar"
"Treviso","TV","IT","en"
"Treviso","","","ar"
"Trieste","TS","IT","en"
"Trieste","","","ar"
"Udine","UD","IT","en"
"Udine","","","ar"
"Varese","VA","IT","en"
"Varese","","","ar"
"Venezia","VE","IT","en"
"Venezia","","","ar"
"Verbano-Cusio-Ossola","VB","IT","en"
"Verbano-Cusio-Ossola","","","ar"
"Vercelli","VC","IT","en"
"Vercelli","","","ar"
"Verona","VR","IT","en"
"Verona","","","ar"
"Vibo Valentia","VV","IT","en"
"Vibo Valentia","","","ar"
"Vicenza","VI","IT","en"
"Vicenza","","","ar"
"Viterbo","VT","IT","en"
"Viterbo","","","ar"
"County Antrim","ANT","GB","en"
"County Antrim","","","ar"
"County Armagh","ARM","GB","en"
"County Armagh","","","ar"
"County Down","DOW","GB","en"
"County Down","","","ar"
"County Fermanagh","FER","GB","en"
"County Fermanagh","","","ar"
"County Londonderry","LDY","GB","en"
"County Londonderry","","","ar"
"County Tyrone","TYR","GB","en"
"County Tyrone","","","ar"
"Avon","AVN","GB","en"
"Avon","","","ar"
"Cleveland","CLV","GB","en"
"Cleveland","","","ar"
"Cumbria","CMA","GB","en"
"Cumbria","","","ar"
"Middlesex","MDX","GB","en"
"Middlesex","","","ar"
"Isles of Scilly","IOS","GB","en"
"Isles of Scilly","","","ar"
"Humberside","HUM","GB","en"
"Humberside","","","ar"
"South Yorkshire","SYK","GB","en"
"South Yorkshire","","","ar"
"Banffshire","BAN","GB","en"
"Banffshire","","","ar"
"Berwickshire","BEW","GB","en"
"Berwickshire","","","ar"
"Caithness","CAI","GB","en"
"Caithness","","","ar"
"Dumfries-shire","DFS","GB","en"
"Dumfries-shire","","","ar"
"Inverness-shire","INV","GB","en"
"Inverness-shire","","","ar"
"Kincardineshire","KCD","GB","en"
"Kincardineshire","","","ar"
"Nairnshire","NAI","GB","en"
"Nairnshire","","","ar"
"Peebles-shire","PEE","GB","en"
"Peebles-shire","","","ar"
"Roxburghshire","ROX","GB","en"
"Roxburghshire","","","ar"
"Selkirkshire","SEL","GB","en"
"Selkirkshire","","","ar"
"Stirlingshire","STI","GB","en"
"Stirlingshire","","","ar"
"Sutherland","SUT","GB","en"
"Sutherland","","","ar"
"Wigtownshire","WIG","GB","en"
"Wigtownshire","","","ar"
"Clwyd","CWD","GB","en"
"Clwyd","","","ar"
"Dyfed","DFD","GB","en"
"Dyfed","","","ar"
"Merionethshire","MER","GB","en"
"Merionethshire","","","ar"
"Respublika Adygeja","AD","RU","en"
"Respublika Adygeja","","","ar"
"Respublika Altaj","AL","RU","en"
"Respublika Altaj","","","ar"
"Respublika Bashkortostan","BA","RU","en"
"Respublika Bashkortostan","","","ar"
"Respublika Burjatija","BU","RU","en"
"Respublika Burjatija","","","ar"
"Respublika Dagestan","DA","RU","en"
"Respublika Dagestan","","","ar"
"Respublika Ingushetija","IN","RU","en"
"Respublika Ingushetija","","","ar"
"Kabardino-Balkarskaja Respublika","KB","RU","en"
"Kabardino-Balkarskaja Respublika","","","ar"
"Respublika Kalmykija","KL","RU","en"
"Respublika Kalmykija","","","ar"
"Karachaevo-Cherkesskaja respublika","KC","RU","en"
"Karachaevo-Cherkesskaja respublika","","","ar"
"Respublika Karelija","KR","RU","en"
"Respublika Karelija","","","ar"
"Respublika Komi","KO","RU","en"
"Respublika Komi","","","ar"
"Respublika Marij Jel","ME","RU","en"
"Respublika Marij Jel","","","ar"
"Respublika Mordovija","MO","RU","en"
"Respublika Mordovija","","","ar"
"Respublika Saha (Jakutija)","SA","RU","en"
"Respublika Saha (Jakutija)","","","ar"
"Respublika Severnaja Osetija-Alanija","SE","RU","en"
"Respublika Severnaja Osetija-Alanija","","","ar"
"Respublika Tatarstan","TA","RU","en"
"Respublika Tatarstan","","","ar"
"Respublika Tyva","TY","RU","en"
"Respublika Tyva","","","ar"
"Udmurtskaja Respublika","UD","RU","en"
"Udmurtskaja Respublika","","","ar"
"Respublika Hakasija","KK","RU","en"
"Respublika Hakasija","","","ar"
"Chechenskaja respublika","CE","RU","en"
"Chechenskaja respublika","","","ar"
"Chuvashskaja Respublika","CU","RU","en"
"Chuvashskaja Respublika","","","ar"
"Altajskij kraj","ALT","RU","en"
"Altajskij kraj","","","ar"
"Krasnodarskij kraj","KDA","RU","en"
"Krasnodarskij kraj","","","ar"
"Krasnojarskij kraj","KYA","RU","en"
"Krasnojarskij kraj","","","ar"
"Permskij kraj","PER","RU","en"
"Permskij kraj","","","ar"
"Primorskij kraj","PRI","RU","en"
"Primorskij kraj","","","ar"
"Stavropol'skij kraj","STA","RU","en"
"Stavropol'skij kraj","","","ar"
"Habarovskij kraj","KHA","RU","en"
"Habarovskij kraj","","","ar"
"Amurskaja oblast'","AMU","RU","en"
"Amurskaja oblast'","","","ar"
"Arhangel'skaja oblast'","ARK","RU","en"
"Arhangel'skaja oblast'","","","ar"
"Astrahanskaja oblast'","AST","RU","en"
"Astrahanskaja oblast'","","","ar"
"Belgorodskaja oblast'","BEL","RU","en"
"Belgorodskaja oblast'","","","ar"
"Brjanskaja oblast'","BRY","RU","en"
"Brjanskaja oblast'","","","ar"
"Vladimirskaja oblast'","VLA","RU","en"
"Vladimirskaja oblast'","","","ar"
"Volgogradskaja oblast'","VGG","RU","en"
"Volgogradskaja oblast'","","","ar"
"Vologodskaja oblast'","VLG","RU","en"
"Vologodskaja oblast'","","","ar"
"Voronezhskaja oblast'","VOR","RU","en"
"Voronezhskaja oblast'","","","ar"
"Ivanovskaja oblast'","IVA","RU","en"
"Ivanovskaja oblast'","","","ar"
"Irkutskaja oblast'","IRK","RU","en"
"Irkutskaja oblast'","","","ar"
"Kaliningradskaja oblast'","KGD","RU","en"
"Kaliningradskaja oblast'","","","ar"
"Kaluzhskaja oblast'","KLU","RU","en"
"Kaluzhskaja oblast'","","","ar"
"Kemerovskaja oblast'","KEM","RU","en"
"Kemerovskaja oblast'","","","ar"
"Kirovskaja oblast'","KIR","RU","en"
"Kirovskaja oblast'","","","ar"
"Kostromskaja oblast'","KOS","RU","en"
"Kostromskaja oblast'","","","ar"
"Kurganskaja oblast'","KGN","RU","en"
"Kurganskaja oblast'","","","ar"
"Kurskaja oblast'","KRS","RU","en"
"Kurskaja oblast'","","","ar"
"Leningradskaja oblast'","LEN","RU","en"
"Leningradskaja oblast'","","","ar"
"Lipeckaja oblast'","LIP","RU","en"
"Lipeckaja oblast'","","","ar"
"Magadanskaja oblast'","MAG","RU","en"
"Magadanskaja oblast'","","","ar"
"Moskovskaja oblast'","MOS","RU","en"
"Moskovskaja oblast'","","","ar"
"Murmanskaja oblast'","MUR","RU","en"
"Murmanskaja oblast'","","","ar"
"Nizhegorodskaja oblast'","NIZ","RU","en"
"Nizhegorodskaja oblast'","","","ar"
"Novgorodskaja oblast'","NGR","RU","en"
"Novgorodskaja oblast'","","","ar"
"Novosibirskaja oblast'","NVS","RU","en"
"Novosibirskaja oblast'","","","ar"
"Omskaja oblast'","OMS","RU","en"
"Omskaja oblast'","","","ar"
"Orenburgskaja oblast'","ORE","RU","en"
"Orenburgskaja oblast'","","","ar"
"Orlovskaja oblast'","ORL","RU","en"
"Orlovskaja oblast'","","","ar"
"Penzenskaja oblast'","PNZ","RU","en"
"Penzenskaja oblast'","","","ar"
"Pskovskaja oblast'","PSK","RU","en"
"Pskovskaja oblast'","","","ar"
"Rostovskaja oblast'","ROS","RU","en"
"Rostovskaja oblast'","","","ar"
"Rjazanskaja oblast'","RYA","RU","en"
"Rjazanskaja oblast'","","","ar"
"Samarskaja oblast'","SAM","RU","en"
"Samarskaja oblast'","","","ar"
"Saratovskaja oblast'","SAR","RU","en"
"Saratovskaja oblast'","","","ar"
"Sahalinskaja oblast'","SAK","RU","en"
"Sahalinskaja oblast'","","","ar"
"Sverdlovskaja oblast'","SVE","RU","en"
"Sverdlovskaja oblast'","","","ar"
"Smolenskaja oblast'","SMO","RU","en"
"Smolenskaja oblast'","","","ar"
"Tambovskaja oblast'","TAM","RU","en"
"Tambovskaja oblast'","","","ar"
"Tverskaja oblast'","TVE","RU","en"
"Tverskaja oblast'","","","ar"
"Tomskaja oblast'","TOM","RU","en"
"Tomskaja oblast'","","","ar"
"Tul'skaja oblast'","TUL","RU","en"
"Tul'skaja oblast'","","","ar"
"Tjumenskaja oblast'","TYU","RU","en"
"Tjumenskaja oblast'","","","ar"
"Ul'janovskaja oblast'","ULY","RU","en"
"Ul'janovskaja oblast'","","","ar"
"Cheljabinskaja oblast'","CHE","RU","en"
"Cheljabinskaja oblast'","","","ar"
"Jaroslavskaja oblast'","YAR","RU","en"
"Jaroslavskaja oblast'","","","ar"
"Moskva","MOW","RU","en"
"Moskva","","","ar"
"Sankt-Peterburg","SPE","RU","en"
"Sankt-Peterburg","","","ar"
"Evrejskaja avtonomnaja oblast'","YEV","RU","en"
"Evrejskaja avtonomnaja oblast'","","","ar"
"Neneckij avtonomnyj okrug","NEN","RU","en"
"Neneckij avtonomnyj okrug","","","ar"
"Hanty-Mansijskij avtonomnyj okrug - Jugra","KHM","RU","en"
"Hanty-Mansijskij avtonomnyj okrug - Jugra","","","ar"
"Chukotskij avtonomnyj okrug","CHU","RU","en"
"Chukotskij avtonomnyj okrug","","","ar"
"Jamalo-Neneckij avtonomnyj okrug","YAN","RU","en"
"Jamalo-Neneckij avtonomnyj okrug","","","ar"
"Zabaykal'skiy kraj","ZAB","RU","en"
"Zabaykal'skiy kraj","","","ar"
"Kamchatskiy kraj","KAM","RU","en"
"Kamchatskiy kraj","","","ar"
"Mayenne","53","FR","en"
"Mayenne","","","ar"
"Meurthe-et-Moselle","54","FR","en"
"Meurthe-et-Moselle","","","ar"
"Meuse","55","FR","en"
"Meuse","","","ar"
"Morbihan","56","FR","en"
"Morbihan","","","ar"
"Moselle","57","FR","en"
"Moselle","","","ar"
"Nièvre","58","FR","en"
"Nièvre","","","ar"
"Nord","59","FR","en"
"Nord","","","ar"
"Oise","60","FR","en"
"Oise","","","ar"
"Orne","61","FR","en"
"Orne","","","ar"
"Pas-de-Calais","62","FR","en"
"Pas-de-Calais","","","ar"
"Puy-de-Dôme","63","FR","en"
"Puy-de-Dôme","","","ar"
"Pyrénées-Atlantiques","64","FR","en"
"Pyrénées-Atlantiques","","","ar"
"Hautes-Pyrénées","65","FR","en"
"Hautes-Pyrénées","","","ar"
"Pyrénées-Orientales","66","FR","en"
"Pyrénées-Orientales","","","ar"
"Bas-Rhin","67","FR","en"
"Bas-Rhin","","","ar"
"Haut-Rhin","68","FR","en"
"Haut-Rhin","","","ar"
"Rhône","69","FR","en"
"Rhône","","","ar"
"Haute-Saône","70","FR","en"
"Haute-Saône","","","ar"
"Saône-et-Loire","71","FR","en"
"Saône-et-Loire","","","ar"
"Sarthe","72","FR","en"
"Sarthe","","","ar"
"Savoie","73","FR","en"
"Savoie","","","ar"
"Haute-Savoie","74","FR","en"
"Haute-Savoie","","","ar"
"Seine-Maritime","76","FR","en"
"Seine-Maritime","","","ar"
"Seine-et-Marne","77","FR","en"
"Seine-et-Marne","","","ar"
"Yvelines","78","FR","en"
"Yvelines","","","ar"
"Deux-Sèvres","79","FR","en"
"Deux-Sèvres","","","ar"
"A Coruña","C","ES","en"
"A Coruña","","","ar"
"Álava","VI","ES","en"
"Álava","","","ar"
"Albacete","AB","ES","en"
"Albacete","","","ar"
"Alicante","A","ES","en"
"Alicante","","","ar"
"Almería","AL","ES","en"
"Almería","","","ar"
"Asturias","O","ES","en"
"Asturias","","","ar"
"Ávila","AV","ES","en"
"Ávila","","","ar"
"Badajoz","BA","ES","en"
"Badajoz","","","ar"
"Baleares","PM","ES","en"
"Baleares","","","ar"
"Barcelona","B","ES","en"
"Barcelona","","","ar"
"Burgos","BU","ES","en"
"Burgos","","","ar"
"Cáceres","CC","ES","en"
"Cáceres","","","ar"
"Cádiz","CA","ES","en"
"Cádiz","","","ar"
"Cantabria","S","ES","en"
"Cantabria","","","ar"
"Castellón","CS","ES","en"
"Castellón","","","ar"
"Ceuta","CE","ES","en"
"Ceuta","","","ar"
"Ciudad Real","CR","ES","en"
"Ciudad Real","","","ar"
"Córdoba","CO","ES","en"
"Córdoba","","","ar"
"Cuenca","CU","ES","en"
"Cuenca","","","ar"
"Girona","GI","ES","en"
"Girona","","","ar"
"Granada","GR","ES","en"
"Granada","","","ar"
"Guadalajara","GU","ES","en"
"Guadalajara","","","ar"
"Guipúzcoa","SS","ES","en"
"Guipúzcoa","","","ar"
"Huelva","H","ES","en"
"Huelva","","","ar"
"Huesca","HU","ES","en"
"Huesca","","","ar"
"Jaén","J","ES","en"
"Jaén","","","ar"
"La Rioja","LO","ES","en"
"La Rioja","","","ar"
"Las Palmas","GC","ES","en"
"Las Palmas","","","ar"
"León","LE","ES","en"
"León","","","ar"
"Lleida","L","ES","en"
"Lleida","","","ar"
"Lugo","LU","ES","en"
"Lugo","","","ar"
"Madrid","M","ES","en"
"Madrid","","","ar"
"Málaga","MA","ES","en"
"Málaga","","","ar"
"Melilla","ML","ES","en"
"Melilla","","","ar"
"Murcia","MU","ES","en"
"Murcia","","","ar"
"Navarra","NA","ES","en"
"Navarra","","","ar"
"Ourense","OR","ES","en"
"Ourense","","","ar"
"Palencia","P","ES","en"
"Palencia","","","ar"
"Pontevedra","PO","ES","en"
"Pontevedra","","","ar"
"Salamanca","SA","ES","en"
"Salamanca","","","ar"
"Santa Cruz de Tenerife","TF","ES","en"
"Santa Cruz de Tenerife","","","ar"
"Segovia","SG","ES","en"
"Segovia","","","ar"
"Sevilla","SE","ES","en"
"Sevilla","","","ar"
"Soria","SO","ES","en"
"Soria","","","ar"
"Tarragona","T","ES","en"
"Tarragona","","","ar"
"Teruel","TE","ES","en"
"Teruel","","","ar"
"Toledo","TO","ES","en"
"Toledo","","","ar"
"Valencia","V","ES","en"
"Valencia","","","ar"
"Valladolid","VA","ES","en"
"Valladolid","","","ar"
"Vizcaya","BI","ES","en"
"Vizcaya","","","ar"
"Zamora","ZA","ES","en"
"Zamora","","","ar"
"Zaragoza","Z","ES","en"
"Zaragoza","","","ar"
"Sofia","SF","BG","en"
"Sofia","","","ar"
"Aetolia-Acarnania","ΑΙΤ","GR","en"
"Aetolia-Acarnania","","","ar"
"Argolis","ΑΡΓ","GR","en"
"Argolis","","","ar"
"Arcadia","ΑΡΚ","GR","en"
"Arcadia","","","ar"
"Arta","ΑΡΤ","GR","en"
"Arta","","","ar"
"Achaea","ΑΧΑ","GR","en"
"Achaea","","","ar"
"Attica","ΑΤΤ","GR","en"
"Attica","","","ar"
"Boeotia","ΒΟΙ","GR","en"
"Boeotia","","","ar"
"Grevena","ΓΡΕ","GR","en"
"Grevena","","","ar"
"Drama","ΔΡΑ","GR","en"
"Drama","","","ar"
"Dodecanese","ΔΩΔ","GR","en"
"Dodecanese","","","ar"
"Evros","ΕΒΡ","GR","en"
"Evros","","","ar"
"Euboea","ΕΥΒ","GR","en"
"Euboea","","","ar"
"Evrytania","ΕΥΡ","GR","en"
"Evrytania","","","ar"
"Zakynthos","ΖΑΚ","GR","en"
"Zakynthos","","","ar"
"Elis","ΗΛΕ","GR","en"
"Elis","","","ar"
"Imathia","ΗΜΑ","GR","en"
"Imathia","","","ar"
"Heraklion","ΗΡΑ","GR","en"
"Heraklion","","","ar"
"Thesprotia","ΘΣΠ","GR","en"
"Thesprotia","","","ar"
"Thessaloniki","ΘΕΣ","GR","en"
"Thessaloniki","","","ar"
"Ioannina","ΙΩΑ","GR","en"
"Ioannina","","","ar"
"Kavala","ΚΑΒ","GR","en"
"Kavala","","","ar"
"Karditsa","ΚΑΡ","GR","en"
"Karditsa","","","ar"
"Kastoria","ΚΑΣ","GR","en"
"Kastoria","","","ar"
"Corfu","ΚΕΡ","GR","en"
"Corfu","","","ar"
"Cephalonia","ΚΕΦ","GR","en"
"Cephalonia","","","ar"
"Kilkis","ΚΙΛ","GR","en"
"Kilkis","","","ar"
"Kozani","ΚΟΖ","GR","en"
"Kozani","","","ar"
"Corinthia","ΚΟΡ","GR","en"
"Corinthia","","","ar"
"Cyclades","ΚΥΚ","GR","en"
"Cyclades","","","ar"
"Laconia","ΛΑΚ","GR","en"
"Laconia","","","ar"
"Larissa","ΛΑΡ","GR","en"
"Larissa","","","ar"
"Lasithi","ΛΑΣ","GR","en"
"Lasithi","","","ar"
"Lesbos","ΛΕΣ","GR","en"
"Lesbos","","","ar"
"Lefkada","ΛΕΥ","GR","en"
"Lefkada","","","ar"
"Magnesia","ΜΑΓ","GR","en"
"Magnesia","","","ar"
"Messinia","ΜΕΣ","GR","en"
"Messinia","","","ar"
"Xanthi","ΞΑΝ","GR","en"
"Xanthi","","","ar"
"Pella","ΠΕΛ","GR","en"
"Pella","","","ar"
"Pieria","ΠΙΕ","GR","en"
"Pieria","","","ar"
"Preveza","ΠΡΕ","GR","en"
"Preveza","","","ar"
"Rethymno","ΡΕΘ","GR","en"
"Rethymno","","","ar"
"Rhodope","ΡΟΔ","GR","en"
"Rhodope","","","ar"
"Samos","ΣΑΜ","GR","en"
"Samos","","","ar"
"Serres","ΣΕΡ","GR","en"
"Serres","","","ar"
"Trikala","ΤΡΙ","GR","en"
"Trikala","","","ar"
"Phthiotis","ΦΘΙ","GR","en"
"Phthiotis","","","ar"
"Florina","ΦΛΩ","GR","en"
"Florina","","","ar"
"Phocis","ΦΩΚ","GR","en"
"Phocis","","","ar"
"Chalkidiki","ΧΑΛ","GR","en"
"Chalkidiki","","","ar"
"Chania","ΧΑΝ","GR","en"
"Chania","","","ar"
"Chios","ΧΙΟ","GR","en"
"Chios","","","ar"
"Aragatsotn oblast","AG","AM","en"
"Aragatsotn oblast","","","ar"
"Ararat oblast","AR","AM","en"
"Ararat oblast","","","ar"
"Armavir oblast","AV","AM","en"
"Armavir oblast","","","ar"
"Vayots Dzor oblast","VD","AM","en"
"Vayots Dzor oblast","","","ar"
"Gegharkunik oblast","GR","AM","en"
"Gegharkunik oblast","","","ar"
"Kotayk oblast","KT","AM","en"
"Kotayk oblast","","","ar"
"Lori oblast","LO","AM","en"
"Lori oblast","","","ar"
"Syunik oblast","SU","AM","en"
"Syunik oblast","","","ar"
"Tavush oblast","TV","AM","en"
"Tavush oblast","","","ar"
"Shirak oblast","SH","AM","en"
"Shirak oblast","","","ar"
"Yerevan","ER","AM","en"
"Yerevan","","","ar"
"Brest Region","BR","BY","en"
"Brest Region","","","ar"
"Gomel Region","HO","BY","en"
"Gomel Region","","","ar"
"Grodno Region","HR","BY","en"
"Grodno Region","","","ar"
"Mogilev Region","MA","BY","en"
"Mogilev Region","","","ar"
"Minsk Region","MI","BY","en"
"Minsk Region","","","ar"
"City of Minsk","HM","BY","en"
"City of Minsk","","","ar"
"Vitebsk Region","VI","BY","en"
"Vitebsk Region","","","ar"
"Batkenskaya oblast","B","KG","en"
"Batkenskaya oblast","","","ar"
"Narynskaya oblast","N","KG","en"
"Narynskaya oblast","","","ar"
"Chuyskaya oblast","C","KG","en"
"Chuyskaya oblast","","","ar"
"Oshskaya oblast","O","KG","en"
"Oshskaya oblast","","","ar"
"Bishkek","GB","KG","en"
"Bishkek","","","ar"
"Talasskaya oblast","T","KG","en"
"Talasskaya oblast","","","ar"
"Dzhalal-Abadskaya oblast","J","KG","en"
"Dzhalal-Abadskaya oblast","","","ar"
"Issyk-Kulskaya oblast","Y","KG","en"
"Issyk-Kulskaya oblast","","","ar"
"Almaty","ALA","KZ","en"
"Almaty","","","ar"
"Astana","AST","KZ","en"
"Astana","","","ar"
"Almatinskaya oblast","ALM","KZ","en"
"Almatinskaya oblast","","","ar"
"Akmolinskaya oblast","AKM","KZ","en"
"Akmolinskaya oblast","","","ar"
"Aktyubinskaya oblast","AKT","KZ","en"
"Aktyubinskaya oblast","","","ar"
"Atyrauskaya oblast","ATY","KZ","en"
"Atyrauskaya oblast","","","ar"
"Vostochno-Kazakhstanskaya oblast","VOS","KZ","en"
"Vostochno-Kazakhstanskaya oblast","","","ar"
"Zhambylskaya oblast","ZHA","KZ","en"
"Zhambylskaya oblast","","","ar"
"Zapadno-Kazakhstanskaya oblast","ZAP","KZ","en"
"Zapadno-Kazakhstanskaya oblast","","","ar"
"Karagandinskaya oblast","KAR","KZ","en"
"Karagandinskaya oblast","","","ar"
"Kostanayskaya oblast","KUS","KZ","en"
"Kostanayskaya oblast","","","ar"
"Kyzylordinskaya oblast","KZY","KZ","en"
"Kyzylordinskaya oblast","","","ar"
"Mangistauskaya oblast","MAN","KZ","en"
"Mangistauskaya oblast","","","ar"
"Pavlodarskaya oblast","PAV","KZ","en"
"Pavlodarskaya oblast","","","ar"
"Severo-Kazakhstanskaya oblast","SEV","KZ","en"
"Severo-Kazakhstanskaya oblast","","","ar"
"Yuzhno-Kazakhstankaya oblast","YUZ","KZ","en"
"Yuzhno-Kazakhstankaya oblast","","","ar"
"Vinnytska oblast","05","UA","en"
"Vinnytska oblast","","","ar"
"Volynska oblast","07","UA","en"
"Volynska oblast","","","ar"
"Luhanska oblast","09","UA","en"
"Luhanska oblast","","","ar"
"Dnipropetrovska oblast","12","UA","en"
"Dnipropetrovska oblast","","","ar"
"Donetska oblast","14","UA","en"
"Donetska oblast","","","ar"
"Zhytomyrska oblast","18","UA","en"
"Zhytomyrska oblast","","","ar"
"Rovnenska oblast","56","UA","en"
"Rovnenska oblast","","","ar"
"Zakarpatska oblast","21","UA","en"
"Zakarpatska oblast","","","ar"
"Zaporizka oblast","23","UA","en"
"Zaporizka oblast","","","ar"
"Ivano-Frankivska oblast","26","UA","en"
"Ivano-Frankivska oblast","","","ar"
"Kyiv","30","UA","en"
"Kyiv","","","ar"
"Kyivska oblast","32","UA","en"
"Kyivska oblast","","","ar"
"Kirovohradska oblast","35","UA","en"
"Kirovohradska oblast","","","ar"
"Lvivska oblast","46","UA","en"
"Lvivska oblast","","","ar"
"Nykolaivska oblast","48","UA","en"
"Nykolaivska oblast","","","ar"
"Odeska oblast","51","UA","en"
"Odeska oblast","","","ar"
"Poltavska oblast","53","UA","en"
"Poltavska oblast","","","ar"
"Sumska oblast","59","UA","en"
"Sumska oblast","","","ar"
"Ternopilska oblast","61","UA","en"
"Ternopilska oblast","","","ar"
"Kharkivska oblast","63","UA","en"
"Kharkivska oblast","","","ar"
"Khersonska oblast","65","UA","en"
"Khersonska oblast","","","ar"
"Khmelnytska oblast","68","UA","en"
"Khmelnytska oblast","","","ar"
"Cherkaska oblast","71","UA","en"
"Cherkaska oblast","","","ar"
"Chernihivska oblast","74","UA","en"
"Chernihivska oblast","","","ar"
"Chernivetska oblast","77","UA","en"
"Chernivetska oblast","","","ar"
